xof 0302txt 0064
template Header {
 <3D82AB43-62DA-11cf-AB39-0020AF71E433>
 WORD major;
 WORD minor;
 DWORD flags;
}

template Vector {
 <3D82AB5E-62DA-11cf-AB39-0020AF71E433>
 FLOAT x;
 FLOAT y;
 FLOAT z;
}

template Coords2d {
 <F6F23F44-7686-11cf-8F52-0040333594A3>
 FLOAT u;
 FLOAT v;
}

template Matrix4x4 {
 <F6F23F45-7686-11cf-8F52-0040333594A3>
 array FLOAT matrix[16];
}

template ColorRGBA {
 <35FF44E0-6C7C-11cf-8F52-0040333594A3>
 FLOAT red;
 FLOAT green;
 FLOAT blue;
 FLOAT alpha;
}

template ColorRGB {
 <D3E16E81-7835-11cf-8F52-0040333594A3>
 FLOAT red;
 FLOAT green;
 FLOAT blue;
}

template IndexedColor {
 <1630B820-7842-11cf-8F52-0040333594A3>
 DWORD index;
 ColorRGBA indexColor;
}

template Boolean {
 <4885AE61-78E8-11cf-8F52-0040333594A3>
 WORD truefalse;
}

template Boolean2d {
 <4885AE63-78E8-11cf-8F52-0040333594A3>
 Boolean u;
 Boolean v;
}

template MaterialWrap {
 <4885AE60-78E8-11cf-8F52-0040333594A3>
 Boolean u;
 Boolean v;
}

template TextureFilename {
 <A42790E1-7810-11cf-8F52-0040333594A3>
 STRING filename;
}

template Material {
 <3D82AB4D-62DA-11cf-AB39-0020AF71E433>
 ColorRGBA faceColor;
 FLOAT power;
 ColorRGB specularColor;
 ColorRGB emissiveColor;
 [...]
}

template MeshFace {
 <3D82AB5F-62DA-11cf-AB39-0020AF71E433>
 DWORD nFaceVertexIndices;
 array DWORD faceVertexIndices[nFaceVertexIndices];
}

template MeshFaceWraps {
 <4885AE62-78E8-11cf-8F52-0040333594A3>
 DWORD nFaceWrapValues;
 Boolean2d faceWrapValues;
}

template MeshTextureCoords {
 <F6F23F40-7686-11cf-8F52-0040333594A3>
 DWORD nTextureCoords;
 array Coords2d textureCoords[nTextureCoords];
}

template MeshMaterialList {
 <F6F23F42-7686-11cf-8F52-0040333594A3>
 DWORD nMaterials;
 DWORD nFaceIndexes;
 array DWORD faceIndexes[nFaceIndexes];
 [Material]
}

template MeshNormals {
 <F6F23F43-7686-11cf-8F52-0040333594A3>
 DWORD nNormals;
 array Vector normals[nNormals];
 DWORD nFaceNormals;
 array MeshFace faceNormals[nFaceNormals];
}

template MeshVertexColors {
 <1630B821-7842-11cf-8F52-0040333594A3>
 DWORD nVertexColors;
 array IndexedColor vertexColors[nVertexColors];
}

template Mesh {
 <3D82AB44-62DA-11cf-AB39-0020AF71E433>
 DWORD nVertices;
 array Vector vertices[nVertices];
 DWORD nFaces;
 array MeshFace faces[nFaces];
 [...]
}

Header{
1;
0;
1;
}

Mesh {
 164;
 0.00000;317.56416;-39.21944;,
 27.73225;317.56416;-27.73225;,
 27.73225;0.58706;-27.73225;,
 0.00000;0.58706;-39.21944;,
 39.21944;317.56416;0.00000;,
 39.21944;0.58706;0.00000;,
 29.88661;318.45972;29.88661;,
 27.73225;0.58706;27.73225;,
 0.00000;318.45972;42.26603;,
 0.00000;0.58706;39.21944;,
 -29.88661;318.45972;29.88661;,
 -27.73225;0.58706;27.73225;,
 -42.26603;318.45972;0.00000;,
 -39.21944;0.58706;0.00000;,
 -29.88661;318.45972;-29.88661;,
 -27.73225;0.58706;-27.73225;,
 0.00000;317.56416;-39.21944;,
 0.00000;0.58706;-39.21944;,
 0.00000;318.45972;0.00000;,
 0.00000;318.45972;0.00000;,
 0.00000;318.45972;0.00000;,
 0.00000;318.45972;0.00000;,
 0.00000;318.45972;0.00000;,
 0.00000;318.45972;0.00000;,
 0.00000;318.45972;0.00000;,
 0.00000;318.45972;0.00000;,
 0.00000;0.58706;0.00000;,
 0.00000;0.58706;0.00000;,
 0.00000;0.58706;0.00000;,
 0.00000;0.58706;0.00000;,
 0.00000;0.58706;0.00000;,
 0.00000;0.58706;0.00000;,
 0.00000;0.58706;0.00000;,
 0.00000;0.58706;0.00000;,
 0.00000;338.22115;-42.05571;,
 0.00000;422.79249;0.00000;,
 29.73798;342.26614;-29.73798;,
 0.00000;422.79249;0.00000;,
 42.05571;335.04161;0.00000;,
 0.00000;422.79249;0.00000;,
 29.73798;342.26614;29.73798;,
 0.00000;422.79249;0.00000;,
 0.00000;337.38929;42.05571;,
 0.00000;422.79249;0.00000;,
 -29.73798;342.26614;29.73798;,
 0.00000;422.79249;0.00000;,
 -42.05571;342.26614;0.00000;,
 0.00000;422.79249;0.00000;,
 -29.73798;346.66045;-29.73798;,
 0.00000;422.79249;0.00000;,
 0.00000;338.22115;-42.05571;,
 0.00000;342.26614;0.00000;,
 0.00000;338.22115;-42.05571;,
 29.73798;342.26614;-29.73798;,
 42.05571;335.04161;0.00000;,
 29.73798;342.26614;29.73798;,
 0.00000;337.38929;42.05571;,
 -29.73798;342.26614;29.73798;,
 -42.05571;342.26614;0.00000;,
 -29.73798;346.66045;-29.73798;,
 0.00000;293.61741;-62.36542;,
 0.00000;410.25245;0.00000;,
 44.09910;293.61741;-44.09910;,
 0.00000;410.25245;0.00000;,
 62.36542;293.61741;0.00000;,
 0.00000;410.25245;0.00000;,
 44.09910;293.61741;44.09910;,
 0.00000;410.25245;0.00000;,
 0.00000;293.61741;62.36542;,
 0.00000;410.25245;0.00000;,
 -44.09910;293.61741;44.09883;,
 0.00000;410.25245;0.00000;,
 -62.36542;293.61741;0.00000;,
 0.00000;410.25245;0.00000;,
 -44.09910;293.61741;-44.09910;,
 0.00000;410.25245;0.00000;,
 0.00000;293.61741;-62.36542;,
 0.00000;293.61741;0.00000;,
 0.00000;293.61741;-62.36542;,
 44.09910;293.61741;-44.09910;,
 62.36542;293.61741;0.00000;,
 44.09910;293.61741;44.09910;,
 0.00000;293.61741;62.36542;,
 -44.09910;293.61741;44.09883;,
 -62.36542;293.61741;0.00000;,
 -44.09910;293.61741;-44.09910;,
 0.00000;244.47823;-79.63059;,
 0.00000;394.17386;0.00000;,
 56.30748;244.47823;-56.30748;,
 0.00000;394.17386;0.00000;,
 79.63059;244.47823;0.00000;,
 0.00000;394.17386;0.00000;,
 67.63521;233.69947;61.81740;,
 0.00000;394.17386;0.00000;,
 0.00000;244.47823;79.63059;,
 0.00000;394.17386;0.00000;,
 -61.26834;238.33853;60.50103;,
 0.00000;394.17386;0.00000;,
 -79.63059;244.47823;0.00000;,
 0.00000;394.17386;0.00000;,
 -56.30748;244.47823;-56.30748;,
 0.00000;394.17386;0.00000;,
 0.00000;244.47823;-79.63059;,
 0.00000;244.47823;0.00000;,
 0.00000;244.47823;-79.63059;,
 56.30748;244.47823;-56.30748;,
 79.63059;244.47823;0.00000;,
 67.63521;233.69947;61.81740;,
 0.00000;244.47823;79.63059;,
 -61.26834;238.33853;60.50103;,
 -79.63059;244.47823;0.00000;,
 -56.30748;244.47823;-56.30748;,
 0.00000;167.60766;-109.57413;,
 0.00000;374.61414;0.00000;,
 77.48073;184.25240;-77.48073;,
 0.00000;374.61414;0.00000;,
 109.57413;158.03106;0.00000;,
 0.00000;374.61414;0.00000;,
 77.48073;177.63419;77.48073;,
 0.00000;374.61414;0.00000;,
 0.00000;167.60766;109.57413;,
 0.00000;374.61414;0.00000;,
 -77.48073;173.22128;77.48046;,
 0.00000;374.61414;0.00000;,
 -109.57413;167.60766;0.00000;,
 0.00000;374.61414;0.00000;,
 -77.48073;178.67678;-77.48073;,
 0.00000;374.61414;0.00000;,
 0.00000;167.60766;-109.57413;,
 0.00000;167.60766;0.00000;,
 0.00000;167.60766;-109.57413;,
 77.48073;184.25240;-77.48073;,
 109.57413;158.03106;0.00000;,
 77.48073;177.63419;77.48073;,
 0.00000;167.60766;109.57413;,
 -77.48073;173.22128;77.48046;,
 -109.57413;167.60766;0.00000;,
 -77.48073;178.67678;-77.48073;,
 0.00000;96.36571;-125.99636;,
 0.00000;363.10281;0.00000;,
 89.09277;89.96395;-89.09277;,
 0.00000;363.10281;0.00000;,
 125.99636;111.51287;0.00000;,
 0.00000;363.10281;0.00000;,
 89.09277;89.96395;89.09277;,
 0.00000;363.10281;0.00000;,
 0.00000;98.58756;125.99636;,
 0.00000;363.10281;0.00000;,
 -89.09277;77.09485;89.09277;,
 0.00000;363.10281;0.00000;,
 -125.99636;89.96395;0.00000;,
 0.00000;363.10281;0.00000;,
 -89.09277;79.37389;-89.09277;,
 0.00000;363.10281;0.00000;,
 0.00000;96.36571;-125.99636;,
 0.00000;89.96395;0.00000;,
 0.00000;96.36571;-125.99636;,
 89.09277;89.96395;-89.09277;,
 125.99636;111.51287;0.00000;,
 89.09277;89.96395;89.09277;,
 0.00000;98.58756;125.99636;,
 -89.09277;77.09485;89.09277;,
 -125.99636;89.96395;0.00000;,
 -89.09277;79.37389;-89.09277;;
 
 104;
 4;0,1,2,3;,
 4;1,4,5,2;,
 4;4,6,7,5;,
 4;6,8,9,7;,
 4;8,10,11,9;,
 4;10,12,13,11;,
 4;12,14,15,13;,
 4;14,16,17,15;,
 3;18,1,0;,
 3;19,4,1;,
 3;20,6,4;,
 3;21,8,6;,
 3;22,10,8;,
 3;23,12,10;,
 3;24,14,12;,
 3;25,16,14;,
 3;26,3,2;,
 3;27,2,5;,
 3;28,5,7;,
 3;29,7,9;,
 3;30,9,11;,
 3;31,11,13;,
 3;32,13,15;,
 3;33,15,17;,
 3;34,35,36;,
 3;36,37,38;,
 3;38,39,40;,
 3;40,41,42;,
 3;42,43,44;,
 3;44,45,46;,
 3;46,47,48;,
 3;48,49,50;,
 3;51,52,53;,
 3;51,53,54;,
 3;51,54,55;,
 3;51,55,56;,
 3;51,56,57;,
 3;51,57,58;,
 3;51,58,59;,
 3;51,59,52;,
 3;60,61,62;,
 3;62,63,64;,
 3;64,65,66;,
 3;66,67,68;,
 3;68,69,70;,
 3;70,71,72;,
 3;72,73,74;,
 3;74,75,76;,
 3;77,78,79;,
 3;77,79,80;,
 3;77,80,81;,
 3;77,81,82;,
 3;77,82,83;,
 3;77,83,84;,
 3;77,84,85;,
 3;77,85,78;,
 3;86,87,88;,
 3;88,89,90;,
 3;90,91,92;,
 3;92,93,94;,
 3;94,95,96;,
 3;96,97,98;,
 3;98,99,100;,
 3;100,101,102;,
 3;103,104,105;,
 3;103,105,106;,
 3;103,106,107;,
 3;103,107,108;,
 3;103,108,109;,
 3;103,109,110;,
 3;103,110,111;,
 3;103,111,104;,
 3;112,113,114;,
 3;114,115,116;,
 3;116,117,118;,
 3;118,119,120;,
 3;120,121,122;,
 3;122,123,124;,
 3;124,125,126;,
 3;126,127,128;,
 3;129,130,131;,
 3;129,131,132;,
 3;129,132,133;,
 3;129,133,134;,
 3;129,134,135;,
 3;129,135,136;,
 3;129,136,137;,
 3;129,137,130;,
 3;138,139,140;,
 3;140,141,142;,
 3;142,143,144;,
 3;144,145,146;,
 3;146,147,148;,
 3;148,149,150;,
 3;150,151,152;,
 3;152,153,154;,
 3;155,156,157;,
 3;155,157,158;,
 3;155,158,159;,
 3;155,159,160;,
 3;155,160,161;,
 3;155,161,162;,
 3;155,162,163;,
 3;155,163,156;;
 
 MeshMaterialList {
  2;
  104;
  0,
  0,
  0,
  0,
  0,
  0,
  0,
  0,
  0,
  0,
  0,
  0,
  0,
  0,
  0,
  0,
  0,
  0,
  0,
  0,
  0,
  0,
  0,
  0,
  1,
  1,
  1,
  1,
  1,
  1,
  1,
  1,
  1,
  1,
  1,
  1,
  1,
  1,
  1,
  1,
  1,
  1,
  1,
  1,
  1,
  1,
  1,
  1,
  1,
  1,
  1,
  1,
  1,
  1,
  1,
  1,
  1,
  1,
  1,
  1,
  1,
  1,
  1,
  1,
  1,
  1,
  1,
  1,
  1,
  1,
  1,
  1,
  1,
  1,
  1,
  1,
  1,
  1,
  1,
  1,
  1,
  1,
  1,
  1,
  1,
  1,
  1,
  1,
  1,
  1,
  1,
  1,
  1,
  1,
  1,
  1,
  1,
  1,
  1,
  1,
  1,
  1,
  1,
  1;;
  Material {
   0.511200;0.272800;0.097600;1.000000;;
   5.000000;
   0.000000;0.000000;0.000000;;
   0.000000;0.000000;0.000000;;
  }
  Material {
   0.016000;0.455200;0.000000;1.000000;;
   5.000000;
   0.000000;0.000000;0.000000;;
   0.000000;0.000000;0.000000;;
  }
 }
 MeshNormals {
  97;
  0.009742;0.999905;-0.009742;,
  0.022444;-0.002279;-0.999745;,
  0.707107;0.000000;-0.707107;,
  0.999745;-0.002279;-0.022444;,
  0.722784;-0.007160;0.691037;,
  0.000000;-0.009584;0.999954;,
  -0.707074;-0.009584;0.707074;,
  -0.999954;-0.009584;0.000000;,
  -0.691037;-0.007160;-0.722784;,
  0.000000;-1.000000;-0.000000;,
  0.016142;0.999739;-0.016142;,
  0.016139;0.999609;-0.022826;,
  0.022826;0.999609;-0.016139;,
  0.011413;0.999870;-0.011413;,
  0.000000;1.000000;0.000000;,
  0.030535;0.445057;-0.894981;,
  0.641142;0.462833;-0.612146;,
  0.901782;0.432191;0.000000;,
  0.637357;0.462878;0.616052;,
  0.000000;0.441778;0.897125;,
  -0.603394;0.462684;0.649491;,
  -0.885975;0.462710;0.030778;,
  -0.599635;0.483359;-0.637810;,
  0.801097;0.495250;-0.336112;,
  -0.060211;-0.997904;-0.023691;,
  0.000000;0.471530;-0.881850;,
  0.623562;0.471531;-0.623562;,
  0.881850;0.471530;0.000000;,
  0.623562;0.471531;0.623562;,
  -0.000002;0.471530;0.881850;,
  -0.623563;0.471530;0.623561;,
  -0.881850;0.471530;0.000001;,
  -0.623562;0.471531;-0.623562;,
  0.787361;0.523161;-0.326136;,
  0.000000;-1.000000;-0.000000;,
  0.000000;0.469637;-0.882860;,
  0.624276;0.469638;-0.624276;,
  0.881698;0.469019;-0.051274;,
  0.630390;0.495791;0.597327;,
  -0.006982;0.469626;0.882838;,
  -0.621037;0.483625;0.616782;,
  -0.882637;0.469519;-0.022432;,
  -0.624276;0.469638;-0.624276;,
  0.780008;0.514279;-0.356518;,
  -0.007238;-0.999388;-0.034231;,
  -0.015588;0.467772;-0.883712;,
  0.630126;0.498717;-0.595167;,
  0.892155;0.451361;0.018259;,
  0.635341;0.485970;0.600146;,
  -0.012094;0.467795;0.883754;,
  -0.621125;0.477922;0.621124;,
  -0.883720;0.467777;0.014976;,
  -0.617157;0.488093;-0.617157;,
  0.787039;0.525435;-0.323246;,
  -0.005562;-0.999812;-0.018587;,
  -0.021411;0.427011;-0.903993;,
  0.618791;0.418651;-0.664702;,
  0.894141;0.447786;0.000000;,
  0.622189;0.418710;0.661485;,
  -0.025888;0.429892;0.902509;,
  -0.659641;0.403083;0.634348;,
  -0.908036;0.418868;0.004517;,
  -0.655570;0.405819;-0.636819;,
  0.074475;-0.997222;0.001175;,
  -0.237523;0.432522;-0.869774;,
  -0.071324;-0.992871;0.095496;,
  -0.036446;-0.998671;-0.036446;,
  -0.169305;-0.985564;0.000000;,
  -0.026784;-0.999282;0.026784;,
  0.000000;-0.993344;-0.115190;,
  -0.057406;-0.996699;-0.057406;,
  0.000000;-0.997311;-0.073287;,
  -0.119694;-0.992445;-0.026957;,
  -0.326138;0.523160;0.787361;,
  -0.784929;0.518215;-0.339616;,
  0.000000;-0.996277;-0.086207;,
  -0.079229;-0.993098;-0.086475;,
  -0.029076;-0.999577;0.000000;,
  0.049981;-0.997467;-0.050609;,
  0.000000;-0.998722;-0.050546;,
  -0.286691;0.448191;-0.846719;,
  0.034846;-0.999393;-0.000000;,
  0.064720;-0.986971;-0.147306;,
  -0.086997;-0.995411;-0.039854;,
  0.021865;-0.994043;0.106771;,
  0.028179;-0.999603;-0.000000;,
  -0.036178;-0.998690;0.036179;,
  0.000000;-0.999395;-0.034782;,
  -0.071070;-0.994936;-0.071070;,
  0.058547;-0.996998;-0.050657;,
  0.058475;-0.996575;0.058475;,
  0.168580;-0.985688;-0.000000;,
  0.049746;-0.997522;-0.049746;,
  0.070494;-0.995184;0.068114;,
  0.105032;-0.993723;-0.038507;,
  0.000000;-0.999921;-0.012571;,
  0.084131;-0.995866;0.034244;;
  104;
  4;1,2,2,1;,
  4;2,3,3,2;,
  4;3,4,4,3;,
  4;4,5,5,4;,
  4;5,6,6,5;,
  4;6,7,7,6;,
  4;7,8,8,7;,
  4;8,1,1,8;,
  3;0,10,11;,
  3;0,12,10;,
  3;0,13,12;,
  3;0,14,13;,
  3;0,14,14;,
  3;0,14,14;,
  3;0,13,14;,
  3;0,11,13;,
  3;9,9,9;,
  3;9,9,9;,
  3;9,9,9;,
  3;9,9,9;,
  3;9,9,9;,
  3;9,9,9;,
  3;9,9,9;,
  3;9,9,9;,
  3;15,23,16;,
  3;16,23,17;,
  3;17,23,18;,
  3;18,19,19;,
  3;19,19,20;,
  3;20,21,21;,
  3;21,21,22;,
  3;22,64,15;,
  3;24,65,66;,
  3;24,66,67;,
  3;24,67,68;,
  3;24,68,69;,
  3;24,69,70;,
  3;24,70,71;,
  3;24,71,72;,
  3;24,72,65;,
  3;25,33,26;,
  3;26,33,27;,
  3;27,33,28;,
  3;28,73,29;,
  3;29,73,30;,
  3;30,73,31;,
  3;31,32,32;,
  3;32,32,25;,
  3;34,34,34;,
  3;34,34,34;,
  3;34,34,34;,
  3;34,34,34;,
  3;34,34,34;,
  3;34,34,34;,
  3;34,34,34;,
  3;34,34,34;,
  3;35,43,36;,
  3;36,43,37;,
  3;37,43,38;,
  3;38,39,39;,
  3;39,39,40;,
  3;40,74,41;,
  3;41,74,42;,
  3;42,74,35;,
  3;44,34,34;,
  3;44,34,75;,
  3;44,75,76;,
  3;44,76,77;,
  3;44,77,78;,
  3;44,78,79;,
  3;44,79,34;,
  3;44,34,34;,
  3;45,53,46;,
  3;46,53,47;,
  3;47,53,48;,
  3;48,49,49;,
  3;49,49,50;,
  3;50,51,51;,
  3;51,51,52;,
  3;52,80,45;,
  3;54,81,82;,
  3;54,82,83;,
  3;54,83,84;,
  3;54,84,85;,
  3;54,85,86;,
  3;54,86,87;,
  3;54,87,88;,
  3;54,88,81;,
  3;55,56,56;,
  3;56,56,57;,
  3;57,58,58;,
  3;58,58,59;,
  3;59,60,60;,
  3;60,60,61;,
  3;61,62,62;,
  3;62,62,55;,
  3;63,89,90;,
  3;63,90,91;,
  3;63,91,92;,
  3;63,92,93;,
  3;63,93,94;,
  3;63,94,95;,
  3;63,95,96;,
  3;63,96,89;;
 }
 MeshTextureCoords {
  164;
  0.000000;0.000000;,
  0.125000;0.000000;,
  0.125000;1.000000;,
  0.000000;1.000000;,
  0.250000;0.000000;,
  0.250000;1.000000;,
  0.375000;0.000000;,
  0.375000;1.000000;,
  0.500000;0.000000;,
  0.500000;1.000000;,
  0.625000;0.000000;,
  0.625000;1.000000;,
  0.750000;0.000000;,
  0.750000;1.000000;,
  0.875000;0.000000;,
  0.875000;1.000000;,
  1.000000;0.000000;,
  1.000000;1.000000;,
  0.062500;0.000000;,
  0.187500;0.000000;,
  0.312500;0.000000;,
  0.437500;0.000000;,
  0.562500;0.000000;,
  0.687500;0.000000;,
  0.812500;0.000000;,
  0.937500;0.000000;,
  0.062500;1.000000;,
  0.187500;1.000000;,
  0.312500;1.000000;,
  0.437500;1.000000;,
  0.562500;1.000000;,
  0.687500;1.000000;,
  0.812500;1.000000;,
  0.937500;1.000000;,
  0.000000;1.000000;,
  0.062500;0.000000;,
  0.125000;1.000000;,
  0.125000;0.000000;,
  0.250000;1.000000;,
  0.187500;0.000000;,
  0.375000;1.000000;,
  0.250000;0.000000;,
  0.500000;1.000000;,
  0.312500;0.000000;,
  0.625000;1.000000;,
  0.375000;0.000000;,
  0.750000;1.000000;,
  0.437500;0.000000;,
  0.875000;1.000000;,
  0.500000;0.000000;,
  1.000000;1.000000;,
  0.000000;0.000000;,
  0.000000;0.000000;,
  0.000000;0.000000;,
  0.000000;0.000000;,
  0.000000;0.000000;,
  0.000000;0.000000;,
  0.000000;0.000000;,
  0.000000;0.000000;,
  0.000000;0.000000;,
  0.000000;1.000000;,
  0.062500;0.000000;,
  0.125000;1.000000;,
  0.125000;0.000000;,
  0.250000;1.000000;,
  0.187500;0.000000;,
  0.375000;1.000000;,
  0.250000;0.000000;,
  0.500000;1.000000;,
  0.312500;0.000000;,
  0.625000;1.000000;,
  0.375000;0.000000;,
  0.750000;1.000000;,
  0.437500;0.000000;,
  0.875000;1.000000;,
  0.500000;0.000000;,
  1.000000;1.000000;,
  0.000000;0.000000;,
  0.000000;0.000000;,
  0.000000;0.000000;,
  0.000000;0.000000;,
  0.000000;0.000000;,
  0.000000;0.000000;,
  0.000000;0.000000;,
  0.000000;0.000000;,
  0.000000;0.000000;,
  0.000000;1.000000;,
  0.062500;0.000000;,
  0.125000;1.000000;,
  0.125000;0.000000;,
  0.250000;1.000000;,
  0.187500;0.000000;,
  0.375000;1.000000;,
  0.250000;0.000000;,
  0.500000;1.000000;,
  0.312500;0.000000;,
  0.625000;1.000000;,
  0.375000;0.000000;,
  0.750000;1.000000;,
  0.437500;0.000000;,
  0.875000;1.000000;,
  0.500000;0.000000;,
  1.000000;1.000000;,
  0.000000;0.000000;,
  0.000000;0.000000;,
  0.000000;0.000000;,
  0.000000;0.000000;,
  0.000000;0.000000;,
  0.000000;0.000000;,
  0.000000;0.000000;,
  0.000000;0.000000;,
  0.000000;0.000000;,
  0.000000;1.000000;,
  0.062500;0.000000;,
  0.125000;1.000000;,
  0.125000;0.000000;,
  0.250000;1.000000;,
  0.187500;0.000000;,
  0.375000;1.000000;,
  0.250000;0.000000;,
  0.500000;1.000000;,
  0.312500;0.000000;,
  0.625000;1.000000;,
  0.375000;0.000000;,
  0.750000;1.000000;,
  0.437500;0.000000;,
  0.875000;1.000000;,
  0.500000;0.000000;,
  1.000000;1.000000;,
  0.000000;0.000000;,
  0.000000;0.000000;,
  0.000000;0.000000;,
  0.000000;0.000000;,
  0.000000;0.000000;,
  0.000000;0.000000;,
  0.000000;0.000000;,
  0.000000;0.000000;,
  0.000000;0.000000;,
  0.000000;1.000000;,
  0.062500;0.000000;,
  0.125000;1.000000;,
  0.125000;0.000000;,
  0.250000;1.000000;,
  0.187500;0.000000;,
  0.375000;1.000000;,
  0.250000;0.000000;,
  0.500000;1.000000;,
  0.312500;0.000000;,
  0.625000;1.000000;,
  0.375000;0.000000;,
  0.750000;1.000000;,
  0.437500;0.000000;,
  0.875000;1.000000;,
  0.500000;0.000000;,
  1.000000;1.000000;,
  0.000000;0.000000;,
  0.000000;0.000000;,
  0.000000;0.000000;,
  0.000000;0.000000;,
  0.000000;0.000000;,
  0.000000;0.000000;,
  0.000000;0.000000;,
  0.000000;0.000000;,
  0.000000;0.000000;;
 }
}
