xof 0302txt 0064
template Header {
 <3D82AB43-62DA-11cf-AB39-0020AF71E433>
 WORD major;
 WORD minor;
 DWORD flags;
}

template Vector {
 <3D82AB5E-62DA-11cf-AB39-0020AF71E433>
 FLOAT x;
 FLOAT y;
 FLOAT z;
}

template Coords2d {
 <F6F23F44-7686-11cf-8F52-0040333594A3>
 FLOAT u;
 FLOAT v;
}

template Matrix4x4 {
 <F6F23F45-7686-11cf-8F52-0040333594A3>
 array FLOAT matrix[16];
}

template ColorRGBA {
 <35FF44E0-6C7C-11cf-8F52-0040333594A3>
 FLOAT red;
 FLOAT green;
 FLOAT blue;
 FLOAT alpha;
}

template ColorRGB {
 <D3E16E81-7835-11cf-8F52-0040333594A3>
 FLOAT red;
 FLOAT green;
 FLOAT blue;
}

template IndexedColor {
 <1630B820-7842-11cf-8F52-0040333594A3>
 DWORD index;
 ColorRGBA indexColor;
}

template Boolean {
 <4885AE61-78E8-11cf-8F52-0040333594A3>
 WORD truefalse;
}

template Boolean2d {
 <4885AE63-78E8-11cf-8F52-0040333594A3>
 Boolean u;
 Boolean v;
}

template MaterialWrap {
 <4885AE60-78E8-11cf-8F52-0040333594A3>
 Boolean u;
 Boolean v;
}

template TextureFilename {
 <A42790E1-7810-11cf-8F52-0040333594A3>
 STRING filename;
}

template Material {
 <3D82AB4D-62DA-11cf-AB39-0020AF71E433>
 ColorRGBA faceColor;
 FLOAT power;
 ColorRGB specularColor;
 ColorRGB emissiveColor;
 [...]
}

template MeshFace {
 <3D82AB5F-62DA-11cf-AB39-0020AF71E433>
 DWORD nFaceVertexIndices;
 array DWORD faceVertexIndices[nFaceVertexIndices];
}

template MeshFaceWraps {
 <4885AE62-78E8-11cf-8F52-0040333594A3>
 DWORD nFaceWrapValues;
 Boolean2d faceWrapValues;
}

template MeshTextureCoords {
 <F6F23F40-7686-11cf-8F52-0040333594A3>
 DWORD nTextureCoords;
 array Coords2d textureCoords[nTextureCoords];
}

template MeshMaterialList {
 <F6F23F42-7686-11cf-8F52-0040333594A3>
 DWORD nMaterials;
 DWORD nFaceIndexes;
 array DWORD faceIndexes[nFaceIndexes];
 [Material]
}

template MeshNormals {
 <F6F23F43-7686-11cf-8F52-0040333594A3>
 DWORD nNormals;
 array Vector normals[nNormals];
 DWORD nFaceNormals;
 array MeshFace faceNormals[nFaceNormals];
}

template MeshVertexColors {
 <1630B821-7842-11cf-8F52-0040333594A3>
 DWORD nVertexColors;
 array IndexedColor vertexColors[nVertexColors];
}

template Mesh {
 <3D82AB44-62DA-11cf-AB39-0020AF71E433>
 DWORD nVertices;
 array Vector vertices[nVertices];
 DWORD nFaces;
 array MeshFace faces[nFaces];
 [...]
}

Header{
1;
0;
1;
}

Mesh {
 843;
 -450.00001;0.00000;200.00000;,
 -409.09092;0.00000;200.00000;,
 -409.09092;0.00000;160.00000;,
 -450.00001;0.00000;160.00000;,
 -327.27273;0.00000;200.00000;,
 -286.36363;0.00000;200.00000;,
 -286.36363;0.00000;160.00000;,
 -327.27273;0.00000;160.00000;,
 -204.54546;0.00000;200.00000;,
 -163.63637;0.00000;200.00000;,
 -163.63637;0.00000;160.00000;,
 -204.54546;0.00000;160.00000;,
 -122.72727;0.00000;200.00000;,
 -81.81818;0.00000;200.00000;,
 -81.81818;0.00000;160.00000;,
 -122.72727;0.00000;160.00000;,
 -40.90909;0.00000;200.00000;,
 0.00000;0.00000;200.00000;,
 0.00000;0.00000;160.00000;,
 -40.90909;0.00000;160.00000;,
 40.90909;0.00000;200.00000;,
 40.90909;0.00000;160.00000;,
 122.72727;0.00000;200.00000;,
 163.63637;0.00000;200.00000;,
 163.63637;0.00000;160.00000;,
 122.72727;0.00000;160.00000;,
 245.45454;0.00000;200.00000;,
 286.36365;0.00000;200.00000;,
 286.36365;0.00000;160.00000;,
 245.45454;0.00000;160.00000;,
 368.18184;0.00000;200.00000;,
 409.09092;0.00000;200.00000;,
 409.09092;0.00000;160.00000;,
 368.18184;0.00000;160.00000;,
 450.00001;0.00000;200.00000;,
 450.00001;0.00000;160.00000;,
 -409.09092;0.00000;120.00000;,
 -450.00001;0.00000;120.00000;,
 -368.18182;0.00000;160.00000;,
 -368.18182;0.00000;120.00000;,
 -286.36363;0.00000;120.00000;,
 -327.27273;0.00000;120.00000;,
 -163.63637;0.00000;120.00000;,
 -204.54546;0.00000;120.00000;,
 -81.81818;0.00000;120.00000;,
 -122.72727;0.00000;120.00000;,
 -40.90909;0.00000;160.00000;,
 -40.90909;0.00000;120.00000;,
 0.00000;0.00000;120.00000;,
 -40.90909;0.00000;120.00000;,
 40.90909;0.00000;120.00000;,
 40.90909;0.00000;160.00000;,
 81.81819;0.00000;160.00000;,
 81.81819;0.00000;120.00000;,
 40.90909;0.00000;120.00000;,
 122.72727;0.00000;120.00000;,
 163.63637;0.00000;120.00000;,
 286.36365;0.00000;120.00000;,
 245.45454;0.00000;120.00000;,
 327.27273;0.00000;160.00000;,
 327.27273;0.00000;120.00000;,
 368.18184;0.00000;120.00000;,
 409.09092;0.00000;120.00000;,
 -368.18182;0.00000;80.00000;,
 -409.09092;0.00000;80.00000;,
 -327.27273;0.00000;80.00000;,
 -286.36363;0.00000;80.00000;,
 -245.45454;0.00000;120.00000;,
 -245.45454;0.00000;80.00000;,
 -204.54546;0.00000;80.00000;,
 -163.63637;0.00000;80.00000;,
 -122.72727;0.00000;80.00000;,
 -81.81818;0.00000;80.00000;,
 0.00000;0.00000;80.00000;,
 -40.90909;0.00000;80.00000;,
 40.90909;0.00000;80.00000;,
 122.72727;0.00000;80.00000;,
 81.81819;0.00000;80.00000;,
 163.63637;0.00000;80.00000;,
 204.54546;0.00000;120.00000;,
 204.54546;0.00000;80.00000;,
 245.45454;0.00000;80.00000;,
 286.36365;0.00000;80.00000;,
 368.18184;0.00000;80.00000;,
 327.27273;0.00000;80.00000;,
 409.09092;0.00000;80.00000;,
 450.00001;0.00000;120.00000;,
 450.00001;0.00000;80.00000;,
 -368.18182;0.00000;40.00000;,
 -409.09092;0.00000;40.00000;,
 -245.45454;0.00000;40.00000;,
 -286.36363;0.00000;40.00000;,
 -122.72727;0.00000;40.00000;,
 -163.63637;0.00000;40.00000;,
 0.00000;0.00000;40.00000;,
 -40.90909;0.00000;40.00000;,
 40.90909;0.00000;40.00000;,
 163.63637;0.00000;40.00000;,
 122.72727;0.00000;40.00000;,
 286.36365;0.00000;40.00000;,
 245.45454;0.00000;40.00000;,
 368.18184;0.00000;40.00000;,
 327.27273;0.00000;40.00000;,
 -450.00001;0.00000;40.00000;,
 -409.09092;0.00000;40.00000;,
 -409.09092;0.00000;0.00000;,
 -450.00001;0.00000;0.00000;,
 -368.18182;0.00000;40.00000;,
 -368.18182;0.00000;0.00000;,
 -327.27273;0.00000;40.00000;,
 -327.27273;0.00000;0.00000;,
 -286.36363;0.00000;40.00000;,
 -286.36363;0.00000;0.00000;,
 -245.45454;0.00000;40.00000;,
 -245.45454;0.00000;0.00000;,
 -204.54546;0.00000;40.00000;,
 -204.54546;0.00000;0.00000;,
 -163.63637;0.00000;40.00000;,
 -163.63637;0.00000;0.00000;,
 -122.72727;0.00000;40.00000;,
 -122.72727;0.00000;0.00000;,
 -81.81818;0.00000;40.00000;,
 -81.81818;0.00000;0.00000;,
 -40.90909;0.00000;40.00000;,
 -40.90909;0.00000;0.00000;,
 0.00000;0.00000;0.00000;,
 -40.90909;0.00000;0.00000;,
 40.90909;0.00000;0.00000;,
 40.90909;0.00000;40.00000;,
 81.81819;0.00000;40.00000;,
 81.81819;0.00000;0.00000;,
 40.90909;0.00000;0.00000;,
 122.72727;0.00000;40.00000;,
 122.72727;0.00000;0.00000;,
 163.63637;0.00000;40.00000;,
 163.63637;0.00000;0.00000;,
 204.54546;0.00000;40.00000;,
 204.54546;0.00000;0.00000;,
 245.45454;0.00000;40.00000;,
 245.45454;0.00000;0.00000;,
 286.36365;0.00000;40.00000;,
 286.36365;0.00000;0.00000;,
 327.27273;0.00000;40.00000;,
 327.27273;0.00000;0.00000;,
 368.18184;0.00000;40.00000;,
 368.18184;0.00000;0.00000;,
 409.09092;0.00000;40.00000;,
 409.09092;0.00000;0.00000;,
 450.00001;0.00000;40.00000;,
 450.00001;0.00000;0.00000;,
 -409.09092;0.00000;-40.00000;,
 -450.00001;0.00000;-40.00000;,
 -368.18182;0.00000;-40.00000;,
 -327.27273;0.00000;-40.00000;,
 -286.36363;0.00000;-40.00000;,
 -245.45454;0.00000;-40.00000;,
 -204.54546;0.00000;-40.00000;,
 -163.63637;0.00000;-40.00000;,
 -122.72727;0.00000;-40.00000;,
 -81.81818;0.00000;-40.00000;,
 -40.90909;0.00000;-40.00000;,
 0.00000;0.00000;-40.00000;,
 -40.90909;0.00000;-40.00000;,
 40.90909;0.00000;-40.00000;,
 81.81819;0.00000;-40.00000;,
 40.90909;0.00000;-40.00000;,
 122.72727;0.00000;-40.00000;,
 163.63637;0.00000;-40.00000;,
 204.54546;0.00000;-40.00000;,
 245.45454;0.00000;-40.00000;,
 286.36365;0.00000;-40.00000;,
 327.27273;0.00000;-40.00000;,
 368.18184;0.00000;-40.00000;,
 409.09092;0.00000;-40.00000;,
 450.00001;0.00000;-40.00000;,
 -409.09092;0.00000;-40.00000;,
 -368.18182;0.00000;-40.00000;,
 -368.18182;0.00000;-80.00000;,
 -409.09092;0.00000;-80.00000;,
 -327.27273;0.00000;-40.00000;,
 -327.27273;0.00000;-80.00000;,
 -286.36363;0.00000;-40.00000;,
 -286.36363;0.00000;-80.00000;,
 -245.45454;0.00000;-40.00000;,
 -204.54546;0.00000;-40.00000;,
 -204.54546;0.00000;-80.00000;,
 -245.45454;0.00000;-80.00000;,
 -163.63637;0.00000;-40.00000;,
 -122.72727;0.00000;-40.00000;,
 -122.72727;0.00000;-80.00000;,
 -163.63637;0.00000;-80.00000;,
 0.00000;0.00000;-80.00000;,
 -40.90909;0.00000;-80.00000;,
 40.90909;0.00000;-80.00000;,
 81.81819;0.00000;-40.00000;,
 122.72727;0.00000;-40.00000;,
 122.72727;0.00000;-80.00000;,
 81.81819;0.00000;-80.00000;,
 163.63637;0.00000;-40.00000;,
 204.54546;0.00000;-40.00000;,
 204.54546;0.00000;-80.00000;,
 163.63637;0.00000;-80.00000;,
 286.36365;0.00000;-40.00000;,
 327.27273;0.00000;-40.00000;,
 327.27273;0.00000;-80.00000;,
 286.36365;0.00000;-80.00000;,
 368.18184;0.00000;-40.00000;,
 409.09092;0.00000;-40.00000;,
 409.09092;0.00000;-80.00000;,
 368.18184;0.00000;-80.00000;,
 -368.18182;0.00000;-120.00000;,
 -409.09092;0.00000;-120.00000;,
 -286.36363;0.00000;-120.00000;,
 -327.27273;0.00000;-120.00000;,
 -204.54546;0.00000;-120.00000;,
 -245.45454;0.00000;-120.00000;,
 -163.63637;0.00000;-120.00000;,
 -122.72727;0.00000;-120.00000;,
 -81.81818;0.00000;-80.00000;,
 -81.81818;0.00000;-120.00000;,
 -40.90909;0.00000;-80.00000;,
 -40.90909;0.00000;-120.00000;,
 0.00000;0.00000;-120.00000;,
 -40.90909;0.00000;-120.00000;,
 40.90909;0.00000;-120.00000;,
 122.72727;0.00000;-120.00000;,
 81.81819;0.00000;-120.00000;,
 163.63637;0.00000;-120.00000;,
 204.54546;0.00000;-120.00000;,
 245.45454;0.00000;-80.00000;,
 245.45454;0.00000;-120.00000;,
 327.27273;0.00000;-120.00000;,
 286.36365;0.00000;-120.00000;,
 368.18184;0.00000;-120.00000;,
 409.09092;0.00000;-120.00000;,
 450.00001;0.00000;-80.00000;,
 450.00001;0.00000;-120.00000;,
 -368.18182;0.00000;-160.00000;,
 -409.09092;0.00000;-160.00000;,
 -286.36363;0.00000;-160.00000;,
 -327.27273;0.00000;-160.00000;,
 -245.45454;0.00000;-160.00000;,
 -204.54546;0.00000;-160.00000;,
 -81.81818;0.00000;-160.00000;,
 -122.72727;0.00000;-160.00000;,
 0.00000;0.00000;-160.00000;,
 -40.90909;0.00000;-160.00000;,
 40.90909;0.00000;-160.00000;,
 122.72727;0.00000;-160.00000;,
 81.81819;0.00000;-160.00000;,
 245.45454;0.00000;-160.00000;,
 204.54546;0.00000;-160.00000;,
 286.36365;0.00000;-160.00000;,
 327.27273;0.00000;-160.00000;,
 -450.00001;0.00000;-160.00000;,
 -409.09092;0.00000;-200.00000;,
 -450.00001;0.00000;-200.00000;,
 -368.18182;0.00000;-200.00000;,
 -327.27273;0.00000;-200.00000;,
 -286.36363;0.00000;-200.00000;,
 -245.45454;0.00000;-200.00000;,
 -204.54546;0.00000;-200.00000;,
 -163.63637;0.00000;-160.00000;,
 -163.63637;0.00000;-200.00000;,
 -122.72727;0.00000;-200.00000;,
 -81.81818;0.00000;-200.00000;,
 -40.90909;0.00000;-160.00000;,
 -40.90909;0.00000;-200.00000;,
 0.00000;0.00000;-200.00000;,
 -40.90909;0.00000;-200.00000;,
 40.90909;0.00000;-200.00000;,
 40.90909;0.00000;-160.00000;,
 81.81819;0.00000;-200.00000;,
 40.90909;0.00000;-200.00000;,
 122.72727;0.00000;-200.00000;,
 163.63637;0.00000;-160.00000;,
 163.63637;0.00000;-200.00000;,
 204.54546;0.00000;-200.00000;,
 245.45454;0.00000;-200.00000;,
 286.36365;0.00000;-200.00000;,
 327.27273;0.00000;-200.00000;,
 368.18184;0.00000;-160.00000;,
 368.18184;0.00000;-200.00000;,
 409.09092;0.00000;-160.00000;,
 409.09092;0.00000;-200.00000;,
 450.00001;0.00000;-160.00000;,
 450.00001;0.00000;-200.00000;,
 -40.90909;102.28200;120.00000;,
 -81.81818;102.28200;120.00000;,
 -81.81818;0.00000;120.00000;,
 -40.90909;0.00000;120.00000;,
 -40.90909;102.28200;80.00000;,
 -40.90909;0.00000;80.00000;,
 -81.81818;102.28200;80.00000;,
 -81.81818;0.00000;80.00000;,
 -81.81818;102.28200;120.00000;,
 -40.90909;102.28200;120.00000;,
 -40.90909;102.28200;80.00000;,
 -81.81818;102.28200;80.00000;,
 -122.72727;102.28200;80.00000;,
 -122.72727;0.00000;80.00000;,
 -122.72727;102.28200;40.00000;,
 -81.81818;102.28200;40.00000;,
 -81.81818;0.00000;40.00000;,
 -122.72727;0.00000;40.00000;,
 -122.72727;102.28200;80.00000;,
 -81.81818;102.28200;40.00000;,
 -122.72727;102.28200;40.00000;,
 -40.90909;102.28200;40.00000;,
 -40.90909;0.00000;40.00000;,
 -40.90909;102.28200;40.00000;,
 -81.81818;87.96262;-40.00000;,
 -122.72727;87.96262;-40.00000;,
 -122.72727;0.00000;-40.00000;,
 -81.81818;0.00000;-40.00000;,
 -122.72727;87.96262;-80.00000;,
 -81.81818;87.96262;-80.00000;,
 -81.81818;0.00000;-80.00000;,
 -122.72727;0.00000;-80.00000;,
 -122.72727;87.96262;-40.00000;,
 -81.81818;87.96262;-40.00000;,
 -81.81818;87.96262;-80.00000;,
 -122.72727;87.96262;-80.00000;,
 -40.90909;87.96262;-40.00000;,
 -40.90909;0.00000;-40.00000;,
 -40.90909;87.96262;-80.00000;,
 -40.90909;0.00000;-80.00000;,
 -40.90909;87.96262;-40.00000;,
 -40.90909;87.96262;-80.00000;,
 -40.90909;105.69138;200.00000;,
 -81.81818;105.69138;200.00000;,
 -81.81818;0.00000;200.00000;,
 -40.90909;0.00000;200.00000;,
 -40.90909;105.69138;160.00000;,
 -40.90909;0.00000;160.00000;,
 -81.81818;105.69138;160.00000;,
 -81.81818;0.00000;160.00000;,
 -81.81818;105.69138;200.00000;,
 -40.90909;105.69138;200.00000;,
 -40.90909;105.69138;160.00000;,
 -81.81818;105.69138;160.00000;,
 -40.90909;112.51026;-120.00000;,
 -81.81818;112.51026;-120.00000;,
 -81.81818;0.00000;-120.00000;,
 -40.90909;0.00000;-120.00000;,
 -40.90909;112.51026;-160.00000;,
 -40.90909;0.00000;-160.00000;,
 -81.81818;112.51026;-160.00000;,
 -81.81818;0.00000;-160.00000;,
 -81.81818;112.51026;-120.00000;,
 -40.90909;112.51026;-120.00000;,
 -40.90909;112.51026;-160.00000;,
 -81.81818;112.51026;-160.00000;,
 -163.63637;119.32908;-120.00000;,
 -204.54546;119.32908;-120.00000;,
 -204.54546;0.00000;-120.00000;,
 -163.63637;0.00000;-120.00000;,
 -204.54546;119.32908;-160.00000;,
 -163.63637;119.32908;-160.00000;,
 -163.63637;0.00000;-160.00000;,
 -204.54546;0.00000;-160.00000;,
 -204.54546;119.32908;-120.00000;,
 -163.63637;119.32908;-120.00000;,
 -163.63637;119.32908;-160.00000;,
 -204.54546;119.32908;-160.00000;,
 -122.72727;119.32908;-120.00000;,
 -122.72727;0.00000;-120.00000;,
 -122.72727;119.32908;-160.00000;,
 -122.72727;0.00000;-160.00000;,
 -122.72727;119.32908;-120.00000;,
 -122.72727;119.32908;-160.00000;,
 -163.63637;89.32638;-40.00000;,
 -204.54546;89.32638;-40.00000;,
 -204.54546;0.00000;-40.00000;,
 -163.63637;0.00000;-40.00000;,
 -163.63637;89.32638;-80.00000;,
 -163.63637;0.00000;-80.00000;,
 -204.54546;89.32638;-80.00000;,
 -204.54546;0.00000;-80.00000;,
 -204.54546;89.32638;-40.00000;,
 -163.63637;89.32638;-40.00000;,
 -163.63637;89.32638;-80.00000;,
 -204.54546;89.32638;-80.00000;,
 -245.45454;80.46189;-40.00000;,
 -286.36363;80.46189;-40.00000;,
 -286.36363;0.00000;-40.00000;,
 -245.45454;0.00000;-40.00000;,
 -245.45454;80.46189;-80.00000;,
 -245.45454;0.00000;-80.00000;,
 -286.36363;80.46189;-80.00000;,
 -286.36363;0.00000;-80.00000;,
 -286.36363;80.46189;-40.00000;,
 -245.45454;80.46189;-40.00000;,
 -245.45454;80.46189;-80.00000;,
 -286.36363;80.46189;-80.00000;,
 -245.45454;80.46189;-120.00000;,
 -245.45454;0.00000;-120.00000;,
 -286.36363;80.46189;-120.00000;,
 -286.36363;0.00000;-120.00000;,
 -245.45454;80.46189;-120.00000;,
 -286.36363;80.46189;-120.00000;,
 -327.27273;113.87401;-80.00000;,
 -368.18182;113.87401;-80.00000;,
 -368.18182;0.00000;-80.00000;,
 -327.27273;0.00000;-80.00000;,
 -327.27273;113.87401;-120.00000;,
 -327.27273;0.00000;-120.00000;,
 -368.18182;113.87401;-120.00000;,
 -368.18182;0.00000;-120.00000;,
 -368.18182;113.87401;-80.00000;,
 -327.27273;113.87401;-80.00000;,
 -327.27273;113.87401;-120.00000;,
 -368.18182;113.87401;-120.00000;,
 -327.27273;113.87401;-160.00000;,
 -327.27273;0.00000;-160.00000;,
 -368.18182;113.87401;-160.00000;,
 -368.18182;0.00000;-160.00000;,
 -327.27273;113.87401;-160.00000;,
 -368.18182;113.87401;-160.00000;,
 -122.72727;98.87265;200.00000;,
 -163.63637;98.87265;200.00000;,
 -163.63637;0.00000;200.00000;,
 -122.72727;0.00000;200.00000;,
 -122.72727;98.87265;160.00000;,
 -122.72727;0.00000;160.00000;,
 -163.63637;98.87265;160.00000;,
 -163.63637;0.00000;160.00000;,
 -163.63637;98.87265;200.00000;,
 -122.72727;98.87265;200.00000;,
 -122.72727;98.87265;160.00000;,
 -163.63637;98.87265;160.00000;,
 -122.72727;98.87265;120.00000;,
 -122.72727;0.00000;120.00000;,
 -163.63637;98.87265;120.00000;,
 -163.63637;0.00000;120.00000;,
 -122.72727;98.87265;120.00000;,
 -163.63637;98.87265;120.00000;,
 -204.54546;90.00828;80.00000;,
 -245.45454;90.00828;80.00000;,
 -245.45454;0.00000;80.00000;,
 -204.54546;0.00000;80.00000;,
 -245.45454;90.00828;40.00000;,
 -204.54546;90.00828;40.00000;,
 -204.54546;0.00000;40.00000;,
 -245.45454;0.00000;40.00000;,
 -245.45454;90.00828;80.00000;,
 -204.54546;90.00828;80.00000;,
 -204.54546;90.00828;40.00000;,
 -245.45454;90.00828;40.00000;,
 -163.63637;90.00828;80.00000;,
 -163.63637;0.00000;80.00000;,
 -163.63637;90.00828;40.00000;,
 -163.63637;0.00000;40.00000;,
 -163.63637;90.00828;80.00000;,
 -163.63637;90.00828;40.00000;,
 -327.27273;96.82696;80.00000;,
 -368.18182;96.82696;80.00000;,
 -368.18182;0.00000;80.00000;,
 -327.27273;0.00000;80.00000;,
 -368.18182;96.82696;40.00000;,
 -327.27273;96.82696;40.00000;,
 -327.27273;0.00000;40.00000;,
 -368.18182;0.00000;40.00000;,
 -368.18182;96.82696;80.00000;,
 -327.27273;96.82696;80.00000;,
 -327.27273;96.82696;40.00000;,
 -368.18182;96.82696;40.00000;,
 -286.36363;96.82696;80.00000;,
 -286.36363;0.00000;80.00000;,
 -286.36363;96.82696;40.00000;,
 -286.36363;0.00000;40.00000;,
 -286.36363;96.82696;80.00000;,
 -286.36363;96.82696;40.00000;,
 -409.09092;88.64440;-40.00000;,
 -450.00001;88.64440;-40.00000;,
 -450.00001;0.00000;-40.00000;,
 -409.09092;0.00000;-40.00000;,
 -409.09092;88.64440;-80.00000;,
 -409.09092;0.00000;-80.00000;,
 -450.00001;88.64440;-80.00000;,
 -450.00001;0.00000;-80.00000;,
 -450.00001;88.64440;-40.00000;,
 -409.09092;88.64440;-40.00000;,
 -409.09092;88.64440;-80.00000;,
 -450.00001;88.64440;-80.00000;,
 -409.09092;88.64440;-120.00000;,
 -409.09092;0.00000;-120.00000;,
 -450.00001;88.64440;-120.00000;,
 -450.00001;0.00000;-120.00000;,
 -409.09092;88.64440;-120.00000;,
 -450.00001;88.64440;-120.00000;,
 -409.09092;88.64440;-160.00000;,
 -409.09092;0.00000;-160.00000;,
 -450.00001;88.64440;-160.00000;,
 -450.00001;0.00000;-160.00000;,
 -409.09092;88.64440;-160.00000;,
 -450.00001;88.64440;-160.00000;,
 -245.45454;128.19353;200.00000;,
 -286.36363;128.19353;200.00000;,
 -286.36363;0.00000;200.00000;,
 -245.45454;0.00000;200.00000;,
 -286.36363;128.19353;160.00000;,
 -286.36363;0.00000;160.00000;,
 -286.36363;128.19353;200.00000;,
 -245.45454;128.19353;200.00000;,
 -245.45454;128.19353;160.00000;,
 -286.36363;128.19353;160.00000;,
 -204.54546;128.19353;200.00000;,
 -204.54546;0.00000;200.00000;,
 -204.54546;128.19353;160.00000;,
 -204.54546;0.00000;160.00000;,
 -204.54546;128.19353;200.00000;,
 -204.54546;128.19353;160.00000;,
 -286.36363;128.19353;120.00000;,
 -245.45454;128.19353;120.00000;,
 -245.45454;0.00000;120.00000;,
 -286.36363;0.00000;120.00000;,
 -245.45454;128.19353;120.00000;,
 -286.36363;128.19353;120.00000;,
 -204.54546;128.19353;120.00000;,
 -204.54546;0.00000;120.00000;,
 -204.54546;128.19353;120.00000;,
 -368.18182;111.14650;200.00000;,
 -409.09092;111.14650;200.00000;,
 -409.09092;0.00000;200.00000;,
 -368.18182;0.00000;200.00000;,
 -409.09092;111.14650;160.00000;,
 -368.18182;111.14651;160.00000;,
 -368.18182;0.00000;160.00000;,
 -409.09092;0.00000;160.00000;,
 -409.09092;111.14650;200.00000;,
 -368.18182;111.14650;200.00000;,
 -368.18182;111.14651;160.00000;,
 -409.09092;111.14650;160.00000;,
 -327.27273;111.14650;200.00000;,
 -327.27273;0.00000;200.00000;,
 -327.27273;111.14650;160.00000;,
 -327.27273;0.00000;160.00000;,
 -327.27273;111.14650;200.00000;,
 -327.27273;111.14650;160.00000;,
 -327.27273;111.14650;120.00000;,
 -327.27273;0.00000;120.00000;,
 -368.18182;111.14650;120.00000;,
 -368.18182;0.00000;120.00000;,
 -327.27273;111.14650;120.00000;,
 -368.18182;111.14650;120.00000;,
 -409.09092;91.37200;120.00000;,
 -450.00001;91.37200;120.00000;,
 -450.00001;0.00000;120.00000;,
 -409.09092;0.00000;120.00000;,
 -409.09092;91.37200;80.00000;,
 -409.09092;0.00000;80.00000;,
 -450.00001;91.37200;80.00000;,
 -450.00001;0.00000;80.00000;,
 -450.00001;91.37200;120.00000;,
 -409.09092;91.37200;120.00000;,
 -409.09092;91.37200;80.00000;,
 -450.00001;91.37200;80.00000;,
 -409.09092;91.37200;40.00000;,
 -409.09092;0.00000;40.00000;,
 -450.00001;91.37200;40.00000;,
 -450.00001;0.00000;40.00000;,
 -409.09092;91.37200;40.00000;,
 -450.00001;91.37200;40.00000;,
 81.81819;114.55590;-40.00000;,
 40.90909;114.55590;-40.00000;,
 40.90909;0.00000;-40.00000;,
 81.81819;0.00000;-40.00000;,
 81.81819;114.55590;-80.00000;,
 81.81819;0.00000;-80.00000;,
 40.90909;114.55590;-80.00000;,
 40.90909;0.00000;-80.00000;,
 40.90909;114.55590;-40.00000;,
 81.81819;114.55590;-40.00000;,
 81.81819;114.55590;-80.00000;,
 40.90909;114.55590;-80.00000;,
 81.81819;114.55590;-120.00000;,
 81.81819;0.00000;-120.00000;,
 40.90909;114.55590;-120.00000;,
 40.90909;0.00000;-120.00000;,
 81.81819;114.55590;-120.00000;,
 40.90909;114.55590;-120.00000;,
 81.81819;114.55590;-160.00000;,
 81.81819;0.00000;-160.00000;,
 40.90909;114.55590;-160.00000;,
 40.90909;0.00000;-160.00000;,
 81.81819;114.55590;-160.00000;,
 40.90909;114.55590;-160.00000;,
 81.81819;102.28200;120.00000;,
 40.90909;102.28200;120.00000;,
 40.90909;0.00000;120.00000;,
 81.81819;0.00000;120.00000;,
 81.81819;102.28200;80.00000;,
 81.81819;0.00000;80.00000;,
 40.90909;102.28200;80.00000;,
 40.90909;0.00000;80.00000;,
 40.90909;102.28200;120.00000;,
 81.81819;102.28200;120.00000;,
 81.81819;102.28200;80.00000;,
 40.90909;102.28200;80.00000;,
 40.90909;102.28200;40.00000;,
 81.81819;102.28200;40.00000;,
 81.81819;0.00000;40.00000;,
 40.90909;0.00000;40.00000;,
 81.81819;102.28200;40.00000;,
 40.90909;102.28200;40.00000;,
 122.72727;102.28200;80.00000;,
 122.72727;0.00000;80.00000;,
 122.72727;102.28200;40.00000;,
 122.72727;0.00000;40.00000;,
 122.72727;102.28200;80.00000;,
 122.72727;102.28200;40.00000;,
 81.81819;92.73573;200.00000;,
 40.90909;92.73573;200.00000;,
 40.90909;0.00000;200.00000;,
 81.81819;0.00000;200.00000;,
 40.90909;92.73573;160.00000;,
 81.81819;92.73573;160.00000;,
 81.81819;0.00000;160.00000;,
 40.90909;0.00000;160.00000;,
 40.90909;92.73573;200.00000;,
 81.81819;92.73573;200.00000;,
 81.81819;92.73573;160.00000;,
 40.90909;92.73573;160.00000;,
 122.72727;92.73573;200.00000;,
 122.72727;0.00000;200.00000;,
 122.72727;92.73573;160.00000;,
 122.72727;0.00000;160.00000;,
 122.72727;92.73573;200.00000;,
 122.72727;92.73573;160.00000;,
 163.63637;114.55585;-40.00000;,
 122.72727;114.55585;-40.00000;,
 122.72727;0.00000;-40.00000;,
 163.63637;0.00000;-40.00000;,
 163.63637;114.55585;-80.00000;,
 163.63637;0.00000;-80.00000;,
 122.72727;114.55585;-80.00000;,
 122.72727;0.00000;-80.00000;,
 122.72727;114.55585;-40.00000;,
 163.63637;114.55585;-40.00000;,
 163.63637;114.55585;-80.00000;,
 122.72727;114.55585;-80.00000;,
 163.63637;108.41892;-120.00000;,
 122.72727;108.41892;-120.00000;,
 122.72727;0.00000;-120.00000;,
 163.63637;0.00000;-120.00000;,
 122.72727;108.41892;-160.00000;,
 163.63637;108.41892;-160.00000;,
 163.63637;0.00000;-160.00000;,
 122.72727;0.00000;-160.00000;,
 122.72727;108.41892;-120.00000;,
 163.63637;108.41892;-120.00000;,
 163.63637;108.41892;-160.00000;,
 122.72727;108.41892;-160.00000;,
 204.54546;108.41892;-120.00000;,
 204.54546;0.00000;-120.00000;,
 204.54546;108.41892;-160.00000;,
 204.54546;0.00000;-160.00000;,
 204.54546;108.41892;-120.00000;,
 204.54546;108.41892;-160.00000;,
 245.45454;126.82976;-40.00000;,
 204.54546;126.82976;-40.00000;,
 204.54546;0.00000;-40.00000;,
 245.45454;0.00000;-40.00000;,
 204.54546;126.82976;-80.00000;,
 245.45454;126.82976;-80.00000;,
 245.45454;0.00000;-80.00000;,
 204.54546;0.00000;-80.00000;,
 204.54546;126.82976;-40.00000;,
 245.45454;126.82976;-40.00000;,
 245.45454;126.82976;-80.00000;,
 204.54546;126.82976;-80.00000;,
 286.36365;126.82976;-40.00000;,
 286.36365;0.00000;-40.00000;,
 286.36365;126.82976;-80.00000;,
 286.36365;0.00000;-80.00000;,
 286.36365;126.82976;-40.00000;,
 286.36365;126.82976;-80.00000;,
 286.36365;126.82976;-120.00000;,
 286.36365;0.00000;-120.00000;,
 245.45454;126.82976;-120.00000;,
 245.45454;0.00000;-120.00000;,
 245.45454;126.82976;-80.00000;,
 245.45454;126.82976;-120.00000;,
 286.36365;126.82976;-120.00000;,
 245.45454;126.82976;-120.00000;,
 368.18184;115.91967;-120.00000;,
 327.27273;115.91967;-120.00000;,
 327.27273;0.00000;-120.00000;,
 368.18184;0.00000;-120.00000;,
 327.27273;115.91967;-160.00000;,
 368.18184;115.91967;-160.00000;,
 368.18184;0.00000;-160.00000;,
 327.27273;0.00000;-160.00000;,
 327.27273;115.91967;-120.00000;,
 368.18184;115.91967;-120.00000;,
 368.18184;115.91967;-160.00000;,
 327.27273;115.91967;-160.00000;,
 409.09092;115.91967;-120.00000;,
 409.09092;0.00000;-120.00000;,
 409.09092;115.91967;-160.00000;,
 409.09092;0.00000;-160.00000;,
 409.09092;115.91967;-120.00000;,
 409.09092;115.91967;-160.00000;,
 450.00001;115.91967;-120.00000;,
 450.00001;0.00000;-120.00000;,
 450.00001;115.91967;-160.00000;,
 450.00001;0.00000;-160.00000;,
 450.00001;115.91967;-120.00000;,
 450.00001;115.91967;-160.00000;,
 368.18184;105.69149;-40.00000;,
 327.27273;105.69149;-40.00000;,
 327.27273;0.00000;-40.00000;,
 368.18184;0.00000;-40.00000;,
 368.18184;105.69149;-80.00000;,
 368.18184;0.00000;-80.00000;,
 327.27273;105.69149;-80.00000;,
 327.27273;0.00000;-80.00000;,
 327.27273;105.69149;-40.00000;,
 368.18184;105.69149;-40.00000;,
 368.18184;105.69149;-80.00000;,
 327.27273;105.69149;-80.00000;,
 450.00001;107.73712;-40.00000;,
 409.09092;107.73712;-40.00000;,
 409.09092;0.00000;-40.00000;,
 450.00001;0.00000;-40.00000;,
 450.00001;107.73712;-80.00000;,
 450.00001;0.00000;-80.00000;,
 409.09092;107.73712;-80.00000;,
 409.09092;0.00000;-80.00000;,
 409.09092;107.73712;-40.00000;,
 450.00001;107.73712;-40.00000;,
 450.00001;107.73712;-80.00000;,
 409.09092;107.73712;-80.00000;,
 204.54546;130.92101;80.00000;,
 163.63637;130.92101;80.00000;,
 163.63637;0.00000;80.00000;,
 204.54546;0.00000;80.00000;,
 163.63637;130.92101;40.00000;,
 204.54546;130.92101;40.00000;,
 204.54546;0.00000;40.00000;,
 163.63637;0.00000;40.00000;,
 163.63637;130.92101;80.00000;,
 204.54546;130.92101;80.00000;,
 204.54546;130.92101;40.00000;,
 163.63637;130.92101;40.00000;,
 245.45454;130.92101;80.00000;,
 245.45454;0.00000;80.00000;,
 245.45454;130.92101;40.00000;,
 245.45454;0.00000;40.00000;,
 245.45454;130.92101;80.00000;,
 245.45454;130.92101;40.00000;,
 204.54546;107.05518;200.00000;,
 163.63637;107.05518;200.00000;,
 163.63637;0.00000;200.00000;,
 204.54546;0.00000;200.00000;,
 163.63637;107.05518;160.00000;,
 163.63637;0.00000;160.00000;,
 163.63637;107.05518;200.00000;,
 204.54546;107.05518;200.00000;,
 204.54546;107.05518;160.00000;,
 163.63637;107.05518;160.00000;,
 245.45454;107.05518;200.00000;,
 245.45454;0.00000;200.00000;,
 245.45454;107.05518;160.00000;,
 245.45454;0.00000;160.00000;,
 245.45454;107.05518;200.00000;,
 245.45454;107.05518;160.00000;,
 163.63637;107.05518;120.00000;,
 204.54546;107.05518;120.00000;,
 204.54546;0.00000;120.00000;,
 163.63637;0.00000;120.00000;,
 204.54546;107.05518;120.00000;,
 163.63637;107.05518;120.00000;,
 245.45454;107.05518;120.00000;,
 245.45454;0.00000;120.00000;,
 245.45454;107.05518;120.00000;,
 327.27273;112.51021;120.00000;,
 286.36365;112.51021;120.00000;,
 286.36365;0.00000;120.00000;,
 327.27273;0.00000;120.00000;,
 327.27273;112.51021;80.00000;,
 327.27273;0.00000;80.00000;,
 286.36365;112.51021;80.00000;,
 286.36365;0.00000;80.00000;,
 286.36365;112.51021;120.00000;,
 327.27273;112.51021;120.00000;,
 327.27273;112.51021;80.00000;,
 286.36365;112.51021;80.00000;,
 327.27273;112.51021;40.00000;,
 327.27273;0.00000;40.00000;,
 286.36365;112.51021;40.00000;,
 286.36365;0.00000;40.00000;,
 327.27273;112.51021;40.00000;,
 286.36365;112.51021;40.00000;,
 409.09092;93.41753;80.00000;,
 368.18184;93.41753;80.00000;,
 368.18184;0.00000;80.00000;,
 409.09092;0.00000;80.00000;,
 368.18184;93.41753;40.00000;,
 409.09092;93.41753;40.00000;,
 409.09092;0.00000;40.00000;,
 368.18184;0.00000;40.00000;,
 368.18184;93.41753;80.00000;,
 409.09092;93.41753;80.00000;,
 409.09092;93.41753;40.00000;,
 368.18184;93.41753;40.00000;,
 450.00001;93.41753;80.00000;,
 450.00001;0.00000;80.00000;,
 450.00001;93.41753;40.00000;,
 450.00001;0.00000;40.00000;,
 450.00001;93.41753;80.00000;,
 450.00001;93.41753;40.00000;,
 327.27273;94.78137;200.00000;,
 286.36365;94.78137;200.00000;,
 286.36365;0.00000;200.00000;,
 327.27273;0.00000;200.00000;,
 286.36365;94.78137;160.00000;,
 327.27273;94.78137;160.00000;,
 327.27273;0.00000;160.00000;,
 286.36365;0.00000;160.00000;,
 286.36365;94.78137;200.00000;,
 327.27273;94.78137;200.00000;,
 327.27273;94.78137;160.00000;,
 286.36365;94.78137;160.00000;,
 368.18184;94.78137;200.00000;,
 368.18184;0.00000;200.00000;,
 368.18184;94.78137;160.00000;,
 368.18184;0.00000;160.00000;,
 368.18184;94.78137;200.00000;,
 368.18184;94.78137;160.00000;,
 450.00001;109.10086;160.00000;,
 409.09092;109.10086;160.00000;,
 409.09092;0.00000;160.00000;,
 450.00001;0.00000;160.00000;,
 450.00001;109.10086;120.00000;,
 450.00001;0.00000;120.00000;,
 409.09092;109.10086;120.00000;,
 409.09092;0.00000;120.00000;,
 409.09092;109.10086;160.00000;,
 450.00001;109.10086;160.00000;,
 450.00001;109.10086;120.00000;,
 409.09092;109.10086;120.00000;;
 
 404;
 4;0,1,2,3;,
 4;4,5,6,7;,
 4;8,9,10,11;,
 4;12,13,14,15;,
 4;16,17,18,19;,
 4;17,20,21,18;,
 4;22,23,24,25;,
 4;26,27,28,29;,
 4;30,31,32,33;,
 4;31,34,35,32;,
 4;3,2,36,37;,
 4;2,38,39,36;,
 4;7,6,40,41;,
 4;11,10,42,43;,
 4;15,14,44,45;,
 4;14,46,47,44;,
 4;19,18,48,49;,
 4;18,21,50,48;,
 4;51,52,53,54;,
 4;52,25,55,53;,
 4;25,24,56,55;,
 4;29,28,57,58;,
 4;28,59,60,57;,
 4;59,33,61,60;,
 4;33,32,62,61;,
 4;36,39,63,64;,
 4;39,41,65,63;,
 4;41,40,66,65;,
 4;40,67,68,66;,
 4;67,43,69,68;,
 4;43,42,70,69;,
 4;42,45,71,70;,
 4;45,44,72,71;,
 4;49,48,73,74;,
 4;48,50,75,73;,
 4;53,55,76,77;,
 4;55,56,78,76;,
 4;56,79,80,78;,
 4;79,58,81,80;,
 4;58,57,82,81;,
 4;60,61,83,84;,
 4;61,62,85,83;,
 4;62,86,87,85;,
 4;64,63,88,89;,
 4;66,68,90,91;,
 4;70,71,92,93;,
 4;74,73,94,95;,
 4;73,75,96,94;,
 4;76,78,97,98;,
 4;81,82,99,100;,
 4;84,83,101,102;,
 4;103,104,105,106;,
 4;104,107,108,105;,
 4;107,109,110,108;,
 4;109,111,112,110;,
 4;111,113,114,112;,
 4;113,115,116,114;,
 4;115,117,118,116;,
 4;117,119,120,118;,
 4;119,121,122,120;,
 4;121,123,124,122;,
 4;95,94,125,126;,
 4;94,96,127,125;,
 4;128,129,130,131;,
 4;129,132,133,130;,
 4;132,134,135,133;,
 4;134,136,137,135;,
 4;136,138,139,137;,
 4;138,140,141,139;,
 4;140,142,143,141;,
 4;142,144,145,143;,
 4;144,146,147,145;,
 4;146,148,149,147;,
 4;106,105,150,151;,
 4;105,108,152,150;,
 4;108,110,153,152;,
 4;110,112,154,153;,
 4;112,114,155,154;,
 4;114,116,156,155;,
 4;116,118,157,156;,
 4;118,120,158,157;,
 4;120,122,159,158;,
 4;122,124,160,159;,
 4;126,125,161,162;,
 4;125,127,163,161;,
 4;131,130,164,165;,
 4;130,133,166,164;,
 4;133,135,167,166;,
 4;135,137,168,167;,
 4;137,139,169,168;,
 4;139,141,170,169;,
 4;141,143,171,170;,
 4;143,145,172,171;,
 4;145,147,173,172;,
 4;147,149,174,173;,
 4;175,176,177,178;,
 4;176,179,180,177;,
 4;179,181,182,180;,
 4;183,184,185,186;,
 4;187,188,189,190;,
 4;162,161,191,192;,
 4;161,163,193,191;,
 4;194,195,196,197;,
 4;198,199,200,201;,
 4;202,203,204,205;,
 4;206,207,208,209;,
 4;178,177,210,211;,
 4;180,182,212,213;,
 4;186,185,214,215;,
 4;185,190,216,214;,
 4;190,189,217,216;,
 4;189,218,219,217;,
 4;218,220,221,219;,
 4;192,191,222,223;,
 4;191,193,224,222;,
 4;197,196,225,226;,
 4;196,201,227,225;,
 4;201,200,228,227;,
 4;200,229,230,228;,
 4;205,204,231,232;,
 4;204,209,233,231;,
 4;209,208,234,233;,
 4;208,235,236,234;,
 4;211,210,237,238;,
 4;213,212,239,240;,
 4;212,215,241,239;,
 4;215,214,242,241;,
 4;217,219,243,244;,
 4;223,222,245,246;,
 4;222,224,247,245;,
 4;226,225,248,249;,
 4;228,230,250,251;,
 4;230,232,252,250;,
 4;232,231,253,252;,
 4;254,238,255,256;,
 4;238,237,257,255;,
 4;237,240,258,257;,
 4;240,239,259,258;,
 4;239,241,260,259;,
 4;241,242,261,260;,
 4;242,262,263,261;,
 4;262,244,264,263;,
 4;244,243,265,264;,
 4;243,266,267,265;,
 4;246,245,268,269;,
 4;245,247,270,268;,
 4;271,249,272,273;,
 4;249,248,274,272;,
 4;248,275,276,274;,
 4;275,251,277,276;,
 4;251,250,278,277;,
 4;250,252,279,278;,
 4;252,253,280,279;,
 4;253,281,282,280;,
 4;281,283,284,282;,
 4;283,285,286,284;,
 4;287,288,289,290;,
 4;291,287,290,292;,
 4;288,293,294,289;,
 4;295,296,297,298;,
 4;293,299,300,294;,
 4;301,302,303,304;,
 4;299,301,304,300;,
 4;305,298,306,307;,
 4;308,291,292,309;,
 4;302,308,309,303;,
 4;298,297,310,306;,
 4;311,312,313,314;,
 4;315,316,317,318;,
 4;312,315,318,313;,
 4;319,320,321,322;,
 4;323,311,314,324;,
 4;325,323,324,326;,
 4;316,325,326,317;,
 4;320,327,328,321;,
 4;329,330,331,332;,
 4;333,329,332,334;,
 4;335,333,334,336;,
 4;330,335,336,331;,
 4;337,338,339,340;,
 4;341,342,343,344;,
 4;345,341,344,346;,
 4;347,345,346,348;,
 4;342,347,348,343;,
 4;349,350,351,352;,
 4;353,354,355,356;,
 4;357,358,359,360;,
 4;354,357,360,355;,
 4;361,362,363,364;,
 4;365,353,356,366;,
 4;367,365,366,368;,
 4;358,367,368,359;,
 4;362,369,370,363;,
 4;371,372,373,374;,
 4;375,371,374,376;,
 4;377,375,376,378;,
 4;372,377,378,373;,
 4;379,380,381,382;,
 4;383,384,385,386;,
 4;387,383,386,388;,
 4;384,389,390,385;,
 4;391,392,393,394;,
 4;395,387,388,396;,
 4;397,395,396,398;,
 4;389,397,398,390;,
 4;394,393,399,400;,
 4;401,402,403,404;,
 4;405,401,404,406;,
 4;402,407,408,403;,
 4;409,410,411,412;,
 4;413,405,406,414;,
 4;415,413,414,416;,
 4;407,415,416,408;,
 4;412,411,417,418;,
 4;419,420,421,422;,
 4;423,419,422,424;,
 4;420,425,426,421;,
 4;427,428,429,430;,
 4;431,423,424,432;,
 4;433,431,432,434;,
 4;425,433,434,426;,
 4;430,429,435,436;,
 4;437,438,439,440;,
 4;441,442,443,444;,
 4;438,441,444,439;,
 4;445,446,447,448;,
 4;449,437,440,450;,
 4;451,449,450,452;,
 4;442,451,452,443;,
 4;446,453,454,447;,
 4;455,456,457,458;,
 4;459,460,461,462;,
 4;456,459,462,457;,
 4;463,464,465,466;,
 4;467,455,458,468;,
 4;469,467,468,470;,
 4;460,469,470,461;,
 4;464,471,472,465;,
 4;473,474,475,476;,
 4;477,473,476,478;,
 4;474,479,480,475;,
 4;481,482,483,484;,
 4;485,477,478,486;,
 4;479,487,488,480;,
 4;484,483,489,490;,
 4;491,485,486,492;,
 4;493,491,492,494;,
 4;487,493,494,488;,
 4;490,489,495,496;,
 4;497,498,499,500;,
 4;498,501,502,499;,
 4;503,504,505,506;,
 4;507,497,500,508;,
 4;509,507,508,510;,
 4;504,511,512,505;,
 4;513,514,515,516;,
 4;501,513,516,502;,
 4;506,505,517,518;,
 4;519,509,510,520;,
 4;514,519,520,515;,
 4;505,512,521,517;,
 4;522,523,524,525;,
 4;526,527,528,529;,
 4;523,526,529,524;,
 4;530,531,532,533;,
 4;534,522,525,535;,
 4;536,534,535,537;,
 4;531,538,539,532;,
 4;540,536,537,541;,
 4;542,540,541,543;,
 4;527,542,543,528;,
 4;532,539,544,545;,
 4;546,547,548,549;,
 4;550,546,549,551;,
 4;547,552,553,548;,
 4;554,555,556,557;,
 4;558,550,551,559;,
 4;560,558,559,561;,
 4;552,560,561,553;,
 4;557,556,562,563;,
 4;564,565,566,567;,
 4;568,564,567,569;,
 4;565,570,571,566;,
 4;572,573,574,575;,
 4;576,568,569,577;,
 4;570,578,579,571;,
 4;575,574,580,581;,
 4;582,576,577,583;,
 4;584,582,583,585;,
 4;578,584,585,579;,
 4;581,580,586,587;,
 4;588,589,590,591;,
 4;592,588,591,593;,
 4;589,594,595,590;,
 4;596,597,598,599;,
 4;600,601,602,603;,
 4;594,600,603,595;,
 4;599,598,604,605;,
 4;606,592,593,607;,
 4;608,606,607,609;,
 4;601,608,609,602;,
 4;598,610,611,604;,
 4;612,613,614,615;,
 4;616,617,618,619;,
 4;613,616,619,614;,
 4;620,621,622,623;,
 4;624,612,615,625;,
 4;626,624,625,627;,
 4;617,626,627,618;,
 4;621,628,629,622;,
 4;630,631,632,633;,
 4;634,630,633,635;,
 4;636,634,635,637;,
 4;631,636,637,632;,
 4;638,639,640,641;,
 4;642,643,644,645;,
 4;646,647,648,649;,
 4;643,646,649,644;,
 4;650,651,652,653;,
 4;654,642,645,655;,
 4;656,654,655,657;,
 4;647,656,657,648;,
 4;651,658,659,652;,
 4;660,661,662,663;,
 4;664,665,666,667;,
 4;661,664,667,662;,
 4;668,669,670,671;,
 4;672,660,663,673;,
 4;674,672,673,675;,
 4;669,676,677,670;,
 4;678,674,675,679;,
 4;680,678,679,681;,
 4;682,683,230,229;,
 4;670,677,684,685;,
 4;686,687,688,689;,
 4;690,691,692,693;,
 4;687,690,693,688;,
 4;694,695,696,697;,
 4;698,686,689,699;,
 4;691,700,701,692;,
 4;695,702,703,696;,
 4;704,698,699,705;,
 4;706,704,705,707;,
 4;700,706,707,701;,
 4;702,708,709,703;,
 4;710,711,712,713;,
 4;714,710,713,715;,
 4;716,714,715,717;,
 4;711,716,717,712;,
 4;718,719,720,721;,
 4;722,723,724,725;,
 4;726,722,725,727;,
 4;728,726,727,729;,
 4;723,728,729,724;,
 4;730,731,732,733;,
 4;734,735,736,737;,
 4;738,739,740,741;,
 4;735,738,741,736;,
 4;742,743,744,745;,
 4;746,734,737,747;,
 4;748,746,747,749;,
 4;739,748,749,740;,
 4;743,750,751,744;,
 4;752,753,754,755;,
 4;753,756,757,754;,
 4;758,759,760,761;,
 4;762,752,755,763;,
 4;764,762,763,765;,
 4;759,766,767,760;,
 4;768,769,770,771;,
 4;756,768,771,757;,
 4;761,760,772,773;,
 4;774,764,765,775;,
 4;769,774,775,770;,
 4;760,767,776,772;,
 4;777,778,779,780;,
 4;781,777,780,782;,
 4;778,783,784,779;,
 4;785,786,787,788;,
 4;789,781,782,790;,
 4;791,789,790,792;,
 4;783,791,792,784;,
 4;788,787,793,794;,
 4;795,796,797,798;,
 4;799,800,801,802;,
 4;796,799,802,797;,
 4;803,804,805,806;,
 4;807,795,798,808;,
 4;809,807,808,810;,
 4;800,809,810,801;,
 4;804,811,812,805;,
 4;813,814,815,816;,
 4;817,818,819,820;,
 4;814,817,820,815;,
 4;821,822,823,824;,
 4;825,813,816,826;,
 4;827,825,826,828;,
 4;818,827,828,819;,
 4;822,829,830,823;,
 4;831,832,833,834;,
 4;835,831,834,836;,
 4;837,835,836,838;,
 4;832,837,838,833;,
 4;839,840,841,842;;
 
 MeshMaterialList {
  7;
  404;
  5,
  5,
  5,
  5,
  0,
  0,
  5,
  5,
  5,
  5,
  5,
  5,
  5,
  5,
  5,
  5,
  0,
  0,
  5,
  5,
  5,
  5,
  5,
  5,
  5,
  5,
  5,
  5,
  5,
  5,
  5,
  5,
  5,
  0,
  0,
  5,
  5,
  5,
  5,
  5,
  5,
  5,
  5,
  5,
  5,
  5,
  0,
  0,
  5,
  5,
  5,
  1,
  1,
  1,
  1,
  1,
  1,
  1,
  1,
  1,
  1,
  0,
  0,
  1,
  1,
  1,
  1,
  1,
  1,
  1,
  1,
  1,
  1,
  1,
  1,
  1,
  1,
  1,
  1,
  1,
  1,
  1,
  1,
  0,
  0,
  1,
  1,
  1,
  1,
  1,
  1,
  1,
  1,
  1,
  1,
  5,
  5,
  5,
  5,
  5,
  0,
  0,
  5,
  5,
  5,
  5,
  5,
  5,
  5,
  5,
  5,
  5,
  5,
  0,
  0,
  5,
  5,
  5,
  5,
  5,
  5,
  5,
  5,
  5,
  5,
  5,
  5,
  5,
  0,
  0,
  5,
  5,
  5,
  5,
  5,
  5,
  5,
  5,
  5,
  5,
  5,
  5,
  5,
  5,
  0,
  0,
  5,
  5,
  5,
  5,
  5,
  5,
  5,
  5,
  5,
  5,
  2,
  2,
  2,
  6,
  2,
  2,
  2,
  6,
  2,
  2,
  6,
  2,
  2,
  2,
  6,
  2,
  2,
  2,
  6,
  2,
  2,
  2,
  2,
  6,
  2,
  2,
  2,
  2,
  6,
  2,
  2,
  2,
  6,
  2,
  2,
  2,
  6,
  2,
  2,
  2,
  2,
  6,
  2,
  2,
  2,
  6,
  2,
  2,
  2,
  6,
  2,
  2,
  2,
  6,
  2,
  2,
  2,
  6,
  2,
  2,
  2,
  6,
  2,
  2,
  2,
  6,
  2,
  2,
  2,
  6,
  2,
  2,
  2,
  6,
  2,
  2,
  2,
  6,
  2,
  2,
  2,
  6,
  2,
  2,
  2,
  6,
  2,
  2,
  6,
  2,
  2,
  2,
  6,
  2,
  2,
  6,
  2,
  2,
  6,
  2,
  2,
  6,
  2,
  2,
  6,
  2,
  2,
  2,
  6,
  2,
  2,
  6,
  2,
  2,
  2,
  6,
  2,
  2,
  2,
  6,
  2,
  2,
  2,
  6,
  2,
  2,
  2,
  6,
  2,
  2,
  6,
  2,
  2,
  2,
  6,
  2,
  2,
  2,
  6,
  2,
  2,
  6,
  2,
  2,
  2,
  6,
  2,
  2,
  2,
  6,
  2,
  2,
  2,
  6,
  2,
  2,
  2,
  2,
  6,
  2,
  2,
  2,
  6,
  2,
  2,
  2,
  6,
  2,
  2,
  2,
  6,
  2,
  2,
  6,
  2,
  2,
  5,
  6,
  2,
  2,
  2,
  6,
  2,
  2,
  6,
  2,
  2,
  2,
  6,
  2,
  2,
  2,
  2,
  6,
  2,
  2,
  2,
  2,
  6,
  2,
  2,
  2,
  6,
  2,
  2,
  2,
  6,
  2,
  2,
  6,
  2,
  2,
  6,
  2,
  2,
  6,
  2,
  2,
  6,
  2,
  2,
  2,
  6,
  2,
  2,
  2,
  6,
  2,
  2,
  2,
  6,
  2,
  2,
  2,
  6,
  2,
  2,
  2,
  6,
  2,
  2,
  2,
  6,
  2,
  2,
  2,
  2,
  6;;
  Material {
   0.800000;0.800000;0.800000;1.000000;;
   5.000000;
   0.000000;0.000000;0.000000;;
   0.000000;0.000000;0.000000;;
   TextureFilename {
    "data\\TEXTURE\\road.png";
   }
  }
  Material {
   0.800000;0.800000;0.800000;1.000000;;
   5.000000;
   0.000000;0.000000;0.000000;;
   0.000000;0.000000;0.000000;;
   TextureFilename {
    "data\\TEXTURE\\road.png";
   }
  }
  Material {
   0.800000;0.800000;0.800000;1.000000;;
   5.000000;
   0.000000;0.000000;0.000000;;
   0.000000;0.000000;0.000000;;
   TextureFilename {
    "data\\TEXTURE\\bill.png";
   }
  }
  Material {
   0.800000;0.800000;0.800000;1.000000;;
   5.000000;
   0.000000;0.000000;0.000000;;
   0.000000;0.000000;0.000000;;
  }
  Material {
   0.392000;0.150400;0.028000;1.000000;;
   5.000000;
   0.000000;0.000000;0.000000;;
   0.000000;0.000000;0.000000;;
  }
  Material {
   0.800000;0.800000;0.800000;1.000000;;
   5.000000;
   0.000000;0.000000;0.000000;;
   0.000000;0.000000;0.000000;;
   TextureFilename {
    "data\\TEXTURE\\thumbnail.png";
   }
  }
  Material {
   0.461176;0.461176;0.461176;1.000000;;
   5.000000;
   0.000000;0.000000;0.000000;;
   0.000000;0.000000;0.000000;;
  }
 }
 MeshNormals {
  11;
  0.000000;1.000000;0.000000;,
  0.000000;0.000000;1.000000;,
  -1.000000;0.000000;0.000000;,
  1.000000;0.000000;0.000000;,
  0.000000;0.000000;-1.000000;,
  -0.000000;1.000000;0.000000;,
  0.000000;1.000000;0.000000;,
  0.000000;1.000000;0.000000;,
  0.000000;1.000000;0.000000;,
  0.000000;1.000000;0.000000;,
  0.000000;1.000000;-0.000000;;
  404;
  4;0,0,0,0;,
  4;0,0,0,0;,
  4;0,0,0,0;,
  4;0,0,0,0;,
  4;0,0,0,0;,
  4;0,0,0,0;,
  4;0,0,0,0;,
  4;0,0,0,0;,
  4;0,0,0,0;,
  4;0,0,0,0;,
  4;0,0,0,0;,
  4;0,0,0,0;,
  4;0,0,0,0;,
  4;0,0,0,0;,
  4;0,0,0,0;,
  4;0,0,0,0;,
  4;0,0,0,0;,
  4;0,0,0,0;,
  4;0,0,0,0;,
  4;0,0,0,0;,
  4;0,0,0,0;,
  4;0,0,0,0;,
  4;0,0,0,0;,
  4;0,0,0,0;,
  4;0,0,0,0;,
  4;0,0,0,0;,
  4;0,0,0,0;,
  4;0,0,0,0;,
  4;0,0,0,0;,
  4;0,0,0,0;,
  4;0,0,0,0;,
  4;0,0,0,0;,
  4;0,0,0,0;,
  4;0,0,0,0;,
  4;0,0,0,0;,
  4;0,0,0,0;,
  4;0,0,0,0;,
  4;0,0,0,0;,
  4;0,0,0,0;,
  4;0,0,0,0;,
  4;0,0,0,0;,
  4;0,0,0,0;,
  4;0,0,0,0;,
  4;0,0,0,0;,
  4;0,0,0,0;,
  4;0,0,0,0;,
  4;0,0,0,0;,
  4;0,0,0,0;,
  4;0,0,0,0;,
  4;0,0,0,0;,
  4;0,0,0,0;,
  4;0,0,0,0;,
  4;0,0,0,0;,
  4;0,0,0,0;,
  4;0,0,0,0;,
  4;0,0,0,0;,
  4;0,0,0,0;,
  4;0,0,0,0;,
  4;0,0,0,0;,
  4;0,0,0,0;,
  4;0,0,0,0;,
  4;0,0,0,0;,
  4;0,0,0,0;,
  4;0,0,0,0;,
  4;0,0,0,0;,
  4;0,0,0,0;,
  4;0,0,0,0;,
  4;0,0,0,0;,
  4;0,0,0,0;,
  4;0,0,0,0;,
  4;0,0,0,0;,
  4;0,0,0,0;,
  4;0,0,0,0;,
  4;0,0,0,0;,
  4;0,0,0,0;,
  4;0,0,0,0;,
  4;0,0,0,0;,
  4;0,0,0,0;,
  4;0,0,0,0;,
  4;0,0,0,0;,
  4;0,0,0,0;,
  4;0,0,0,0;,
  4;0,0,0,0;,
  4;0,0,0,0;,
  4;0,0,0,0;,
  4;0,0,0,0;,
  4;0,0,0,0;,
  4;0,0,0,0;,
  4;0,0,0,0;,
  4;0,0,0,0;,
  4;0,0,0,0;,
  4;0,0,0,0;,
  4;0,0,0,0;,
  4;0,0,0,0;,
  4;0,0,0,0;,
  4;0,0,0,0;,
  4;0,0,0,0;,
  4;0,0,0,0;,
  4;0,0,0,0;,
  4;0,0,0,0;,
  4;0,0,0,0;,
  4;0,0,0,0;,
  4;0,0,0,0;,
  4;0,0,0,0;,
  4;0,0,0,0;,
  4;0,0,0,0;,
  4;0,0,0,0;,
  4;0,0,0,0;,
  4;0,0,0,0;,
  4;0,0,0,0;,
  4;0,0,0,0;,
  4;0,0,0,0;,
  4;0,0,0,0;,
  4;0,0,0,0;,
  4;0,0,0,0;,
  4;0,0,0,0;,
  4;0,0,0,0;,
  4;0,0,0,0;,
  4;0,0,0,0;,
  4;0,0,0,0;,
  4;0,0,0,0;,
  4;0,0,0,0;,
  4;0,0,0,0;,
  4;0,0,0,0;,
  4;0,0,0,0;,
  4;0,0,0,0;,
  4;0,0,0,0;,
  4;0,0,0,0;,
  4;0,0,0,0;,
  4;0,0,0,0;,
  4;0,0,0,0;,
  4;0,0,0,0;,
  4;0,0,0,0;,
  4;0,0,0,0;,
  4;0,0,0,0;,
  4;0,0,0,0;,
  4;0,0,0,0;,
  4;0,0,0,0;,
  4;0,0,0,0;,
  4;0,0,0,0;,
  4;0,0,0,0;,
  4;0,0,0,0;,
  4;0,0,0,0;,
  4;0,0,0,0;,
  4;0,0,0,0;,
  4;0,0,0,0;,
  4;0,0,0,0;,
  4;0,0,0,0;,
  4;0,0,0,0;,
  4;0,0,0,0;,
  4;0,0,0,0;,
  4;0,0,0,0;,
  4;0,0,0,0;,
  4;0,0,0,0;,
  4;0,0,0,0;,
  4;0,0,0,0;,
  4;1,1,1,1;,
  4;3,3,3,3;,
  4;2,2,2,2;,
  4;0,0,0,0;,
  4;1,1,1,1;,
  4;4,4,4,4;,
  4;2,2,2,2;,
  4;0,0,0,0;,
  4;3,3,3,3;,
  4;4,4,4,4;,
  4;0,0,0,0;,
  4;1,1,1,1;,
  4;4,4,4,4;,
  4;2,2,2,2;,
  4;0,0,0,0;,
  4;1,1,1,1;,
  4;3,3,3,3;,
  4;4,4,4,4;,
  4;0,0,0,0;,
  4;1,1,1,1;,
  4;3,3,3,3;,
  4;4,4,4,4;,
  4;2,2,2,2;,
  4;0,0,0,0;,
  4;1,1,1,1;,
  4;3,3,3,3;,
  4;4,4,4,4;,
  4;2,2,2,2;,
  4;0,0,0,0;,
  4;1,1,1,1;,
  4;4,4,4,4;,
  4;2,2,2,2;,
  4;0,0,0,0;,
  4;1,1,1,1;,
  4;3,3,3,3;,
  4;4,4,4,4;,
  4;0,0,0,0;,
  4;1,1,1,1;,
  4;3,3,3,3;,
  4;4,4,4,4;,
  4;2,2,2,2;,
  4;0,0,0,0;,
  4;1,1,1,1;,
  4;3,3,3,3;,
  4;2,2,2,2;,
  4;0,0,0,0;,
  4;3,3,3,3;,
  4;4,4,4,4;,
  4;2,2,2,2;,
  4;0,0,0,0;,
  4;1,1,1,1;,
  4;3,3,3,3;,
  4;2,2,2,2;,
  4;0,0,0,0;,
  4;3,3,3,3;,
  4;4,4,4,4;,
  4;2,2,2,2;,
  4;0,0,0,0;,
  4;1,1,1,1;,
  4;3,3,3,3;,
  4;2,2,2,2;,
  4;0,0,0,0;,
  4;3,3,3,3;,
  4;4,4,4,4;,
  4;2,2,2,2;,
  4;0,0,0,0;,
  4;1,1,1,1;,
  4;4,4,4,4;,
  4;2,2,2,2;,
  4;0,0,0,0;,
  4;1,1,1,1;,
  4;3,3,3,3;,
  4;4,4,4,4;,
  4;0,0,0,0;,
  4;1,1,1,1;,
  4;4,4,4,4;,
  4;2,2,2,2;,
  4;0,0,0,0;,
  4;1,1,1,1;,
  4;3,3,3,3;,
  4;4,4,4,4;,
  4;0,0,0,0;,
  4;1,1,1,1;,
  4;3,3,3,3;,
  4;2,2,2,2;,
  4;0,0,0,0;,
  4;3,3,3,3;,
  4;2,2,2,2;,
  4;0,0,0,0;,
  4;3,3,3,3;,
  4;4,4,4,4;,
  4;2,2,2,2;,
  4;0,0,0,0;,
  4;1,1,1,1;,
  4;2,2,2,2;,
  4;0,0,0,0;,
  4;1,1,1,1;,
  4;3,3,3,3;,
  4;0,0,0,0;,
  4;4,4,4,4;,
  4;2,2,2,2;,
  4;0,0,0,0;,
  4;3,3,3,3;,
  4;4,4,4,4;,
  4;0,0,0,0;,
  4;1,1,1,1;,
  4;4,4,4,4;,
  4;2,2,2,2;,
  4;5,6,7,5;,
  4;1,1,1,1;,
  4;3,3,3,3;,
  4;6,8,9,7;,
  4;3,3,3,3;,
  4;4,4,4,4;,
  4;2,2,2,2;,
  4;7,9,10,10;,
  4;1,1,1,1;,
  4;3,3,3,3;,
  4;2,2,2,2;,
  4;0,0,0,0;,
  4;3,3,3,3;,
  4;4,4,4,4;,
  4;2,2,2,2;,
  4;0,0,0,0;,
  4;1,1,1,1;,
  4;3,3,3,3;,
  4;2,2,2,2;,
  4;0,0,0,0;,
  4;3,3,3,3;,
  4;2,2,2,2;,
  4;0,0,0,0;,
  4;3,3,3,3;,
  4;4,4,4,4;,
  4;2,2,2,2;,
  4;0,0,0,0;,
  4;1,1,1,1;,
  4;3,3,3,3;,
  4;2,2,2,2;,
  4;0,0,0,0;,
  4;4,4,4,4;,
  4;2,2,2,2;,
  4;0,0,0,0;,
  4;1,1,1,1;,
  4;3,3,3,3;,
  4;4,4,4,4;,
  4;0,0,0,0;,
  4;1,1,1,1;,
  4;4,4,4,4;,
  4;2,2,2,2;,
  4;0,0,0,0;,
  4;1,1,1,1;,
  4;3,3,3,3;,
  4;4,4,4,4;,
  4;0,0,0,0;,
  4;1,1,1,1;,
  4;3,3,3,3;,
  4;4,4,4,4;,
  4;2,2,2,2;,
  4;0,0,0,0;,
  4;1,1,1,1;,
  4;4,4,4,4;,
  4;2,2,2,2;,
  4;0,0,0,0;,
  4;1,1,1,1;,
  4;3,3,3,3;,
  4;4,4,4,4;,
  4;0,0,0,0;,
  4;1,1,1,1;,
  4;4,4,4,4;,
  4;2,2,2,2;,
  4;0,0,0,0;,
  4;1,1,1,1;,
  4;3,3,3,3;,
  4;0,0,0,0;,
  4;3,3,3,3;,
  4;4,4,4,4;,
  4;2,2,2,2;,
  4;0,0,0,0;,
  4;1,1,1,1;,
  4;4,4,4,4;,
  4;2,2,2,2;,
  4;0,0,0,0;,
  4;1,1,1,1;,
  4;4,4,4,4;,
  4;0,0,0,0;,
  4;1,1,1,1;,
  4;3,3,3,3;,
  4;4,4,4,4;,
  4;0,0,0,0;,
  4;1,1,1,1;,
  4;3,3,3,3;,
  4;4,4,4,4;,
  4;2,2,2,2;,
  4;0,0,0,0;,
  4;1,1,1,1;,
  4;3,3,3,3;,
  4;4,4,4,4;,
  4;2,2,2,2;,
  4;0,0,0,0;,
  4;1,1,1,1;,
  4;4,4,4,4;,
  4;2,2,2,2;,
  4;0,0,0,0;,
  4;1,1,1,1;,
  4;3,3,3,3;,
  4;4,4,4,4;,
  4;0,0,0,0;,
  4;1,1,1,1;,
  4;2,2,2,2;,
  4;0,0,0,0;,
  4;1,1,1,1;,
  4;3,3,3,3;,
  4;0,0,0,0;,
  4;4,4,4,4;,
  4;2,2,2,2;,
  4;0,0,0,0;,
  4;3,3,3,3;,
  4;4,4,4,4;,
  4;0,0,0,0;,
  4;1,1,1,1;,
  4;3,3,3,3;,
  4;2,2,2,2;,
  4;0,0,0,0;,
  4;3,3,3,3;,
  4;4,4,4,4;,
  4;2,2,2,2;,
  4;0,0,0,0;,
  4;1,1,1,1;,
  4;4,4,4,4;,
  4;2,2,2,2;,
  4;0,0,0,0;,
  4;1,1,1,1;,
  4;3,3,3,3;,
  4;4,4,4,4;,
  4;0,0,0,0;,
  4;1,1,1,1;,
  4;4,4,4,4;,
  4;2,2,2,2;,
  4;0,0,0,0;,
  4;1,1,1,1;,
  4;3,3,3,3;,
  4;4,4,4,4;,
  4;0,0,0,0;,
  4;1,1,1,1;,
  4;3,3,3,3;,
  4;4,4,4,4;,
  4;2,2,2,2;,
  4;0,0,0,0;;
 }
 MeshTextureCoords {
  843;
  -22.000000;-9.481347;,
  -19.954546;-9.481347;,
  -19.954546;-7.485078;,
  -22.000000;-7.485078;,
  -15.863636;-9.481347;,
  -13.818181;-9.481347;,
  -13.818181;-7.485078;,
  -15.863636;-7.485078;,
  -9.727273;-9.481347;,
  -7.681818;-9.481347;,
  -7.681818;-7.485078;,
  -9.727273;-7.485078;,
  -5.636364;-9.481347;,
  -3.590909;-9.481347;,
  -3.590909;-7.485078;,
  -5.636364;-7.485078;,
  0.352336;0.500000;,
  0.500000;0.500000;,
  0.500000;0.500000;,
  0.352336;0.500000;,
  0.647664;0.500000;,
  0.647664;0.500000;,
  6.636364;-9.481347;,
  8.681818;-9.481347;,
  8.681818;-7.485078;,
  6.636364;-7.485078;,
  12.772727;-9.481347;,
  14.818182;-9.481347;,
  14.818182;-7.485078;,
  12.772727;-7.485078;,
  18.909092;-9.481347;,
  20.954546;-9.481347;,
  20.954546;-7.485078;,
  18.909092;-7.485078;,
  23.000000;-9.481347;,
  23.000000;-7.485078;,
  -19.954546;-5.488808;,
  -22.000000;-5.488808;,
  -17.909090;-7.485078;,
  -17.909090;-5.488808;,
  -13.818181;-5.488808;,
  -15.863636;-5.488808;,
  -7.681818;-5.488808;,
  -9.727273;-5.488808;,
  -3.590909;-5.488808;,
  -5.636364;-5.488808;,
  -1.545454;-7.485078;,
  -1.545454;-5.488808;,
  0.500000;0.500000;,
  0.352336;0.500000;,
  0.647664;0.500000;,
  2.545455;-7.485078;,
  4.590909;-7.485078;,
  4.590909;-5.488808;,
  2.545455;-5.488808;,
  6.636364;-5.488808;,
  8.681818;-5.488808;,
  14.818182;-5.488808;,
  12.772727;-5.488808;,
  16.863636;-7.485078;,
  16.863636;-5.488808;,
  18.909092;-5.488808;,
  20.954546;-5.488808;,
  -17.909090;-3.492539;,
  -19.954546;-3.492539;,
  -15.863636;-3.492539;,
  -13.818181;-3.492539;,
  -11.772727;-5.488808;,
  -11.772727;-3.492539;,
  -9.727273;-3.492539;,
  -7.681818;-3.492539;,
  -5.636364;-3.492539;,
  -3.590909;-3.492539;,
  0.500000;0.500000;,
  0.352336;0.500000;,
  0.647664;0.500000;,
  6.636364;-3.492539;,
  4.590909;-3.492539;,
  8.681818;-3.492539;,
  10.727273;-5.488808;,
  10.727273;-3.492539;,
  12.772727;-3.492539;,
  14.818182;-3.492539;,
  18.909092;-3.492539;,
  16.863636;-3.492539;,
  20.954546;-3.492539;,
  23.000000;-5.488808;,
  23.000000;-3.492539;,
  -17.909090;-1.496269;,
  -19.954546;-1.496269;,
  -11.772727;-1.496269;,
  -13.818181;-1.496269;,
  -5.636364;-1.496269;,
  -7.681818;-1.496269;,
  0.500000;0.500000;,
  0.352336;0.500000;,
  0.647664;0.500000;,
  8.681818;-1.496269;,
  6.636364;-1.496269;,
  14.818182;-1.496269;,
  12.772727;-1.496269;,
  18.909092;-1.496269;,
  16.863636;-1.496269;,
  0.360571;0.500000;,
  0.360571;0.500000;,
  0.500000;0.500000;,
  0.500000;0.500000;,
  0.360571;0.500000;,
  0.500000;0.500000;,
  0.360571;0.500000;,
  0.500000;0.500000;,
  0.360571;0.500000;,
  0.500000;0.500000;,
  0.360571;0.500000;,
  0.500000;0.500000;,
  0.360571;0.500000;,
  0.500000;0.500000;,
  0.360571;0.500000;,
  0.500000;0.500000;,
  0.360571;0.500000;,
  0.500000;0.500000;,
  0.360571;0.500000;,
  0.500000;0.500000;,
  0.360571;0.500000;,
  0.500000;0.500000;,
  0.500000;0.500000;,
  0.352336;0.500000;,
  0.647664;0.500000;,
  0.360571;0.500000;,
  0.360571;0.500000;,
  0.500000;0.500000;,
  0.500000;0.500000;,
  0.360571;0.500000;,
  0.500000;0.500000;,
  0.360571;0.500000;,
  0.500000;0.500000;,
  0.360571;0.500000;,
  0.500000;0.500000;,
  0.360571;0.500000;,
  0.500000;0.500000;,
  0.360571;0.500000;,
  0.500000;0.500000;,
  0.360571;0.500000;,
  0.500000;0.500000;,
  0.360571;0.500000;,
  0.500000;0.500000;,
  0.360571;0.500000;,
  0.500000;0.500000;,
  0.360571;0.500000;,
  0.500000;0.500000;,
  0.639429;0.500000;,
  0.639429;0.500000;,
  0.639429;0.500000;,
  0.639429;0.500000;,
  0.639429;0.500000;,
  0.639429;0.500000;,
  0.639429;0.500000;,
  0.639429;0.500000;,
  0.639429;0.500000;,
  0.639429;0.500000;,
  0.639429;0.500000;,
  0.500000;0.500000;,
  0.352336;0.500000;,
  0.647664;0.500000;,
  0.639429;0.500000;,
  0.639429;0.500000;,
  0.639429;0.500000;,
  0.639429;0.500000;,
  0.639429;0.500000;,
  0.639429;0.500000;,
  0.639429;0.500000;,
  0.639429;0.500000;,
  0.639429;0.500000;,
  0.639429;0.500000;,
  0.639429;0.500000;,
  -19.954546;2.496269;,
  -17.909090;2.496269;,
  -17.909090;4.492539;,
  -19.954546;4.492539;,
  -15.863636;2.496269;,
  -15.863636;4.492539;,
  -13.818181;2.496269;,
  -13.818181;4.492539;,
  -11.772727;2.496269;,
  -9.727273;2.496269;,
  -9.727273;4.492539;,
  -11.772727;4.492539;,
  -7.681818;2.496269;,
  -5.636364;2.496269;,
  -5.636364;4.492539;,
  -7.681818;4.492539;,
  0.500000;0.500000;,
  0.352336;0.500000;,
  0.647664;0.500000;,
  4.590909;2.496269;,
  6.636364;2.496269;,
  6.636364;4.492539;,
  4.590909;4.492539;,
  8.681818;2.496269;,
  10.727273;2.496269;,
  10.727273;4.492539;,
  8.681818;4.492539;,
  14.818182;2.496269;,
  16.863636;2.496269;,
  16.863636;4.492539;,
  14.818182;4.492539;,
  18.909092;2.496269;,
  20.954546;2.496269;,
  20.954546;4.492539;,
  18.909092;4.492539;,
  -17.909090;6.488808;,
  -19.954546;6.488808;,
  -13.818181;6.488808;,
  -15.863636;6.488808;,
  -9.727273;6.488808;,
  -11.772727;6.488808;,
  -7.681818;6.488808;,
  -5.636364;6.488808;,
  -3.590909;4.492539;,
  -3.590909;6.488808;,
  -1.545454;4.492539;,
  -1.545454;6.488808;,
  0.500000;0.500000;,
  0.352336;0.500000;,
  0.647664;0.500000;,
  6.636364;6.488808;,
  4.590909;6.488808;,
  8.681818;6.488808;,
  10.727273;6.488808;,
  12.772727;4.492539;,
  12.772727;6.488808;,
  16.863636;6.488808;,
  14.818182;6.488808;,
  18.909092;6.488808;,
  20.954546;6.488808;,
  23.000000;4.492539;,
  23.000000;6.488808;,
  -17.909090;8.485078;,
  -19.954546;8.485078;,
  -13.818181;8.485078;,
  -15.863636;8.485078;,
  -11.772727;8.485078;,
  -9.727273;8.485078;,
  -3.590909;8.485078;,
  -5.636364;8.485078;,
  0.500000;0.500000;,
  0.352336;0.500000;,
  0.647664;0.500000;,
  6.636364;8.485078;,
  4.590909;8.485078;,
  12.772727;8.485078;,
  10.727273;8.485078;,
  14.818182;8.485078;,
  16.863636;8.485078;,
  -22.000000;8.485078;,
  -19.954546;10.481347;,
  -22.000000;10.481347;,
  -17.909090;10.481347;,
  -15.863636;10.481347;,
  -13.818181;10.481347;,
  -11.772727;10.481347;,
  -9.727273;10.481347;,
  -7.681818;8.485078;,
  -7.681818;10.481347;,
  -5.636364;10.481347;,
  -3.590909;10.481347;,
  -1.545454;8.485078;,
  -1.545454;10.481347;,
  0.500000;0.500000;,
  0.352336;0.500000;,
  0.647664;0.500000;,
  2.545455;8.485078;,
  4.590909;10.481347;,
  2.545455;10.481347;,
  6.636364;10.481347;,
  8.681818;8.485078;,
  8.681818;10.481347;,
  10.727273;10.481347;,
  12.772727;10.481347;,
  14.818182;10.481347;,
  16.863636;10.481347;,
  18.909092;8.485078;,
  18.909092;10.481347;,
  20.954546;8.485078;,
  20.954546;10.481347;,
  23.000000;8.485078;,
  23.000000;10.481347;,
  0.013633;-1.404977;,
  -0.472735;-1.404977;,
  -0.472735;0.500000;,
  0.013633;0.500000;,
  0.013633;-1.404977;,
  0.013633;0.500000;,
  -0.472735;-1.404977;,
  -0.472735;0.500000;,
  -3.590909;-4.614100;,
  -1.545454;-4.614100;,
  -1.545454;-4.614100;,
  -3.590909;-4.614100;,
  -0.959102;-1.404977;,
  -0.959102;0.500000;,
  -0.959102;-1.404977;,
  -0.472735;-1.404977;,
  -0.472735;0.500000;,
  -0.959102;0.500000;,
  -5.636364;-4.614100;,
  -3.590909;-4.614100;,
  -5.636364;-4.614100;,
  0.013633;-1.404977;,
  0.013633;0.500000;,
  -1.545454;-4.614100;,
  -0.472735;-1.138282;,
  -0.959102;-1.138282;,
  -0.959102;0.500000;,
  -0.472735;0.500000;,
  -0.959102;-1.138282;,
  -0.472735;-1.138282;,
  -0.472735;0.500000;,
  -0.959102;0.500000;,
  -5.636364;-3.898131;,
  -3.590909;-3.898131;,
  -3.590909;-3.898131;,
  -5.636364;-3.898131;,
  0.013633;-1.138282;,
  0.013633;0.500000;,
  0.013633;-1.138282;,
  0.013633;0.500000;,
  -1.545454;-3.898131;,
  -1.545454;-3.898131;,
  0.013633;-1.468475;,
  -0.472735;-1.468475;,
  -0.472735;0.500000;,
  0.013633;0.500000;,
  0.013633;-1.468475;,
  0.013633;0.500000;,
  -0.472735;-1.468475;,
  -0.472735;0.500000;,
  -3.590909;-4.784569;,
  -1.545454;-4.784569;,
  -1.545454;-4.784569;,
  -3.590909;-4.784569;,
  0.013633;-1.595475;,
  -0.472735;-1.595475;,
  -0.472735;0.500000;,
  0.013633;0.500000;,
  0.013633;-1.595475;,
  0.013633;0.500000;,
  -0.472735;-1.595475;,
  -0.472735;0.500000;,
  -3.590909;-5.125513;,
  -1.545454;-5.125513;,
  -1.545454;-5.125513;,
  -3.590909;-5.125513;,
  -1.445469;-1.722474;,
  -1.931837;-1.722474;,
  -1.931837;0.500000;,
  -1.445469;0.500000;,
  -1.931837;-1.722474;,
  -1.445469;-1.722474;,
  -1.445469;0.500000;,
  -1.931837;0.500000;,
  -9.727273;-5.466454;,
  -7.681818;-5.466454;,
  -7.681818;-5.466454;,
  -9.727273;-5.466454;,
  -0.959102;-1.722474;,
  -0.959102;0.500000;,
  -0.959102;-1.722474;,
  -0.959102;0.500000;,
  -5.636364;-5.466454;,
  -5.636364;-5.466454;,
  -1.445469;-1.163681;,
  -1.931837;-1.163681;,
  -1.931837;0.500000;,
  -1.445469;0.500000;,
  -1.445469;-1.163681;,
  -1.445469;0.500000;,
  -1.931837;-1.163681;,
  -1.931837;0.500000;,
  -9.727273;-3.966319;,
  -7.681818;-3.966319;,
  -7.681818;-3.966319;,
  -9.727273;-3.966319;,
  -2.418204;-0.998582;,
  -2.904571;-0.998582;,
  -2.904571;0.500000;,
  -2.418204;0.500000;,
  -2.418204;-0.998582;,
  -2.418204;0.500000;,
  -2.904571;-0.998582;,
  -2.904571;0.500000;,
  -13.818181;-3.523094;,
  -11.772727;-3.523094;,
  -11.772727;-3.523094;,
  -13.818181;-3.523094;,
  -2.418204;-0.998582;,
  -2.418204;0.500000;,
  -2.904571;-0.998582;,
  -2.904571;0.500000;,
  -11.772727;-3.523094;,
  -13.818181;-3.523094;,
  -3.390939;-1.620875;,
  -3.877306;-1.620875;,
  -3.877306;0.500000;,
  -3.390939;0.500000;,
  -3.390939;-1.620875;,
  -3.390939;0.500000;,
  -3.877306;-1.620875;,
  -3.877306;0.500000;,
  -17.909090;-5.193700;,
  -15.863636;-5.193700;,
  -15.863636;-5.193700;,
  -17.909090;-5.193700;,
  -3.390939;-1.620875;,
  -3.390939;0.500000;,
  -3.877306;-1.620875;,
  -3.877306;0.500000;,
  -15.863636;-5.193700;,
  -17.909090;-5.193700;,
  -0.959102;-1.341478;,
  -1.445469;-1.341478;,
  -1.445469;0.500000;,
  -0.959102;0.500000;,
  -0.959102;-1.341478;,
  -0.959102;0.500000;,
  -1.445469;-1.341478;,
  -1.445469;0.500000;,
  -7.681818;-4.443632;,
  -5.636364;-4.443632;,
  -5.636364;-4.443632;,
  -7.681818;-4.443632;,
  -0.959102;-1.341478;,
  -0.959102;0.500000;,
  -1.445469;-1.341478;,
  -1.445469;0.500000;,
  -5.636364;-4.443632;,
  -7.681818;-4.443632;,
  -1.931837;-1.176382;,
  -2.418204;-1.176382;,
  -2.418204;0.500000;,
  -1.931837;0.500000;,
  -2.418204;-1.176382;,
  -1.931837;-1.176382;,
  -1.931837;0.500000;,
  -2.418204;0.500000;,
  -11.772727;-4.000414;,
  -9.727273;-4.000414;,
  -9.727273;-4.000414;,
  -11.772727;-4.000414;,
  -1.445469;-1.176382;,
  -1.445469;0.500000;,
  -1.445469;-1.176382;,
  -1.445469;0.500000;,
  -7.681818;-4.000414;,
  -7.681818;-4.000414;,
  -3.390939;-1.303378;,
  -3.877306;-1.303378;,
  -3.877306;0.500000;,
  -3.390939;0.500000;,
  -3.877306;-1.303378;,
  -3.390939;-1.303378;,
  -3.390939;0.500000;,
  -3.877306;0.500000;,
  -17.909090;-4.341348;,
  -15.863636;-4.341348;,
  -15.863636;-4.341348;,
  -17.909090;-4.341348;,
  -2.904571;-1.303378;,
  -2.904571;0.500000;,
  -2.904571;-1.303378;,
  -2.904571;0.500000;,
  -13.818181;-4.341348;,
  -13.818181;-4.341348;,
  -4.363673;-1.150980;,
  -4.850040;-1.150980;,
  -4.850040;0.500000;,
  -4.363673;0.500000;,
  -4.363673;-1.150980;,
  -4.363673;0.500000;,
  -4.850040;-1.150980;,
  -4.850040;0.500000;,
  -22.000000;-3.932220;,
  -19.954546;-3.932220;,
  -19.954546;-3.932220;,
  -22.000000;-3.932220;,
  -4.363673;-1.150980;,
  -4.363673;0.500000;,
  -4.850040;-1.150980;,
  -4.850040;0.500000;,
  -19.954546;-3.932220;,
  -22.000000;-3.932220;,
  -4.363673;-1.150980;,
  -4.363673;0.500000;,
  -4.850040;-1.150980;,
  -4.850040;0.500000;,
  -19.954546;-3.932220;,
  -22.000000;-3.932220;,
  -2.418204;-1.887572;,
  -2.904571;-1.887572;,
  -2.904571;0.500000;,
  -2.418204;0.500000;,
  -2.904571;-1.887572;,
  -2.904571;0.500000;,
  -13.818181;-5.909677;,
  -11.772727;-5.909677;,
  -11.772727;-5.909677;,
  -13.818181;-5.909677;,
  -1.931837;-1.887572;,
  -1.931837;0.500000;,
  -1.931837;-1.887572;,
  -1.931837;0.500000;,
  -9.727273;-5.909677;,
  -9.727273;-5.909677;,
  -2.904571;-1.887572;,
  -2.418204;-1.887572;,
  -2.418204;0.500000;,
  -2.904571;0.500000;,
  -11.772727;-5.909677;,
  -13.818181;-5.909677;,
  -1.931837;-1.887572;,
  -1.931837;0.500000;,
  -9.727273;-5.909677;,
  -3.877306;-1.570076;,
  -4.363673;-1.570076;,
  -4.363673;0.500000;,
  -3.877306;0.500000;,
  -4.363673;-1.570076;,
  -3.877306;-1.570076;,
  -3.877306;0.500000;,
  -4.363673;0.500000;,
  -19.954546;-5.057325;,
  -17.909090;-5.057325;,
  -17.909090;-5.057325;,
  -19.954546;-5.057325;,
  -3.390939;-1.570076;,
  -3.390939;0.500000;,
  -3.390939;-1.570076;,
  -3.390939;0.500000;,
  -15.863636;-5.057325;,
  -15.863636;-5.057325;,
  -3.390939;-1.570076;,
  -3.390939;0.500000;,
  -3.877306;-1.570076;,
  -3.877306;0.500000;,
  -15.863636;-5.057325;,
  -17.909090;-5.057325;,
  -4.363673;-1.201781;,
  -4.850040;-1.201781;,
  -4.850040;0.500000;,
  -4.363673;0.500000;,
  -4.363673;-1.201781;,
  -4.363673;0.500000;,
  -4.850040;-1.201781;,
  -4.850040;0.500000;,
  -22.000000;-4.068600;,
  -19.954546;-4.068600;,
  -19.954546;-4.068600;,
  -22.000000;-4.068600;,
  -4.363673;-1.201781;,
  -4.363673;0.500000;,
  -4.850040;-1.201781;,
  -4.850040;0.500000;,
  -19.954546;-4.068600;,
  -22.000000;-4.068600;,
  1.472735;-1.633575;,
  0.986367;-1.633575;,
  0.986367;0.500000;,
  1.472735;0.500000;,
  1.472735;-1.633575;,
  1.472735;0.500000;,
  0.986367;-1.633575;,
  0.986367;0.500000;,
  2.545455;-5.227795;,
  4.590909;-5.227795;,
  4.590909;-5.227795;,
  2.545455;-5.227795;,
  1.472735;-1.633575;,
  1.472735;0.500000;,
  0.986367;-1.633575;,
  0.986367;0.500000;,
  4.590909;-5.227795;,
  2.545455;-5.227795;,
  1.472735;-1.633575;,
  1.472735;0.500000;,
  0.986367;-1.633575;,
  0.986367;0.500000;,
  4.590909;-5.227795;,
  2.545455;-5.227795;,
  1.472735;-1.404977;,
  0.986367;-1.404977;,
  0.986367;0.500000;,
  1.472735;0.500000;,
  1.472735;-1.404977;,
  1.472735;0.500000;,
  0.986367;-1.404977;,
  0.986367;0.500000;,
  2.545455;-4.614100;,
  4.590909;-4.614100;,
  4.590909;-4.614100;,
  2.545455;-4.614100;,
  0.986367;-1.404977;,
  1.472735;-1.404977;,
  1.472735;0.500000;,
  0.986367;0.500000;,
  4.590909;-4.614100;,
  2.545455;-4.614100;,
  1.959102;-1.404977;,
  1.959102;0.500000;,
  1.959102;-1.404977;,
  1.959102;0.500000;,
  6.636364;-4.614100;,
  6.636364;-4.614100;,
  1.472735;-1.227180;,
  0.986367;-1.227180;,
  0.986367;0.500000;,
  1.472735;0.500000;,
  0.986367;-1.227180;,
  1.472735;-1.227180;,
  1.472735;0.500000;,
  0.986367;0.500000;,
  2.545455;-4.136786;,
  4.590909;-4.136786;,
  4.590909;-4.136786;,
  2.545455;-4.136786;,
  1.959102;-1.227180;,
  1.959102;0.500000;,
  1.959102;-1.227180;,
  1.959102;0.500000;,
  6.636364;-4.136786;,
  6.636364;-4.136786;,
  2.445469;-1.633574;,
  1.959102;-1.633574;,
  1.959102;0.500000;,
  2.445469;0.500000;,
  2.445469;-1.633574;,
  2.445469;0.500000;,
  1.959102;-1.633574;,
  1.959102;0.500000;,
  6.636364;-5.227792;,
  8.681818;-5.227792;,
  8.681818;-5.227792;,
  6.636364;-5.227792;,
  2.445469;-1.519275;,
  1.959102;-1.519275;,
  1.959102;0.500000;,
  2.445469;0.500000;,
  1.959102;-1.519275;,
  2.445469;-1.519275;,
  2.445469;0.500000;,
  1.959102;0.500000;,
  6.636364;-4.920946;,
  8.681818;-4.920946;,
  8.681818;-4.920946;,
  6.636364;-4.920946;,
  2.931837;-1.519275;,
  2.931837;0.500000;,
  2.931837;-1.519275;,
  2.931837;0.500000;,
  10.727273;-4.920946;,
  10.727273;-4.920946;,
  3.418204;-1.862173;,
  2.931837;-1.862173;,
  2.931837;0.500000;,
  3.418204;0.500000;,
  2.931837;-1.862173;,
  3.418204;-1.862173;,
  3.418204;0.500000;,
  2.931837;0.500000;,
  10.727273;-5.841488;,
  12.772727;-5.841488;,
  12.772727;-5.841488;,
  10.727273;-5.841488;,
  3.904571;-1.862173;,
  3.904571;0.500000;,
  3.904571;-1.862173;,
  3.904571;0.500000;,
  14.818182;-5.841488;,
  14.818182;-5.841488;,
  3.904571;-1.862173;,
  3.904571;0.500000;,
  3.418204;-1.862173;,
  3.418204;0.500000;,
  12.772727;4.879677;,
  12.772727;6.875947;,
  14.818182;-5.841488;,
  12.772727;-5.841488;,
  4.877306;-1.658975;,
  4.390939;-1.658975;,
  4.390939;0.500000;,
  4.877306;0.500000;,
  4.390939;-1.658975;,
  4.877306;-1.658975;,
  4.877306;0.500000;,
  4.390939;0.500000;,
  16.863636;-5.295983;,
  18.909092;-5.295983;,
  18.909092;-5.295983;,
  16.863636;-5.295983;,
  5.363673;-1.658975;,
  5.363673;0.500000;,
  5.363673;-1.658975;,
  5.363673;0.500000;,
  20.954546;-5.295983;,
  20.954546;-5.295983;,
  5.850040;-1.658975;,
  5.850040;0.500000;,
  5.850040;-1.658975;,
  5.850040;0.500000;,
  23.000000;-5.295983;,
  23.000000;-5.295983;,
  4.877306;-1.468478;,
  4.390939;-1.468478;,
  4.390939;0.500000;,
  4.877306;0.500000;,
  4.877306;-1.468478;,
  4.877306;0.500000;,
  4.390939;-1.468478;,
  4.390939;0.500000;,
  16.863636;-4.784575;,
  18.909092;-4.784575;,
  18.909092;-4.784575;,
  16.863636;-4.784575;,
  5.850040;-1.506577;,
  5.363673;-1.506577;,
  5.363673;0.500000;,
  5.850040;0.500000;,
  5.850040;-1.506577;,
  5.850040;0.500000;,
  5.363673;-1.506577;,
  5.363673;0.500000;,
  20.954546;-4.886856;,
  23.000000;-4.886856;,
  23.000000;-4.886856;,
  20.954546;-4.886856;,
  2.931837;-1.938371;,
  2.445469;-1.938371;,
  2.445469;0.500000;,
  2.931837;0.500000;,
  2.445469;-1.938371;,
  2.931837;-1.938371;,
  2.931837;0.500000;,
  2.445469;0.500000;,
  8.681818;-6.046050;,
  10.727273;-6.046050;,
  10.727273;-6.046050;,
  8.681818;-6.046050;,
  3.418204;-1.938371;,
  3.418204;0.500000;,
  3.418204;-1.938371;,
  3.418204;0.500000;,
  12.772727;-6.046050;,
  12.772727;-6.046050;,
  2.931837;-1.493876;,
  2.445469;-1.493876;,
  2.445469;0.500000;,
  2.931837;0.500000;,
  2.445469;-1.493876;,
  2.445469;0.500000;,
  8.681818;-4.852759;,
  10.727273;-4.852759;,
  10.727273;-4.852759;,
  8.681818;-4.852759;,
  3.418204;-1.493876;,
  3.418204;0.500000;,
  3.418204;-1.493876;,
  3.418204;0.500000;,
  12.772727;-4.852759;,
  12.772727;-4.852759;,
  2.445469;-1.493876;,
  2.931837;-1.493876;,
  2.931837;0.500000;,
  2.445469;0.500000;,
  10.727273;-4.852759;,
  8.681818;-4.852759;,
  3.418204;-1.493876;,
  3.418204;0.500000;,
  12.772727;-4.852759;,
  4.390939;-1.595474;,
  3.904571;-1.595474;,
  3.904571;0.500000;,
  4.390939;0.500000;,
  4.390939;-1.595474;,
  4.390939;0.500000;,
  3.904571;-1.595474;,
  3.904571;0.500000;,
  14.818182;-5.125510;,
  16.863636;-5.125510;,
  16.863636;-5.125510;,
  14.818182;-5.125510;,
  4.390939;-1.595474;,
  4.390939;0.500000;,
  3.904571;-1.595474;,
  3.904571;0.500000;,
  16.863636;-5.125510;,
  14.818182;-5.125510;,
  5.363673;-1.239878;,
  4.877306;-1.239878;,
  4.877306;0.500000;,
  5.363673;0.500000;,
  4.877306;-1.239878;,
  5.363673;-1.239878;,
  5.363673;0.500000;,
  4.877306;0.500000;,
  18.909092;-4.170877;,
  20.954546;-4.170877;,
  20.954546;-4.170877;,
  18.909092;-4.170877;,
  5.850040;-1.239878;,
  5.850040;0.500000;,
  5.850040;-1.239878;,
  5.850040;0.500000;,
  23.000000;-4.170877;,
  23.000000;-4.170877;,
  4.390939;-1.265279;,
  3.904571;-1.265279;,
  3.904571;0.500000;,
  4.390939;0.500000;,
  3.904571;-1.265279;,
  4.390939;-1.265279;,
  4.390939;0.500000;,
  3.904571;0.500000;,
  14.818182;-4.239069;,
  16.863636;-4.239069;,
  16.863636;-4.239069;,
  14.818182;-4.239069;,
  4.877306;-1.265279;,
  4.877306;0.500000;,
  4.877306;-1.265279;,
  4.877306;0.500000;,
  18.909092;-4.239069;,
  18.909092;-4.239069;,
  5.850040;-1.531976;,
  5.363673;-1.531976;,
  5.363673;0.500000;,
  5.850040;0.500000;,
  5.850040;-1.531976;,
  5.850040;0.500000;,
  5.363673;-1.531976;,
  5.363673;0.500000;,
  20.954546;-4.955043;,
  23.000000;-4.955043;,
  23.000000;-4.955043;,
  20.954546;-4.955043;;
 }
}
