xof 0302txt 0064
template Header {
 <3D82AB43-62DA-11cf-AB39-0020AF71E433>
 WORD major;
 WORD minor;
 DWORD flags;
}

template Vector {
 <3D82AB5E-62DA-11cf-AB39-0020AF71E433>
 FLOAT x;
 FLOAT y;
 FLOAT z;
}

template Coords2d {
 <F6F23F44-7686-11cf-8F52-0040333594A3>
 FLOAT u;
 FLOAT v;
}

template Matrix4x4 {
 <F6F23F45-7686-11cf-8F52-0040333594A3>
 array FLOAT matrix[16];
}

template ColorRGBA {
 <35FF44E0-6C7C-11cf-8F52-0040333594A3>
 FLOAT red;
 FLOAT green;
 FLOAT blue;
 FLOAT alpha;
}

template ColorRGB {
 <D3E16E81-7835-11cf-8F52-0040333594A3>
 FLOAT red;
 FLOAT green;
 FLOAT blue;
}

template IndexedColor {
 <1630B820-7842-11cf-8F52-0040333594A3>
 DWORD index;
 ColorRGBA indexColor;
}

template Boolean {
 <4885AE61-78E8-11cf-8F52-0040333594A3>
 WORD truefalse;
}

template Boolean2d {
 <4885AE63-78E8-11cf-8F52-0040333594A3>
 Boolean u;
 Boolean v;
}

template MaterialWrap {
 <4885AE60-78E8-11cf-8F52-0040333594A3>
 Boolean u;
 Boolean v;
}

template TextureFilename {
 <A42790E1-7810-11cf-8F52-0040333594A3>
 STRING filename;
}

template Material {
 <3D82AB4D-62DA-11cf-AB39-0020AF71E433>
 ColorRGBA faceColor;
 FLOAT power;
 ColorRGB specularColor;
 ColorRGB emissiveColor;
 [...]
}

template MeshFace {
 <3D82AB5F-62DA-11cf-AB39-0020AF71E433>
 DWORD nFaceVertexIndices;
 array DWORD faceVertexIndices[nFaceVertexIndices];
}

template MeshFaceWraps {
 <4885AE62-78E8-11cf-8F52-0040333594A3>
 DWORD nFaceWrapValues;
 Boolean2d faceWrapValues;
}

template MeshTextureCoords {
 <F6F23F40-7686-11cf-8F52-0040333594A3>
 DWORD nTextureCoords;
 array Coords2d textureCoords[nTextureCoords];
}

template MeshMaterialList {
 <F6F23F42-7686-11cf-8F52-0040333594A3>
 DWORD nMaterials;
 DWORD nFaceIndexes;
 array DWORD faceIndexes[nFaceIndexes];
 [Material]
}

template MeshNormals {
 <F6F23F43-7686-11cf-8F52-0040333594A3>
 DWORD nNormals;
 array Vector normals[nNormals];
 DWORD nFaceNormals;
 array MeshFace faceNormals[nFaceNormals];
}

template MeshVertexColors {
 <1630B821-7842-11cf-8F52-0040333594A3>
 DWORD nVertexColors;
 array IndexedColor vertexColors[nVertexColors];
}

template Mesh {
 <3D82AB44-62DA-11cf-AB39-0020AF71E433>
 DWORD nVertices;
 array Vector vertices[nVertices];
 DWORD nFaces;
 array MeshFace faces[nFaces];
 [...]
}

Header{
1;
0;
1;
}

Mesh {
 740;
 -450.00001;0.00000;200.00000;,
 -409.09092;0.00000;200.00000;,
 -409.09092;0.00000;160.00000;,
 -450.00001;0.00000;160.00000;,
 -368.18182;0.00000;200.00000;,
 -327.27273;0.00000;200.00000;,
 -327.27273;0.00000;160.00000;,
 -368.18182;0.00000;160.00000;,
 -286.36363;0.00000;200.00000;,
 -286.36363;0.00000;160.00000;,
 -245.45454;0.00000;200.00000;,
 -245.45454;0.00000;160.00000;,
 -204.54546;0.00000;200.00000;,
 -204.54546;0.00000;160.00000;,
 -122.72727;0.00000;200.00000;,
 -81.81818;0.00000;200.00000;,
 -81.81818;0.00000;160.00000;,
 -122.72727;0.00000;160.00000;,
 -40.90909;0.00000;200.00000;,
 0.00000;0.00000;200.00000;,
 0.00000;0.00000;160.00000;,
 -40.90909;0.00000;160.00000;,
 40.90909;0.00000;200.00000;,
 40.90909;0.00000;160.00000;,
 122.72727;0.00000;200.00000;,
 163.63637;0.00000;200.00000;,
 163.63637;0.00000;160.00000;,
 122.72727;0.00000;160.00000;,
 204.54546;0.00000;200.00000;,
 204.54546;0.00000;160.00000;,
 245.45454;0.00000;200.00000;,
 245.45454;0.00000;160.00000;,
 286.36365;0.00000;200.00000;,
 286.36365;0.00000;160.00000;,
 327.27273;0.00000;200.00000;,
 327.27273;0.00000;160.00000;,
 409.09092;0.00000;200.00000;,
 450.00001;0.00000;200.00000;,
 450.00001;0.00000;160.00000;,
 409.09092;0.00000;160.00000;,
 -409.09092;0.00000;120.00000;,
 -450.00001;0.00000;120.00000;,
 -327.27273;0.00000;120.00000;,
 -368.18182;0.00000;120.00000;,
 -163.63637;0.00000;160.00000;,
 -163.63637;0.00000;120.00000;,
 -204.54546;0.00000;120.00000;,
 -81.81818;0.00000;120.00000;,
 -122.72727;0.00000;120.00000;,
 0.00000;0.00000;120.00000;,
 -40.90909;0.00000;120.00000;,
 40.90909;0.00000;120.00000;,
 40.90909;0.00000;160.00000;,
 81.81819;0.00000;160.00000;,
 81.81819;0.00000;120.00000;,
 40.90909;0.00000;120.00000;,
 122.72727;0.00000;120.00000;,
 163.63637;0.00000;120.00000;,
 204.54546;0.00000;120.00000;,
 327.27273;0.00000;120.00000;,
 286.36365;0.00000;120.00000;,
 368.18184;0.00000;160.00000;,
 368.18184;0.00000;120.00000;,
 409.09092;0.00000;120.00000;,
 450.00001;0.00000;120.00000;,
 -409.09092;0.00000;80.00000;,
 -450.00001;0.00000;80.00000;,
 -327.27273;0.00000;80.00000;,
 -368.18182;0.00000;80.00000;,
 -163.63637;0.00000;80.00000;,
 -204.54546;0.00000;80.00000;,
 -122.72727;0.00000;80.00000;,
 -81.81818;0.00000;80.00000;,
 0.00000;0.00000;80.00000;,
 -40.90909;0.00000;80.00000;,
 40.90909;0.00000;80.00000;,
 163.63637;0.00000;80.00000;,
 122.72727;0.00000;80.00000;,
 204.54546;0.00000;80.00000;,
 245.45454;0.00000;120.00000;,
 286.36365;0.00000;80.00000;,
 245.45454;0.00000;80.00000;,
 327.27273;0.00000;80.00000;,
 450.00001;0.00000;80.00000;,
 409.09092;0.00000;80.00000;,
 -409.09092;0.00000;40.00000;,
 -450.00001;0.00000;40.00000;,
 -368.18182;0.00000;40.00000;,
 -327.27273;0.00000;40.00000;,
 -286.36363;0.00000;80.00000;,
 -286.36363;0.00000;40.00000;,
 -245.45454;0.00000;80.00000;,
 -245.45454;0.00000;40.00000;,
 -204.54546;0.00000;40.00000;,
 -163.63637;0.00000;40.00000;,
 -122.72727;0.00000;40.00000;,
 -81.81818;0.00000;40.00000;,
 -40.90909;0.00000;80.00000;,
 -40.90909;0.00000;40.00000;,
 0.00000;0.00000;40.00000;,
 -40.90909;0.00000;40.00000;,
 40.90909;0.00000;40.00000;,
 40.90909;0.00000;80.00000;,
 81.81819;0.00000;80.00000;,
 81.81819;0.00000;40.00000;,
 40.90909;0.00000;40.00000;,
 122.72727;0.00000;40.00000;,
 163.63637;0.00000;40.00000;,
 204.54546;0.00000;40.00000;,
 245.45454;0.00000;40.00000;,
 286.36365;0.00000;40.00000;,
 327.27273;0.00000;40.00000;,
 368.18184;0.00000;80.00000;,
 368.18184;0.00000;40.00000;,
 409.09092;0.00000;40.00000;,
 450.00001;0.00000;40.00000;,
 -409.09092;0.00000;0.00000;,
 -450.00001;0.00000;0.00000;,
 -327.27273;0.00000;0.00000;,
 -368.18182;0.00000;0.00000;,
 -286.36363;0.00000;0.00000;,
 -245.45454;0.00000;0.00000;,
 -163.63637;0.00000;0.00000;,
 -204.54546;0.00000;0.00000;,
 -122.72727;0.00000;0.00000;,
 -81.81818;0.00000;0.00000;,
 0.00000;0.00000;0.00000;,
 -40.90909;0.00000;0.00000;,
 40.90909;0.00000;0.00000;,
 122.72727;0.00000;0.00000;,
 81.81819;0.00000;0.00000;,
 163.63637;0.00000;0.00000;,
 204.54546;0.00000;0.00000;,
 286.36365;0.00000;0.00000;,
 245.45454;0.00000;0.00000;,
 327.27273;0.00000;0.00000;,
 368.18184;0.00000;0.00000;,
 450.00001;0.00000;0.00000;,
 409.09092;0.00000;0.00000;,
 -409.09092;0.00000;-40.00000;,
 -450.00001;0.00000;-40.00000;,
 -327.27273;0.00000;-40.00000;,
 -368.18182;0.00000;-40.00000;,
 -286.36363;0.00000;-40.00000;,
 -245.45454;0.00000;-40.00000;,
 -163.63637;0.00000;-40.00000;,
 -204.54546;0.00000;-40.00000;,
 -122.72727;0.00000;-40.00000;,
 -81.81818;0.00000;-40.00000;,
 0.00000;0.00000;-40.00000;,
 -40.90909;0.00000;-40.00000;,
 40.90909;0.00000;-40.00000;,
 122.72727;0.00000;-40.00000;,
 81.81819;0.00000;-40.00000;,
 163.63637;0.00000;-40.00000;,
 204.54546;0.00000;-40.00000;,
 286.36365;0.00000;-40.00000;,
 245.45454;0.00000;-40.00000;,
 327.27273;0.00000;-40.00000;,
 368.18184;0.00000;-40.00000;,
 450.00001;0.00000;-40.00000;,
 409.09092;0.00000;-40.00000;,
 -409.09092;0.00000;-80.00000;,
 -450.00001;0.00000;-80.00000;,
 -368.18182;0.00000;-80.00000;,
 -327.27273;0.00000;-80.00000;,
 -286.36363;0.00000;-80.00000;,
 -245.45454;0.00000;-80.00000;,
 -204.54546;0.00000;-80.00000;,
 -163.63637;0.00000;-80.00000;,
 -122.72727;0.00000;-80.00000;,
 -81.81818;0.00000;-80.00000;,
 -40.90909;0.00000;-40.00000;,
 -40.90909;0.00000;-80.00000;,
 0.00000;0.00000;-80.00000;,
 -40.90909;0.00000;-80.00000;,
 40.90909;0.00000;-80.00000;,
 40.90909;0.00000;-40.00000;,
 81.81819;0.00000;-80.00000;,
 40.90909;0.00000;-80.00000;,
 122.72727;0.00000;-80.00000;,
 163.63637;0.00000;-80.00000;,
 204.54546;0.00000;-80.00000;,
 245.45454;0.00000;-80.00000;,
 286.36365;0.00000;-80.00000;,
 327.27273;0.00000;-80.00000;,
 368.18184;0.00000;-80.00000;,
 409.09092;0.00000;-80.00000;,
 450.00001;0.00000;-80.00000;,
 -409.09092;0.00000;-120.00000;,
 -450.00001;0.00000;-120.00000;,
 -286.36363;0.00000;-120.00000;,
 -327.27273;0.00000;-120.00000;,
 -245.45454;0.00000;-120.00000;,
 -204.54546;0.00000;-120.00000;,
 -163.63637;0.00000;-120.00000;,
 -122.72727;0.00000;-120.00000;,
 0.00000;0.00000;-120.00000;,
 -40.90909;0.00000;-120.00000;,
 40.90909;0.00000;-120.00000;,
 122.72727;0.00000;-120.00000;,
 81.81819;0.00000;-120.00000;,
 204.54546;0.00000;-120.00000;,
 163.63637;0.00000;-120.00000;,
 245.45454;0.00000;-120.00000;,
 286.36365;0.00000;-120.00000;,
 327.27273;0.00000;-120.00000;,
 450.00001;0.00000;-120.00000;,
 409.09092;0.00000;-120.00000;,
 -409.09092;0.00000;-160.00000;,
 -450.00001;0.00000;-160.00000;,
 -368.18182;0.00000;-120.00000;,
 -368.18182;0.00000;-160.00000;,
 -286.36363;0.00000;-160.00000;,
 -327.27273;0.00000;-160.00000;,
 -122.72727;0.00000;-160.00000;,
 -163.63637;0.00000;-160.00000;,
 0.00000;0.00000;-160.00000;,
 -40.90909;0.00000;-160.00000;,
 40.90909;0.00000;-160.00000;,
 122.72727;0.00000;-160.00000;,
 81.81819;0.00000;-160.00000;,
 163.63637;0.00000;-160.00000;,
 204.54546;0.00000;-160.00000;,
 327.27273;0.00000;-160.00000;,
 286.36365;0.00000;-160.00000;,
 450.00001;0.00000;-160.00000;,
 409.09092;0.00000;-160.00000;,
 -409.09092;0.00000;-200.00000;,
 -450.00001;0.00000;-200.00000;,
 -368.18182;0.00000;-200.00000;,
 -327.27273;0.00000;-200.00000;,
 -286.36363;0.00000;-200.00000;,
 -245.45454;0.00000;-160.00000;,
 -245.45454;0.00000;-200.00000;,
 -204.54546;0.00000;-160.00000;,
 -204.54546;0.00000;-200.00000;,
 -163.63637;0.00000;-200.00000;,
 -122.72727;0.00000;-200.00000;,
 -81.81818;0.00000;-160.00000;,
 -81.81818;0.00000;-200.00000;,
 -40.90909;0.00000;-160.00000;,
 -40.90909;0.00000;-200.00000;,
 0.00000;0.00000;-200.00000;,
 -40.90909;0.00000;-200.00000;,
 40.90909;0.00000;-200.00000;,
 40.90909;0.00000;-160.00000;,
 81.81819;0.00000;-200.00000;,
 40.90909;0.00000;-200.00000;,
 122.72727;0.00000;-200.00000;,
 163.63637;0.00000;-200.00000;,
 204.54546;0.00000;-200.00000;,
 245.45454;0.00000;-160.00000;,
 245.45454;0.00000;-200.00000;,
 286.36365;0.00000;-200.00000;,
 327.27273;0.00000;-200.00000;,
 368.18184;0.00000;-160.00000;,
 368.18184;0.00000;-200.00000;,
 409.09092;0.00000;-200.00000;,
 450.00001;0.00000;-200.00000;,
 -368.18182;0.68188;160.00000;,
 -409.09092;0.68188;160.00000;,
 -368.18182;0.68188;120.00000;,
 -409.09092;0.68188;120.00000;,
 -204.54546;0.68188;160.00000;,
 -245.45454;0.68188;160.00000;,
 -204.54546;0.68188;120.00000;,
 -245.45454;0.68188;120.00000;,
 -245.45454;0.00000;120.00000;,
 -40.90909;0.68188;160.00000;,
 -81.81818;0.68188;160.00000;,
 -40.90909;0.00000;160.00000;,
 -40.90909;0.68188;120.00000;,
 -40.90909;0.68188;160.00000;,
 -81.81818;0.68188;120.00000;,
 -368.18182;0.68188;80.00000;,
 -409.09092;0.68188;80.00000;,
 -204.54546;0.68188;80.00000;,
 -245.45454;0.68188;80.00000;,
 -40.90909;0.68188;80.00000;,
 -81.81818;0.68188;80.00000;,
 -40.90909;0.68188;80.00000;,
 -368.18182;0.68188;40.00000;,
 -409.09092;0.68188;40.00000;,
 -368.18182;0.68188;0.00000;,
 -409.09092;0.68188;0.00000;,
 -204.54546;0.68188;40.00000;,
 -245.45454;0.68188;40.00000;,
 -204.54546;0.68188;0.00000;,
 -245.45454;0.68188;0.00000;,
 -40.90909;0.68188;40.00000;,
 -81.81818;0.68188;40.00000;,
 -40.90909;0.68188;0.00000;,
 -40.90909;0.00000;0.00000;,
 -81.81818;0.68188;0.00000;,
 81.81819;0.68188;40.00000;,
 40.90909;0.68188;40.00000;,
 81.81819;0.68188;0.00000;,
 40.90909;0.68188;0.00000;,
 40.90909;0.00000;0.00000;,
 -368.18182;0.68188;-40.00000;,
 -409.09092;0.68188;-40.00000;,
 -204.54546;0.68188;-40.00000;,
 -245.45454;0.68188;-40.00000;,
 -40.90909;0.68188;-40.00000;,
 -81.81818;0.68188;-40.00000;,
 81.81819;0.68188;-40.00000;,
 40.90909;0.68188;-40.00000;,
 245.45454;66.82430;40.00000;,
 204.54546;66.82430;40.00000;,
 245.45454;66.82430;0.00000;,
 204.54546;66.82430;0.00000;,
 409.09092;66.82430;40.00000;,
 368.18184;66.82430;40.00000;,
 409.09092;66.82430;0.00000;,
 368.18184;66.82430;0.00000;,
 245.45454;66.82430;-40.00000;,
 204.54546;66.82430;-40.00000;,
 409.09092;66.82430;-40.00000;,
 368.18184;66.82430;-40.00000;,
 -368.18182;67.50618;40.00000;,
 -409.09092;67.50618;40.00000;,
 -368.18182;67.50618;0.00000;,
 -409.09092;67.50618;0.00000;,
 -204.54546;67.50618;40.00000;,
 -245.45454;67.50618;40.00000;,
 -204.54546;67.50618;0.00000;,
 -245.45454;67.50618;0.00000;,
 -40.90909;67.50618;40.00000;,
 -81.81818;67.50618;40.00000;,
 -40.90909;67.50618;0.00000;,
 -81.81818;67.50618;0.00000;,
 81.81819;67.50618;40.00000;,
 40.90909;67.50618;40.00000;,
 81.81819;67.50618;0.00000;,
 40.90909;67.50618;0.00000;,
 -368.18182;67.50618;-40.00000;,
 -409.09092;67.50618;-40.00000;,
 -204.54546;67.50618;-40.00000;,
 -245.45454;67.50618;-40.00000;,
 -40.90909;67.50618;-40.00000;,
 -81.81818;67.50618;-40.00000;,
 81.81819;67.50618;-40.00000;,
 40.90909;67.50618;-40.00000;,
 -450.00001;68.93100;35.11391;,
 450.00001;68.93100;35.11391;,
 450.00001;68.93100;-36.31320;,
 -450.00001;68.93100;-36.31320;,
 450.00001;77.79545;-45.00000;,
 450.00001;77.79545;-36.31320;,
 450.00001;68.93100;-45.00000;,
 -450.00001;77.79545;-45.00000;,
 -450.00001;68.93100;-45.00000;,
 -450.00001;77.79545;-36.31320;,
 -450.00001;77.79545;45.00000;,
 -450.00001;77.79545;35.11391;,
 -450.00001;68.93100;45.00000;,
 450.00001;77.79545;45.00000;,
 450.00001;68.93100;45.00000;,
 450.00001;77.79545;35.11391;,
 -81.81818;95.46324;-80.00000;,
 -122.72727;95.46324;-80.00000;,
 -122.72727;0.00000;-80.00000;,
 -81.81818;0.00000;-80.00000;,
 -122.72727;95.46324;-120.00000;,
 -122.72727;0.00000;-120.00000;,
 -122.72727;95.46324;-80.00000;,
 -81.81818;95.46324;-80.00000;,
 -81.81818;95.46324;-120.00000;,
 -122.72727;95.46324;-120.00000;,
 -40.90909;95.46324;-80.00000;,
 -40.90909;0.00000;-80.00000;,
 -40.90909;95.46324;-120.00000;,
 -40.90909;0.00000;-120.00000;,
 -40.90909;95.46324;-80.00000;,
 -40.90909;95.46324;-120.00000;,
 -122.72727;95.46324;-160.00000;,
 -81.81818;95.46324;-160.00000;,
 -81.81818;0.00000;-160.00000;,
 -122.72727;0.00000;-160.00000;,
 -81.81818;95.46324;-160.00000;,
 -122.72727;95.46324;-160.00000;,
 -40.90909;95.46324;-160.00000;,
 -40.90909;0.00000;-160.00000;,
 -40.90909;95.46324;-160.00000;,
 81.81819;91.37197;-80.00000;,
 40.90909;91.37197;-80.00000;,
 40.90909;0.00000;-80.00000;,
 81.81819;0.00000;-80.00000;,
 81.81819;91.37197;-120.00000;,
 81.81819;0.00000;-120.00000;,
 40.90909;91.37197;-120.00000;,
 40.90909;0.00000;-120.00000;,
 40.90909;91.37197;-80.00000;,
 81.81819;91.37197;-80.00000;,
 81.81819;91.37197;-120.00000;,
 40.90909;91.37197;-120.00000;,
 81.81819;91.37197;-160.00000;,
 81.81819;0.00000;-160.00000;,
 40.90909;91.37197;-160.00000;,
 40.90909;0.00000;-160.00000;,
 81.81819;91.37197;-160.00000;,
 40.90909;91.37197;-160.00000;,
 163.63637;102.96392;-80.00000;,
 122.72727;102.96392;-80.00000;,
 122.72727;0.00000;-80.00000;,
 163.63637;0.00000;-80.00000;,
 163.63637;102.96392;-120.00000;,
 163.63637;0.00000;-120.00000;,
 122.72727;102.96392;-120.00000;,
 122.72727;0.00000;-120.00000;,
 122.72727;102.96392;-80.00000;,
 163.63637;102.96392;-80.00000;,
 163.63637;102.96392;-120.00000;,
 122.72727;102.96392;-120.00000;,
 245.45454;102.28206;-120.00000;,
 204.54546;102.28206;-120.00000;,
 204.54546;0.00000;-120.00000;,
 245.45454;0.00000;-120.00000;,
 204.54546;102.28206;-160.00000;,
 245.45454;102.28206;-160.00000;,
 245.45454;0.00000;-160.00000;,
 204.54546;0.00000;-160.00000;,
 204.54546;102.28206;-120.00000;,
 245.45454;102.28206;-120.00000;,
 245.45454;102.28206;-160.00000;,
 204.54546;102.28206;-160.00000;,
 286.36365;102.28206;-120.00000;,
 286.36365;0.00000;-120.00000;,
 286.36365;102.28206;-160.00000;,
 286.36365;0.00000;-160.00000;,
 286.36365;102.28206;-120.00000;,
 286.36365;102.28206;-160.00000;,
 368.18184;100.23641;-80.00000;,
 327.27273;100.23641;-80.00000;,
 327.27273;0.00000;-80.00000;,
 368.18184;0.00000;-80.00000;,
 327.27273;100.23641;-120.00000;,
 327.27273;0.00000;-120.00000;,
 327.27273;100.23641;-80.00000;,
 368.18184;100.23641;-80.00000;,
 368.18184;100.23641;-120.00000;,
 327.27273;100.23641;-120.00000;,
 409.09092;100.23641;-80.00000;,
 409.09092;0.00000;-80.00000;,
 409.09092;100.23641;-120.00000;,
 409.09092;0.00000;-120.00000;,
 409.09092;100.23641;-80.00000;,
 409.09092;100.23641;-120.00000;,
 327.27273;100.23641;-160.00000;,
 368.18184;100.23641;-160.00000;,
 368.18184;0.00000;-160.00000;,
 327.27273;0.00000;-160.00000;,
 368.18184;100.23641;-160.00000;,
 327.27273;100.23641;-160.00000;,
 409.09092;100.23641;-160.00000;,
 409.09092;0.00000;-160.00000;,
 409.09092;100.23641;-160.00000;,
 -245.45454;113.19214;-120.00000;,
 -286.36363;113.19214;-120.00000;,
 -286.36363;0.00000;-120.00000;,
 -245.45454;0.00000;-120.00000;,
 -286.36363;113.19214;-160.00000;,
 -245.45454;113.19214;-160.00000;,
 -245.45454;0.00000;-160.00000;,
 -286.36363;0.00000;-160.00000;,
 -286.36363;113.19214;-120.00000;,
 -245.45454;113.19214;-120.00000;,
 -245.45454;113.19214;-160.00000;,
 -286.36363;113.19214;-160.00000;,
 -204.54546;113.19214;-120.00000;,
 -204.54546;0.00000;-120.00000;,
 -204.54546;113.19214;-160.00000;,
 -204.54546;0.00000;-160.00000;,
 -204.54546;113.19214;-120.00000;,
 -204.54546;113.19214;-160.00000;,
 -163.63637;113.19214;-120.00000;,
 -163.63637;0.00000;-120.00000;,
 -163.63637;113.19214;-160.00000;,
 -163.63637;0.00000;-160.00000;,
 -163.63637;113.19214;-120.00000;,
 -163.63637;113.19214;-160.00000;,
 -368.18182;126.82970;-80.00000;,
 -409.09092;126.82970;-80.00000;,
 -409.09092;0.00000;-80.00000;,
 -368.18182;0.00000;-80.00000;,
 -409.09092;126.82970;-120.00000;,
 -368.18182;126.82971;-120.00000;,
 -368.18182;0.00000;-120.00000;,
 -409.09092;0.00000;-120.00000;,
 -409.09092;126.82970;-80.00000;,
 -368.18182;126.82970;-80.00000;,
 -368.18182;126.82971;-120.00000;,
 -409.09092;126.82970;-120.00000;,
 -327.27273;126.82970;-80.00000;,
 -327.27273;0.00000;-80.00000;,
 -327.27273;126.82970;-120.00000;,
 -327.27273;0.00000;-120.00000;,
 -327.27273;126.82970;-80.00000;,
 -327.27273;126.82970;-120.00000;,
 -327.27273;126.82970;-160.00000;,
 -327.27273;0.00000;-160.00000;,
 -368.18182;126.82970;-160.00000;,
 -368.18182;0.00000;-160.00000;,
 -327.27273;126.82970;-160.00000;,
 -368.18182;126.82970;-160.00000;,
 368.18184;123.42036;120.00000;,
 327.27273;123.42036;120.00000;,
 327.27273;0.00000;120.00000;,
 368.18184;0.00000;120.00000;,
 327.27273;123.42036;80.00000;,
 368.18184;123.42036;80.00000;,
 368.18184;0.00000;80.00000;,
 327.27273;0.00000;80.00000;,
 327.27273;123.42036;120.00000;,
 368.18184;123.42036;120.00000;,
 368.18184;123.42036;80.00000;,
 327.27273;123.42036;80.00000;,
 409.09092;123.42036;120.00000;,
 409.09092;0.00000;120.00000;,
 409.09092;123.42036;80.00000;,
 409.09092;0.00000;80.00000;,
 409.09092;123.42036;120.00000;,
 409.09092;123.42036;80.00000;,
 245.45454;109.78275;160.00000;,
 204.54546;109.78275;160.00000;,
 204.54546;0.00000;160.00000;,
 245.45454;0.00000;160.00000;,
 204.54546;109.78275;120.00000;,
 204.54546;0.00000;120.00000;,
 204.54546;109.78275;160.00000;,
 245.45454;109.78275;160.00000;,
 245.45454;109.78275;120.00000;,
 204.54546;109.78275;120.00000;,
 286.36365;109.78275;160.00000;,
 286.36365;0.00000;160.00000;,
 286.36365;109.78275;120.00000;,
 286.36365;0.00000;120.00000;,
 245.45454;109.78275;120.00000;,
 245.45454;0.00000;120.00000;,
 286.36365;109.78275;160.00000;,
 286.36365;109.78275;120.00000;,
 245.45454;109.78275;80.00000;,
 245.45454;0.00000;80.00000;,
 204.54546;109.78275;80.00000;,
 204.54546;0.00000;80.00000;,
 245.45454;109.78275;80.00000;,
 204.54546;109.78275;80.00000;,
 81.81819;113.87403;120.00000;,
 40.90909;113.87403;120.00000;,
 40.90909;0.00000;120.00000;,
 81.81819;0.00000;120.00000;,
 40.90909;113.87403;80.00000;,
 81.81819;113.87403;80.00000;,
 81.81819;0.00000;80.00000;,
 40.90909;0.00000;80.00000;,
 40.90909;113.87403;120.00000;,
 81.81819;113.87403;120.00000;,
 81.81819;113.87403;80.00000;,
 40.90909;113.87403;80.00000;,
 122.72727;113.87403;120.00000;,
 122.72727;0.00000;120.00000;,
 122.72727;113.87403;80.00000;,
 122.72727;0.00000;80.00000;,
 122.72727;113.87403;120.00000;,
 122.72727;113.87403;80.00000;,
 81.81819;102.96393;200.00000;,
 40.90909;102.96393;200.00000;,
 40.90909;0.00000;200.00000;,
 81.81819;0.00000;200.00000;,
 40.90909;102.96393;160.00000;,
 81.81819;102.96393;160.00000;,
 81.81819;0.00000;160.00000;,
 40.90909;0.00000;160.00000;,
 40.90909;102.96393;200.00000;,
 81.81819;102.96393;200.00000;,
 81.81819;102.96393;160.00000;,
 40.90909;102.96393;160.00000;,
 122.72727;102.96393;200.00000;,
 122.72727;0.00000;200.00000;,
 122.72727;102.96393;160.00000;,
 122.72727;0.00000;160.00000;,
 122.72727;102.96393;200.00000;,
 122.72727;102.96393;160.00000;,
 368.18184;99.55452;200.00000;,
 327.27273;99.55452;200.00000;,
 327.27273;0.00000;200.00000;,
 368.18184;0.00000;200.00000;,
 327.27273;99.55452;160.00000;,
 368.18184;99.55452;160.00000;,
 368.18184;0.00000;160.00000;,
 327.27273;0.00000;160.00000;,
 327.27273;99.55452;200.00000;,
 368.18184;99.55452;200.00000;,
 368.18184;99.55452;160.00000;,
 327.27273;99.55452;160.00000;,
 409.09092;99.55452;200.00000;,
 409.09092;0.00000;200.00000;,
 409.09092;99.55452;160.00000;,
 409.09092;0.00000;160.00000;,
 409.09092;99.55452;200.00000;,
 409.09092;99.55452;160.00000;,
 -40.90909;107.73709;200.00000;,
 -81.81818;107.73709;200.00000;,
 -81.81818;0.00000;200.00000;,
 -40.90909;0.00000;200.00000;,
 -40.90909;107.73709;160.00000;,
 -40.90909;0.00000;160.00000;,
 -81.81818;107.73709;160.00000;,
 -40.90909;107.73709;160.00000;,
 -81.81818;107.73709;160.00000;,
 -81.81818;0.00000;160.00000;,
 -81.81818;107.73709;200.00000;,
 -40.90909;107.73709;200.00000;,
 -40.90909;107.73709;160.00000;,
 -81.81818;107.73709;160.00000;,
 -40.90909;108.41897;160.00000;,
 -81.81818;108.41897;160.00000;,
 -40.90909;108.41897;120.00000;,
 -40.90909;108.41897;160.00000;,
 -40.90909;0.68188;160.00000;,
 -40.90909;0.68188;120.00000;,
 -81.81818;108.41897;160.00000;,
 -81.81818;108.41897;120.00000;,
 -81.81818;0.68188;120.00000;,
 -81.81818;0.68188;160.00000;,
 -81.81818;108.41897;160.00000;,
 -40.90909;108.41897;160.00000;,
 -40.90909;108.41897;120.00000;,
 -81.81818;108.41897;120.00000;,
 -40.90909;108.41897;80.00000;,
 -40.90909;0.68188;80.00000;,
 -81.81818;108.41897;80.00000;,
 -81.81818;0.68188;80.00000;,
 -40.90909;108.41897;80.00000;,
 -81.81818;108.41897;80.00000;,
 -163.63637;113.19219;200.00000;,
 -204.54546;113.19219;200.00000;,
 -204.54546;0.00000;200.00000;,
 -163.63637;0.00000;200.00000;,
 -204.54546;113.19219;160.00000;,
 -163.63637;113.19219;160.00000;,
 -163.63637;0.00000;160.00000;,
 -204.54546;0.00000;160.00000;,
 -204.54546;113.19219;200.00000;,
 -163.63637;113.19219;200.00000;,
 -163.63637;113.19219;160.00000;,
 -204.54546;113.19219;160.00000;,
 -122.72727;113.19219;200.00000;,
 -122.72727;0.00000;200.00000;,
 -122.72727;113.19219;160.00000;,
 -122.72727;113.19219;200.00000;,
 -122.72727;113.19219;200.00000;,
 -122.72727;113.19219;160.00000;,
 -122.72727;113.19219;120.00000;,
 -163.63637;113.19219;120.00000;,
 -122.72727;113.19219;120.00000;,
 -122.72727;0.00000;120.00000;,
 -163.63637;0.00000;120.00000;,
 -122.72727;113.19219;120.00000;,
 -163.63637;113.19219;120.00000;,
 -286.36363;124.78410;160.00000;,
 -327.27273;124.78410;160.00000;,
 -327.27273;0.00000;160.00000;,
 -286.36363;0.00000;160.00000;,
 -327.27273;124.78410;120.00000;,
 -327.27273;0.00000;120.00000;,
 -245.45454;124.78410;160.00000;,
 -245.45454;0.00000;160.00000;,
 -245.45454;124.78410;120.00000;,
 -245.45454;0.00000;120.00000;,
 -327.27273;124.78410;80.00000;,
 -286.36363;124.78410;80.00000;,
 -286.36363;0.00000;80.00000;,
 -327.27273;0.00000;80.00000;,
 -245.45454;124.78410;80.00000;,
 -245.45454;0.00000;80.00000;,
 -368.18182;0.68188;200.00000;,
 -409.09092;0.68188;200.00000;,
 -368.18182;0.68188;160.00000;,
 -409.09092;0.68188;160.00000;,
 -286.36363;125.46598;160.00000;,
 -327.27273;125.46598;160.00000;,
 -327.27273;124.78410;160.00000;,
 -286.36363;124.78410;160.00000;,
 -327.27273;125.46598;120.00000;,
 -327.27273;124.78410;120.00000;,
 -327.27273;125.46598;160.00000;,
 -286.36363;125.46598;160.00000;,
 -286.36363;125.46598;120.00000;,
 -327.27273;125.46598;120.00000;,
 -245.45454;125.46598;160.00000;,
 -245.45454;124.78410;160.00000;,
 -245.45454;125.46598;120.00000;,
 -245.45454;124.78410;120.00000;,
 -245.45454;125.46598;160.00000;,
 -245.45454;125.46598;120.00000;,
 -327.27273;125.46598;80.00000;,
 -286.36363;125.46598;80.00000;,
 -286.36363;124.78410;80.00000;,
 -327.27273;124.78410;80.00000;,
 -286.36363;125.46598;80.00000;,
 -327.27273;125.46598;80.00000;,
 -245.45454;125.46598;80.00000;,
 -245.45454;124.78410;80.00000;,
 -245.45454;125.46598;80.00000;,
 -368.18182;136.37608;160.00000;,
 -409.09092;136.37608;160.00000;,
 -368.18182;136.37608;120.00000;,
 -368.18182;136.37608;160.00000;,
 -368.18182;0.68188;160.00000;,
 -368.18182;0.68188;120.00000;,
 -409.09092;136.37608;160.00000;,
 -409.09092;136.37608;120.00000;,
 -409.09092;0.68188;120.00000;,
 -409.09092;0.68188;160.00000;,
 -409.09092;136.37608;160.00000;,
 -368.18182;136.37608;160.00000;,
 -368.18182;136.37608;120.00000;,
 -409.09092;136.37608;120.00000;,
 -368.18182;136.37608;80.00000;,
 -368.18182;0.68188;80.00000;,
 -409.09092;136.37608;80.00000;,
 -409.09092;0.68188;80.00000;,
 -368.18182;136.37608;80.00000;,
 -409.09092;136.37608;80.00000;,
 -368.18182;136.37608;200.00000;,
 -409.09092;136.37608;200.00000;,
 -409.09092;0.68188;200.00000;,
 -368.18182;0.68188;200.00000;,
 -368.18182;136.37608;160.00000;,
 -368.18182;0.68188;160.00000;,
 -409.09092;136.37608;160.00000;,
 -368.18182;136.37608;160.00000;,
 -409.09092;136.37608;160.00000;,
 -409.09092;0.68188;160.00000;,
 -409.09092;136.37608;200.00000;,
 -368.18182;136.37608;200.00000;,
 -368.18182;136.37608;160.00000;,
 -409.09092;136.37608;160.00000;;
 
 437;
 4;0,1,2,3;,
 4;4,5,6,7;,
 4;5,8,9,6;,
 4;8,10,11,9;,
 4;10,12,13,11;,
 4;14,15,16,17;,
 4;18,19,20,21;,
 4;19,22,23,20;,
 4;24,25,26,27;,
 4;25,28,29,26;,
 4;28,30,31,29;,
 4;30,32,33,31;,
 4;32,34,35,33;,
 4;36,37,38,39;,
 4;3,2,40,41;,
 4;7,6,42,43;,
 4;13,44,45,46;,
 4;17,16,47,48;,
 4;21,20,49,50;,
 4;20,23,51,49;,
 4;52,53,54,55;,
 4;53,27,56,54;,
 4;27,26,57,56;,
 4;26,29,58,57;,
 4;33,35,59,60;,
 4;35,61,62,59;,
 4;61,39,63,62;,
 4;39,38,64,63;,
 4;41,40,65,66;,
 4;43,42,67,68;,
 4;46,45,69,70;,
 4;45,48,71,69;,
 4;48,47,72,71;,
 4;50,49,73,74;,
 4;49,51,75,73;,
 4;56,57,76,77;,
 4;57,58,78,76;,
 4;79,60,80,81;,
 4;60,59,82,80;,
 4;63,64,83,84;,
 4;66,65,85,86;,
 4;65,68,87,85;,
 4;68,67,88,87;,
 4;67,89,90,88;,
 4;89,91,92,90;,
 4;91,70,93,92;,
 4;70,69,94,93;,
 4;69,71,95,94;,
 4;71,72,96,95;,
 4;72,97,98,96;,
 4;74,73,99,100;,
 4;73,75,101,99;,
 4;102,103,104,105;,
 4;103,77,106,104;,
 4;77,76,107,106;,
 4;76,78,108,107;,
 4;78,81,109,108;,
 4;81,80,110,109;,
 4;80,82,111,110;,
 4;82,112,113,111;,
 4;112,84,114,113;,
 4;84,83,115,114;,
 4;86,85,116,117;,
 4;87,88,118,119;,
 4;88,90,120,118;,
 4;90,92,121,120;,
 4;93,94,122,123;,
 4;94,95,124,122;,
 4;95,96,125,124;,
 4;100,99,126,127;,
 4;99,101,128,126;,
 4;104,106,129,130;,
 4;106,107,131,129;,
 4;107,108,132,131;,
 4;109,110,133,134;,
 4;110,111,135,133;,
 4;111,113,136,135;,
 4;114,115,137,138;,
 4;117,116,139,140;,
 4;119,118,141,142;,
 4;118,120,143,141;,
 4;120,121,144,143;,
 4;123,122,145,146;,
 4;122,124,147,145;,
 4;124,125,148,147;,
 4;127,126,149,150;,
 4;126,128,151,149;,
 4;130,129,152,153;,
 4;129,131,154,152;,
 4;131,132,155,154;,
 4;134,133,156,157;,
 4;133,135,158,156;,
 4;135,136,159,158;,
 4;138,137,160,161;,
 4;140,139,162,163;,
 4;139,142,164,162;,
 4;142,141,165,164;,
 4;141,143,166,165;,
 4;143,144,167,166;,
 4;144,146,168,167;,
 4;146,145,169,168;,
 4;145,147,170,169;,
 4;147,148,171,170;,
 4;148,172,173,171;,
 4;150,149,174,175;,
 4;149,151,176,174;,
 4;177,153,178,179;,
 4;153,152,180,178;,
 4;152,154,181,180;,
 4;154,155,182,181;,
 4;155,157,183,182;,
 4;157,156,184,183;,
 4;156,158,185,184;,
 4;158,159,186,185;,
 4;159,161,187,186;,
 4;161,160,188,187;,
 4;163,162,189,190;,
 4;165,166,191,192;,
 4;166,167,193,191;,
 4;167,168,194,193;,
 4;168,169,195,194;,
 4;169,170,196,195;,
 4;175,174,197,198;,
 4;174,176,199,197;,
 4;178,180,200,201;,
 4;181,182,202,203;,
 4;182,183,204,202;,
 4;183,184,205,204;,
 4;184,185,206,205;,
 4;187,188,207,208;,
 4;190,189,209,210;,
 4;189,211,212,209;,
 4;192,191,213,214;,
 4;195,196,215,216;,
 4;198,197,217,218;,
 4;197,199,219,217;,
 4;201,200,220,221;,
 4;200,203,222,220;,
 4;203,202,223,222;,
 4;205,206,224,225;,
 4;208,207,226,227;,
 4;210,209,228,229;,
 4;209,212,230,228;,
 4;212,214,231,230;,
 4;214,213,232,231;,
 4;213,233,234,232;,
 4;233,235,236,234;,
 4;235,216,237,236;,
 4;216,215,238,237;,
 4;215,239,240,238;,
 4;239,241,242,240;,
 4;218,217,243,244;,
 4;217,219,245,243;,
 4;246,221,247,248;,
 4;221,220,249,247;,
 4;220,222,250,249;,
 4;222,223,251,250;,
 4;223,252,253,251;,
 4;252,225,254,253;,
 4;225,224,255,254;,
 4;224,256,257,255;,
 4;256,227,258,257;,
 4;227,226,259,258;,
 4;260,261,2,7;,
 4;262,260,7,43;,
 4;261,263,40,2;,
 4;264,265,11,13;,
 4;266,264,13,46;,
 4;265,267,268,11;,
 4;265,264,266,267;,
 4;269,270,16,271;,
 4;272,273,21,50;,
 4;270,274,47,16;,
 4;275,262,43,68;,
 4;276,275,68,65;,
 4;263,276,65,40;,
 4;277,266,46,70;,
 4;278,277,70,91;,
 4;267,278,91,268;,
 4;267,266,277,278;,
 4;279,272,50,74;,
 4;280,281,97,72;,
 4;274,280,72,47;,
 4;282,283,85,87;,
 4;284,282,87,119;,
 4;283,285,116,85;,
 4;286,287,92,93;,
 4;288,286,93,123;,
 4;287,289,121,92;,
 4;290,291,96,98;,
 4;292,290,98,293;,
 4;291,294,125,96;,
 4;295,296,105,104;,
 4;297,295,104,130;,
 4;296,298,299,105;,
 4;300,284,119,142;,
 4;301,300,142,139;,
 4;285,301,139,116;,
 4;302,288,123,146;,
 4;303,302,146,144;,
 4;289,303,144,121;,
 4;304,292,293,172;,
 4;305,304,172,148;,
 4;294,305,148,125;,
 4;306,297,130,153;,
 4;307,306,153,177;,
 4;298,307,177,299;,
 4;308,309,108,109;,
 4;310,308,109,134;,
 4;309,311,132,108;,
 4;309,308,310,311;,
 4;312,313,113,114;,
 4;314,312,114,138;,
 4;313,315,136,113;,
 4;313,312,314,315;,
 4;316,310,134,157;,
 4;317,316,157,155;,
 4;311,317,155,132;,
 4;311,310,316,317;,
 4;318,314,138,161;,
 4;319,318,161,159;,
 4;315,319,159,136;,
 4;315,314,318,319;,
 4;320,321,283,282;,
 4;322,320,282,284;,
 4;321,323,285,283;,
 4;321,320,322,323;,
 4;324,325,287,286;,
 4;326,324,286,288;,
 4;325,327,289,287;,
 4;325,324,326,327;,
 4;328,329,291,290;,
 4;330,328,290,292;,
 4;329,331,294,291;,
 4;329,328,330,331;,
 4;332,333,296,295;,
 4;334,332,295,297;,
 4;333,335,298,296;,
 4;333,332,334,335;,
 4;336,322,284,300;,
 4;337,336,300,301;,
 4;323,337,301,285;,
 4;323,322,336,337;,
 4;338,326,288,302;,
 4;339,338,302,303;,
 4;327,339,303,289;,
 4;327,326,338,339;,
 4;340,330,292,304;,
 4;341,340,304,305;,
 4;331,341,305,294;,
 4;331,330,340,341;,
 4;342,334,297,306;,
 4;343,342,306,307;,
 4;335,343,307,298;,
 4;335,334,342,343;,
 4;344,345,346,347;,
 4;348,349,346,350;,
 4;351,348,350,352;,
 4;353,351,352,347;,
 4;349,353,347,346;,
 4;349,348,351,353;,
 4;354,355,344,356;,
 4;357,354,356,358;,
 4;359,357,358,345;,
 4;355,359,345,344;,
 4;355,354,357,359;,
 4;360,361,362,363;,
 4;361,364,365,362;,
 4;366,367,368,369;,
 4;370,360,363,371;,
 4;372,370,371,373;,
 4;367,374,375,368;,
 4;376,377,378,379;,
 4;364,376,379,365;,
 4;369,368,380,381;,
 4;382,372,373,383;,
 4;377,382,383,378;,
 4;368,375,384,380;,
 4;385,386,387,388;,
 4;389,385,388,390;,
 4;386,391,392,387;,
 4;393,394,395,396;,
 4;397,389,390,398;,
 4;399,397,398,400;,
 4;391,399,400,392;,
 4;396,395,401,402;,
 4;403,404,405,406;,
 4;407,403,406,408;,
 4;409,407,408,410;,
 4;404,409,410,405;,
 4;411,412,413,414;,
 4;415,416,417,418;,
 4;419,420,421,422;,
 4;416,419,422,417;,
 4;423,424,425,426;,
 4;427,415,418,428;,
 4;429,427,428,430;,
 4;420,429,430,421;,
 4;424,431,432,425;,
 4;433,434,435,436;,
 4;434,437,438,435;,
 4;439,440,441,442;,
 4;443,433,436,444;,
 4;445,443,444,446;,
 4;440,447,448,441;,
 4;449,450,451,452;,
 4;437,449,452,438;,
 4;442,441,453,454;,
 4;455,445,446,456;,
 4;450,455,456,451;,
 4;441,448,457,453;,
 4;458,459,460,461;,
 4;462,463,464,465;,
 4;459,462,465,460;,
 4;466,467,468,469;,
 4;470,458,461,471;,
 4;463,472,473,464;,
 4;467,474,475,468;,
 4;476,470,471,477;,
 4;478,476,477,479;,
 4;472,478,479,473;,
 4;474,480,481,475;,
 4;482,483,484,485;,
 4;486,487,488,489;,
 4;483,486,489,484;,
 4;490,491,492,493;,
 4;494,482,485,495;,
 4;496,494,495,497;,
 4;491,498,499,492;,
 4;500,496,497,501;,
 4;502,500,501,503;,
 4;487,502,503,488;,
 4;492,499,504,505;,
 4;506,507,508,509;,
 4;510,511,512,513;,
 4;507,510,513,508;,
 4;514,515,516,517;,
 4;518,506,509,519;,
 4;520,518,519,521;,
 4;511,520,521,512;,
 4;515,522,523,516;,
 4;524,525,526,527;,
 4;525,528,529,526;,
 4;530,531,532,533;,
 4;534,524,527,535;,
 4;536,534,535,537;,
 4;538,536,537,539;,
 4;531,540,541,532;,
 4;542,538,539,543;,
 4;544,542,543,545;,
 4;528,544,545,529;,
 4;533,532,546,547;,
 4;548,549,550,551;,
 4;552,553,554,555;,
 4;549,552,555,550;,
 4;556,557,558,559;,
 4;560,548,551,561;,
 4;562,560,561,563;,
 4;553,562,563,554;,
 4;557,564,565,558;,
 4;566,567,568,569;,
 4;570,571,572,573;,
 4;567,570,573,568;,
 4;574,575,576,577;,
 4;578,566,569,579;,
 4;580,578,579,581;,
 4;571,580,581,572;,
 4;575,582,583,576;,
 4;584,585,586,587;,
 4;588,589,590,591;,
 4;585,588,591,586;,
 4;592,593,594,595;,
 4;596,584,587,597;,
 4;598,596,597,599;,
 4;589,598,599,590;,
 4;593,600,601,594;,
 4;602,603,604,605;,
 4;606,602,605,607;,
 4;608,609,271,16;,
 4;603,610,611,604;,
 4;612,613,614,615;,
 4;616,617,270,269;,
 4;618,619,620,621;,
 4;622,623,624,625;,
 4;626,627,628,629;,
 4;630,618,621,631;,
 4;632,630,631,633;,
 4;623,632,633,624;,
 4;629,628,634,635;,
 4;636,637,638,639;,
 4;640,641,642,643;,
 4;637,640,643,638;,
 4;644,645,646,647;,
 4;648,636,639,649;,
 4;650,651,14,17;,
 4;645,652,653,646;,
 4;654,650,17,48;,
 4;655,656,657,658;,
 4;641,655,658,642;,
 4;646,653,659,660;,
 4;661,662,663,664;,
 4;662,665,666,663;,
 4;667,661,664,668;,
 4;669,667,668,670;,
 4;671,672,673,674;,
 4;665,671,674,666;,
 4;675,669,670,676;,
 4;672,675,676,673;,
 4;677,678,1,4;,
 4;679,677,4,7;,
 4;680,679,7,2;,
 4;678,680,2,1;,
 4;681,682,683,684;,
 4;682,685,686,683;,
 4;687,688,689,690;,
 4;691,681,684,692;,
 4;693,691,692,694;,
 4;688,695,696,689;,
 4;697,698,699,700;,
 4;685,697,700,686;,
 4;690,689,701,702;,
 4;703,693,694,704;,
 4;698,703,704,699;,
 4;689,696,705,701;,
 4;706,707,261,260;,
 4;708,709,710,711;,
 4;712,713,714,715;,
 4;716,717,718,719;,
 4;720,708,711,721;,
 4;722,720,721,723;,
 4;713,722,723,714;,
 4;719,718,724,725;,
 4;726,727,728,729;,
 4;730,726,729,731;,
 4;732,733,679,680;,
 4;727,734,735,728;,
 4;736,737,738,739;;
 
 MeshMaterialList {
  7;
  437;
  5,
  5,
  5,
  5,
  5,
  5,
  0,
  0,
  5,
  5,
  5,
  5,
  5,
  5,
  5,
  5,
  5,
  5,
  0,
  0,
  5,
  5,
  5,
  5,
  5,
  5,
  5,
  5,
  5,
  5,
  5,
  5,
  5,
  0,
  0,
  5,
  5,
  5,
  5,
  5,
  5,
  5,
  5,
  5,
  5,
  5,
  5,
  5,
  5,
  5,
  0,
  0,
  5,
  5,
  5,
  5,
  5,
  5,
  5,
  5,
  5,
  5,
  5,
  5,
  5,
  5,
  5,
  5,
  5,
  0,
  0,
  5,
  5,
  5,
  5,
  5,
  5,
  5,
  5,
  5,
  5,
  5,
  5,
  5,
  5,
  0,
  0,
  5,
  5,
  5,
  5,
  5,
  5,
  5,
  5,
  5,
  5,
  5,
  5,
  5,
  5,
  5,
  5,
  5,
  0,
  0,
  5,
  5,
  5,
  5,
  5,
  5,
  5,
  5,
  5,
  5,
  5,
  5,
  5,
  5,
  5,
  5,
  0,
  0,
  5,
  5,
  5,
  5,
  5,
  5,
  5,
  5,
  5,
  5,
  0,
  0,
  5,
  5,
  5,
  5,
  5,
  5,
  5,
  5,
  5,
  5,
  5,
  5,
  5,
  5,
  5,
  0,
  0,
  5,
  5,
  5,
  5,
  5,
  5,
  5,
  5,
  5,
  5,
  5,
  5,
  5,
  5,
  5,
  5,
  5,
  5,
  0,
  5,
  5,
  5,
  5,
  5,
  5,
  5,
  5,
  0,
  5,
  5,
  5,
  5,
  5,
  5,
  5,
  5,
  5,
  5,
  5,
  5,
  5,
  5,
  5,
  5,
  5,
  5,
  5,
  5,
  5,
  5,
  5,
  5,
  5,
  5,
  5,
  5,
  5,
  5,
  5,
  5,
  5,
  5,
  5,
  5,
  5,
  5,
  5,
  5,
  5,
  5,
  5,
  5,
  5,
  5,
  5,
  5,
  5,
  5,
  5,
  5,
  5,
  5,
  5,
  5,
  5,
  5,
  5,
  5,
  5,
  5,
  5,
  5,
  5,
  5,
  5,
  5,
  5,
  5,
  5,
  5,
  5,
  5,
  1,
  1,
  1,
  1,
  1,
  1,
  1,
  1,
  1,
  1,
  1,
  2,
  2,
  6,
  2,
  2,
  6,
  2,
  2,
  6,
  2,
  2,
  6,
  2,
  2,
  2,
  6,
  2,
  2,
  2,
  6,
  2,
  2,
  2,
  2,
  6,
  2,
  2,
  2,
  6,
  2,
  2,
  2,
  6,
  2,
  2,
  6,
  2,
  2,
  6,
  2,
  2,
  6,
  2,
  2,
  6,
  2,
  2,
  2,
  6,
  2,
  2,
  6,
  2,
  2,
  2,
  6,
  2,
  2,
  2,
  6,
  2,
  2,
  6,
  2,
  2,
  2,
  6,
  2,
  2,
  2,
  6,
  2,
  2,
  2,
  6,
  2,
  2,
  6,
  2,
  2,
  2,
  6,
  2,
  2,
  2,
  6,
  2,
  2,
  2,
  6,
  2,
  2,
  2,
  6,
  2,
  2,
  2,
  6,
  2,
  2,
  2,
  6,
  2,
  2,
  2,
  6,
  2,
  2,
  2,
  6,
  2,
  2,
  5,
  2,
  6,
  5,
  2,
  2,
  6,
  2,
  2,
  2,
  6,
  2,
  2,
  2,
  6,
  2,
  5,
  6,
  5,
  2,
  2,
  6,
  2,
  2,
  2,
  2,
  2,
  2,
  2,
  2,
  5,
  5,
  5,
  5,
  5,
  5,
  6,
  5,
  5,
  6,
  5,
  5,
  6,
  5,
  5,
  6,
  5,
  2,
  2,
  6,
  2,
  2,
  2,
  6,
  2,
  2,
  5,
  2,
  6;;
  Material {
   0.800000;0.800000;0.800000;1.000000;;
   5.000000;
   0.000000;0.000000;0.000000;;
   0.000000;0.000000;0.000000;;
   TextureFilename {
    "data\\TEXTURE\\road.png";
   }
  }
  Material {
   0.800000;0.800000;0.800000;1.000000;;
   5.000000;
   0.000000;0.000000;0.000000;;
   0.000000;0.000000;0.000000;;
   TextureFilename {
    "data\\TEXTURE\\road.png";
   }
  }
  Material {
   0.800000;0.800000;0.800000;1.000000;;
   5.000000;
   0.000000;0.000000;0.000000;;
   0.000000;0.000000;0.000000;;
   TextureFilename {
    "data\\TEXTURE\\bill.png";
   }
  }
  Material {
   0.800000;0.800000;0.800000;1.000000;;
   5.000000;
   0.000000;0.000000;0.000000;;
   0.000000;0.000000;0.000000;;
  }
  Material {
   0.392000;0.150400;0.028000;1.000000;;
   5.000000;
   0.000000;0.000000;0.000000;;
   0.000000;0.000000;0.000000;;
  }
  Material {
   0.800000;0.800000;0.800000;1.000000;;
   5.000000;
   0.000000;0.000000;0.000000;;
   0.000000;0.000000;0.000000;;
   TextureFilename {
    "data\\TEXTURE\\thumbnail.png";
   }
  }
  Material {
   0.461176;0.461176;0.461176;1.000000;;
   5.000000;
   0.000000;0.000000;0.000000;;
   0.000000;0.000000;0.000000;;
  }
 }
 MeshNormals {
  11;
  0.000000;1.000000;0.000000;,
  0.000000;0.000000;1.000000;,
  -1.000000;0.000000;0.000000;,
  1.000000;0.000000;0.000000;,
  0.000000;0.000000;-1.000000;,
  -0.000000;1.000000;0.000000;,
  0.000000;1.000000;0.000000;,
  0.000000;1.000000;0.000000;,
  0.000000;1.000000;0.000000;,
  0.000000;1.000000;0.000000;,
  0.000000;1.000000;-0.000000;;
  437;
  4;0,0,0,0;,
  4;0,0,0,0;,
  4;0,0,0,0;,
  4;0,0,0,0;,
  4;0,0,0,0;,
  4;0,0,0,0;,
  4;0,0,0,0;,
  4;0,0,0,0;,
  4;0,0,0,0;,
  4;0,0,0,0;,
  4;0,0,0,0;,
  4;0,0,0,0;,
  4;0,0,0,0;,
  4;0,0,0,0;,
  4;0,0,0,0;,
  4;0,0,0,0;,
  4;0,0,0,0;,
  4;0,0,0,0;,
  4;0,0,0,0;,
  4;0,0,0,0;,
  4;0,0,0,0;,
  4;0,0,0,0;,
  4;0,0,0,0;,
  4;0,0,0,0;,
  4;0,0,0,0;,
  4;0,0,0,0;,
  4;0,0,0,0;,
  4;0,0,0,0;,
  4;0,0,0,0;,
  4;0,0,0,0;,
  4;0,0,0,0;,
  4;0,0,0,0;,
  4;0,0,0,0;,
  4;0,0,0,0;,
  4;0,0,0,0;,
  4;0,0,0,0;,
  4;0,0,0,0;,
  4;0,0,0,0;,
  4;0,0,0,0;,
  4;0,0,0,0;,
  4;0,0,0,0;,
  4;0,0,0,0;,
  4;0,0,0,0;,
  4;0,0,0,0;,
  4;0,0,0,0;,
  4;0,0,0,0;,
  4;0,0,0,0;,
  4;0,0,0,0;,
  4;0,0,0,0;,
  4;0,0,0,0;,
  4;0,0,0,0;,
  4;0,0,0,0;,
  4;0,0,0,0;,
  4;0,0,0,0;,
  4;0,0,0,0;,
  4;0,0,0,0;,
  4;0,0,0,0;,
  4;0,0,0,0;,
  4;0,0,0,0;,
  4;0,0,0,0;,
  4;0,0,0,0;,
  4;0,0,0,0;,
  4;0,0,0,0;,
  4;0,0,0,0;,
  4;0,0,0,0;,
  4;0,0,0,0;,
  4;0,0,0,0;,
  4;0,0,0,0;,
  4;0,0,0,0;,
  4;0,0,0,0;,
  4;0,0,0,0;,
  4;0,0,0,0;,
  4;0,0,0,0;,
  4;0,0,0,0;,
  4;0,0,0,0;,
  4;0,0,0,0;,
  4;0,0,0,0;,
  4;0,0,0,0;,
  4;0,0,0,0;,
  4;0,0,0,0;,
  4;0,0,0,0;,
  4;0,0,0,0;,
  4;0,0,0,0;,
  4;0,0,0,0;,
  4;0,0,0,0;,
  4;0,0,0,0;,
  4;0,0,0,0;,
  4;0,0,0,0;,
  4;0,0,0,0;,
  4;0,0,0,0;,
  4;0,0,0,0;,
  4;0,0,0,0;,
  4;0,0,0,0;,
  4;0,0,0,0;,
  4;0,0,0,0;,
  4;0,0,0,0;,
  4;0,0,0,0;,
  4;0,0,0,0;,
  4;0,0,0,0;,
  4;0,0,0,0;,
  4;0,0,0,0;,
  4;0,0,0,0;,
  4;0,0,0,0;,
  4;0,0,0,0;,
  4;0,0,0,0;,
  4;0,0,0,0;,
  4;0,0,0,0;,
  4;0,0,0,0;,
  4;0,0,0,0;,
  4;0,0,0,0;,
  4;0,0,0,0;,
  4;0,0,0,0;,
  4;0,0,0,0;,
  4;0,0,0,0;,
  4;0,0,0,0;,
  4;0,0,0,0;,
  4;0,0,0,0;,
  4;0,0,0,0;,
  4;0,0,0,0;,
  4;0,0,0,0;,
  4;0,0,0,0;,
  4;0,0,0,0;,
  4;0,0,0,0;,
  4;0,0,0,0;,
  4;0,0,0,0;,
  4;0,0,0,0;,
  4;0,0,0,0;,
  4;0,0,0,0;,
  4;0,0,0,0;,
  4;0,0,0,0;,
  4;0,0,0,0;,
  4;0,0,0,0;,
  4;0,0,0,0;,
  4;0,0,0,0;,
  4;0,0,0,0;,
  4;0,0,0,0;,
  4;0,0,0,0;,
  4;0,0,0,0;,
  4;0,0,0,0;,
  4;0,0,0,0;,
  4;0,0,0,0;,
  4;0,0,0,0;,
  4;0,0,0,0;,
  4;0,0,0,0;,
  4;0,0,0,0;,
  4;0,0,0,0;,
  4;0,0,0,0;,
  4;0,0,0,0;,
  4;0,0,0,0;,
  4;0,0,0,0;,
  4;0,0,0,0;,
  4;0,0,0,0;,
  4;0,0,0,0;,
  4;0,0,0,0;,
  4;0,0,0,0;,
  4;0,0,0,0;,
  4;0,0,0,0;,
  4;0,0,0,0;,
  4;0,0,0,0;,
  4;0,0,0,0;,
  4;0,0,0,0;,
  4;0,0,0,0;,
  4;0,0,0,0;,
  4;1,1,1,1;,
  4;3,3,3,3;,
  4;2,2,2,2;,
  4;1,1,1,1;,
  4;3,3,3,3;,
  4;2,2,2,2;,
  4;0,0,0,0;,
  4;1,1,1,1;,
  4;3,3,3,3;,
  4;2,2,2,2;,
  4;3,3,3,3;,
  4;4,4,4,4;,
  4;2,2,2,2;,
  4;3,3,3,3;,
  4;4,4,4,4;,
  4;2,2,2,2;,
  4;0,0,0,0;,
  4;3,3,3,3;,
  4;4,4,4,4;,
  4;2,2,2,2;,
  4;1,1,1,1;,
  4;3,3,3,3;,
  4;2,2,2,2;,
  4;1,1,1,1;,
  4;3,3,3,3;,
  4;2,2,2,2;,
  4;1,1,1,1;,
  4;3,3,3,3;,
  4;2,2,2,2;,
  4;1,1,1,1;,
  4;3,3,3,3;,
  4;2,2,2,2;,
  4;3,3,3,3;,
  4;4,4,4,4;,
  4;2,2,2,2;,
  4;3,3,3,3;,
  4;4,4,4,4;,
  4;2,2,2,2;,
  4;3,3,3,3;,
  4;4,4,4,4;,
  4;2,2,2,2;,
  4;3,3,3,3;,
  4;4,4,4,4;,
  4;2,2,2,2;,
  4;1,1,1,1;,
  4;3,3,3,3;,
  4;2,2,2,2;,
  4;0,0,0,0;,
  4;1,1,1,1;,
  4;3,3,3,3;,
  4;2,2,2,2;,
  4;0,0,0,0;,
  4;3,3,3,3;,
  4;4,4,4,4;,
  4;2,2,2,2;,
  4;0,0,0,0;,
  4;3,3,3,3;,
  4;4,4,4,4;,
  4;2,2,2,2;,
  4;0,0,0,0;,
  4;1,1,1,1;,
  4;3,3,3,3;,
  4;2,2,2,2;,
  4;0,0,0,0;,
  4;1,1,1,1;,
  4;3,3,3,3;,
  4;2,2,2,2;,
  4;0,0,0,0;,
  4;1,1,1,1;,
  4;3,3,3,3;,
  4;2,2,2,2;,
  4;0,0,0,0;,
  4;1,1,1,1;,
  4;3,3,3,3;,
  4;2,2,2,2;,
  4;0,0,0,0;,
  4;3,3,3,3;,
  4;4,4,4,4;,
  4;2,2,2,2;,
  4;0,0,0,0;,
  4;3,3,3,3;,
  4;4,4,4,4;,
  4;2,2,2,2;,
  4;0,0,0,0;,
  4;3,3,3,3;,
  4;4,4,4,4;,
  4;2,2,2,2;,
  4;0,0,0,0;,
  4;3,3,3,3;,
  4;4,4,4,4;,
  4;2,2,2,2;,
  4;0,0,0,0;,
  4;0,0,0,0;,
  4;3,3,3,3;,
  4;4,4,4,4;,
  4;2,2,2,2;,
  4;1,1,1,1;,
  4;0,0,0,0;,
  4;2,2,2,2;,
  4;1,1,1,1;,
  4;3,3,3,3;,
  4;4,4,4,4;,
  4;0,0,0,0;,
  4;1,1,1,1;,
  4;2,2,2,2;,
  4;0,0,0,0;,
  4;1,1,1,1;,
  4;3,3,3,3;,
  4;0,0,0,0;,
  4;4,4,4,4;,
  4;2,2,2,2;,
  4;0,0,0,0;,
  4;3,3,3,3;,
  4;4,4,4,4;,
  4;0,0,0,0;,
  4;1,1,1,1;,
  4;3,3,3,3;,
  4;2,2,2,2;,
  4;0,0,0,0;,
  4;3,3,3,3;,
  4;4,4,4,4;,
  4;2,2,2,2;,
  4;0,0,0,0;,
  4;1,1,1,1;,
  4;3,3,3,3;,
  4;4,4,4,4;,
  4;2,2,2,2;,
  4;0,0,0,0;,
  4;1,1,1,1;,
  4;4,4,4,4;,
  4;2,2,2,2;,
  4;0,0,0,0;,
  4;1,1,1,1;,
  4;3,3,3,3;,
  4;4,4,4,4;,
  4;0,0,0,0;,
  4;1,1,1,1;,
  4;2,2,2,2;,
  4;0,0,0,0;,
  4;1,1,1,1;,
  4;3,3,3,3;,
  4;0,0,0,0;,
  4;4,4,4,4;,
  4;2,2,2,2;,
  4;0,0,0,0;,
  4;3,3,3,3;,
  4;4,4,4,4;,
  4;0,0,0,0;,
  4;1,1,1,1;,
  4;4,4,4,4;,
  4;2,2,2,2;,
  4;0,0,0,0;,
  4;1,1,1,1;,
  4;4,4,4,4;,
  4;0,0,0,0;,
  4;1,1,1,1;,
  4;3,3,3,3;,
  4;4,4,4,4;,
  4;0,0,0,0;,
  4;1,1,1,1;,
  4;4,4,4,4;,
  4;2,2,2,2;,
  4;5,6,7,5;,
  4;1,1,1,1;,
  4;3,3,3,3;,
  4;6,8,9,7;,
  4;3,3,3,3;,
  4;4,4,4,4;,
  4;2,2,2,2;,
  4;7,9,10,10;,
  4;1,1,1,1;,
  4;4,4,4,4;,
  4;2,2,2,2;,
  4;0,0,0,0;,
  4;1,1,1,1;,
  4;3,3,3,3;,
  4;4,4,4,4;,
  4;0,0,0,0;,
  4;1,1,1,1;,
  4;2,2,2,2;,
  4;0,0,0,0;,
  4;1,1,1,1;,
  4;3,3,3,3;,
  4;4,4,4,4;,
  4;0,0,0,0;,
  4;3,3,3,3;,
  4;4,4,4,4;,
  4;2,2,2,2;,
  4;0,0,0,0;,
  4;1,1,1,1;,
  4;4,4,4,4;,
  4;2,2,2,2;,
  4;0,0,0,0;,
  4;1,1,1,1;,
  4;3,3,3,3;,
  4;4,4,4,4;,
  4;0,0,0,0;,
  4;1,1,1,1;,
  4;4,4,4,4;,
  4;2,2,2,2;,
  4;0,0,0,0;,
  4;1,1,1,1;,
  4;3,3,3,3;,
  4;4,4,4,4;,
  4;0,0,0,0;,
  4;1,1,1,1;,
  4;4,4,4,4;,
  4;2,2,2,2;,
  4;0,0,0,0;,
  4;1,1,1,1;,
  4;3,3,3,3;,
  4;4,4,4,4;,
  4;0,0,0,0;,
  4;1,1,1,1;,
  4;3,3,3,3;,
  4;4,4,4,4;,
  4;2,2,2,2;,
  4;0,0,0,0;,
  4;1,1,1,1;,
  4;3,3,3,3;,
  4;2,2,2,2;,
  4;0,0,0,0;,
  4;3,3,3,3;,
  4;4,4,4,4;,
  4;2,2,2,2;,
  4;0,0,0,0;,
  4;1,1,1,1;,
  4;4,4,4,4;,
  4;2,2,2,2;,
  4;0,0,0,0;,
  4;1,1,1,1;,
  4;3,3,3,3;,
  4;0,0,0,0;,
  4;3,3,3,3;,
  4;4,4,4,4;,
  4;2,2,2,2;,
  4;0,0,0,0;,
  4;1,1,1,1;,
  4;2,2,2,2;,
  4;1,1,1,1;,
  4;3,3,3,3;,
  4;4,4,4,4;,
  4;2,2,2,2;,
  4;3,3,3,3;,
  4;4,4,4,4;,
  4;1,1,1,1;,
  4;3,3,3,3;,
  4;4,4,4,4;,
  4;2,2,2,2;,
  4;1,1,1,1;,
  4;2,2,2,2;,
  4;0,0,0,0;,
  4;1,1,1,1;,
  4;3,3,3,3;,
  4;0,0,0,0;,
  4;4,4,4,4;,
  4;2,2,2,2;,
  4;0,0,0,0;,
  4;3,3,3,3;,
  4;4,4,4,4;,
  4;0,0,0,0;,
  4;1,1,1,1;,
  4;3,3,3,3;,
  4;2,2,2,2;,
  4;0,0,0,0;,
  4;3,3,3,3;,
  4;4,4,4,4;,
  4;2,2,2,2;,
  4;0,0,0,0;,
  4;1,1,1,1;,
  4;3,3,3,3;,
  4;4,4,4,4;,
  4;2,2,2,2;,
  4;0,0,0,0;;
 }
 MeshTextureCoords {
  740;
  -22.000000;-9.481347;,
  -19.954546;-9.481347;,
  -19.954546;-7.485078;,
  -22.000000;-7.485078;,
  -17.909090;-9.481347;,
  -15.863636;-9.481347;,
  -15.863636;-7.485078;,
  -17.909090;-7.485078;,
  -13.818181;-9.481347;,
  -13.818181;-7.485078;,
  -11.772727;-9.481347;,
  -11.772727;-7.485078;,
  -9.727273;-9.481347;,
  -9.727273;-7.485078;,
  -5.636364;-9.481347;,
  -3.590909;-9.481347;,
  -3.590909;-7.485078;,
  -5.636364;-7.485078;,
  0.352336;0.500000;,
  0.500000;0.500000;,
  0.500000;0.500000;,
  0.352336;0.500000;,
  0.647664;0.500000;,
  0.647664;0.500000;,
  6.636364;-9.481347;,
  8.681818;-9.481347;,
  8.681818;-7.485078;,
  6.636364;-7.485078;,
  10.727273;-9.481347;,
  10.727273;-7.485078;,
  12.772727;-9.481347;,
  12.772727;-7.485078;,
  14.818182;-9.481347;,
  14.818182;-7.485078;,
  16.863636;-9.481347;,
  16.863636;-7.485078;,
  20.954546;-9.481347;,
  23.000000;-9.481347;,
  23.000000;-7.485078;,
  20.954546;-7.485078;,
  -19.954546;-5.488808;,
  -22.000000;-5.488808;,
  -15.863636;-5.488808;,
  -17.909090;-5.488808;,
  -7.681818;-7.485078;,
  -7.681818;-5.488808;,
  -9.727273;-5.488808;,
  -3.590909;-5.488808;,
  -5.636364;-5.488808;,
  0.500000;0.500000;,
  0.352336;0.500000;,
  0.647664;0.500000;,
  2.545455;-7.485078;,
  4.590909;-7.485078;,
  4.590909;-5.488808;,
  2.545455;-5.488808;,
  6.636364;-5.488808;,
  8.681818;-5.488808;,
  10.727273;-5.488808;,
  16.863636;-5.488808;,
  14.818182;-5.488808;,
  18.909092;-7.485078;,
  18.909092;-5.488808;,
  20.954546;-5.488808;,
  23.000000;-5.488808;,
  -19.954546;-3.492539;,
  -22.000000;-3.492539;,
  -15.863636;-3.492539;,
  -17.909090;-3.492539;,
  -7.681818;-3.492539;,
  -9.727273;-3.492539;,
  -5.636364;-3.492539;,
  -3.590909;-3.492539;,
  0.500000;0.500000;,
  0.352336;0.500000;,
  0.647664;0.500000;,
  8.681818;-3.492539;,
  6.636364;-3.492539;,
  10.727273;-3.492539;,
  12.772727;-5.488808;,
  14.818182;-3.492539;,
  12.772727;-3.492539;,
  16.863636;-3.492539;,
  23.000000;-3.492539;,
  20.954546;-3.492539;,
  -19.954546;-1.496269;,
  -22.000000;-1.496269;,
  -17.909090;-1.496269;,
  -15.863636;-1.496269;,
  -13.818181;-3.492539;,
  -13.818181;-1.496269;,
  -11.772727;-3.492539;,
  -11.772727;-1.496269;,
  -9.727273;-1.496269;,
  -7.681818;-1.496269;,
  -5.636364;-1.496269;,
  -3.590909;-1.496269;,
  -1.545454;-3.492539;,
  -1.545454;-1.496269;,
  0.500000;0.500000;,
  0.352336;0.500000;,
  0.647664;0.500000;,
  2.545455;-3.492539;,
  4.590909;-3.492539;,
  4.590909;-1.496269;,
  2.545455;-1.496269;,
  6.636364;-1.496269;,
  8.681818;-1.496269;,
  10.727273;-1.496269;,
  12.772727;-1.496269;,
  14.818182;-1.496269;,
  16.863636;-1.496269;,
  18.909092;-3.492539;,
  18.909092;-1.496269;,
  20.954546;-1.496269;,
  23.000000;-1.496269;,
  -19.954546;0.500000;,
  -22.000000;0.500000;,
  -15.863636;0.500000;,
  -17.909090;0.500000;,
  -13.818181;0.500000;,
  -11.772727;0.500000;,
  -7.681818;0.500000;,
  -9.727273;0.500000;,
  -5.636364;0.500000;,
  -3.590909;0.500000;,
  0.500000;0.500000;,
  0.352336;0.500000;,
  0.647664;0.500000;,
  6.636364;0.500000;,
  4.590909;0.500000;,
  8.681818;0.500000;,
  10.727273;0.500000;,
  14.818182;0.500000;,
  12.772727;0.500000;,
  16.863636;0.500000;,
  18.909092;0.500000;,
  23.000000;0.500000;,
  20.954546;0.500000;,
  -19.954546;2.496269;,
  -22.000000;2.496269;,
  -15.863636;2.496269;,
  -17.909090;2.496269;,
  -13.818181;2.496269;,
  -11.772727;2.496269;,
  -7.681818;2.496269;,
  -9.727273;2.496269;,
  -5.636364;2.496269;,
  -3.590909;2.496269;,
  0.500000;0.500000;,
  0.352336;0.500000;,
  0.647664;0.500000;,
  6.636364;2.496269;,
  4.590909;2.496269;,
  8.681818;2.496269;,
  10.727273;2.496269;,
  14.818182;2.496269;,
  12.772727;2.496269;,
  16.863636;2.496269;,
  18.909092;2.496269;,
  23.000000;2.496269;,
  20.954546;2.496269;,
  -19.954546;4.492539;,
  -22.000000;4.492539;,
  -17.909090;4.492539;,
  -15.863636;4.492539;,
  -13.818181;4.492539;,
  -11.772727;4.492539;,
  -9.727273;4.492539;,
  -7.681818;4.492539;,
  -5.636364;4.492539;,
  -3.590909;4.492539;,
  -1.545454;2.496269;,
  -1.545454;4.492539;,
  0.500000;0.500000;,
  0.352336;0.500000;,
  0.647664;0.500000;,
  2.545455;2.496269;,
  4.590909;4.492539;,
  2.545455;4.492539;,
  6.636364;4.492539;,
  8.681818;4.492539;,
  10.727273;4.492539;,
  12.772727;4.492539;,
  14.818182;4.492539;,
  16.863636;4.492539;,
  18.909092;4.492539;,
  20.954546;4.492539;,
  23.000000;4.492539;,
  -19.954546;6.488808;,
  -22.000000;6.488808;,
  -13.818181;6.488808;,
  -15.863636;6.488808;,
  -11.772727;6.488808;,
  -9.727273;6.488808;,
  -7.681818;6.488808;,
  -5.636364;6.488808;,
  0.500000;0.500000;,
  0.352336;0.500000;,
  0.647664;0.500000;,
  6.636364;6.488808;,
  4.590909;6.488808;,
  10.727273;6.488808;,
  8.681818;6.488808;,
  12.772727;6.488808;,
  14.818182;6.488808;,
  16.863636;6.488808;,
  23.000000;6.488808;,
  20.954546;6.488808;,
  -19.954546;8.485078;,
  -22.000000;8.485078;,
  -17.909090;6.488808;,
  -17.909090;8.485078;,
  -13.818181;8.485078;,
  -15.863636;8.485078;,
  -5.636364;8.485078;,
  -7.681818;8.485078;,
  0.500000;0.500000;,
  0.352336;0.500000;,
  0.647664;0.500000;,
  6.636364;8.485078;,
  4.590909;8.485078;,
  8.681818;8.485078;,
  10.727273;8.485078;,
  16.863636;8.485078;,
  14.818182;8.485078;,
  23.000000;8.485078;,
  20.954546;8.485078;,
  -19.954546;10.481347;,
  -22.000000;10.481347;,
  -17.909090;10.481347;,
  -15.863636;10.481347;,
  -13.818181;10.481347;,
  -11.772727;8.485078;,
  -11.772727;10.481347;,
  -9.727273;8.485078;,
  -9.727273;10.481347;,
  -7.681818;10.481347;,
  -5.636364;10.481347;,
  -3.590909;8.485078;,
  -3.590909;10.481347;,
  -1.545454;8.485078;,
  -1.545454;10.481347;,
  0.500000;0.500000;,
  0.352336;0.500000;,
  0.647664;0.500000;,
  2.545455;8.485078;,
  4.590909;10.481347;,
  2.545455;10.481347;,
  6.636364;10.481347;,
  8.681818;10.481347;,
  10.727273;10.481347;,
  12.772727;8.485078;,
  12.772727;10.481347;,
  14.818182;10.481347;,
  16.863636;10.481347;,
  18.909092;8.485078;,
  18.909092;10.481347;,
  20.954546;10.481347;,
  23.000000;10.481347;,
  -17.909090;-7.482996;,
  -19.954546;-7.482996;,
  -17.909090;-5.486727;,
  -19.954546;-5.486727;,
  -9.727273;-7.482996;,
  -11.772727;-7.482996;,
  -9.727273;-5.486727;,
  -11.772727;-5.486727;,
  -11.772727;-5.488808;,
  -1.545454;-7.482996;,
  -3.590909;-7.482996;,
  -1.545454;-7.485078;,
  0.352336;0.465906;,
  0.352336;0.465906;,
  -3.590909;-5.486727;,
  -17.909090;-3.490458;,
  -19.954546;-3.490458;,
  -9.727273;-3.490458;,
  -11.772727;-3.490458;,
  0.352336;0.465906;,
  -3.590909;-3.490458;,
  -1.545454;-3.490458;,
  -17.909090;-1.494188;,
  -19.954546;-1.494188;,
  -17.909090;0.502081;,
  -19.954546;0.502081;,
  -9.727273;-1.494188;,
  -11.772727;-1.494188;,
  -9.727273;0.502081;,
  -11.772727;0.502081;,
  -1.545454;-1.494188;,
  -3.590909;-1.494188;,
  -1.545454;0.502081;,
  -1.545454;0.500000;,
  -3.590909;0.502081;,
  4.590909;-1.494188;,
  2.545455;-1.494188;,
  4.590909;0.502081;,
  2.545455;0.502081;,
  2.545455;0.500000;,
  -17.909090;2.498351;,
  -19.954546;2.498351;,
  -9.727273;2.498351;,
  -11.772727;2.498351;,
  -1.545454;2.498351;,
  -3.590909;2.498351;,
  4.590909;2.498351;,
  2.545455;2.498351;,
  12.772727;-1.292293;,
  10.727273;-1.292293;,
  12.772727;0.703976;,
  10.727273;0.703976;,
  20.954546;-1.292293;,
  18.909092;-1.292293;,
  20.954546;0.703976;,
  18.909092;0.703976;,
  12.772727;2.700246;,
  10.727273;2.700246;,
  20.954546;2.700246;,
  18.909092;2.700246;,
  -17.909090;-1.290212;,
  -19.954546;-1.290212;,
  -17.909090;0.706058;,
  -19.954546;0.706058;,
  -9.727273;-1.290212;,
  -11.772727;-1.290212;,
  -9.727273;0.706058;,
  -11.772727;0.706058;,
  -1.545454;-1.290212;,
  -3.590909;-1.290212;,
  -1.545454;0.706058;,
  -3.590909;0.706058;,
  4.590909;-1.290212;,
  2.545455;-1.290212;,
  4.590909;0.706058;,
  2.545455;0.706058;,
  -17.909090;2.702327;,
  -19.954546;2.702327;,
  -9.727273;2.702327;,
  -11.772727;2.702327;,
  -1.545454;2.702327;,
  -3.590909;2.702327;,
  4.590909;2.702327;,
  2.545455;2.702327;,
  0.377603;-2.946550;,
  0.377603;-2.946550;,
  0.626578;-2.946550;,
  0.626578;-2.946550;,
  0.656858;-3.389772;,
  0.626578;-3.389772;,
  0.656858;-2.946550;,
  0.656858;-3.389772;,
  0.656858;-2.946550;,
  0.626578;-3.389772;,
  0.343142;-3.389772;,
  0.377603;-3.389772;,
  0.343142;-2.946550;,
  0.343142;-3.389772;,
  0.343142;-2.946550;,
  0.377603;-3.389772;,
  -0.472735;-1.277979;,
  -0.959102;-1.277979;,
  -0.959102;0.500000;,
  -0.472735;0.500000;,
  -0.959102;-1.277979;,
  -0.959102;0.500000;,
  -5.636364;-4.273162;,
  -3.590909;-4.273162;,
  -3.590909;-4.273162;,
  -5.636364;-4.273162;,
  0.013633;-1.277979;,
  0.013633;0.500000;,
  0.013633;-1.277979;,
  0.013633;0.500000;,
  -1.545454;-4.273162;,
  -1.545454;-4.273162;,
  -0.959102;-1.277979;,
  -0.472735;-1.277979;,
  -0.472735;0.500000;,
  -0.959102;0.500000;,
  -3.590909;-4.273162;,
  -5.636364;-4.273162;,
  0.013633;-1.277979;,
  0.013633;0.500000;,
  -1.545454;-4.273162;,
  1.472735;-1.201780;,
  0.986367;-1.201780;,
  0.986367;0.500000;,
  1.472735;0.500000;,
  1.472735;-1.201780;,
  1.472735;0.500000;,
  0.986367;-1.201780;,
  0.986367;0.500000;,
  2.545455;-4.068599;,
  4.590909;-4.068599;,
  4.590909;-4.068599;,
  2.545455;-4.068599;,
  1.472735;-1.201780;,
  1.472735;0.500000;,
  0.986367;-1.201780;,
  0.986367;0.500000;,
  4.590909;-4.068599;,
  2.545455;-4.068599;,
  2.445469;-1.417677;,
  1.959102;-1.417677;,
  1.959102;0.500000;,
  2.445469;0.500000;,
  2.445469;-1.417677;,
  2.445469;0.500000;,
  1.959102;-1.417677;,
  1.959102;0.500000;,
  6.636364;-4.648196;,
  8.681818;-4.648196;,
  8.681818;-4.648196;,
  6.636364;-4.648196;,
  3.418204;-1.404978;,
  2.931837;-1.404978;,
  2.931837;0.500000;,
  3.418204;0.500000;,
  2.931837;-1.404978;,
  3.418204;-1.404978;,
  3.418204;0.500000;,
  2.931837;0.500000;,
  10.727273;-4.614103;,
  12.772727;-4.614103;,
  12.772727;-4.614103;,
  10.727273;-4.614103;,
  3.904571;-1.404978;,
  3.904571;0.500000;,
  3.904571;-1.404978;,
  3.904571;0.500000;,
  14.818182;-4.614103;,
  14.818182;-4.614103;,
  4.877306;-1.366878;,
  4.390939;-1.366878;,
  4.390939;0.500000;,
  4.877306;0.500000;,
  4.390939;-1.366878;,
  4.390939;0.500000;,
  16.863636;-4.511820;,
  18.909092;-4.511820;,
  18.909092;-4.511820;,
  16.863636;-4.511820;,
  5.363673;-1.366878;,
  5.363673;0.500000;,
  5.363673;-1.366878;,
  5.363673;0.500000;,
  20.954546;-4.511820;,
  20.954546;-4.511820;,
  4.390939;-1.366878;,
  4.877306;-1.366878;,
  4.877306;0.500000;,
  4.390939;0.500000;,
  18.909092;-4.511820;,
  16.863636;-4.511820;,
  5.363673;-1.366878;,
  5.363673;0.500000;,
  20.954546;-4.511820;,
  -2.418204;-1.608175;,
  -2.904571;-1.608175;,
  -2.904571;0.500000;,
  -2.418204;0.500000;,
  -2.904571;-1.608175;,
  -2.418204;-1.608175;,
  -2.418204;0.500000;,
  -2.904571;0.500000;,
  -13.818181;-5.159607;,
  -11.772727;-5.159607;,
  -11.772727;-5.159607;,
  -13.818181;-5.159607;,
  -1.931837;-1.608175;,
  -1.931837;0.500000;,
  -1.931837;-1.608175;,
  -1.931837;0.500000;,
  -9.727273;-5.159607;,
  -9.727273;-5.159607;,
  -1.445469;-1.608175;,
  -1.445469;0.500000;,
  -1.445469;-1.608175;,
  -1.445469;0.500000;,
  -7.681818;-5.159607;,
  -7.681818;-5.159607;,
  -3.877306;-1.862171;,
  -4.363673;-1.862171;,
  -4.363673;0.500000;,
  -3.877306;0.500000;,
  -4.363673;-1.862171;,
  -3.877306;-1.862172;,
  -3.877306;0.500000;,
  -4.363673;0.500000;,
  -19.954546;-5.841485;,
  -17.909090;-5.841485;,
  -17.909090;-5.841486;,
  -19.954546;-5.841485;,
  -3.390939;-1.862171;,
  -3.390939;0.500000;,
  -3.390939;-1.862171;,
  -3.390939;0.500000;,
  -15.863636;-5.841485;,
  -15.863636;-5.841485;,
  -3.390939;-1.862171;,
  -3.390939;0.500000;,
  -3.877306;-1.862171;,
  -3.877306;0.500000;,
  -15.863636;-5.841485;,
  -17.909090;-5.841485;,
  4.877306;-1.798673;,
  4.390939;-1.798673;,
  4.390939;0.500000;,
  4.877306;0.500000;,
  4.390939;-1.798673;,
  4.877306;-1.798673;,
  4.877306;0.500000;,
  4.390939;0.500000;,
  16.863636;-5.671018;,
  18.909092;-5.671018;,
  18.909092;-5.671018;,
  16.863636;-5.671018;,
  5.363673;-1.798673;,
  5.363673;0.500000;,
  5.363673;-1.798673;,
  5.363673;0.500000;,
  20.954546;-5.671018;,
  20.954546;-5.671018;,
  3.418204;-1.544676;,
  2.931837;-1.544676;,
  2.931837;0.500000;,
  3.418204;0.500000;,
  2.931837;-1.544676;,
  2.931837;0.500000;,
  10.727273;-4.989138;,
  12.772727;-4.989138;,
  12.772727;-4.989138;,
  10.727273;-4.989138;,
  3.904571;-1.544676;,
  3.904571;0.500000;,
  3.904571;-1.544676;,
  3.904571;0.500000;,
  3.418204;-1.544676;,
  3.418204;0.500000;,
  14.818182;-4.989138;,
  14.818182;-4.989138;,
  3.418204;-1.544676;,
  3.418204;0.500000;,
  2.931837;-1.544676;,
  2.931837;0.500000;,
  12.772727;-4.989138;,
  10.727273;-4.989138;,
  1.472735;-1.620875;,
  0.986367;-1.620875;,
  0.986367;0.500000;,
  1.472735;0.500000;,
  0.986367;-1.620875;,
  1.472735;-1.620875;,
  1.472735;0.500000;,
  0.986367;0.500000;,
  2.545455;-5.193701;,
  4.590909;-5.193701;,
  4.590909;-5.193701;,
  2.545455;-5.193701;,
  1.959102;-1.620875;,
  1.959102;0.500000;,
  1.959102;-1.620875;,
  1.959102;0.500000;,
  6.636364;-5.193701;,
  6.636364;-5.193701;,
  1.472735;-1.417677;,
  0.986367;-1.417677;,
  0.986367;0.500000;,
  1.472735;0.500000;,
  0.986367;-1.417677;,
  1.472735;-1.417677;,
  1.472735;0.500000;,
  0.986367;0.500000;,
  2.545455;-4.648196;,
  4.590909;-4.648196;,
  4.590909;-4.648196;,
  2.545455;-4.648196;,
  1.959102;-1.417677;,
  1.959102;0.500000;,
  1.959102;-1.417677;,
  1.959102;0.500000;,
  6.636364;-4.648196;,
  6.636364;-4.648196;,
  4.877306;-1.354178;,
  4.390939;-1.354178;,
  4.390939;0.500000;,
  4.877306;0.500000;,
  4.390939;-1.354178;,
  4.877306;-1.354178;,
  4.877306;0.500000;,
  4.390939;0.500000;,
  16.863636;-4.477726;,
  18.909092;-4.477726;,
  18.909092;-4.477726;,
  16.863636;-4.477726;,
  5.363673;-1.354178;,
  5.363673;0.500000;,
  5.363673;-1.354178;,
  5.363673;0.500000;,
  20.954546;-4.477726;,
  20.954546;-4.477726;,
  0.013633;-1.506576;,
  -0.472735;-1.506576;,
  -0.472735;0.500000;,
  0.013633;0.500000;,
  0.013633;-1.506576;,
  0.013633;0.500000;,
  -3.590909;-7.156219;,
  -1.545454;-7.156219;,
  -0.472735;-1.506576;,
  -0.472735;0.500000;,
  -3.590909;-4.886854;,
  -1.545454;-4.886854;,
  -1.545454;-4.886854;,
  -3.590909;-4.886854;,
  -1.545454;-7.154137;,
  -3.590909;-7.154137;,
  0.013633;-1.519276;,
  0.013633;-1.519276;,
  0.013633;0.487300;,
  0.013633;0.487300;,
  -0.472735;-1.519276;,
  -0.472735;-1.519276;,
  -0.472735;0.487300;,
  -0.472735;0.487300;,
  -3.590909;-4.920949;,
  -1.545454;-4.920949;,
  -1.545454;-4.920949;,
  -3.590909;-4.920949;,
  0.013633;-1.519276;,
  0.013633;0.487300;,
  -0.472735;-1.519276;,
  -0.472735;0.487300;,
  -1.545454;-4.920949;,
  -3.590909;-4.920949;,
  -1.445469;-1.608176;,
  -1.931837;-1.608176;,
  -1.931837;0.500000;,
  -1.445469;0.500000;,
  -1.931837;-1.608176;,
  -1.445469;-1.608176;,
  -1.445469;0.500000;,
  -1.931837;0.500000;,
  -9.727273;-5.159609;,
  -7.681818;-5.159609;,
  -7.681818;-5.159609;,
  -9.727273;-5.159609;,
  -0.959102;-1.608176;,
  -0.959102;0.500000;,
  -5.636364;-7.139567;,
  -5.636364;-9.135837;,
  -5.636364;-5.159609;,
  -5.636364;-5.159609;,
  -5.636364;-5.143298;,
  -1.445469;-1.608176;,
  -0.959102;-1.608176;,
  -0.959102;0.500000;,
  -1.445469;0.500000;,
  -5.636364;-5.159609;,
  -7.681818;-5.159609;,
  -2.904571;-1.824073;,
  -3.390939;-1.824073;,
  -3.390939;0.500000;,
  -2.904571;0.500000;,
  -3.390939;-1.824073;,
  -3.390939;0.500000;,
  -2.418204;-1.824073;,
  -2.418204;0.500000;,
  -2.418204;-1.824073;,
  -2.418204;0.500000;,
  -3.390939;-1.824073;,
  -2.904571;-1.824073;,
  -2.904571;0.500000;,
  -3.390939;0.500000;,
  -2.418204;-1.824073;,
  -2.418204;0.500000;,
  -17.909090;-9.479266;,
  -19.954546;-9.479266;,
  -17.909090;-7.482996;,
  -19.954546;-7.482996;,
  -13.818181;-7.102102;,
  -15.863636;-7.102102;,
  -15.863636;-7.104184;,
  -13.818181;-7.104184;,
  -15.863636;-5.105833;,
  -15.863636;-5.107914;,
  -15.863636;-5.773299;,
  -13.818181;-5.773299;,
  -13.818181;-5.773299;,
  -15.863636;-5.773299;,
  -11.772727;-7.102102;,
  -11.772727;-7.104184;,
  -11.772727;-5.105833;,
  -11.772727;-5.107914;,
  -11.772727;-5.773299;,
  -11.772727;-5.773299;,
  -15.863636;-3.109563;,
  -13.818181;-3.109563;,
  -13.818181;-3.111645;,
  -15.863636;-3.111645;,
  -13.818181;-5.773299;,
  -15.863636;-5.773299;,
  -11.772727;-3.109563;,
  -11.772727;-3.111645;,
  -11.772727;-5.773299;,
  -17.909090;-7.068800;,
  -19.954546;-7.068800;,
  -3.877306;-2.039970;,
  -3.877306;-2.039970;,
  -3.877306;0.487300;,
  -3.877306;0.487300;,
  -4.363673;-2.039970;,
  -4.363673;-2.039970;,
  -4.363673;0.487300;,
  -4.363673;0.487300;,
  -19.954546;-6.318804;,
  -17.909090;-6.318804;,
  -17.909090;-6.318804;,
  -19.954546;-6.318804;,
  -3.877306;-2.039970;,
  -3.877306;0.487300;,
  -4.363673;-2.039970;,
  -4.363673;0.487300;,
  -17.909090;-6.318804;,
  -19.954546;-6.318804;,
  -3.877306;-2.039970;,
  -4.363673;-2.039970;,
  -4.363673;0.487300;,
  -3.877306;0.487300;,
  -3.877306;-2.039970;,
  -3.877306;0.487300;,
  -19.954546;-7.068800;,
  -17.909090;-7.068800;,
  -4.363673;-2.039970;,
  -4.363673;0.487300;,
  -19.954546;-6.318804;,
  -17.909090;-6.318804;,
  -17.909090;-6.318804;,
  -19.954546;-6.318804;;
 }
}
