xof 0302txt 0064
template Header {
 <3D82AB43-62DA-11cf-AB39-0020AF71E433>
 WORD major;
 WORD minor;
 DWORD flags;
}

template Vector {
 <3D82AB5E-62DA-11cf-AB39-0020AF71E433>
 FLOAT x;
 FLOAT y;
 FLOAT z;
}

template Coords2d {
 <F6F23F44-7686-11cf-8F52-0040333594A3>
 FLOAT u;
 FLOAT v;
}

template Matrix4x4 {
 <F6F23F45-7686-11cf-8F52-0040333594A3>
 array FLOAT matrix[16];
}

template ColorRGBA {
 <35FF44E0-6C7C-11cf-8F52-0040333594A3>
 FLOAT red;
 FLOAT green;
 FLOAT blue;
 FLOAT alpha;
}

template ColorRGB {
 <D3E16E81-7835-11cf-8F52-0040333594A3>
 FLOAT red;
 FLOAT green;
 FLOAT blue;
}

template IndexedColor {
 <1630B820-7842-11cf-8F52-0040333594A3>
 DWORD index;
 ColorRGBA indexColor;
}

template Boolean {
 <4885AE61-78E8-11cf-8F52-0040333594A3>
 WORD truefalse;
}

template Boolean2d {
 <4885AE63-78E8-11cf-8F52-0040333594A3>
 Boolean u;
 Boolean v;
}

template MaterialWrap {
 <4885AE60-78E8-11cf-8F52-0040333594A3>
 Boolean u;
 Boolean v;
}

template TextureFilename {
 <A42790E1-7810-11cf-8F52-0040333594A3>
 STRING filename;
}

template Material {
 <3D82AB4D-62DA-11cf-AB39-0020AF71E433>
 ColorRGBA faceColor;
 FLOAT power;
 ColorRGB specularColor;
 ColorRGB emissiveColor;
 [...]
}

template MeshFace {
 <3D82AB5F-62DA-11cf-AB39-0020AF71E433>
 DWORD nFaceVertexIndices;
 array DWORD faceVertexIndices[nFaceVertexIndices];
}

template MeshFaceWraps {
 <4885AE62-78E8-11cf-8F52-0040333594A3>
 DWORD nFaceWrapValues;
 Boolean2d faceWrapValues;
}

template MeshTextureCoords {
 <F6F23F40-7686-11cf-8F52-0040333594A3>
 DWORD nTextureCoords;
 array Coords2d textureCoords[nTextureCoords];
}

template MeshMaterialList {
 <F6F23F42-7686-11cf-8F52-0040333594A3>
 DWORD nMaterials;
 DWORD nFaceIndexes;
 array DWORD faceIndexes[nFaceIndexes];
 [Material]
}

template MeshNormals {
 <F6F23F43-7686-11cf-8F52-0040333594A3>
 DWORD nNormals;
 array Vector normals[nNormals];
 DWORD nFaceNormals;
 array MeshFace faceNormals[nFaceNormals];
}

template MeshVertexColors {
 <1630B821-7842-11cf-8F52-0040333594A3>
 DWORD nVertexColors;
 array IndexedColor vertexColors[nVertexColors];
}

template Mesh {
 <3D82AB44-62DA-11cf-AB39-0020AF71E433>
 DWORD nVertices;
 array Vector vertices[nVertices];
 DWORD nFaces;
 array MeshFace faces[nFaces];
 [...]
}

Header{
1;
0;
1;
}

Mesh {
 494;
 -20.71394;-0.56973;-20.61003;,
 20.50614;-0.56973;-20.61003;,
 20.50614;-0.56973;20.61003;,
 -20.71394;-0.56973;20.61003;,
 -20.71394;20.46863;20.61003;,
 -20.71394;20.46863;-20.61003;,
 -20.71394;9.95858;-20.61003;,
 -20.71394;9.95858;20.61003;,
 -20.71394;20.46863;20.61003;,
 -20.71394;9.95858;20.61003;,
 20.50614;9.95858;20.61003;,
 20.50614;20.46863;20.61003;,
 -20.71394;20.46863;-20.61003;,
 20.50614;20.46863;-20.61003;,
 20.50614;9.95858;-20.61003;,
 -20.71394;9.95858;-20.61003;,
 20.50614;20.46863;20.61003;,
 20.50614;9.95858;20.61003;,
 20.50614;9.95858;-20.61003;,
 20.50614;20.46863;-20.61003;,
 -20.71394;42.20247;20.61003;,
 -20.71394;42.20247;-20.61003;,
 -20.71394;31.43091;-20.61003;,
 -20.71394;31.43091;20.61003;,
 -20.71394;42.20247;20.61003;,
 -20.71394;31.43091;20.61003;,
 20.50614;31.43091;20.61003;,
 20.50614;42.20247;20.61003;,
 -20.71394;42.20247;-20.61003;,
 20.50614;42.20247;-20.61003;,
 20.50614;31.43091;-20.61003;,
 -20.71394;31.43091;-20.61003;,
 20.50614;42.20247;20.61003;,
 20.50614;31.43091;20.61003;,
 20.50614;31.43091;-20.61003;,
 20.50614;42.20247;-20.61003;,
 -20.71394;63.61704;20.61003;,
 -20.71394;63.61704;-20.61003;,
 -20.71394;52.57614;-20.61003;,
 -20.71394;52.57614;20.61003;,
 -20.71394;63.61704;20.61003;,
 -20.71394;52.57614;20.61003;,
 20.50614;52.57613;20.61003;,
 20.50614;63.61703;20.61003;,
 -20.71394;63.61704;-20.61003;,
 20.50614;63.61703;-20.61003;,
 20.50614;52.57613;-20.61003;,
 -20.71394;52.57614;-20.61003;,
 20.50614;63.61703;20.61003;,
 20.50614;52.57613;20.61003;,
 20.50614;52.57613;-20.61003;,
 20.50614;63.61703;-20.61003;,
 -20.71394;84.92246;20.61003;,
 -20.71394;84.92246;-20.61003;,
 -20.71394;74.04180;-20.61004;,
 -20.71394;74.04180;20.61004;,
 -20.71394;84.92246;20.61003;,
 -20.71394;74.04180;20.61004;,
 20.50614;74.04177;20.61003;,
 20.50614;84.92246;20.61003;,
 -20.71394;84.92246;-20.61003;,
 20.50614;84.92246;-20.61003;,
 20.50614;74.04177;-20.61003;,
 -20.71394;74.04180;-20.61004;,
 20.50614;84.92246;20.61003;,
 20.50614;74.04177;20.61003;,
 20.50614;74.04177;-20.61003;,
 20.50614;84.92246;-20.61003;,
 -20.71394;105.90337;20.61003;,
 -20.71394;105.90337;-20.61003;,
 -20.71394;95.18515;-20.61003;,
 -20.71394;95.18515;20.61003;,
 -20.71394;105.90337;20.61003;,
 -20.71394;95.18515;20.61003;,
 20.50614;95.18515;20.61003;,
 20.50614;105.90337;20.61003;,
 -20.71394;105.90337;-20.61003;,
 20.50614;105.90337;-20.61003;,
 20.50614;95.18515;-20.61003;,
 -20.71394;95.18515;-20.61003;,
 20.50614;105.90337;20.61003;,
 20.50614;95.18515;20.61003;,
 20.50614;95.18515;-20.61003;,
 20.50614;105.90337;-20.61003;,
 -20.84984;9.95858;-20.74595;,
 -20.84984;9.95858;20.74595;,
 -20.84984;-0.56973;20.74595;,
 -20.84984;-0.56973;-20.74595;,
 -20.71394;-0.56973;-20.61003;,
 20.50614;-0.56973;20.88184;,
 -20.84984;-0.56973;20.74595;,
 -20.71394;-0.56973;20.61003;,
 20.50614;-0.56973;20.61003;,
 20.50614;9.95858;20.88184;,
 -20.84984;9.95858;20.74595;,
 20.50614;9.95858;-20.88184;,
 -20.84984;9.95858;-20.74595;,
 20.50614;-0.56973;-20.88184;,
 20.50614;-0.56973;-20.61003;,
 -20.84984;-0.56973;-20.74595;,
 -20.71394;-0.56973;-20.61003;,
 20.91386;-0.56973;20.61003;,
 20.91386;9.95858;20.61003;,
 20.91386;-0.56973;-20.61003;,
 20.50614;-0.56973;-20.61003;,
 20.91386;9.95858;-20.61003;,
 -20.71394;20.46863;21.01777;,
 -20.71394;31.43091;21.01777;,
 20.70999;20.46863;20.81391;,
 20.70999;31.43091;20.81391;,
 20.91386;20.46863;-20.61003;,
 20.70999;20.46863;20.81391;,
 20.91386;31.43091;-20.61003;,
 20.70999;31.43091;20.81391;,
 -21.05436;9.95858;-20.94981;,
 -21.05436;9.95858;20.94981;,
 -21.05436;-0.56973;20.94981;,
 -21.05436;-0.56973;-20.94981;,
 20.50480;-0.56973;21.28957;,
 -21.05436;-0.56973;20.94981;,
 20.50480;9.95858;21.28957;,
 -21.05436;9.95858;20.94981;,
 20.50480;9.95858;-21.28957;,
 -21.05436;9.95858;-20.94981;,
 20.50480;-0.56973;-21.28957;,
 -21.05436;-0.56973;-20.94981;,
 -21.12164;31.43091;-20.61003;,
 -21.12164;31.43091;20.61003;,
 -21.12164;20.46863;-20.61003;,
 -21.12164;20.46863;20.61003;,
 21.32160;-0.56973;20.61003;,
 21.32160;9.95858;20.61003;,
 21.32160;-0.56973;-20.61003;,
 21.32160;9.95858;-20.61003;,
 -20.71191;20.46863;21.42547;,
 -20.71191;31.43091;21.42547;,
 20.91487;20.46863;21.01876;,
 20.91487;31.43091;21.01876;,
 21.32158;20.46863;-20.60803;,
 20.91487;20.46863;21.01876;,
 21.32158;31.43091;-20.60803;,
 20.91487;31.43091;21.01876;,
 -21.25988;9.95858;-21.15366;,
 -21.25988;9.95858;21.15366;,
 -21.25988;-0.56973;21.15366;,
 -21.25988;-0.56973;-21.15366;,
 20.50147;-0.56973;21.69727;,
 -21.25988;-0.56973;21.15366;,
 20.50147;9.95858;21.69727;,
 -21.25988;9.95858;21.15366;,
 20.50147;9.95858;-21.69727;,
 -21.25988;9.95858;-21.15366;,
 20.50147;-0.56973;-21.69727;,
 -21.25988;-0.56973;-21.15366;,
 20.50614;31.43091;-20.88184;,
 -20.71394;31.43091;-20.88184;,
 20.50614;20.46863;-20.88184;,
 -20.71394;20.46863;-20.88184;,
 -20.84984;52.57614;-20.74595;,
 -20.84984;52.57614;20.74595;,
 -20.84984;42.20247;20.74595;,
 -20.84984;42.20247;-20.74595;,
 20.64205;42.20247;20.74595;,
 -20.84984;42.20247;20.74595;,
 -20.84984;52.57614;20.74595;,
 20.64205;52.57613;20.74595;,
 20.64205;52.57613;-20.74595;,
 -20.84984;52.57614;-20.74595;,
 -20.84984;42.20247;-20.74595;,
 20.64205;42.20247;-20.74595;,
 20.64205;42.20247;-20.74595;,
 20.64205;42.20247;20.74595;,
 20.64205;52.57613;20.74595;,
 20.64205;52.57613;-20.74595;,
 -20.84984;74.04180;-20.74595;,
 -20.84984;74.04180;20.74595;,
 -20.84984;63.61704;20.74595;,
 -20.84984;63.61704;-20.74595;,
 20.64205;63.61703;20.74595;,
 -20.84984;63.61704;20.74595;,
 -20.84984;74.04180;20.74595;,
 20.64205;74.04177;20.74595;,
 20.64205;74.04177;-20.74595;,
 -20.84984;74.04180;-20.74595;,
 -20.84984;63.61704;-20.74595;,
 20.64205;63.61703;-20.74595;,
 20.64205;63.61703;-20.74595;,
 20.64205;63.61703;20.74595;,
 20.64205;74.04177;20.74595;,
 20.64205;74.04177;-20.74595;,
 -20.71394;84.92246;20.88184;,
 -20.71394;95.18515;20.88184;,
 20.64205;84.92246;20.74595;,
 20.64205;95.18515;20.74595;,
 20.64205;95.18515;-20.74595;,
 -20.71394;95.18515;-20.88184;,
 -20.71394;84.92246;-20.88184;,
 20.64205;84.92246;-20.74595;,
 20.64205;84.92246;-20.74595;,
 20.64205;84.92246;20.74595;,
 20.64205;95.18515;20.74595;,
 20.64205;95.18515;-20.74595;,
 -21.39346;31.43091;-20.61003;,
 -21.39346;31.43091;20.61003;,
 -21.39346;20.46863;-20.61003;,
 -21.39346;20.46863;20.61003;,
 21.59341;-0.56973;20.61003;,
 21.59341;9.95858;20.61003;,
 21.59341;-0.56973;-20.61003;,
 21.59341;9.95858;-20.61003;,
 -20.70926;20.46863;21.69727;,
 -20.70926;31.43091;21.69727;,
 21.05208;20.46863;21.15598;,
 21.05208;31.43091;21.15598;,
 21.59339;20.46863;-20.60538;,
 21.05208;20.46863;21.15598;,
 21.59339;31.43091;-20.60538;,
 21.05208;31.43091;21.15598;,
 -21.39758;9.95858;-21.28955;,
 -21.39758;9.95858;21.28955;,
 -21.39758;-0.56973;21.28955;,
 -21.39758;-0.56973;-21.28955;,
 20.49793;-0.56973;21.96907;,
 -21.39758;-0.56973;21.28955;,
 20.49793;9.95858;21.96907;,
 -21.39758;9.95858;21.28955;,
 20.49793;9.95858;-21.96907;,
 -21.39758;9.95858;-21.28955;,
 20.49793;-0.56973;-21.96907;,
 -21.39758;-0.56973;-21.28955;,
 -19.89848;95.18515;-20.61003;,
 -19.89848;95.18515;20.61003;,
 -19.89848;84.92246;-20.61003;,
 -19.89848;84.92246;20.61003;,
 -20.30621;105.90337;20.20231;,
 -20.30621;105.90337;-20.20231;,
 20.09843;105.90337;20.20231;,
 -20.30621;105.90337;20.20231;,
 -20.30621;105.90337;-20.20231;,
 20.09843;105.90337;-20.20231;,
 20.09843;105.90337;-20.20231;,
 20.09843;105.90337;20.20231;,
 20.50614;31.43091;-20.06641;,
 -20.71394;31.43091;-20.06641;,
 20.50614;20.46863;-20.06641;,
 -20.71394;20.46863;-20.06641;,
 -20.44211;52.57614;-20.33823;,
 -20.44211;52.57614;20.33823;,
 -20.44211;42.20247;20.33823;,
 -20.44211;42.20247;-20.33823;,
 20.23434;42.20247;20.33823;,
 -20.44211;42.20247;20.33823;,
 -20.44211;52.57614;20.33823;,
 20.23434;52.57613;20.33823;,
 20.23434;52.57613;-20.33823;,
 -20.44211;52.57614;-20.33823;,
 -20.44211;42.20247;-20.33823;,
 20.23434;42.20247;-20.33823;,
 20.23434;42.20247;-20.33823;,
 20.23434;42.20247;20.33823;,
 20.23434;52.57613;20.33823;,
 20.23434;52.57613;-20.33823;,
 -20.44212;74.04180;-20.33823;,
 -20.44212;74.04180;20.33823;,
 -20.44211;63.61704;20.33823;,
 -20.44211;63.61704;-20.33823;,
 20.23434;63.61703;20.33823;,
 -20.44211;63.61704;20.33823;,
 -20.44212;74.04180;20.33823;,
 20.23434;74.04177;20.33823;,
 20.23434;74.04177;-20.33823;,
 -20.44212;74.04180;-20.33823;,
 -20.44211;63.61704;-20.33823;,
 20.23434;63.61703;-20.33823;,
 20.23434;63.61703;-20.33823;,
 20.23434;63.61703;20.33823;,
 20.23434;74.04177;20.33823;,
 20.23434;74.04177;-20.33823;,
 -20.71660;84.92246;20.06641;,
 -20.71660;95.18515;20.06641;,
 20.23299;84.92246;20.33823;,
 20.23299;95.18515;20.33823;,
 20.23299;95.18515;-20.33823;,
 -20.71660;95.18515;-20.06641;,
 -20.71660;84.92246;-20.06641;,
 20.23299;84.92246;-20.33823;,
 20.23299;84.92246;-20.33823;,
 20.23299;84.92246;20.33823;,
 20.23299;95.18515;20.33823;,
 20.23299;95.18515;-20.33823;,
 -20.57803;31.43091;-20.61003;,
 -20.57803;31.43091;20.61003;,
 -20.57803;20.46863;-20.61003;,
 -20.57803;20.46863;20.61003;,
 20.77797;-0.56973;20.61003;,
 20.77797;9.95858;20.61003;,
 20.77797;-0.56973;-20.61003;,
 20.77797;9.95858;-20.61003;,
 -20.71983;20.46863;20.88189;,
 -20.71983;31.43091;20.88189;,
 20.63912;20.46863;20.74302;,
 20.63912;31.43091;20.74302;,
 20.77801;20.46863;-20.61594;,
 20.63912;20.46863;20.74302;,
 20.77801;31.43091;-20.61594;,
 20.63912;31.43091;20.74302;,
 -20.98325;9.95858;-20.88188;,
 -20.98325;9.95858;20.88188;,
 -20.98325;-0.56973;20.88188;,
 -20.98325;-0.56973;-20.88188;,
 20.51116;-0.56973;21.15372;,
 -20.98325;-0.56973;20.88188;,
 20.51116;9.95858;21.15372;,
 -20.98325;9.95858;20.88188;,
 20.51116;9.95858;-21.15372;,
 -20.98325;9.95858;-20.88188;,
 20.51116;-0.56973;-21.15372;,
 -20.98325;-0.56973;-20.88188;,
 -19.24615;95.18515;-20.61003;,
 -19.24615;95.18515;20.61003;,
 -19.24615;84.92246;-20.61003;,
 -19.24615;84.92246;20.61003;,
 -19.98003;105.90337;19.87614;,
 -19.98003;105.90337;-19.87614;,
 19.77226;105.90337;19.87614;,
 -19.98003;105.90337;19.87614;,
 -19.98003;105.90337;-19.87614;,
 19.77226;105.90337;-19.87614;,
 19.77226;105.90337;-19.87614;,
 19.77226;105.90337;19.87614;,
 20.50614;31.43091;-19.41406;,
 -20.71394;31.43091;-19.41406;,
 20.50614;20.46863;-19.41406;,
 -20.71394;20.46863;-19.41406;,
 -20.11595;52.57614;-20.01203;,
 -20.11595;52.57614;20.01203;,
 -20.11595;42.20247;20.01203;,
 -20.11595;42.20247;-20.01203;,
 19.90816;42.20247;20.01203;,
 -20.11595;42.20247;20.01203;,
 -20.11595;52.57614;20.01203;,
 19.90816;52.57613;20.01203;,
 19.90816;52.57613;-20.01203;,
 -20.11595;52.57614;-20.01203;,
 -20.11595;42.20247;-20.01203;,
 19.90816;42.20247;-20.01203;,
 19.90816;42.20247;-20.01203;,
 19.90816;42.20247;20.01203;,
 19.90816;52.57613;20.01203;,
 19.90816;52.57613;-20.01203;,
 -20.11595;74.04180;-20.01203;,
 -20.11595;74.04180;20.01203;,
 -20.11595;63.61704;20.01203;,
 -20.11595;63.61704;-20.01203;,
 19.90816;63.61703;20.01203;,
 -20.11595;63.61704;20.01203;,
 -20.11595;74.04180;20.01203;,
 19.90816;74.04177;20.01203;,
 19.90816;74.04177;-20.01203;,
 -20.11595;74.04180;-20.01203;,
 -20.11595;63.61704;-20.01203;,
 19.90816;63.61703;-20.01203;,
 19.90816;63.61703;-20.01203;,
 19.90816;63.61703;20.01203;,
 19.90816;74.04177;20.01203;,
 19.90816;74.04177;-20.01203;,
 -20.71227;84.92246;19.41408;,
 -20.71227;95.18515;19.41408;,
 19.90898;84.92246;20.01205;,
 19.90898;95.18515;20.01205;,
 19.90898;95.18515;-20.01205;,
 -20.71227;95.18515;-19.41408;,
 -20.71227;84.92246;-19.41408;,
 19.90898;84.92246;-20.01205;,
 19.90898;84.92246;-20.01205;,
 19.90898;84.92246;20.01205;,
 19.90898;95.18515;20.01205;,
 19.90898;95.18515;-20.01205;,
 -19.92567;31.43091;-20.61003;,
 -19.92567;31.43091;20.61003;,
 -19.92567;20.46863;-20.61003;,
 -19.92567;20.46863;20.61003;,
 20.12560;-0.56973;20.61003;,
 20.12560;9.95858;20.61003;,
 20.12560;-0.56973;-20.61003;,
 20.12560;9.95858;-20.61003;,
 -20.72202;20.46863;20.22956;,
 -20.72202;31.43091;20.22956;,
 20.31186;20.46863;20.41574;,
 20.31186;31.43091;20.41574;,
 20.12568;20.46863;-20.61814;,
 20.31186;20.46863;20.41574;,
 20.12568;31.43091;-20.61814;,
 20.31186;31.43091;20.41574;,
 -20.65492;9.95858;-20.55570;,
 -20.65492;9.95858;20.55570;,
 -20.65492;-0.56973;20.55570;,
 -20.65492;-0.56973;-20.55570;,
 20.51543;-0.56973;20.50138;,
 -20.65492;-0.56973;20.55570;,
 20.51543;9.95858;20.50138;,
 -20.65492;9.95858;20.55570;,
 20.51543;9.95858;-20.50138;,
 -20.65492;9.95858;-20.55570;,
 20.51543;-0.56973;-20.50138;,
 -20.65492;-0.56973;-20.55570;,
 -20.11595;95.18515;-20.61003;,
 -20.11595;95.18515;20.61003;,
 -20.11595;84.92246;-20.61003;,
 -20.11595;84.92246;20.61003;,
 -20.41493;105.90337;20.31104;,
 -20.41493;105.90337;-20.31104;,
 20.20715;105.90337;20.31104;,
 -20.41493;105.90337;20.31104;,
 -20.41493;105.90337;-20.31104;,
 20.20715;105.90337;-20.31104;,
 20.20715;105.90337;-20.31104;,
 20.20715;105.90337;20.31104;,
 20.50614;31.43091;-20.28386;,
 -20.71394;31.43091;-20.28386;,
 20.50614;20.46863;-20.28386;,
 -20.71394;20.46863;-20.28386;,
 -20.55083;52.57614;-20.44695;,
 -20.55083;52.57614;20.44695;,
 -20.55083;42.20247;20.44695;,
 -20.55083;42.20247;-20.44695;,
 20.34306;42.20247;20.44695;,
 -20.55083;42.20247;20.44695;,
 -20.55083;52.57614;20.44695;,
 20.34306;52.57613;20.44695;,
 20.34306;52.57613;-20.44695;,
 -20.55083;52.57614;-20.44695;,
 -20.55083;42.20247;-20.44695;,
 20.34306;42.20247;-20.44695;,
 20.34306;42.20247;-20.44695;,
 20.34306;42.20247;20.44695;,
 20.34306;52.57613;20.44695;,
 20.34306;52.57613;-20.44695;,
 -20.55084;74.04180;-20.44695;,
 -20.55084;74.04180;20.44695;,
 -20.55083;63.61704;20.44695;,
 -20.55083;63.61704;-20.44695;,
 20.34306;63.61703;20.44695;,
 -20.55083;63.61704;20.44695;,
 -20.55084;74.04180;20.44695;,
 20.34306;74.04177;20.44695;,
 20.34306;74.04177;-20.44695;,
 -20.55084;74.04180;-20.44695;,
 -20.55083;63.61704;-20.44695;,
 20.34306;63.61703;-20.44695;,
 20.34306;63.61703;-20.44695;,
 20.34306;63.61703;20.44695;,
 20.34306;74.04177;20.44695;,
 20.34306;74.04177;-20.44695;,
 -20.72509;84.92246;20.28379;,
 -20.72509;95.18515;20.28379;,
 20.33748;84.92246;20.44691;,
 20.33748;95.18515;20.44691;,
 20.33748;95.18515;-20.44691;,
 -20.72509;95.18515;-20.28379;,
 -20.72509;84.92246;-20.28379;,
 20.33748;84.92246;-20.44691;,
 20.33748;84.92246;-20.44691;,
 20.33748;84.92246;20.44691;,
 20.33748;95.18515;20.44691;,
 20.33748;95.18515;-20.44691;,
 -20.79547;31.43091;-20.61003;,
 -20.79547;31.43091;20.61003;,
 -20.79547;20.46863;-20.61003;,
 -20.79547;20.46863;20.61003;,
 20.99540;-0.56973;20.61003;,
 20.99540;9.95858;20.61003;,
 20.99540;-0.56973;-20.61003;,
 20.99540;9.95858;-20.61003;,
 -20.72596;20.46863;21.09935;,
 -20.72596;31.43091;21.09935;,
 20.74477;20.46863;20.84869;,
 20.74477;31.43091;20.84869;,
 20.99546;20.46863;-20.62207;,
 20.74477;20.46863;20.84869;,
 20.99546;31.43091;-20.62207;,
 20.74477;31.43091;20.84869;,
 -21.08925;9.95858;-20.99062;,
 -21.08925;9.95858;20.99062;,
 -21.08925;-0.56973;20.99062;,
 -21.08925;-0.56973;-20.99062;,
 20.51658;-0.56973;21.37121;,
 -21.08925;-0.56973;20.99062;,
 20.51658;9.95858;21.37121;,
 -21.08925;9.95858;20.99062;,
 20.51658;9.95858;-21.37121;,
 -21.08925;9.95858;-20.99062;,
 20.51658;-0.56973;-21.37121;,
 -21.08925;-0.56973;-20.99062;;
 
 314;
 4;0,1,2,3;,
 4;4,5,6,7;,
 4;8,9,10,11;,
 4;12,13,14,15;,
 4;16,17,18,19;,
 4;20,21,22,23;,
 4;24,25,26,27;,
 4;28,29,30,31;,
 4;32,33,34,35;,
 4;36,37,38,39;,
 4;40,41,42,43;,
 4;44,45,46,47;,
 4;48,49,50,51;,
 4;52,53,54,55;,
 4;56,57,58,59;,
 4;60,61,62,63;,
 4;64,65,66,67;,
 4;68,69,70,71;,
 4;72,73,74,75;,
 4;76,77,78,79;,
 4;80,81,82,83;,
 4;84,85,7,6;,
 4;86,87,88,3;,
 4;89,90,91,92;,
 4;93,89,92,10;,
 4;94,93,10,9;,
 4;95,96,15,14;,
 4;97,95,14,98;,
 4;99,97,98,100;,
 4;101,102,17,2;,
 4;103,101,2,104;,
 4;105,103,104,18;,
 4;102,105,18,17;,
 4;106,107,25,8;,
 4;108,106,8,11;,
 4;107,109,26,25;,
 4;110,111,16,19;,
 4;112,110,19,34;,
 4;113,112,34,33;,
 4;114,115,85,84;,
 4;116,117,87,86;,
 4;118,119,90,89;,
 4;120,118,89,93;,
 4;121,120,93,94;,
 4;122,123,96,95;,
 4;124,122,95,97;,
 4;125,124,97,99;,
 4;126,127,23,22;,
 4;128,126,22,5;,
 4;129,128,5,4;,
 4;127,129,4,23;,
 4;130,131,102,101;,
 4;132,130,101,103;,
 4;133,132,103,105;,
 4;131,133,105,102;,
 4;134,135,107,106;,
 4;136,134,106,108;,
 4;135,137,109,107;,
 4;138,139,111,110;,
 4;140,138,110,112;,
 4;141,140,112,113;,
 4;142,143,115,114;,
 4;144,145,117,116;,
 4;146,147,119,118;,
 4;148,146,118,120;,
 4;149,148,120,121;,
 4;150,151,123,122;,
 4;152,150,122,124;,
 4;153,152,124,125;,
 4;154,155,31,30;,
 4;156,154,30,13;,
 4;157,156,13,12;,
 4;155,157,12,31;,
 4;158,159,39,38;,
 4;160,161,21,20;,
 4;162,163,24,27;,
 4;164,165,42,41;,
 4;166,167,47,46;,
 4;168,169,29,28;,
 4;170,171,32,35;,
 4;172,173,50,49;,
 4;174,175,55,54;,
 4;176,177,37,36;,
 4;178,179,40,43;,
 4;180,181,58,57;,
 4;182,183,63,62;,
 4;184,185,45,44;,
 4;186,187,48,51;,
 4;188,189,66,65;,
 4;190,191,73,56;,
 4;192,190,56,59;,
 4;191,193,74,73;,
 4;194,195,79,78;,
 4;196,197,61,60;,
 4;195,196,60,79;,
 4;198,199,64,67;,
 4;200,201,82,81;,
 4;202,203,127,126;,
 4;204,202,126,128;,
 4;205,204,128,129;,
 4;203,205,129,127;,
 4;206,207,131,130;,
 4;208,206,130,132;,
 4;209,208,132,133;,
 4;207,209,133,131;,
 4;210,211,135,134;,
 4;212,210,134,136;,
 4;211,213,137,135;,
 4;214,215,139,138;,
 4;216,214,138,140;,
 4;217,216,140,141;,
 4;218,219,143,142;,
 4;220,221,145,144;,
 4;222,223,147,146;,
 4;224,222,146,148;,
 4;225,224,148,149;,
 4;226,227,151,150;,
 4;228,226,150,152;,
 4;229,228,152,153;,
 4;230,231,71,70;,
 4;232,230,70,53;,
 4;233,232,53,52;,
 4;231,233,52,71;,
 4;234,235,69,68;,
 4;236,237,72,75;,
 4;238,239,77,76;,
 4;240,241,80,83;,
 4;242,243,155,154;,
 4;244,242,154,156;,
 4;245,244,156,157;,
 4;243,245,157,155;,
 4;246,247,159,158;,
 4;248,249,161,160;,
 4;250,251,163,162;,
 4;252,253,165,164;,
 4;254,255,167,166;,
 4;256,257,169,168;,
 4;258,259,171,170;,
 4;260,261,173,172;,
 4;262,263,175,174;,
 4;264,265,177,176;,
 4;266,267,179,178;,
 4;268,269,181,180;,
 4;270,271,183,182;,
 4;272,273,185,184;,
 4;274,275,187,186;,
 4;276,277,189,188;,
 4;278,279,191,190;,
 4;280,278,190,192;,
 4;279,281,193,191;,
 4;282,283,195,194;,
 4;284,285,197,196;,
 4;283,284,196,195;,
 4;286,287,199,198;,
 4;288,289,201,200;,
 4;290,291,203,202;,
 4;292,290,202,204;,
 4;293,292,204,205;,
 4;291,293,205,203;,
 4;294,295,207,206;,
 4;296,294,206,208;,
 4;297,296,208,209;,
 4;295,297,209,207;,
 4;298,299,211,210;,
 4;300,298,210,212;,
 4;299,301,213,211;,
 4;302,303,215,214;,
 4;304,302,214,216;,
 4;305,304,216,217;,
 4;306,307,219,218;,
 4;308,309,221,220;,
 4;310,311,223,222;,
 4;312,310,222,224;,
 4;313,312,224,225;,
 4;314,315,227,226;,
 4;316,314,226,228;,
 4;317,316,228,229;,
 4;318,319,231,230;,
 4;320,318,230,232;,
 4;321,320,232,233;,
 4;319,321,233,231;,
 4;322,323,235,234;,
 4;324,325,237,236;,
 4;326,327,239,238;,
 4;328,329,241,240;,
 4;330,331,243,242;,
 4;332,330,242,244;,
 4;333,332,244,245;,
 4;331,333,245,243;,
 4;334,335,247,246;,
 4;336,337,249,248;,
 4;338,339,251,250;,
 4;340,341,253,252;,
 4;342,343,255,254;,
 4;344,345,257,256;,
 4;346,347,259,258;,
 4;348,349,261,260;,
 4;350,351,263,262;,
 4;352,353,265,264;,
 4;354,355,267,266;,
 4;356,357,269,268;,
 4;358,359,271,270;,
 4;360,361,273,272;,
 4;362,363,275,274;,
 4;364,365,277,276;,
 4;366,367,279,278;,
 4;368,366,278,280;,
 4;367,369,281,279;,
 4;370,371,283,282;,
 4;372,373,285,284;,
 4;371,372,284,283;,
 4;374,375,287,286;,
 4;376,377,289,288;,
 4;378,379,291,290;,
 4;380,378,290,292;,
 4;381,380,292,293;,
 4;379,381,293,291;,
 4;382,383,295,294;,
 4;384,382,294,296;,
 4;385,384,296,297;,
 4;383,385,297,295;,
 4;386,387,299,298;,
 4;388,386,298,300;,
 4;387,389,301,299;,
 4;390,391,303,302;,
 4;392,390,302,304;,
 4;393,392,304,305;,
 4;394,395,307,306;,
 4;396,397,309,308;,
 4;398,399,311,310;,
 4;400,398,310,312;,
 4;401,400,312,313;,
 4;402,403,315,314;,
 4;404,402,314,316;,
 4;405,404,316,317;,
 4;406,407,319,318;,
 4;408,406,318,320;,
 4;409,408,320,321;,
 4;407,409,321,319;,
 4;407,406,408,409;,
 4;410,411,323,322;,
 4;412,413,325,324;,
 4;414,415,327,326;,
 4;416,417,329,328;,
 4;418,419,331,330;,
 4;420,418,330,332;,
 4;421,420,332,333;,
 4;419,421,333,331;,
 4;419,418,420,421;,
 4;422,423,335,334;,
 4;424,425,337,336;,
 4;423,422,425,424;,
 4;426,427,339,338;,
 4;428,429,341,340;,
 4;428,427,426,429;,
 4;430,431,343,342;,
 4;432,433,345,344;,
 4;431,430,433,432;,
 4;434,435,347,346;,
 4;436,437,349,348;,
 4;436,435,434,437;,
 4;438,439,351,350;,
 4;440,441,353,352;,
 4;439,438,441,440;,
 4;442,443,355,354;,
 4;444,445,357,356;,
 4;444,443,442,445;,
 4;446,447,359,358;,
 4;448,449,361,360;,
 4;447,446,449,448;,
 4;450,451,363,362;,
 4;452,453,365,364;,
 4;452,451,450,453;,
 4;454,455,367,366;,
 4;456,454,366,368;,
 4;455,457,369,367;,
 4;455,454,456,457;,
 4;458,459,371,370;,
 4;460,461,373,372;,
 4;459,460,372,371;,
 4;459,458,461,460;,
 4;462,463,375,374;,
 4;464,465,377,376;,
 4;464,463,462,465;,
 4;466,467,379,378;,
 4;468,466,378,380;,
 4;469,468,380,381;,
 4;467,469,381,379;,
 4;467,466,468,469;,
 4;470,471,383,382;,
 4;472,470,382,384;,
 4;473,472,384,385;,
 4;471,473,385,383;,
 4;471,470,472,473;,
 4;474,475,387,386;,
 4;476,474,386,388;,
 4;475,477,389,387;,
 4;475,474,476,477;,
 4;478,479,391,390;,
 4;480,478,390,392;,
 4;481,480,392,393;,
 4;481,479,478,480;,
 4;482,483,395,394;,
 4;484,485,397,396;,
 4;483,482,485,484;,
 4;486,487,399,398;,
 4;488,486,398,400;,
 4;489,488,400,401;,
 4;489,487,486,488;,
 4;490,491,403,402;,
 4;492,490,402,404;,
 4;493,492,404,405;,
 4;491,490,492,493;,
 4;77,69,68,75;;
 
 MeshMaterialList {
  2;
  314;
  1,
  0,
  0,
  0,
  0,
  0,
  0,
  0,
  0,
  0,
  0,
  0,
  0,
  0,
  0,
  0,
  0,
  0,
  0,
  0,
  0,
  0,
  0,
  0,
  0,
  0,
  0,
  0,
  0,
  0,
  0,
  0,
  0,
  0,
  0,
  0,
  0,
  0,
  0,
  0,
  0,
  0,
  0,
  0,
  0,
  0,
  0,
  0,
  0,
  0,
  0,
  0,
  0,
  0,
  0,
  0,
  0,
  0,
  0,
  0,
  0,
  0,
  0,
  0,
  0,
  0,
  0,
  0,
  0,
  0,
  0,
  0,
  0,
  0,
  0,
  0,
  0,
  0,
  0,
  0,
  0,
  0,
  0,
  0,
  0,
  0,
  0,
  0,
  0,
  0,
  0,
  0,
  0,
  0,
  0,
  0,
  0,
  0,
  0,
  0,
  0,
  0,
  0,
  0,
  0,
  0,
  0,
  0,
  0,
  0,
  0,
  0,
  0,
  0,
  0,
  0,
  0,
  0,
  0,
  0,
  0,
  0,
  0,
  0,
  0,
  0,
  0,
  0,
  0,
  0,
  0,
  0,
  0,
  0,
  0,
  0,
  0,
  0,
  0,
  0,
  0,
  0,
  0,
  0,
  0,
  0,
  0,
  0,
  0,
  0,
  0,
  0,
  0,
  0,
  0,
  0,
  0,
  0,
  0,
  0,
  0,
  0,
  0,
  0,
  0,
  0,
  0,
  0,
  0,
  0,
  0,
  0,
  0,
  0,
  0,
  0,
  0,
  0,
  0,
  0,
  0,
  0,
  0,
  0,
  0,
  0,
  0,
  0,
  0,
  0,
  0,
  0,
  0,
  0,
  0,
  0,
  0,
  0,
  0,
  0,
  0,
  0,
  0,
  0,
  0,
  0,
  0,
  0,
  0,
  0,
  0,
  0,
  0,
  0,
  0,
  0,
  0,
  0,
  0,
  0,
  0,
  0,
  0,
  0,
  0,
  0,
  0,
  0,
  0,
  0,
  0,
  0,
  0,
  0,
  0,
  0,
  0,
  0,
  0,
  0,
  0,
  0,
  0,
  0,
  0,
  0,
  0,
  0,
  0,
  0,
  0,
  0,
  0,
  0,
  0,
  0,
  0,
  0,
  0,
  0,
  0,
  0,
  0,
  0,
  0,
  0,
  0,
  0,
  0,
  0,
  0,
  0,
  0,
  0,
  0,
  0,
  0,
  0,
  0,
  0,
  0,
  0,
  0,
  0,
  0,
  0,
  0,
  0,
  0,
  0,
  0,
  0,
  0,
  0,
  0,
  0,
  0,
  0,
  0,
  0,
  0,
  0,
  0,
  0,
  0,
  0,
  0,
  0,
  0,
  0,
  0,
  0,
  0,
  0;;
  Material {
   0.800000;0.800000;0.800000;1.000000;;
   5.000000;
   0.000000;0.000000;0.000000;;
   0.000000;0.000000;0.000000;;
   TextureFilename {
    "data\\TEXTURE\\bill.png";
   }
  }
  Material {
   1.000000;1.000000;1.000000;1.000000;;
   0.000000;
   0.000000;0.000000;0.000000;;
   0.000000;0.000000;0.000000;;
  }
 }
 MeshNormals {
  83;
  0.000000;-1.000000;-0.000000;,
  -1.000000;0.000000;0.000000;,
  0.000000;0.000000;1.000000;,
  0.000000;0.000000;-1.000000;,
  0.000000;0.000000;1.000000;,
  0.000000;0.000000;-1.000000;,
  0.999999;0.000000;-0.001639;,
  0.000000;1.000000;0.000000;,
  0.999999;0.000000;0.001639;,
  -0.999997;0.000000;0.002493;,
  0.002449;0.000000;-0.999997;,
  0.999984;0.000000;-0.005722;,
  0.999984;0.000000;0.005722;,
  -0.999973;0.000000;0.007354;,
  0.007339;0.000000;-0.999973;,
  0.999944;0.000000;-0.010600;,
  0.999944;0.000000;0.010600;,
  1.000000;0.000000;0.000000;,
  0.000000;1.000000;-0.000000;,
  0.000000;1.000000;-0.000000;,
  -0.000000;-1.000000;-0.000000;,
  -0.000000;-1.000000;-0.000000;,
  0.000000;1.000000;0.000000;,
  0.000000;1.000000;-0.000000;,
  -0.999953;0.000000;0.009723;,
  0.009779;0.000000;-0.999952;,
  0.999915;0.000000;-0.013035;,
  0.999915;0.000000;0.013035;,
  -0.000000;-1.000000;-0.000000;,
  -0.000000;-1.000000;-0.000000;,
  0.000000;1.000000;-0.000000;,
  0.000000;1.000000;-0.000000;,
  -0.000000;-1.000000;-0.000000;,
  -0.000000;-1.000000;-0.000000;,
  0.999999;0.000000;0.001690;,
  0.999967;0.000000;-0.008158;,
  -0.008166;0.000000;0.999967;,
  -0.999935;0.000000;0.011388;,
  -0.999935;0.000000;-0.011388;,
  -0.000000;-1.000000;-0.000000;,
  -0.000000;-1.000000;-0.000000;,
  0.000000;1.000000;-0.000000;,
  0.000000;1.000000;-0.000000;,
  -0.000000;-1.000000;-0.000000;,
  -0.000000;-1.000000;-0.000000;,
  0.999978;0.000000;0.006648;,
  0.999994;0.000000;-0.003361;,
  -0.003380;0.000000;0.999994;,
  -0.999978;0.000000;0.006556;,
  -0.999978;0.000000;-0.006556;,
  0.000000;1.000000;-0.000000;,
  0.000000;1.000000;-0.000000;,
  -0.000000;-1.000000;-0.000000;,
  -0.000000;-1.000000;-0.000000;,
  0.000000;1.000000;0.000000;,
  0.000000;1.000000;-0.000000;,
  -0.999891;0.000000;-0.014743;,
  -0.999990;0.000000;-0.004526;,
  -0.004519;0.000000;-0.999990;,
  0.999999;0.000000;0.001314;,
  0.999999;0.000000;-0.001314;,
  -0.000000;-1.000000;-0.000000;,
  -0.000000;-1.000000;-0.000000;,
  -0.000000;-1.000000;-0.000000;,
  -0.000000;-1.000000;-0.000000;,
  0.000000;1.000000;-0.000000;,
  0.000000;1.000000;-0.000000;,
  0.999995;0.000000;-0.003267;,
  0.999999;0.000000;-0.001690;,
  0.999995;0.000000;0.003267;,
  0.999916;0.000000;-0.012954;,
  -0.012953;0.000000;0.999916;,
  -0.999868;0.000000;-0.016220;,
  -0.999868;0.000000;0.016220;,
  0.999978;0.000000;-0.006648;,
  -1.000000;-0.000001;0.000000;,
  -0.003972;0.000000;0.999992;,
  -0.999891;0.000000;0.014743;,
  -0.003972;0.000000;-0.999992;,
  0.006044;0.000000;0.999982;,
  0.999982;0.000000;0.006045;,
  -0.009147;0.000000;0.999958;,
  -0.009147;0.000000;-0.999958;;
  314;
  4;0,0,0,0;,
  4;1,1,1,1;,
  4;2,2,2,2;,
  4;3,3,3,3;,
  4;17,17,17,17;,
  4;1,1,1,1;,
  4;2,2,2,2;,
  4;3,3,3,3;,
  4;17,17,17,17;,
  4;1,1,1,1;,
  4;2,2,2,2;,
  4;3,3,3,3;,
  4;17,17,17,17;,
  4;1,1,1,1;,
  4;4,4,4,4;,
  4;5,5,5,5;,
  4;17,17,17,17;,
  4;1,1,1,1;,
  4;2,2,2,2;,
  4;3,3,3,3;,
  4;17,17,17,17;,
  4;7,7,7,7;,
  4;0,0,0,0;,
  4;0,0,0,0;,
  4;8,8,17,17;,
  4;7,7,7,7;,
  4;7,7,7,7;,
  4;6,6,17,17;,
  4;0,0,0,0;,
  4;2,2,2,2;,
  4;0,0,0,0;,
  4;3,3,3,3;,
  4;7,7,7,7;,
  4;9,9,1,1;,
  4;0,0,0,0;,
  4;7,7,7,7;,
  4;0,0,0,0;,
  4;10,10,3,3;,
  4;7,7,7,7;,
  4;7,7,7,7;,
  4;0,0,0,0;,
  4;0,0,0,0;,
  4;12,12,8,8;,
  4;7,7,7,7;,
  4;7,7,7,7;,
  4;11,11,6,6;,
  4;0,0,0,0;,
  4;7,7,7,7;,
  4;3,3,3,3;,
  4;0,0,0,0;,
  4;2,2,2,2;,
  4;2,2,2,2;,
  4;0,0,0,0;,
  4;3,3,3,3;,
  4;7,7,7,7;,
  4;13,13,9,9;,
  4;0,0,0,0;,
  4;7,7,7,7;,
  4;0,0,0,0;,
  4;14,14,10,10;,
  4;7,7,7,7;,
  4;7,7,7,7;,
  4;0,0,0,0;,
  4;0,0,0,0;,
  4;16,16,12,12;,
  4;7,7,7,7;,
  4;7,7,7,7;,
  4;15,15,11,11;,
  4;0,0,0,0;,
  4;7,7,7,7;,
  4;17,17,17,17;,
  4;0,0,0,0;,
  4;1,1,1,1;,
  4;19,18,18,19;,
  4;0,0,0,0;,
  4;0,0,0,0;,
  4;18,18,18,18;,
  4;19,19,19,19;,
  4;0,0,0,0;,
  4;0,0,0,0;,
  4;18,19,19,18;,
  4;23,22,22,23;,
  4;20,21,21,20;,
  4;20,20,20,20;,
  4;22,22,22,22;,
  4;23,23,23,23;,
  4;21,21,21,21;,
  4;21,20,20,21;,
  4;22,23,23,22;,
  4;1,1,1,1;,
  4;0,0,0,0;,
  4;7,7,7,7;,
  4;7,7,7,7;,
  4;0,0,0,0;,
  4;1,1,1,1;,
  4;0,0,0,0;,
  4;7,7,7,7;,
  4;7,7,7,7;,
  4;3,3,3,3;,
  4;0,0,0,0;,
  4;2,2,2,2;,
  4;2,2,2,2;,
  4;0,0,0,0;,
  4;3,3,3,3;,
  4;7,7,7,7;,
  4;24,24,13,13;,
  4;0,0,0,0;,
  4;7,7,7,7;,
  4;0,0,0,0;,
  4;25,25,14,14;,
  4;7,7,7,7;,
  4;7,7,7,7;,
  4;0,0,0,0;,
  4;0,0,0,0;,
  4;27,27,16,16;,
  4;7,7,7,7;,
  4;7,7,7,7;,
  4;26,26,15,15;,
  4;0,0,0,0;,
  4;0,0,0,0;,
  4;2,2,2,2;,
  4;7,7,7,7;,
  4;3,3,3,3;,
  4;7,7,7,7;,
  4;7,7,7,7;,
  4;7,7,7,7;,
  4;7,7,7,7;,
  4;0,0,0,0;,
  4;1,1,1,1;,
  4;7,7,7,7;,
  4;17,17,17,17;,
  4;29,28,61,62;,
  4;7,7,7,7;,
  4;7,7,7,7;,
  4;28,28,61,61;,
  4;29,29,62,62;,
  4;7,7,7,7;,
  4;7,7,7,7;,
  4;28,29,62,61;,
  4;33,32,63,64;,
  4;30,31,65,66;,
  4;30,30,66,66;,
  4;32,32,63,63;,
  4;33,33,64,64;,
  4;31,31,65,65;,
  4;31,30,66,65;,
  4;32,33,64,63;,
  4;34,34,67,67;,
  4;7,7,7,7;,
  4;0,0,0,0;,
  4;0,0,0,0;,
  4;7,7,7,7;,
  4;68,68,69,69;,
  4;7,7,7,7;,
  4;0,0,0,0;,
  4;0,0,0,0;,
  4;2,2,2,2;,
  4;7,7,7,7;,
  4;3,3,3,3;,
  4;3,3,3,3;,
  4;7,7,7,7;,
  4;2,2,2,2;,
  4;0,0,0,0;,
  4;35,35,70,70;,
  4;7,7,7,7;,
  4;0,0,0,0;,
  4;7,7,7,7;,
  4;36,36,71,71;,
  4;0,0,0,0;,
  4;0,0,0,0;,
  4;7,7,7,7;,
  4;7,7,7,7;,
  4;38,38,72,72;,
  4;0,0,0,0;,
  4;0,0,0,0;,
  4;37,37,73,73;,
  4;7,7,7,7;,
  4;0,0,0,0;,
  4;2,2,2,2;,
  4;7,7,7,7;,
  4;3,3,3,3;,
  4;7,7,7,7;,
  4;7,7,7,7;,
  4;7,7,7,7;,
  4;7,7,7,7;,
  4;0,0,0,0;,
  4;1,1,1,1;,
  4;7,7,7,7;,
  4;17,17,17,17;,
  4;40,39,28,29;,
  4;7,7,7,7;,
  4;7,7,7,7;,
  4;39,39,28,28;,
  4;40,40,29,29;,
  4;7,7,7,7;,
  4;7,7,7,7;,
  4;39,40,29,28;,
  4;44,43,32,33;,
  4;41,42,31,30;,
  4;41,41,30,30;,
  4;43,43,32,32;,
  4;44,44,33,33;,
  4;42,42,31,31;,
  4;42,41,30,31;,
  4;43,44,33,32;,
  4;45,45,34,34;,
  4;7,7,7,7;,
  4;0,0,0,0;,
  4;0,0,0,0;,
  4;7,7,7,7;,
  4;74,74,68,68;,
  4;7,7,7,7;,
  4;0,0,0,0;,
  4;0,0,0,0;,
  4;2,2,2,2;,
  4;7,7,7,7;,
  4;3,3,3,3;,
  4;3,3,3,3;,
  4;7,7,7,7;,
  4;2,2,2,2;,
  4;0,0,0,0;,
  4;46,46,35,35;,
  4;7,7,7,7;,
  4;0,0,0,0;,
  4;7,7,7,7;,
  4;47,47,36,36;,
  4;0,0,0,0;,
  4;0,0,0,0;,
  4;7,7,7,7;,
  4;7,7,7,7;,
  4;49,49,38,38;,
  4;0,0,0,0;,
  4;0,0,0,0;,
  4;48,48,37,37;,
  4;7,7,7,7;,
  4;7,7,7,7;,
  4;3,3,3,3;,
  4;0,0,0,0;,
  4;2,2,2,2;,
  4;1,1,1,1;,
  4;0,0,0,0;,
  4;0,0,0,0;,
  4;0,0,0,0;,
  4;0,0,0,0;,
  4;7,7,7,7;,
  4;17,17,17,17;,
  4;0,0,0,0;,
  4;1,1,1,1;,
  4;3,3,3,3;,
  4;51,50,50,51;,
  4;0,0,0,0;,
  4;1,1,1,1;,
  4;0,0,0,0;,
  4;50,50,50,50;,
  4;2,2,2,2;,
  4;51,51,51,51;,
  4;0,0,0,0;,
  4;3,3,3,3;,
  4;0,0,0,0;,
  4;50,51,51,50;,
  4;17,17,17,17;,
  4;55,54,54,55;,
  4;52,53,53,52;,
  4;75,75,75,75;,
  4;52,52,52,52;,
  4;54,54,54,54;,
  4;2,2,2,2;,
  4;55,55,55,55;,
  4;53,53,53,53;,
  4;3,3,3,3;,
  4;53,52,52,53;,
  4;54,55,55,54;,
  4;17,17,17,17;,
  4;56,56,56,56;,
  4;0,0,0,0;,
  4;7,7,7,7;,
  4;76,76,76,76;,
  4;7,7,7,7;,
  4;0,0,0,0;,
  4;77,77,77,77;,
  4;78,78,78,78;,
  4;0,0,0,0;,
  4;7,7,7,7;,
  4;17,17,17,17;,
  4;7,7,7,7;,
  4;3,3,3,3;,
  4;0,0,0,0;,
  4;2,2,2,2;,
  4;1,1,1,1;,
  4;2,2,2,2;,
  4;0,0,0,0;,
  4;3,3,3,3;,
  4;7,7,7,7;,
  4;17,17,17,17;,
  4;57,57,57,57;,
  4;0,0,0,0;,
  4;7,7,7,7;,
  4;79,79,79,79;,
  4;0,0,0,0;,
  4;58,58,58,58;,
  4;7,7,7,7;,
  4;80,80,80,80;,
  4;7,7,7,7;,
  4;0,0,0,0;,
  4;1,1,1,1;,
  4;0,0,0,0;,
  4;60,60,60,60;,
  4;7,7,7,7;,
  4;81,81,81,81;,
  4;7,7,7,7;,
  4;59,59,59,59;,
  4;0,0,0,0;,
  4;82,82,82,82;,
  4;7,7,7,7;;
 }
 MeshTextureCoords {
  494;
  0.000000;0.000000;,
  1.000000;0.000000;,
  1.000000;1.000000;,
  0.000000;1.000000;,
  0.000000;0.815487;,
  1.000000;0.815487;,
  1.000000;0.907664;,
  0.000000;0.907664;,
  1.000000;0.815487;,
  1.000000;0.907664;,
  0.000000;0.907664;,
  0.000000;0.815487;,
  0.000000;0.815487;,
  1.000000;0.815487;,
  1.000000;0.907664;,
  0.000000;0.907664;,
  1.000000;0.815487;,
  1.000000;0.907664;,
  0.000000;0.907664;,
  0.000000;0.815487;,
  0.000000;0.624875;,
  1.000000;0.624875;,
  1.000000;0.719345;,
  0.000000;0.719345;,
  1.000000;0.624875;,
  1.000000;0.719345;,
  0.000000;0.719345;,
  0.000000;0.624875;,
  0.000000;0.624875;,
  1.000000;0.624875;,
  1.000000;0.719345;,
  0.000000;0.719345;,
  1.000000;0.624875;,
  1.000000;0.719345;,
  0.000000;0.719345;,
  0.000000;0.624875;,
  0.000000;0.437062;,
  1.000000;0.437062;,
  1.000000;0.533895;,
  0.000000;0.533895;,
  1.000000;0.437062;,
  1.000000;0.533895;,
  0.000000;0.533895;,
  0.000000;0.437062;,
  0.000000;0.437062;,
  1.000000;0.437062;,
  1.000000;0.533895;,
  0.000000;0.533895;,
  1.000000;0.437062;,
  1.000000;0.533895;,
  0.000000;0.533895;,
  0.000000;0.437062;,
  0.000000;0.250208;,
  1.000000;0.250208;,
  1.000000;0.345634;,
  0.000000;0.345634;,
  1.000000;0.250208;,
  1.000000;0.345634;,
  0.000000;0.345634;,
  0.000000;0.250208;,
  0.000000;0.250208;,
  1.000000;0.250208;,
  1.000000;0.345634;,
  0.000000;0.345634;,
  1.000000;0.250208;,
  1.000000;0.345634;,
  0.000000;0.345634;,
  0.000000;0.250208;,
  0.000000;0.066201;,
  1.000000;0.066201;,
  1.000000;0.160202;,
  0.000000;0.160202;,
  1.000000;0.066201;,
  1.000000;0.160202;,
  0.000000;0.160202;,
  0.000000;0.066201;,
  0.000000;0.066201;,
  1.000000;0.066201;,
  1.000000;0.160202;,
  0.000000;0.160202;,
  1.000000;0.066201;,
  1.000000;0.160202;,
  0.000000;0.160202;,
  0.000000;0.066201;,
  1.000000;0.907664;,
  0.000000;0.907664;,
  0.000000;1.000000;,
  1.000000;1.000000;,
  1.000000;1.000000;,
  0.000000;1.000000;,
  1.000000;1.000000;,
  1.000000;1.000000;,
  0.000000;1.000000;,
  0.000000;0.907664;,
  1.000000;0.907664;,
  1.000000;0.907664;,
  0.000000;0.907664;,
  1.000000;1.000000;,
  1.000000;1.000000;,
  0.000000;1.000000;,
  0.000000;1.000000;,
  1.000000;1.000000;,
  1.000000;0.907664;,
  0.000000;1.000000;,
  0.000000;1.000000;,
  0.000000;0.907664;,
  1.000000;0.815487;,
  1.000000;0.719345;,
  0.000000;0.815487;,
  0.000000;0.719345;,
  0.000000;0.815487;,
  1.000000;0.815487;,
  0.000000;0.719345;,
  1.000000;0.719345;,
  1.000000;0.907664;,
  0.000000;0.907664;,
  0.000000;1.000000;,
  1.000000;1.000000;,
  0.000000;1.000000;,
  1.000000;1.000000;,
  0.000000;0.907664;,
  1.000000;0.907664;,
  1.000000;0.907664;,
  0.000000;0.907664;,
  1.000000;1.000000;,
  0.000000;1.000000;,
  1.000000;0.719345;,
  0.000000;0.719345;,
  1.000000;0.815487;,
  0.000000;0.815487;,
  1.000000;1.000000;,
  1.000000;0.907664;,
  0.000000;1.000000;,
  0.000000;0.907664;,
  1.000000;0.815487;,
  1.000000;0.719345;,
  0.000000;0.815487;,
  0.000000;0.719345;,
  0.000000;0.815487;,
  1.000000;0.815487;,
  0.000000;0.719345;,
  1.000000;0.719345;,
  1.000000;0.907664;,
  0.000000;0.907664;,
  0.000000;1.000000;,
  1.000000;1.000000;,
  0.000000;1.000000;,
  1.000000;1.000000;,
  0.000000;0.907664;,
  1.000000;0.907664;,
  1.000000;0.907664;,
  0.000000;0.907664;,
  1.000000;1.000000;,
  0.000000;1.000000;,
  1.000000;0.719345;,
  0.000000;0.719345;,
  1.000000;0.815487;,
  0.000000;0.815487;,
  1.000000;0.533895;,
  0.000000;0.533895;,
  0.000000;0.624875;,
  1.000000;0.624875;,
  0.000000;0.624875;,
  1.000000;0.624875;,
  1.000000;0.533895;,
  0.000000;0.533895;,
  1.000000;0.533895;,
  0.000000;0.533895;,
  0.000000;0.624875;,
  1.000000;0.624875;,
  0.000000;0.624875;,
  1.000000;0.624875;,
  1.000000;0.533895;,
  0.000000;0.533895;,
  1.000000;0.345634;,
  0.000000;0.345634;,
  0.000000;0.437062;,
  1.000000;0.437062;,
  0.000000;0.437062;,
  1.000000;0.437062;,
  1.000000;0.345634;,
  0.000000;0.345634;,
  1.000000;0.345634;,
  0.000000;0.345634;,
  0.000000;0.437062;,
  1.000000;0.437062;,
  0.000000;0.437062;,
  1.000000;0.437062;,
  1.000000;0.345634;,
  0.000000;0.345634;,
  1.000000;0.250208;,
  1.000000;0.160202;,
  0.000000;0.250208;,
  0.000000;0.160202;,
  1.000000;0.160202;,
  0.000000;0.160202;,
  0.000000;0.250208;,
  1.000000;0.250208;,
  0.000000;0.250208;,
  1.000000;0.250208;,
  1.000000;0.160202;,
  0.000000;0.160202;,
  1.000000;0.719345;,
  0.000000;0.719345;,
  1.000000;0.815487;,
  0.000000;0.815487;,
  1.000000;1.000000;,
  1.000000;0.907664;,
  0.000000;1.000000;,
  0.000000;0.907664;,
  1.000000;0.815487;,
  1.000000;0.719345;,
  0.000000;0.815487;,
  0.000000;0.719345;,
  0.000000;0.815487;,
  1.000000;0.815487;,
  0.000000;0.719345;,
  1.000000;0.719345;,
  1.000000;0.907664;,
  0.000000;0.907664;,
  0.000000;1.000000;,
  1.000000;1.000000;,
  0.000000;1.000000;,
  1.000000;1.000000;,
  0.000000;0.907664;,
  1.000000;0.907664;,
  1.000000;0.907664;,
  0.000000;0.907664;,
  1.000000;1.000000;,
  0.000000;1.000000;,
  1.000000;0.160202;,
  0.000000;0.160202;,
  1.000000;0.250208;,
  0.000000;0.250208;,
  0.000000;0.066201;,
  1.000000;0.066201;,
  0.000000;0.066201;,
  1.000000;0.066201;,
  0.000000;0.066201;,
  1.000000;0.066201;,
  0.000000;0.066201;,
  1.000000;0.066201;,
  1.000000;0.719345;,
  0.000000;0.719345;,
  1.000000;0.815487;,
  0.000000;0.815487;,
  1.000000;0.533895;,
  0.000000;0.533895;,
  0.000000;0.624875;,
  1.000000;0.624875;,
  0.000000;0.624875;,
  1.000000;0.624875;,
  1.000000;0.533895;,
  0.000000;0.533895;,
  1.000000;0.533895;,
  0.000000;0.533895;,
  0.000000;0.624875;,
  1.000000;0.624875;,
  0.000000;0.624875;,
  1.000000;0.624875;,
  1.000000;0.533895;,
  0.000000;0.533895;,
  1.000000;0.345634;,
  0.000000;0.345634;,
  0.000000;0.437062;,
  1.000000;0.437062;,
  0.000000;0.437062;,
  1.000000;0.437062;,
  1.000000;0.345634;,
  0.000000;0.345634;,
  1.000000;0.345634;,
  0.000000;0.345634;,
  0.000000;0.437062;,
  1.000000;0.437062;,
  0.000000;0.437062;,
  1.000000;0.437062;,
  1.000000;0.345634;,
  0.000000;0.345634;,
  1.000000;0.250208;,
  1.000000;0.160202;,
  0.000000;0.250208;,
  0.000000;0.160202;,
  1.000000;0.160202;,
  0.000000;0.160202;,
  0.000000;0.250208;,
  1.000000;0.250208;,
  0.000000;0.250208;,
  1.000000;0.250208;,
  1.000000;0.160202;,
  0.000000;0.160202;,
  1.000000;0.719345;,
  0.000000;0.719345;,
  1.000000;0.815487;,
  0.000000;0.815487;,
  1.000000;1.000000;,
  1.000000;0.907664;,
  0.000000;1.000000;,
  0.000000;0.907664;,
  1.000000;0.815487;,
  1.000000;0.719345;,
  0.000000;0.815487;,
  0.000000;0.719345;,
  0.000000;0.815487;,
  1.000000;0.815487;,
  0.000000;0.719345;,
  1.000000;0.719345;,
  1.000000;0.907664;,
  0.000000;0.907664;,
  0.000000;1.000000;,
  1.000000;1.000000;,
  0.000000;1.000000;,
  1.000000;1.000000;,
  0.000000;0.907664;,
  1.000000;0.907664;,
  1.000000;0.907664;,
  0.000000;0.907664;,
  1.000000;1.000000;,
  0.000000;1.000000;,
  1.000000;0.160202;,
  0.000000;0.160202;,
  1.000000;0.250208;,
  0.000000;0.250208;,
  0.000000;0.066201;,
  1.000000;0.066201;,
  0.000000;0.066201;,
  1.000000;0.066201;,
  0.000000;0.066201;,
  1.000000;0.066201;,
  0.000000;0.066201;,
  1.000000;0.066201;,
  1.000000;0.719345;,
  0.000000;0.719345;,
  1.000000;0.815487;,
  0.000000;0.815487;,
  1.000000;0.533895;,
  0.000000;0.533895;,
  0.000000;0.624875;,
  1.000000;0.624875;,
  0.000000;0.624875;,
  1.000000;0.624875;,
  1.000000;0.533895;,
  0.000000;0.533895;,
  1.000000;0.533895;,
  0.000000;0.533895;,
  0.000000;0.624875;,
  1.000000;0.624875;,
  0.000000;0.624875;,
  1.000000;0.624875;,
  1.000000;0.533895;,
  0.000000;0.533895;,
  1.000000;0.345634;,
  0.000000;0.345634;,
  0.000000;0.437062;,
  1.000000;0.437062;,
  0.000000;0.437062;,
  1.000000;0.437062;,
  1.000000;0.345634;,
  0.000000;0.345634;,
  1.000000;0.345634;,
  0.000000;0.345634;,
  0.000000;0.437062;,
  1.000000;0.437062;,
  0.000000;0.437062;,
  1.000000;0.437062;,
  1.000000;0.345634;,
  0.000000;0.345634;,
  1.000000;0.250208;,
  1.000000;0.160202;,
  0.000000;0.250208;,
  0.000000;0.160202;,
  1.000000;0.160202;,
  0.000000;0.160202;,
  0.000000;0.250208;,
  1.000000;0.250208;,
  0.000000;0.250208;,
  1.000000;0.250208;,
  1.000000;0.160202;,
  0.000000;0.160202;,
  1.000000;0.719345;,
  0.000000;0.719345;,
  1.000000;0.815487;,
  0.000000;0.815487;,
  1.000000;1.000000;,
  1.000000;0.907664;,
  0.000000;1.000000;,
  0.000000;0.907664;,
  1.000000;0.815487;,
  1.000000;0.719345;,
  0.000000;0.815487;,
  0.000000;0.719345;,
  0.000000;0.815487;,
  1.000000;0.815487;,
  0.000000;0.719345;,
  1.000000;0.719345;,
  1.000000;0.907664;,
  0.000000;0.907664;,
  0.000000;1.000000;,
  1.000000;1.000000;,
  0.000000;1.000000;,
  1.000000;1.000000;,
  0.000000;0.907664;,
  1.000000;0.907664;,
  1.000000;0.907664;,
  0.000000;0.907664;,
  1.000000;1.000000;,
  0.000000;1.000000;,
  1.000000;0.160202;,
  0.000000;0.160202;,
  1.000000;0.250208;,
  0.000000;0.250208;,
  0.000000;0.066201;,
  1.000000;0.066201;,
  0.000000;0.066201;,
  1.000000;0.066201;,
  0.000000;0.066201;,
  1.000000;0.066201;,
  0.000000;0.066201;,
  1.000000;0.066201;,
  1.000000;0.719345;,
  0.000000;0.719345;,
  1.000000;0.815487;,
  0.000000;0.815487;,
  1.000000;0.533895;,
  0.000000;0.533895;,
  0.000000;0.624875;,
  1.000000;0.624875;,
  0.000000;0.624875;,
  1.000000;0.624875;,
  1.000000;0.533895;,
  0.000000;0.533895;,
  1.000000;0.533895;,
  0.000000;0.533895;,
  0.000000;0.624875;,
  1.000000;0.624875;,
  0.000000;0.624875;,
  1.000000;0.624875;,
  1.000000;0.533895;,
  0.000000;0.533895;,
  1.000000;0.345634;,
  0.000000;0.345634;,
  0.000000;0.437062;,
  1.000000;0.437062;,
  0.000000;0.437062;,
  1.000000;0.437062;,
  1.000000;0.345634;,
  0.000000;0.345634;,
  1.000000;0.345634;,
  0.000000;0.345634;,
  0.000000;0.437062;,
  1.000000;0.437062;,
  0.000000;0.437062;,
  1.000000;0.437062;,
  1.000000;0.345634;,
  0.000000;0.345634;,
  1.000000;0.250208;,
  1.000000;0.160202;,
  0.000000;0.250208;,
  0.000000;0.160202;,
  1.000000;0.160202;,
  0.000000;0.160202;,
  0.000000;0.250208;,
  1.000000;0.250208;,
  0.000000;0.250208;,
  1.000000;0.250208;,
  1.000000;0.160202;,
  0.000000;0.160202;,
  1.000000;0.719345;,
  0.000000;0.719345;,
  1.000000;0.815487;,
  0.000000;0.815487;,
  1.000000;1.000000;,
  1.000000;0.907664;,
  0.000000;1.000000;,
  0.000000;0.907664;,
  1.000000;0.815487;,
  1.000000;0.719345;,
  0.000000;0.815487;,
  0.000000;0.719345;,
  0.000000;0.815487;,
  1.000000;0.815487;,
  0.000000;0.719345;,
  1.000000;0.719345;,
  1.000000;0.907664;,
  0.000000;0.907664;,
  0.000000;1.000000;,
  1.000000;1.000000;,
  0.000000;1.000000;,
  1.000000;1.000000;,
  0.000000;0.907664;,
  1.000000;0.907664;,
  1.000000;0.907664;,
  0.000000;0.907664;,
  1.000000;1.000000;,
  0.000000;1.000000;;
 }
}
