xof 0302txt 0064
template Header {
 <3D82AB43-62DA-11cf-AB39-0020AF71E433>
 WORD major;
 WORD minor;
 DWORD flags;
}

template Vector {
 <3D82AB5E-62DA-11cf-AB39-0020AF71E433>
 FLOAT x;
 FLOAT y;
 FLOAT z;
}

template Coords2d {
 <F6F23F44-7686-11cf-8F52-0040333594A3>
 FLOAT u;
 FLOAT v;
}

template Matrix4x4 {
 <F6F23F45-7686-11cf-8F52-0040333594A3>
 array FLOAT matrix[16];
}

template ColorRGBA {
 <35FF44E0-6C7C-11cf-8F52-0040333594A3>
 FLOAT red;
 FLOAT green;
 FLOAT blue;
 FLOAT alpha;
}

template ColorRGB {
 <D3E16E81-7835-11cf-8F52-0040333594A3>
 FLOAT red;
 FLOAT green;
 FLOAT blue;
}

template IndexedColor {
 <1630B820-7842-11cf-8F52-0040333594A3>
 DWORD index;
 ColorRGBA indexColor;
}

template Boolean {
 <4885AE61-78E8-11cf-8F52-0040333594A3>
 WORD truefalse;
}

template Boolean2d {
 <4885AE63-78E8-11cf-8F52-0040333594A3>
 Boolean u;
 Boolean v;
}

template MaterialWrap {
 <4885AE60-78E8-11cf-8F52-0040333594A3>
 Boolean u;
 Boolean v;
}

template TextureFilename {
 <A42790E1-7810-11cf-8F52-0040333594A3>
 STRING filename;
}

template Material {
 <3D82AB4D-62DA-11cf-AB39-0020AF71E433>
 ColorRGBA faceColor;
 FLOAT power;
 ColorRGB specularColor;
 ColorRGB emissiveColor;
 [...]
}

template MeshFace {
 <3D82AB5F-62DA-11cf-AB39-0020AF71E433>
 DWORD nFaceVertexIndices;
 array DWORD faceVertexIndices[nFaceVertexIndices];
}

template MeshFaceWraps {
 <4885AE62-78E8-11cf-8F52-0040333594A3>
 DWORD nFaceWrapValues;
 Boolean2d faceWrapValues;
}

template MeshTextureCoords {
 <F6F23F40-7686-11cf-8F52-0040333594A3>
 DWORD nTextureCoords;
 array Coords2d textureCoords[nTextureCoords];
}

template MeshMaterialList {
 <F6F23F42-7686-11cf-8F52-0040333594A3>
 DWORD nMaterials;
 DWORD nFaceIndexes;
 array DWORD faceIndexes[nFaceIndexes];
 [Material]
}

template MeshNormals {
 <F6F23F43-7686-11cf-8F52-0040333594A3>
 DWORD nNormals;
 array Vector normals[nNormals];
 DWORD nFaceNormals;
 array MeshFace faceNormals[nFaceNormals];
}

template MeshVertexColors {
 <1630B821-7842-11cf-8F52-0040333594A3>
 DWORD nVertexColors;
 array IndexedColor vertexColors[nVertexColors];
}

template Mesh {
 <3D82AB44-62DA-11cf-AB39-0020AF71E433>
 DWORD nVertices;
 array Vector vertices[nVertices];
 DWORD nFaces;
 array MeshFace faces[nFaces];
 [...]
}

Header{
1;
0;
1;
}

Mesh {
 336;
 10.73534;0.21727;2.56923;,
 18.27809;0.00000;7.41042;,
 19.47114;0.00000;6.58245;,
 10.71388;0.34526;1.12028;,
 10.69134;0.00000;3.75795;,
 17.41833;0.00000;7.99670;,
 10.71388;-0.34475;1.13697;,
 10.73534;-0.21727;2.56923;,
 3.11803;-0.56573;-3.11958;,
 3.13247;-0.72019;-1.76114;,
 0.00000;-0.92500;-2.10200;,
 0.00000;-0.83000;-4.46400;,
 3.14722;-0.66194;0.12433;,
 3.12553;-0.56244;1.51460;,
 0.00000;-0.69800;1.66800;,
 0.00000;-0.79300;-0.01200;,
 3.16274;-0.51895;3.20113;,
 0.00000;-0.54000;3.32600;,
 3.18314;0.00000;5.79775;,
 0.00000;0.00000;7.75100;,
 5.48132;-0.48669;1.36408;,
 5.48192;-0.47207;3.10466;,
 5.48335;0.00000;7.24442;,
 3.18314;0.00000;5.79775;,
 10.69134;0.00000;3.75795;,
 10.73534;0.21727;2.56923;,
 5.50486;0.10999;5.72373;,
 10.73534;-0.21727;2.56923;,
 5.50486;-0.10999;5.72373;,
 5.48132;-0.56924;-1.77510;,
 5.48132;-0.60131;0.03354;,
 10.71388;-0.34475;1.13697;,
 0.53572;1.00399;-4.49277;,
 0.00000;1.08300;-4.85600;,
 0.00000;1.22900;-2.35200;,
 0.55618;1.13699;-2.15356;,
 0.60739;1.04486;0.03329;,
 0.00000;1.15000;0.01000;,
 0.00000;1.00300;1.74900;,
 0.62785;0.90162;1.69287;,
 0.00000;0.81400;3.32600;,
 0.63809;0.71746;3.29822;,
 0.66288;0.00000;7.30990;,
 2.13320;0.72599;-1.65588;,
 2.02083;0.44584;-3.03380;,
 1.80362;0.44149;-3.50091;,
 1.84181;0.60800;-1.85920;,
 2.19594;0.59722;1.60643;,
 2.17173;0.71179;0.12565;,
 1.81705;0.55850;0.01578;,
 1.80630;0.50566;1.63475;,
 2.15934;0.40637;4.04481;,
 1.80280;0.36395;3.26562;,
 2.15934;0.00000;6.38880;,
 1.50318;0.00000;6.80572;,
 4.31226;0.47758;-1.05544;,
 5.48031;0.46263;-0.85171;,
 5.40943;0.34167;-1.78185;,
 4.31785;0.40965;-2.25698;,
 4.03405;0.40721;-3.00602;,
 3.95059;0.69116;-1.30002;,
 4.31226;0.39626;1.38162;,
 5.48171;0.34913;1.34990;,
 5.47819;0.42583;0.21457;,
 4.31004;0.46978;0.18540;,
 3.96878;0.69099;0.15364;,
 3.96063;0.59849;1.46476;,
 4.33202;0.24289;3.13928;,
 5.47985;0.24432;3.10466;,
 3.92536;0.38054;3.85215;,
 4.65770;0.00000;6.72514;,
 3.92536;0.00000;6.29247;,
 19.90139;0.00000;6.29678;,
 10.71388;0.23721;0.52662;,
 10.71388;-0.18861;0.55501;,
 3.10199;-0.34475;-4.07231;,
 0.00000;-0.47200;-5.94600;,
 5.48132;-0.28797;-2.68128;,
 5.44835;0.29324;-2.75275;,
 10.71388;0.34526;1.12028;,
 10.71388;0.23721;0.52662;,
 10.71388;-0.18861;0.55501;,
 0.00000;0.67400;-5.87800;,
 0.58688;0.60498;-5.59109;,
 2.21913;0.30842;-4.45955;,
 1.76057;0.33154;-4.81842;,
 4.34059;0.30818;-3.23485;,
 3.75432;0.31865;-3.62217;,
 3.60296;0.05456;2.49259;,
 3.00892;0.10149;2.43647;,
 2.46442;0.10336;2.46137;,
 20.08847;0.00000;6.17256;,
 20.32615;0.00000;6.01475;,
 10.71388;0.01845;-0.06002;,
 10.71388;0.12957;0.23795;,
 10.71388;-0.08186;0.23795;,
 0.00000;-0.21235;-6.54451;,
 0.00000;0.00000;-7.03400;,
 3.08662;0.00696;-4.97791;,
 3.09327;-0.14513;-4.58631;,
 5.48132;0.03521;-3.36976;,
 5.48132;-0.10337;-3.07454;,
 10.71388;0.12957;0.23795;,
 10.71388;0.01845;-0.06002;,
 5.46606;0.15463;-3.08420;,
 10.71388;-0.08186;0.23795;,
 0.64826;0.26735;-6.12819;,
 0.66277;0.00029;-6.58549;,
 0.00000;0.28539;-6.54451;,
 3.07255;0.14045;-4.59942;,
 2.27218;0.01160;-5.51755;,
 2.19919;0.14473;-5.09755;,
 3.03657;0.32328;-3.96111;,
 1.50124;0.00495;-6.02871;,
 1.66088;0.15490;-5.41655;,
 3.77425;0.15496;-4.10067;,
 3.78939;0.03230;-4.52540;,
 4.65770;0.01294;-3.91605;,
 4.35244;0.14910;-3.76173;,
 3.49082;0.77554;-2.66100;,
 3.03498;0.78568;-2.92577;,
 3.09041;0.86798;-1.40864;,
 3.46223;0.85637;-1.34947;,
 3.46243;0.84559;0.14606;,
 3.10112;0.87869;0.13704;,
 3.09882;0.72795;1.51470;,
 3.47862;0.70210;1.48734;,
 2.58815;0.87524;-1.53112;,
 2.55350;0.75813;-2.64105;,
 2.68095;0.71017;1.56001;,
 2.68800;0.85221;0.13103;,
 1.22120;0.52313;-3.90264;,
 1.28259;0.65613;-1.98553;,
 1.30305;0.67660;0.02292;,
 1.26218;0.59469;1.65779;,
 1.24172;0.43099;3.27853;,
 1.17041;0.00000;7.00538;,
 1.20074;0.37989;-5.27778;,
 1.17045;0.00311;-6.24837;,
 1.17237;0.20816;-5.80234;,
 2.67503;0.44345;3.56412;,
 3.11660;0.44641;3.20112;,
 3.48705;0.42567;3.48756;,
 3.02975;0.46924;-3.03602;,
 -10.71388;0.34526;1.12028;,
 -19.47114;0.00000;6.58245;,
 -18.27809;0.00000;7.41042;,
 -10.73534;0.21727;2.56923;,
 -17.41833;0.00000;7.99670;,
 -10.69134;0.00000;3.75795;,
 -10.73534;-0.21727;2.56923;,
 -10.71388;-0.34475;1.13697;,
 -3.13247;-0.72019;-1.76114;,
 -3.11803;-0.56573;-3.11958;,
 -3.12553;-0.56244;1.51460;,
 -3.14722;-0.66194;0.12433;,
 -3.16274;-0.51895;3.20113;,
 -3.18314;0.00000;5.79775;,
 -5.48192;-0.47207;3.10466;,
 -5.48132;-0.48669;1.36408;,
 -3.18314;0.00000;5.79775;,
 -5.48335;0.00000;7.24442;,
 -5.50486;0.10999;5.72373;,
 -10.73534;0.21727;2.56923;,
 -10.69134;0.00000;3.75795;,
 -5.50486;-0.10999;5.72373;,
 -10.73534;-0.21727;2.56923;,
 -5.48132;-0.56924;-1.77510;,
 -5.48132;-0.60131;0.03354;,
 -10.71388;-0.34475;1.13697;,
 -0.55618;1.13699;-2.15356;,
 -0.53572;1.00399;-4.49277;,
 -0.62785;0.90162;1.69287;,
 -0.60739;1.04486;0.03329;,
 -0.63809;0.71746;3.29822;,
 -0.66288;0.00000;7.30990;,
 -1.84181;0.60800;-1.85920;,
 -1.80362;0.44149;-3.50091;,
 -2.02083;0.44584;-3.03380;,
 -2.13320;0.72599;-1.65588;,
 -1.80630;0.50566;1.63475;,
 -1.81705;0.55850;0.01578;,
 -2.17173;0.71179;0.12565;,
 -2.19594;0.59722;1.60643;,
 -1.80280;0.36395;3.26562;,
 -2.15934;0.40637;4.04481;,
 -1.50318;0.00000;6.80572;,
 -2.15934;0.00000;6.38880;,
 -4.31785;0.40965;-2.25698;,
 -5.40943;0.34167;-1.78185;,
 -5.48031;0.46263;-0.85171;,
 -4.31226;0.47758;-1.05544;,
 -3.95059;0.69116;-1.30002;,
 -4.03405;0.40721;-3.00602;,
 -4.31004;0.46978;0.18540;,
 -5.47819;0.42583;0.21457;,
 -5.48171;0.34913;1.34990;,
 -4.31226;0.39626;1.38162;,
 -3.96063;0.59849;1.46476;,
 -3.96878;0.69099;0.15364;,
 -5.47985;0.24432;3.10466;,
 -4.33202;0.24289;3.13928;,
 -3.92536;0.38054;3.85215;,
 -4.65770;0.00000;6.72514;,
 -3.92536;0.00000;6.29247;,
 -10.71388;0.23721;0.52662;,
 -19.90139;0.00000;6.29678;,
 -10.71388;-0.18861;0.55501;,
 -3.10199;-0.34475;-4.07231;,
 -5.48132;-0.28797;-2.68128;,
 -10.71388;0.23721;0.52662;,
 -10.71388;0.34526;1.12028;,
 -5.44835;0.29324;-2.75275;,
 -10.71388;-0.18861;0.55501;,
 -0.58688;0.60498;-5.59109;,
 -1.76057;0.33154;-4.81842;,
 -2.21913;0.30842;-4.45955;,
 -4.34059;0.30818;-3.23485;,
 -3.75432;0.31865;-3.62217;,
 -3.00892;0.10149;2.43647;,
 -3.60296;0.05456;2.49259;,
 -2.46442;0.10336;2.46137;,
 -10.71388;0.12957;0.23795;,
 -10.71388;0.01845;-0.06002;,
 -20.32615;0.00000;6.01475;,
 -20.08847;0.00000;6.17256;,
 -10.71388;-0.08186;0.23795;,
 -3.09327;-0.14513;-4.58631;,
 -3.08662;0.00696;-4.97791;,
 -5.48132;-0.10337;-3.07454;,
 -5.48132;0.03521;-3.36976;,
 -5.46606;0.15463;-3.08420;,
 -10.71388;0.01845;-0.06002;,
 -10.71388;0.12957;0.23795;,
 -10.71388;-0.08186;0.23795;,
 -0.66277;0.00029;-6.58549;,
 -0.64826;0.26735;-6.12819;,
 -2.19919;0.14473;-5.09755;,
 -2.27218;0.01160;-5.51755;,
 -3.07255;0.14045;-4.59942;,
 -3.03657;0.32328;-3.96111;,
 -1.66088;0.15490;-5.41655;,
 -1.50124;0.00495;-6.02871;,
 -3.78939;0.03230;-4.52540;,
 -3.77425;0.15496;-4.10067;,
 -4.35244;0.14910;-3.76173;,
 -4.65770;0.01294;-3.91605;,
 -3.46223;0.85637;-1.34947;,
 -3.09041;0.86798;-1.40864;,
 -3.03498;0.78568;-2.92577;,
 -3.49082;0.77554;-2.66100;,
 -3.47862;0.70210;1.48734;,
 -3.09882;0.72795;1.51470;,
 -3.10112;0.87869;0.13704;,
 -3.46243;0.84559;0.14606;,
 -2.55350;0.75813;-2.64105;,
 -2.58815;0.87524;-1.53112;,
 -2.68800;0.85221;0.13103;,
 -2.68095;0.71017;1.56001;,
 -1.28259;0.65613;-1.98553;,
 -1.22120;0.52313;-3.90264;,
 -1.26218;0.59469;1.65779;,
 -1.30305;0.67660;0.02292;,
 -1.24172;0.43099;3.27853;,
 -1.17041;0.00000;7.00538;,
 -1.20074;0.37989;-5.27778;,
 -1.17237;0.20816;-5.80234;,
 -1.17045;0.00311;-6.24837;,
 -3.11660;0.44641;3.20112;,
 -2.67503;0.44345;3.56412;,
 -3.48705;0.42567;3.48756;,
 -3.02975;0.46924;-3.03602;,
 -0.01296;0.01543;-7.01773;,
 -0.01447;0.39267;-6.33122;,
 0.56779;0.35670;-5.19046;,
 0.57119;0.03350;-5.63144;,
 -0.01447;0.82592;-5.46716;,
 0.57393;0.72788;-4.60942;,
 -0.01447;1.06596;-4.87250;,
 0.57393;0.93353;-4.09995;,
 -0.01447;1.20852;-3.08848;,
 0.57393;1.05567;-2.57150;,
 -0.01447;1.16288;0.31410;,
 0.57393;1.01656;0.34365;,
 -0.01447;1.03289;1.71750;,
 0.57393;0.90520;1.54600;,
 -0.01447;0.43167;5.44554;,
 0.57393;0.39011;4.73999;,
 -0.01447;-0.00089;7.70079;,
 0.57393;0.01951;6.67216;,
 -0.01447;-0.27996;5.72068;,
 0.57393;-0.21958;4.97571;,
 -0.01447;-0.56760;2.87923;,
 0.57393;-0.46601;2.54131;,
 -0.01447;-0.81742;0.01767;,
 0.57393;-0.68004;0.08968;,
 -0.01447;-0.92532;-3.11608;,
 0.57393;-0.77249;-2.59515;,
 -0.01447;-0.81605;-4.43444;,
 0.57393;-0.67887;-3.72464;,
 -0.01447;-0.43936;-5.82468;,
 0.57393;-0.35614;-4.91572;,
 -0.01426;-0.13538;-6.62880;,
 0.57201;-0.16215;-5.40894;,
 -0.57119;0.03350;-5.63144;,
 -0.56779;0.35670;-5.19046;,
 0.01447;0.39267;-6.33122;,
 0.01296;0.01543;-7.01773;,
 -0.57393;0.72788;-4.60942;,
 0.01447;0.82592;-5.46716;,
 -0.57393;0.93353;-4.09995;,
 0.01447;1.06596;-4.87250;,
 -0.57393;1.05567;-2.57150;,
 0.01447;1.20852;-3.08848;,
 -0.57393;1.01656;0.34365;,
 0.01447;1.16288;0.31410;,
 -0.57393;0.90520;1.54600;,
 0.01447;1.03289;1.71750;,
 -0.57393;0.39011;4.73999;,
 0.01447;0.43167;5.44554;,
 -0.57393;0.01951;6.67216;,
 0.01447;-0.00089;7.70079;,
 -0.57393;-0.21958;4.97571;,
 0.01447;-0.27996;5.72068;,
 -0.57393;-0.46601;2.54131;,
 0.01447;-0.56760;2.87923;,
 -0.57393;-0.68004;0.08968;,
 0.01447;-0.81742;0.01767;,
 -0.57393;-0.77249;-2.59515;,
 0.01447;-0.92532;-3.11608;,
 -0.57393;-0.67887;-3.72464;,
 0.01447;-0.81605;-4.43444;,
 -0.57393;-0.35614;-4.91572;,
 0.01447;-0.43936;-5.82468;,
 -0.57201;-0.16215;-5.40894;,
 0.01426;-0.13538;-6.62880;;
 
 262;
 4;0,1,2,3;,
 4;1,0,4,5;,
 4;6,2,1,7;,
 4;5,4,7,1;,
 4;8,9,10,11;,
 4;12,13,14,15;,
 4;9,12,15,10;,
 4;13,16,17,14;,
 4;16,18,19,17;,
 4;20,21,16,13;,
 4;21,22,23,16;,
 4;24,25,26,22;,
 4;27,24,22,28;,
 3;8,29,9;,
 4;9,29,30,12;,
 4;12,30,20,13;,
 3;31,30,29;,
 3;31,20,30;,
 4;32,33,34,35;,
 4;36,37,38,39;,
 4;35,34,37,36;,
 4;39,38,40,41;,
 4;41,40,19,42;,
 4;43,44,45,46;,
 4;47,48,49,50;,
 4;48,43,46,49;,
 4;51,47,50,52;,
 4;53,51,52,54;,
 4;55,56,57,58;,
 4;55,58,59,60;,
 4;61,62,63,64;,
 4;61,64,65,66;,
 4;64,63,56,55;,
 4;64,55,60,65;,
 4;67,68,62,61;,
 4;67,61,66,69;,
 4;70,22,68,67;,
 4;70,67,69,71;,
 4;72,73,3,2;,
 4;74,72,2,6;,
 4;75,8,11,76;,
 4;77,29,8,75;,
 4;78,57,79,80;,
 4;77,81,31,29;,
 4;82,33,32,83;,
 4;84,85,45,44;,
 4;78,86,58,57;,
 4;86,87,59,58;,
 3;79,56,63;,
 3;79,57,56;,
 3;26,25,68;,
 3;68,25,62;,
 4;62,25,79,63;,
 4;20,31,27,21;,
 3;27,28,21;,
 4;71,88,89,18;,
 4;89,90,53,18;,
 4;91,92,93,94;,
 4;91,94,73,72;,
 4;95,93,92,91;,
 4;95,91,72,74;,
 4;96,97,98,99;,
 4;96,99,75,76;,
 4;99,98,100,101;,
 4;99,101,77,75;,
 4;102,103,100,104;,
 4;102,104,78,80;,
 4;101,100,103,105;,
 4;101,105,81,77;,
 4;106,107,97,108;,
 4;106,108,82,83;,
 4;109,98,110,111;,
 4;109,111,84,112;,
 4;111,110,113,114;,
 4;111,114,85,84;,
 4;115,116,98,109;,
 4;115,109,112,87;,
 4;104,100,117,118;,
 4;104,118,86,78;,
 4;118,117,116,115;,
 4;118,115,87,86;,
 4;119,120,121,122;,
 4;119,122,60,59;,
 4;123,124,125,126;,
 4;123,126,66,65;,
 4;122,121,124,123;,
 4;122,123,65,60;,
 4;127,121,120,128;,
 4;127,128,44,43;,
 4;129,125,124,130;,
 4;129,130,48,47;,
 4;130,124,121,127;,
 4;130,127,43,48;,
 4;131,32,35,132;,
 4;131,132,46,45;,
 4;133,36,39,134;,
 4;133,134,50,49;,
 4;132,35,36,133;,
 4;132,133,49,46;,
 4;134,39,41,135;,
 4;134,135,52,50;,
 4;135,41,42,136;,
 4;135,136,54,52;,
 4;137,83,32,131;,
 4;137,131,45,85;,
 4;138,107,106,139;,
 4;138,139,114,113;,
 4;139,106,83,137;,
 4;139,137,85,114;,
 4;140,141,125,129;,
 4;140,129,47,51;,
 4;126,125,141,142;,
 4;126,142,69,66;,
 4;84,44,143,112;,
 4;143,59,87,112;,
 4;144,145,146,147;,
 4;148,149,147,146;,
 4;150,146,145,151;,
 4;146,150,149,148;,
 4;11,10,152,153;,
 4;15,14,154,155;,
 4;10,15,155,152;,
 4;14,17,156,154;,
 4;17,19,157,156;,
 4;154,156,158,159;,
 4;156,160,161,158;,
 4;161,162,163,164;,
 4;165,161,164,166;,
 3;152,167,153;,
 4;155,168,167,152;,
 4;154,159,168,155;,
 3;167,168,169;,
 3;168,159,169;,
 4;170,34,33,171;,
 4;172,38,37,173;,
 4;173,37,34,170;,
 4;174,40,38,172;,
 4;175,19,40,174;,
 4;176,177,178,179;,
 4;180,181,182,183;,
 4;181,176,179,182;,
 4;184,180,183,185;,
 4;186,184,185,187;,
 4;188,189,190,191;,
 4;192,193,188,191;,
 4;194,195,196,197;,
 4;198,199,194,197;,
 4;191,190,195,194;,
 4;199,192,191,194;,
 4;197,196,200,201;,
 4;202,198,197,201;,
 4;201,200,161,203;,
 4;204,202,201,203;,
 4;145,144,205,206;,
 4;151,145,206,207;,
 4;76,11,153,208;,
 4;208,153,167,209;,
 4;210,211,189,212;,
 4;167,169,213,209;,
 4;214,171,33,82;,
 4;178,177,215,216;,
 4;189,188,217,212;,
 4;188,193,218,217;,
 3;195,190,211;,
 3;190,189,211;,
 3;200,163,162;,
 3;196,163,200;,
 4;195,211,163,196;,
 4;158,166,169,159;,
 3;158,165,166;,
 4;157,219,220,204;,
 4;157,187,221,219;,
 4;222,223,224,225;,
 4;206,205,222,225;,
 4;225,224,223,226;,
 4;207,206,225,226;,
 4;227,228,97,96;,
 4;76,208,227,96;,
 4;229,230,228,227;,
 4;208,209,229,227;,
 4;231,230,232,233;,
 4;210,212,231,233;,
 4;234,232,230,229;,
 4;209,213,234,229;,
 4;108,97,235,236;,
 4;214,82,108,236;,
 4;237,238,228,239;,
 4;240,216,237,239;,
 4;241,242,238,237;,
 4;216,215,241,237;,
 4;239,228,243,244;,
 4;218,240,239,244;,
 4;245,246,230,231;,
 4;212,217,245,231;,
 4;244,243,246,245;,
 4;217,218,244,245;,
 4;247,248,249,250;,
 4;193,192,247,250;,
 4;251,252,253,254;,
 4;199,198,251,254;,
 4;254,253,248,247;,
 4;192,199,254,247;,
 4;255,249,248,256;,
 4;179,178,255,256;,
 4;257,253,252,258;,
 4;183,182,257,258;,
 4;256,248,253,257;,
 4;182,179,256,257;,
 4;259,170,171,260;,
 4;177,176,259,260;,
 4;261,172,173,262;,
 4;181,180,261,262;,
 4;262,173,170,259;,
 4;176,181,262,259;,
 4;263,174,172,261;,
 4;180,184,263,261;,
 4;264,175,174,263;,
 4;184,186,264,263;,
 4;260,171,214,265;,
 4;215,177,260,265;,
 4;266,236,235,267;,
 4;242,241,266,267;,
 4;265,214,236,266;,
 4;241,215,265,266;,
 4;258,252,268,269;,
 4;185,183,258,269;,
 4;270,268,252,251;,
 4;198,202,270,251;,
 4;240,271,178,216;,
 4;240,218,193,271;,
 4;272,273,274,275;,
 4;273,276,277,274;,
 4;276,278,279,277;,
 4;278,280,281,279;,
 4;280,282,283,281;,
 4;282,284,285,283;,
 4;284,286,287,285;,
 4;286,288,289,287;,
 4;288,290,291,289;,
 4;290,292,293,291;,
 4;292,294,295,293;,
 4;294,296,297,295;,
 4;296,298,299,297;,
 4;298,300,301,299;,
 4;300,302,303,301;,
 4;302,272,275,303;,
 4;304,305,306,307;,
 4;305,308,309,306;,
 4;308,310,311,309;,
 4;310,312,313,311;,
 4;312,314,315,313;,
 4;314,316,317,315;,
 4;316,318,319,317;,
 4;318,320,321,319;,
 4;320,322,323,321;,
 4;322,324,325,323;,
 4;324,326,327,325;,
 4;326,328,329,327;,
 4;328,330,331,329;,
 4;330,332,333,331;,
 4;332,334,335,333;,
 4;334,304,307,335;;
 
 MeshMaterialList {
  3;
  262;
  1,
  1,
  2,
  2,
  2,
  2,
  2,
  2,
  2,
  2,
  2,
  1,
  2,
  2,
  2,
  2,
  2,
  2,
  1,
  1,
  1,
  1,
  1,
  1,
  1,
  1,
  1,
  1,
  1,
  1,
  1,
  1,
  1,
  1,
  1,
  1,
  1,
  1,
  1,
  2,
  2,
  2,
  1,
  2,
  1,
  1,
  1,
  1,
  1,
  1,
  1,
  1,
  1,
  2,
  2,
  1,
  1,
  2,
  1,
  2,
  2,
  2,
  2,
  2,
  2,
  2,
  1,
  2,
  2,
  2,
  1,
  2,
  1,
  2,
  1,
  2,
  1,
  2,
  1,
  2,
  1,
  1,
  1,
  1,
  1,
  1,
  1,
  1,
  1,
  1,
  1,
  1,
  1,
  1,
  1,
  1,
  1,
  1,
  1,
  1,
  1,
  1,
  1,
  1,
  1,
  2,
  2,
  1,
  1,
  1,
  1,
  1,
  1,
  1,
  1,
  1,
  1,
  2,
  2,
  2,
  2,
  2,
  2,
  2,
  2,
  2,
  1,
  2,
  2,
  2,
  2,
  2,
  2,
  1,
  1,
  1,
  1,
  1,
  1,
  1,
  1,
  1,
  1,
  1,
  1,
  1,
  1,
  1,
  1,
  1,
  1,
  1,
  1,
  1,
  2,
  2,
  2,
  1,
  2,
  1,
  1,
  1,
  1,
  1,
  1,
  1,
  1,
  1,
  2,
  2,
  1,
  1,
  2,
  1,
  2,
  2,
  2,
  2,
  2,
  2,
  2,
  1,
  2,
  2,
  2,
  1,
  2,
  1,
  2,
  1,
  2,
  1,
  2,
  1,
  2,
  1,
  1,
  1,
  1,
  1,
  1,
  1,
  1,
  1,
  1,
  1,
  1,
  1,
  1,
  1,
  1,
  1,
  1,
  1,
  1,
  1,
  1,
  1,
  1,
  1,
  2,
  2,
  1,
  1,
  1,
  1,
  1,
  1,
  1,
  1,
  0,
  0,
  0,
  0,
  0,
  0,
  0,
  0,
  0,
  0,
  0,
  0,
  0,
  0,
  0,
  0,
  0,
  0,
  0,
  0,
  0,
  0,
  0,
  0,
  0,
  0,
  0,
  0,
  0,
  0,
  0,
  0;;
  Material {
   0.737000;1.000000;0.694000;1.000000;;
   5.000000;
   0.000000;0.000000;0.000000;;
   0.184250;0.250000;0.173500;;
  }
  Material {
   0.510000;0.510000;0.510000;1.000000;;
   5.000000;
   0.000000;0.000000;0.000000;;
   0.127500;0.127500;0.127500;;
   TextureFilename {
    "b2.bmp";
   }
  }
  Material {
   0.000000;0.000000;0.000000;1.000000;;
   5.000000;
   0.200000;0.200000;0.200000;;
   0.000000;0.000000;0.000000;;
  }
 }
 MeshNormals {
  312;
  0.000000;-0.924207;-0.381893;,
  0.000000;-0.987332;0.158667;,
  0.044244;-0.986365;0.158512;,
  0.256303;-0.890594;-0.375700;,
  -0.021614;-0.987727;0.154689;,
  0.023919;-0.989667;0.141373;,
  0.245628;-0.895111;-0.372079;,
  0.171882;0.949493;-0.262524;,
  0.013423;0.994027;0.108302;,
  -0.042599;0.995166;0.088484;,
  0.114730;0.978925;-0.168947;,
  0.000000;0.979037;-0.203685;,
  0.012180;0.997575;-0.068527;,
  0.068152;0.992252;-0.103878;,
  0.039122;0.998900;-0.025837;,
  0.039420;0.999177;-0.009531;,
  0.008692;0.997019;0.076661;,
  -0.021506;0.997192;0.071728;,
  0.039920;0.995183;0.089535;,
  0.000000;0.994984;0.100033;,
  0.021592;0.991603;0.127502;,
  0.018992;0.997456;0.068709;,
  0.000000;0.999937;-0.011190;,
  0.014955;0.999329;-0.033447;,
  0.041949;0.998179;-0.043357;,
  0.000000;0.998203;0.059919;,
  0.017226;0.998415;0.053579;,
  0.019198;0.998603;0.049224;,
  0.000000;0.989119;0.147115;,
  0.026471;0.988407;0.149503;,
  0.006259;0.998068;0.061823;,
  0.000000;-0.988000;-0.154456;,
  0.123262;-0.977689;-0.170091;,
  0.103214;-0.985793;-0.132510;,
  0.069690;-0.996913;-0.036165;,
  0.025675;-0.995490;0.091327;,
  0.065616;-0.989083;0.131947;,
  0.000000;-0.998073;0.062053;,
  0.032402;-0.997963;0.054946;,
  0.032694;-0.997812;0.057469;,
  0.000000;-0.999886;-0.015084;,
  0.061963;-0.997488;-0.034315;,
  -0.000000;-0.998458;0.055514;,
  0.042523;-0.997889;0.049080;,
  0.000000;-0.993998;0.109396;,
  0.019309;-0.995030;0.097690;,
  0.026879;-0.995652;0.089190;,
  0.040531;-0.998440;0.038395;,
  0.324459;0.830154;-0.453400;,
  0.204466;0.965509;0.161203;,
  0.414121;0.895295;-0.164167;,
  0.306807;0.947431;0.090799;,
  0.366699;0.930112;-0.020596;,
  0.326919;0.943867;0.047313;,
  0.252585;0.958173;0.134557;,
  0.004200;0.992785;0.119837;,
  0.239891;0.918094;-0.315523;,
  0.108053;0.988884;-0.102145;,
  -0.057586;0.995972;0.068732;,
  -0.030984;0.998149;-0.052328;,
  -0.092887;0.995164;0.031942;,
  -0.024099;0.994317;0.103700;,
  -0.038243;0.996298;0.076990;,
  0.180899;0.941660;-0.283816;,
  -0.063024;0.990951;-0.118510;,
  -0.227725;0.970390;0.080531;,
  -0.270495;0.961071;-0.056350;,
  -0.310186;0.949616;0.044881;,
  -0.146878;0.983844;0.102358;,
  0.189398;0.936549;-0.294963;,
  0.087818;0.994469;0.057614;,
  0.287155;0.949742;-0.124631;,
  0.350178;0.932868;0.084457;,
  0.425863;0.903721;-0.043927;,
  0.406420;0.912972;0.036136;,
  0.252229;0.962836;0.096575;,
  0.062220;0.994930;0.079014;,
  0.212629;0.919405;-0.330882;,
  0.196205;0.974993;-0.104362;,
  0.275276;0.958779;0.070464;,
  0.272200;0.961303;-0.042481;,
  0.288737;0.956704;0.036714;,
  0.160266;0.983911;0.078961;,
  0.000000;-0.951654;-0.307173;,
  0.212265;-0.926417;-0.310958;,
  0.210038;-0.923882;-0.319884;,
  0.126337;0.975787;-0.178549;,
  0.102039;0.987359;-0.121286;,
  0.404576;0.845577;-0.348306;,
  0.220547;0.955880;-0.194041;,
  0.126783;0.974273;-0.186329;,
  0.157774;0.961378;-0.225519;,
  0.160098;0.963709;-0.213620;,
  0.161013;-0.960379;-0.227481;,
  0.135942;0.966168;-0.219179;,
  0.000000;0.903886;-0.427772;,
  0.096980;0.973085;-0.209045;,
  0.033098;0.999238;0.020699;,
  0.021725;0.999458;0.024719;,
  0.010350;0.999533;0.028736;,
  0.000000;-0.924195;-0.381920;,
  0.255001;-0.890908;-0.375842;,
  0.244825;-0.895296;-0.372164;,
  0.174799;0.949026;-0.262286;,
  0.119756;0.978378;-0.168627;,
  0.349890;0.826123;-0.441698;,
  0.260362;0.915699;-0.306114;,
  0.182224;0.943727;-0.275995;,
  0.183992;0.938136;-0.293340;,
  0.198092;0.926124;-0.321019;,
  0.171481;-0.950001;-0.260944;,
  0.211166;0.912702;-0.349834;,
  0.000000;0.865019;-0.501739;,
  0.166059;0.944363;-0.283906;,
  0.236845;0.968806;-0.072929;,
  0.117494;0.986510;0.113991;,
  0.211148;0.976795;-0.035892;,
  0.176384;0.983126;0.048506;,
  -0.191008;0.976383;-0.100955;,
  -0.089743;0.989736;0.111216;,
  -0.175325;0.983524;-0.044057;,
  -0.152282;0.986848;0.054227;,
  0.313905;0.863363;-0.395054;,
  0.183680;0.974341;0.130082;,
  0.373983;0.920643;-0.112045;,
  0.309076;0.948034;0.075519;,
  0.357589;0.933208;-0.035392;,
  0.332601;0.942573;0.030540;,
  0.237730;0.964652;0.113718;,
  0.378131;0.891514;-0.249439;,
  0.347429;0.860765;-0.371991;,
  -0.034080;0.991378;0.126524;,
  0.067665;0.988972;0.131739;,
  0.039853;0.988870;-0.143344;,
  -0.044244;-0.986365;0.158512;,
  -0.256303;-0.890594;-0.375700;,
  0.021614;-0.987727;0.154689;,
  -0.023919;-0.989667;0.141373;,
  -0.245628;-0.895111;-0.372079;,
  -0.171882;0.949493;-0.262524;,
  -0.013423;0.994027;0.108302;,
  0.042599;0.995166;0.088484;,
  -0.114730;0.978925;-0.168947;,
  -0.012180;0.997575;-0.068527;,
  -0.068152;0.992252;-0.103878;,
  -0.039122;0.998900;-0.025837;,
  -0.039420;0.999177;-0.009531;,
  -0.008692;0.997019;0.076661;,
  0.021506;0.997192;0.071728;,
  -0.039920;0.995183;0.089535;,
  -0.021592;0.991603;0.127502;,
  -0.018992;0.997456;0.068709;,
  -0.014955;0.999329;-0.033447;,
  -0.041949;0.998179;-0.043357;,
  -0.017226;0.998415;0.053579;,
  -0.019198;0.998603;0.049224;,
  -0.026471;0.988407;0.149503;,
  -0.006259;0.998068;0.061823;,
  -0.123262;-0.977689;-0.170091;,
  -0.103214;-0.985793;-0.132510;,
  -0.069690;-0.996913;-0.036165;,
  -0.025675;-0.995490;0.091327;,
  -0.065616;-0.989083;0.131947;,
  -0.032402;-0.997963;0.054946;,
  -0.032694;-0.997812;0.057469;,
  -0.061963;-0.997488;-0.034315;,
  -0.042523;-0.997889;0.049080;,
  -0.019309;-0.995030;0.097690;,
  -0.026879;-0.995652;0.089190;,
  -0.040531;-0.998440;0.038395;,
  -0.324459;0.830154;-0.453400;,
  -0.204466;0.965509;0.161203;,
  -0.414121;0.895295;-0.164167;,
  -0.306807;0.947431;0.090799;,
  -0.366699;0.930112;-0.020596;,
  -0.326919;0.943867;0.047313;,
  -0.252585;0.958173;0.134557;,
  -0.004200;0.992785;0.119837;,
  -0.239891;0.918094;-0.315523;,
  -0.108053;0.988884;-0.102145;,
  0.057586;0.995972;0.068732;,
  0.030984;0.998149;-0.052328;,
  0.092887;0.995164;0.031942;,
  0.024099;0.994317;0.103700;,
  0.038243;0.996298;0.076990;,
  -0.180899;0.941660;-0.283816;,
  0.063024;0.990951;-0.118510;,
  0.227725;0.970390;0.080531;,
  0.270495;0.961071;-0.056350;,
  0.310186;0.949616;0.044881;,
  0.146878;0.983844;0.102358;,
  -0.189398;0.936549;-0.294963;,
  -0.087818;0.994469;0.057614;,
  -0.287155;0.949742;-0.124631;,
  -0.350178;0.932868;0.084457;,
  -0.425863;0.903721;-0.043927;,
  -0.406420;0.912972;0.036136;,
  -0.252229;0.962836;0.096575;,
  -0.062220;0.994930;0.079014;,
  -0.212629;0.919405;-0.330882;,
  -0.196205;0.974993;-0.104362;,
  -0.275276;0.958779;0.070464;,
  -0.272200;0.961303;-0.042481;,
  -0.288737;0.956704;0.036714;,
  -0.160266;0.983911;0.078961;,
  -0.212265;-0.926417;-0.310958;,
  -0.210038;-0.923882;-0.319884;,
  -0.126337;0.975787;-0.178549;,
  -0.102039;0.987359;-0.121286;,
  -0.404576;0.845577;-0.348306;,
  -0.220547;0.955880;-0.194041;,
  -0.126783;0.974273;-0.186329;,
  -0.157774;0.961378;-0.225519;,
  -0.160098;0.963709;-0.213620;,
  -0.161013;-0.960379;-0.227481;,
  -0.135942;0.966168;-0.219179;,
  -0.096980;0.973085;-0.209045;,
  -0.033098;0.999238;0.020699;,
  -0.021725;0.999458;0.024719;,
  -0.010350;0.999533;0.028736;,
  -0.255001;-0.890908;-0.375842;,
  -0.244825;-0.895296;-0.372164;,
  -0.174799;0.949026;-0.262286;,
  -0.119756;0.978378;-0.168627;,
  -0.349890;0.826123;-0.441698;,
  -0.260362;0.915699;-0.306114;,
  -0.182224;0.943727;-0.275995;,
  -0.183992;0.938136;-0.293340;,
  -0.198092;0.926124;-0.321019;,
  -0.171481;-0.950001;-0.260944;,
  -0.211166;0.912702;-0.349834;,
  -0.166059;0.944363;-0.283906;,
  -0.236845;0.968806;-0.072929;,
  -0.117494;0.986510;0.113991;,
  -0.211148;0.976795;-0.035892;,
  -0.176384;0.983126;0.048506;,
  0.191008;0.976383;-0.100955;,
  0.089743;0.989736;0.111216;,
  0.175325;0.983524;-0.044057;,
  0.152282;0.986848;0.054227;,
  -0.313905;0.863363;-0.395054;,
  -0.183680;0.974341;0.130082;,
  -0.373983;0.920643;-0.112045;,
  -0.309076;0.948034;0.075519;,
  -0.357589;0.933208;-0.035392;,
  -0.332601;0.942573;0.030540;,
  -0.237730;0.964652;0.113718;,
  -0.378131;0.891514;-0.249439;,
  -0.347429;0.860765;-0.371991;,
  0.034080;0.991378;0.126524;,
  -0.067665;0.988972;0.131739;,
  -0.039853;0.988870;-0.143344;,
  0.050453;-0.998294;-0.029386;,
  -0.021583;-0.997179;0.071897;,
  -0.042599;-0.995166;0.088484;,
  0.013423;-0.994027;0.108302;,
  0.025671;0.995087;0.095621;,
  0.000000;0.984026;0.178023;,
  0.106136;-0.985196;-0.134625;,
  0.167269;-0.950675;-0.261225;,
  0.102057;-0.982487;-0.155895;,
  0.106658;-0.982034;-0.155671;,
  0.222642;0.906181;-0.359537;,
  0.000000;0.866067;-0.499927;,
  0.178749;0.938738;-0.294651;,
  0.021583;-0.997179;0.071897;,
  -0.050453;-0.998294;-0.029386;,
  -0.013423;-0.994027;0.108302;,
  0.042599;-0.995166;0.088484;,
  -0.025671;0.995087;0.095621;,
  -0.106136;-0.985196;-0.134625;,
  -0.106658;-0.982034;-0.155671;,
  -0.102057;-0.982487;-0.155895;,
  -0.167269;-0.950675;-0.261225;,
  -0.222642;0.906181;-0.359537;,
  -0.178749;0.938738;-0.294651;,
  0.756076;0.554041;-0.348408;,
  0.720683;0.594635;-0.356405;,
  0.630814;0.699270;-0.336298;,
  0.451944;0.870472;-0.195001;,
  0.277044;0.960345;-0.031378;,
  0.238570;0.969766;0.051357;,
  0.244302;0.962005;0.121912;,
  0.267753;0.948834;0.167401;,
  0.283164;0.941902;0.180660;,
  0.246060;-0.962245;0.116355;,
  0.220240;-0.971142;0.091535;,
  0.220081;-0.973681;0.059244;,
  0.269941;-0.962614;-0.022487;,
  0.398189;-0.904051;-0.155363;,
  0.524913;-0.809250;-0.263783;,
  0.661737;-0.678483;-0.319006;,
  -0.756076;0.554041;-0.348408;,
  -0.720683;0.594635;-0.356405;,
  -0.630814;0.699270;-0.336298;,
  -0.451944;0.870472;-0.195001;,
  -0.277044;0.960345;-0.031378;,
  -0.238570;0.969766;0.051357;,
  -0.244302;0.962005;0.121912;,
  -0.267753;0.948834;0.167401;,
  -0.283164;0.941902;0.180660;,
  -0.246060;-0.962245;0.116355;,
  -0.220240;-0.971142;0.091535;,
  -0.220081;-0.973681;0.059244;,
  -0.269941;-0.962614;-0.022487;,
  -0.398189;-0.904051;-0.155363;,
  -0.524913;-0.809250;-0.263783;,
  -0.661737;-0.678483;-0.319006;,
  0.268114;-0.953960;0.134447;,
  0.741159;-0.580779;-0.336719;,
  -0.268114;-0.953960;0.134447;,
  -0.741159;-0.580779;-0.336719;;
  262;
  4;16,17,15,14;,
  4;17,16,8,9;,
  4;34,252,253,35;,
  4;254,255,35,253;,
  4;32,41,40,31;,
  4;43,38,37,42;,
  4;41,43,42,40;,
  4;38,45,44,37;,
  4;45,2,1,44;,
  4;39,46,45,38;,
  4;46,5,4,45;,
  4;8,16,18,256;,
  4;35,255,5,36;,
  3;32,33,41;,
  4;41,33,47,43;,
  4;43,47,39,38;,
  3;34,47,33;,
  3;34,39,47;,
  4;50,11,22,52;,
  4;53,25,19,51;,
  4;52,22,25,53;,
  4;51,19,28,54;,
  4;54,28,257,49;,
  4;66,64,57,59;,
  4;65,67,60,58;,
  4;67,66,59,60;,
  4;68,65,58,61;,
  4;62,68,61,55;,
  4;80,24,13,78;,
  4;80,78,71,73;,
  4;79,21,27,81;,
  4;79,81,74,72;,
  4;81,27,24,80;,
  4;81,80,73,74;,
  4;82,30,21,79;,
  4;82,79,72,75;,
  4;76,256,30,82;,
  4;76,82,75,70;,
  4;87,86,14,15;,
  4;93,258,252,34;,
  4;84,32,31,83;,
  4;85,33,32,84;,
  4;94,13,14,86;,
  4;85,93,34,33;,
  4;95,11,50,88;,
  4;90,89,57,64;,
  4;94,92,78,13;,
  4;92,91,71,78;,
  3;14,24,27;,
  3;14,13,24;,
  3;18,16,30;,
  3;30,16,21;,
  4;21,16,14,27;,
  4;39,34,35,46;,
  3;35,36,46;,
  4;70,97,98,98;,
  4;98,99,62,98;,
  4;104,10,7,103;,
  4;104,103,86,87;,
  4;110,259,260,261;,
  4;110,261,258,93;,
  4;100,0,3,101;,
  4;100,101,84,83;,
  4;101,3,6,102;,
  4;101,102,85,84;,
  4;103,7,262,111;,
  4;103,111,94,86;,
  4;102,6,259,110;,
  4;102,110,93,85;,
  4;105,48,263,112;,
  4;105,112,95,88;,
  4;113,264,63,107;,
  4;113,107,90,96;,
  4;107,63,56,106;,
  4;107,106,89,90;,
  4;108,69,264,113;,
  4;108,113,96,91;,
  4;111,262,77,109;,
  4;111,109,92,94;,
  4;109,77,69,108;,
  4;109,108,91,92;,
  4;114,12,23,116;,
  4;114,116,73,71;,
  4;117,26,20,115;,
  4;117,115,72,74;,
  4;116,23,26,117;,
  4;116,117,74,73;,
  4;120,23,12,118;,
  4;120,118,64,66;,
  4;119,20,26,121;,
  4;119,121,67,65;,
  4;121,26,23,120;,
  4;121,120,66,67;,
  4;124,50,52,126;,
  4;124,126,59,57;,
  4;127,53,51,125;,
  4;127,125,58,60;,
  4;126,52,53,127;,
  4;126,127,60,59;,
  4;125,51,54,128;,
  4;125,128,61,58;,
  4;128,54,49,123;,
  4;128,123,55,61;,
  4;129,88,50,124;,
  4;129,124,57,89;,
  4;122,48,105,130;,
  4;122,130,106,56;,
  4;130,105,88,129;,
  4;130,129,89,106;,
  4;131,29,20,119;,
  4;131,119,65,68;,
  4;115,20,29,132;,
  4;115,132,75,72;,
  4;90,64,133,96;,
  4;133,71,91,96;,
  4;145,146,148,147;,
  4;141,140,147,148;,
  4;161,265,266,160;,
  4;265,161,267,268;,
  4;31,40,165,158;,
  4;42,37,163,166;,
  4;40,42,166,165;,
  4;37,44,167,163;,
  4;44,1,134,167;,
  4;163,167,168,164;,
  4;167,136,137,168;,
  4;269,149,147,140;,
  4;162,137,267,161;,
  3;165,159,158;,
  4;166,169,159,165;,
  4;163,164,169,166;,
  3;159,169,160;,
  3;169,164,160;,
  4;174,22,11,172;,
  4;173,19,25,175;,
  4;175,25,22,174;,
  4;176,28,19,173;,
  4;171,257,28,176;,
  4;181,179,186,188;,
  4;180,182,189,187;,
  4;182,181,188,189;,
  4;183,180,187,190;,
  4;177,183,190,184;,
  4;200,144,153,202;,
  4;195,193,200,202;,
  4;203,155,151,201;,
  4;194,196,203,201;,
  4;202,153,155,203;,
  4;196,195,202,203;,
  4;201,151,157,204;,
  4;197,194,201,204;,
  4;204,157,269,198;,
  4;192,197,204,198;,
  4;146,145,207,208;,
  4;160,266,270,214;,
  4;83,31,158,205;,
  4;205,158,159,206;,
  4;207,145,144,215;,
  4;159,160,214,206;,
  4;209,172,11,95;,
  4;186,179,210,211;,
  4;144,200,213,215;,
  4;200,193,212,213;,
  3;155,153,145;,
  3;153,144,145;,
  3;157,147,149;,
  3;151,147,157;,
  4;155,145,147,151;,
  4;168,161,160,164;,
  3;168,162,161;,
  4;218,218,217,192;,
  4;218,184,219,218;,
  4;222,139,142,223;,
  4;208,207,222,223;,
  4;271,272,273,229;,
  4;214,270,271,229;,
  4;220,135,0,100;,
  4;83,205,220,100;,
  4;221,138,135,220;,
  4;205,206,221,220;,
  4;230,274,139,222;,
  4;207,215,230,222;,
  4;229,273,138,221;,
  4;206,214,229,221;,
  4;112,263,170,224;,
  4;209,95,112,224;,
  4;226,185,275,231;,
  4;216,211,226,231;,
  4;225,178,185,226;,
  4;211,210,225,226;,
  4;231,275,191,227;,
  4;212,216,231,227;,
  4;228,199,274,230;,
  4;215,213,228,230;,
  4;227,191,199,228;,
  4;213,212,227,228;,
  4;234,152,143,232;,
  4;193,195,234,232;,
  4;233,150,154,235;,
  4;196,194,233,235;,
  4;235,154,152,234;,
  4;195,196,235,234;,
  4;236,143,152,238;,
  4;188,186,236,238;,
  4;239,154,150,237;,
  4;187,189,239,237;,
  4;238,152,154,239;,
  4;189,188,238,239;,
  4;244,174,172,242;,
  4;179,181,244,242;,
  4;243,173,175,245;,
  4;182,180,243,245;,
  4;245,175,174,244;,
  4;181,182,245,244;,
  4;246,176,173,243;,
  4;180,183,246,243;,
  4;241,171,176,246;,
  4;183,177,241,246;,
  4;242,172,209,247;,
  4;210,179,242,247;,
  4;248,224,170,240;,
  4;178,225,248,240;,
  4;247,209,224,248;,
  4;225,210,247,248;,
  4;237,150,156,249;,
  4;190,187,237,249;,
  4;250,156,150,233;,
  4;194,197,250,233;,
  4;216,251,186,211;,
  4;216,212,193,251;,
  4;276,277,277,276;,
  4;277,278,278,277;,
  4;278,279,279,278;,
  4;279,280,280,279;,
  4;280,281,281,280;,
  4;281,282,282,281;,
  4;282,283,283,282;,
  4;283,284,284,283;,
  4;308,285,285,308;,
  4;285,286,286,285;,
  4;286,287,287,286;,
  4;287,288,288,287;,
  4;288,289,289,288;,
  4;289,290,290,289;,
  4;290,291,291,290;,
  4;291,309,309,291;,
  4;292,293,293,292;,
  4;293,294,294,293;,
  4;294,295,295,294;,
  4;295,296,296,295;,
  4;296,297,297,296;,
  4;297,298,298,297;,
  4;298,299,299,298;,
  4;299,300,300,299;,
  4;310,301,301,310;,
  4;301,302,302,301;,
  4;302,303,303,302;,
  4;303,304,304,303;,
  4;304,305,305,304;,
  4;305,306,306,305;,
  4;306,307,307,306;,
  4;307,311,311,307;;
 }
 MeshTextureCoords {
  336;
  -0.196060;0.348020;,
  -0.505140;0.790420;,
  -0.452280;0.860390;,
  -0.103560;0.346760;,
  -0.271950;0.345440;,
  -0.542560;0.739990;,
  -0.104620;0.346760;,
  -0.196060;0.348020;,
  -0.328930;0.193250;,
  -0.409800;0.194150;,
  -0.389510;0.000060;,
  -0.248890;0.000060;,
  -0.522060;0.195060;,
  -0.604830;0.193720;,
  -0.613960;0.000060;,
  -0.513940;0.000060;,
  -0.705240;0.196020;,
  -0.712670;0.000060;,
  -0.859830;0.197290;,
  -0.976120;0.000060;,
  -0.595870;0.339680;,
  -0.699500;0.339720;,
  -0.945960;0.339810;,
  -0.859830;0.197290;,
  -0.738390;0.662490;,
  -0.667620;0.665220;,
  -0.855430;0.341140;,
  -0.667620;0.665220;,
  -0.855430;0.341140;,
  -0.408970;0.339680;,
  -0.516650;0.339680;,
  -0.582350;0.663890;,
  -0.247170;0.033250;,
  -0.225550;0.000060;,
  -0.374630;0.000060;,
  -0.386440;0.034520;,
  -0.516640;0.037690;,
  -0.515250;0.000060;,
  -0.618790;0.000060;,
  -0.615440;0.038960;,
  -0.712670;0.000060;,
  -0.711020;0.039590;,
  -0.949860;0.041130;,
  -0.416070;0.132230;,
  -0.334040;0.125270;,
  -0.306230;0.111810;,
  -0.403970;0.114180;,
  -0.610300;0.136120;,
  -0.522140;0.134620;,
  -0.515600;0.112640;,
  -0.611980;0.111980;,
  -0.755470;0.133850;,
  -0.709080;0.111760;,
  -0.895020;0.133850;,
  -0.919840;0.093200;,
  -0.451820;0.267250;,
  -0.463950;0.339620;,
  -0.408570;0.335230;,
  -0.380280;0.267590;,
  -0.335690;0.250010;,
  -0.437260;0.244840;,
  -0.596910;0.267250;,
  -0.595030;0.339710;,
  -0.527430;0.339490;,
  -0.525690;0.267110;,
  -0.523800;0.245960;,
  -0.601860;0.245460;,
  -0.701560;0.268470;,
  -0.699500;0.339590;,
  -0.744000;0.243270;,
  -0.915050;0.288650;,
  -0.889290;0.243270;,
  -0.434040;0.885630;,
  -0.065660;0.346760;,
  -0.067470;0.346760;,
  -0.272210;0.192260;,
  -0.160650;0.000060;,
  -0.355020;0.339680;,
  -0.350770;0.337640;,
  -0.581350;0.663890;,
  -0.546010;0.663890;,
  -0.547700;0.663890;,
  -0.164700;0.000060;,
  -0.181780;0.036420;,
  -0.249150;0.137560;,
  -0.227790;0.109140;,
  -0.322070;0.269000;,
  -0.299010;0.232680;,
  -0.663060;0.223300;,
  -0.659720;0.186490;,
  -0.661200;0.152750;,
  -0.426110;0.896600;,
  -0.416030;0.910540;,
  -0.028210;0.346760;,
  -0.047230;0.346760;,
  -0.047230;0.346760;,
  -0.125020;0.000060;,
  -0.095880;0.000060;,
  -0.218290;0.191310;,
  -0.241600;0.191720;,
  -0.314030;0.339680;,
  -0.331610;0.339680;,
  -0.528820;0.663890;,
  -0.511080;0.663890;,
  -0.331030;0.338740;,
  -0.528820;0.663890;,
  -0.149810;0.040220;,
  -0.122580;0.041120;,
  -0.125020;0.000060;,
  -0.240820;0.190430;,
  -0.186160;0.140840;,
  -0.211170;0.136320;,
  -0.278830;0.188200;,
  -0.155730;0.093080;,
  -0.192180;0.102970;,
  -0.270520;0.233910;,
  -0.245230;0.234850;,
  -0.281510;0.288650;,
  -0.290700;0.269740;,
  -0.356230;0.216350;,
  -0.340470;0.188110;,
  -0.430790;0.191540;,
  -0.434310;0.214580;,
  -0.523350;0.214590;,
  -0.522820;0.192200;,
  -0.604840;0.192060;,
  -0.603210;0.215590;,
  -0.423500;0.160420;,
  -0.357420;0.158270;,
  -0.607530;0.166170;,
  -0.522460;0.166610;,
  -0.282310;0.075720;,
  -0.396450;0.079530;,
  -0.516020;0.080800;,
  -0.613360;0.078260;,
  -0.709850;0.077000;,
  -0.931730;0.072580;,
  -0.200440;0.074460;,
  -0.142650;0.072580;,
  -0.169210;0.072700;,
  -0.726850;0.165800;,
  -0.705240;0.193160;,
  -0.722290;0.216120;,
  -0.333900;0.187780;,
  -0.103560;0.346760;,
  -0.452280;0.860390;,
  -0.505140;0.790420;,
  -0.196060;0.348020;,
  -0.542560;0.739990;,
  -0.271950;0.345440;,
  -0.196060;0.348020;,
  -0.104620;0.346760;,
  -0.409800;0.194150;,
  -0.328930;0.193250;,
  -0.604830;0.193720;,
  -0.522060;0.195060;,
  -0.705240;0.196020;,
  -0.859830;0.197290;,
  -0.699500;0.339720;,
  -0.595870;0.339680;,
  -0.859830;0.197290;,
  -0.945960;0.339810;,
  -0.855430;0.341140;,
  -0.667620;0.665220;,
  -0.738390;0.662490;,
  -0.855430;0.341140;,
  -0.667620;0.665220;,
  -0.408970;0.339680;,
  -0.516650;0.339680;,
  -0.582350;0.663890;,
  -0.386440;0.034520;,
  -0.247170;0.033250;,
  -0.615440;0.038960;,
  -0.516640;0.037690;,
  -0.711020;0.039590;,
  -0.949860;0.041130;,
  -0.403970;0.114180;,
  -0.306230;0.111810;,
  -0.334040;0.125270;,
  -0.416070;0.132230;,
  -0.611980;0.111980;,
  -0.515600;0.112640;,
  -0.522140;0.134620;,
  -0.610300;0.136120;,
  -0.709080;0.111760;,
  -0.755470;0.133850;,
  -0.919840;0.093200;,
  -0.895020;0.133850;,
  -0.380280;0.267590;,
  -0.408570;0.335230;,
  -0.463950;0.339620;,
  -0.451820;0.267250;,
  -0.437260;0.244840;,
  -0.335690;0.250010;,
  -0.525690;0.267110;,
  -0.527430;0.339490;,
  -0.595030;0.339710;,
  -0.596910;0.267250;,
  -0.601860;0.245460;,
  -0.523800;0.245960;,
  -0.699500;0.339590;,
  -0.701560;0.268470;,
  -0.744000;0.243270;,
  -0.915050;0.288650;,
  -0.889290;0.243270;,
  -0.065660;0.346760;,
  -0.434040;0.885630;,
  -0.067470;0.346760;,
  -0.272210;0.192260;,
  -0.355020;0.339680;,
  -0.546010;0.663890;,
  -0.581350;0.663890;,
  -0.350770;0.337640;,
  -0.547700;0.663890;,
  -0.181780;0.036420;,
  -0.227790;0.109140;,
  -0.249150;0.137560;,
  -0.322070;0.269000;,
  -0.299010;0.232680;,
  -0.659720;0.186490;,
  -0.663060;0.223300;,
  -0.661200;0.152750;,
  -0.047230;0.346760;,
  -0.028210;0.346760;,
  -0.416030;0.910540;,
  -0.426110;0.896600;,
  -0.047230;0.346760;,
  -0.241600;0.191720;,
  -0.218290;0.191310;,
  -0.331610;0.339680;,
  -0.314030;0.339680;,
  -0.331030;0.338740;,
  -0.511080;0.663890;,
  -0.528820;0.663890;,
  -0.528820;0.663890;,
  -0.122580;0.041120;,
  -0.149810;0.040220;,
  -0.211170;0.136320;,
  -0.186160;0.140840;,
  -0.240820;0.190430;,
  -0.278830;0.188200;,
  -0.192180;0.102970;,
  -0.155730;0.093080;,
  -0.245230;0.234850;,
  -0.270520;0.233910;,
  -0.290700;0.269740;,
  -0.281510;0.288650;,
  -0.434310;0.214580;,
  -0.430790;0.191540;,
  -0.340470;0.188110;,
  -0.356230;0.216350;,
  -0.603210;0.215590;,
  -0.604840;0.192060;,
  -0.522820;0.192200;,
  -0.523350;0.214590;,
  -0.357420;0.158270;,
  -0.423500;0.160420;,
  -0.522460;0.166610;,
  -0.607530;0.166170;,
  -0.396450;0.079530;,
  -0.282310;0.075720;,
  -0.613360;0.078260;,
  -0.516020;0.080800;,
  -0.709850;0.077000;,
  -0.931730;0.072580;,
  -0.200440;0.074460;,
  -0.169210;0.072700;,
  -0.142650;0.072580;,
  -0.705240;0.193160;,
  -0.726850;0.165800;,
  -0.722290;0.216120;,
  -0.333900;0.187780;,
  0.000000;0.000000;,
  0.000000;0.000000;,
  0.000000;0.000000;,
  0.000000;0.000000;,
  0.000000;0.000000;,
  0.000000;0.000000;,
  0.000000;0.000000;,
  0.000000;0.000000;,
  0.000000;0.000000;,
  0.000000;0.000000;,
  0.000000;0.000000;,
  0.000000;0.000000;,
  0.000000;0.000000;,
  0.000000;0.000000;,
  0.000000;0.000000;,
  0.000000;0.000000;,
  0.000000;0.000000;,
  0.000000;0.000000;,
  0.000000;0.000000;,
  0.000000;0.000000;,
  0.000000;0.000000;,
  0.000000;0.000000;,
  0.000000;0.000000;,
  0.000000;0.000000;,
  0.000000;0.000000;,
  0.000000;0.000000;,
  0.000000;0.000000;,
  0.000000;0.000000;,
  0.000000;0.000000;,
  0.000000;0.000000;,
  0.000000;0.000000;,
  0.000000;0.000000;,
  0.000000;0.000000;,
  0.000000;0.000000;,
  0.000000;0.000000;,
  0.000000;0.000000;,
  0.000000;0.000000;,
  0.000000;0.000000;,
  0.000000;0.000000;,
  0.000000;0.000000;,
  0.000000;0.000000;,
  0.000000;0.000000;,
  0.000000;0.000000;,
  0.000000;0.000000;,
  0.000000;0.000000;,
  0.000000;0.000000;,
  0.000000;0.000000;,
  0.000000;0.000000;,
  0.000000;0.000000;,
  0.000000;0.000000;,
  0.000000;0.000000;,
  0.000000;0.000000;,
  0.000000;0.000000;,
  0.000000;0.000000;,
  0.000000;0.000000;,
  0.000000;0.000000;,
  0.000000;0.000000;,
  0.000000;0.000000;,
  0.000000;0.000000;,
  0.000000;0.000000;,
  0.000000;0.000000;,
  0.000000;0.000000;,
  0.000000;0.000000;,
  0.000000;0.000000;;
 }
}
