{
	"MODEL0": {
		"POS": {
			"X": 0,
			"Y": -350,
			"Z": 0
		},
		"MOVE": {
			"X": 0,
			"Y": 0,
			"Z": 0
		},
		"ROT": {
			"X": 0,
			"Y": 0,
			"Z": 0
		},
		"TYPE": 0
	},
	"MODEL1": {
		"POS": {
			"X": 0,
			"Y": -350,
			"Z": 2000
		},
		"MOVE": {
			"X": 0,
			"Y": 0,
			"Z": 0
		},
		"ROT": {
			"X": 0,
			"Y": 0,
			"Z": 0
		},
		"TYPE": 1
	},
	"MODEL2": {
		"POS": {
			"X": 0,
			"Y": -350,
			"Z": 4000
		},
		"MOVE": {
			"X": 0,
			"Y": 0,
			"Z": 0
		},
		"ROT": {
			"X": 0,
			"Y": 0,
			"Z": 0
		},
		"TYPE": 2
	},
	
	"INDEX": 3
}