xof 0302txt 0064
template Header {
 <3D82AB43-62DA-11cf-AB39-0020AF71E433>
 WORD major;
 WORD minor;
 DWORD flags;
}

template Vector {
 <3D82AB5E-62DA-11cf-AB39-0020AF71E433>
 FLOAT x;
 FLOAT y;
 FLOAT z;
}

template Coords2d {
 <F6F23F44-7686-11cf-8F52-0040333594A3>
 FLOAT u;
 FLOAT v;
}

template Matrix4x4 {
 <F6F23F45-7686-11cf-8F52-0040333594A3>
 array FLOAT matrix[16];
}

template ColorRGBA {
 <35FF44E0-6C7C-11cf-8F52-0040333594A3>
 FLOAT red;
 FLOAT green;
 FLOAT blue;
 FLOAT alpha;
}

template ColorRGB {
 <D3E16E81-7835-11cf-8F52-0040333594A3>
 FLOAT red;
 FLOAT green;
 FLOAT blue;
}

template IndexedColor {
 <1630B820-7842-11cf-8F52-0040333594A3>
 DWORD index;
 ColorRGBA indexColor;
}

template Boolean {
 <4885AE61-78E8-11cf-8F52-0040333594A3>
 WORD truefalse;
}

template Boolean2d {
 <4885AE63-78E8-11cf-8F52-0040333594A3>
 Boolean u;
 Boolean v;
}

template MaterialWrap {
 <4885AE60-78E8-11cf-8F52-0040333594A3>
 Boolean u;
 Boolean v;
}

template TextureFilename {
 <A42790E1-7810-11cf-8F52-0040333594A3>
 STRING filename;
}

template Material {
 <3D82AB4D-62DA-11cf-AB39-0020AF71E433>
 ColorRGBA faceColor;
 FLOAT power;
 ColorRGB specularColor;
 ColorRGB emissiveColor;
 [...]
}

template MeshFace {
 <3D82AB5F-62DA-11cf-AB39-0020AF71E433>
 DWORD nFaceVertexIndices;
 array DWORD faceVertexIndices[nFaceVertexIndices];
}

template MeshFaceWraps {
 <4885AE62-78E8-11cf-8F52-0040333594A3>
 DWORD nFaceWrapValues;
 Boolean2d faceWrapValues;
}

template MeshTextureCoords {
 <F6F23F40-7686-11cf-8F52-0040333594A3>
 DWORD nTextureCoords;
 array Coords2d textureCoords[nTextureCoords];
}

template MeshMaterialList {
 <F6F23F42-7686-11cf-8F52-0040333594A3>
 DWORD nMaterials;
 DWORD nFaceIndexes;
 array DWORD faceIndexes[nFaceIndexes];
 [Material]
}

template MeshNormals {
 <F6F23F43-7686-11cf-8F52-0040333594A3>
 DWORD nNormals;
 array Vector normals[nNormals];
 DWORD nFaceNormals;
 array MeshFace faceNormals[nFaceNormals];
}

template MeshVertexColors {
 <1630B821-7842-11cf-8F52-0040333594A3>
 DWORD nVertexColors;
 array IndexedColor vertexColors[nVertexColors];
}

template Mesh {
 <3D82AB44-62DA-11cf-AB39-0020AF71E433>
 DWORD nVertices;
 array Vector vertices[nVertices];
 DWORD nFaces;
 array MeshFace faces[nFaces];
 [...]
}

Header{
1;
0;
1;
}

Mesh {
 1058;
 -450.00001;0.00000;200.00000;,
 -409.09092;0.00000;200.00000;,
 -409.09092;0.00000;160.00000;,
 -450.00001;0.00000;160.00000;,
 -40.90909;0.00000;200.00000;,
 0.00000;0.00000;200.00000;,
 0.00000;0.00000;160.00000;,
 -40.90909;0.00000;160.00000;,
 40.90909;0.00000;200.00000;,
 40.90909;0.00000;160.00000;,
 122.72727;0.00000;200.00000;,
 163.63637;0.00000;200.00000;,
 163.63637;0.00000;160.00000;,
 122.72727;0.00000;160.00000;,
 204.54546;0.00000;200.00000;,
 245.45454;0.00000;200.00000;,
 245.45454;0.00000;160.00000;,
 204.54546;0.00000;160.00000;,
 327.27273;0.00000;200.00000;,
 368.18184;0.00000;200.00000;,
 368.18184;0.00000;160.00000;,
 327.27273;0.00000;160.00000;,
 409.09092;0.00000;200.00000;,
 450.00001;0.00000;200.00000;,
 450.00001;0.00000;160.00000;,
 409.09092;0.00000;160.00000;,
 -409.09092;0.00000;120.00000;,
 -450.00001;0.00000;120.00000;,
 0.00000;0.00000;120.00000;,
 -40.90909;0.00000;120.00000;,
 40.90909;0.00000;120.00000;,
 81.81819;0.00000;160.00000;,
 122.72727;0.00000;120.00000;,
 81.81819;0.00000;120.00000;,
 163.63637;0.00000;120.00000;,
 204.54546;0.00000;120.00000;,
 245.45454;0.00000;120.00000;,
 368.18184;0.00000;120.00000;,
 327.27273;0.00000;120.00000;,
 450.00001;0.00000;120.00000;,
 409.09092;0.00000;120.00000;,
 -409.09092;0.00000;80.00000;,
 -450.00001;0.00000;80.00000;,
 0.00000;0.00000;80.00000;,
 -40.90909;0.00000;80.00000;,
 40.90909;0.00000;80.00000;,
 40.90909;0.00000;120.00000;,
 81.81819;0.00000;80.00000;,
 40.90909;0.00000;80.00000;,
 122.72727;0.00000;80.00000;,
 163.63637;0.00000;80.00000;,
 245.45454;0.00000;80.00000;,
 204.54546;0.00000;80.00000;,
 286.36365;0.00000;120.00000;,
 286.36365;0.00000;80.00000;,
 327.27273;0.00000;80.00000;,
 368.18184;0.00000;80.00000;,
 409.09092;0.00000;80.00000;,
 450.00001;0.00000;80.00000;,
 -368.18182;0.00000;80.00000;,
 -368.18182;0.00000;40.00000;,
 -409.09092;0.00000;40.00000;,
 -163.63637;0.00000;80.00000;,
 -122.72727;0.00000;80.00000;,
 -122.72727;0.00000;40.00000;,
 -163.63637;0.00000;40.00000;,
 0.00000;0.00000;40.00000;,
 -40.90909;0.00000;40.00000;,
 40.90909;0.00000;40.00000;,
 122.72727;0.00000;40.00000;,
 81.81819;0.00000;40.00000;,
 245.45454;0.00000;40.00000;,
 204.54546;0.00000;40.00000;,
 327.27273;0.00000;40.00000;,
 286.36365;0.00000;40.00000;,
 368.18184;0.00000;40.00000;,
 450.00001;0.00000;40.00000;,
 409.09092;0.00000;40.00000;,
 -286.36363;0.00000;40.00000;,
 -245.45454;0.00000;40.00000;,
 -245.45454;0.00000;0.00000;,
 -286.36363;0.00000;0.00000;,
 0.00000;0.00000;0.00000;,
 -40.90909;0.00000;0.00000;,
 40.90909;0.00000;0.00000;,
 122.72727;0.00000;0.00000;,
 81.81819;0.00000;0.00000;,
 163.63637;0.00000;40.00000;,
 163.63637;0.00000;0.00000;,
 204.54546;0.00000;0.00000;,
 245.45454;0.00000;0.00000;,
 327.27273;0.00000;0.00000;,
 286.36365;0.00000;0.00000;,
 450.00001;0.00000;0.00000;,
 409.09092;0.00000;0.00000;,
 0.00000;0.00000;-40.00000;,
 -40.90909;0.00000;-40.00000;,
 40.90909;0.00000;-40.00000;,
 40.90909;0.00000;0.00000;,
 81.81819;0.00000;-40.00000;,
 40.90909;0.00000;-40.00000;,
 122.72727;0.00000;-40.00000;,
 245.45454;0.00000;-40.00000;,
 204.54546;0.00000;-40.00000;,
 327.27273;0.00000;-40.00000;,
 286.36365;0.00000;-40.00000;,
 368.18184;0.00000;0.00000;,
 368.18184;0.00000;-40.00000;,
 409.09092;0.00000;-40.00000;,
 450.00001;0.00000;-40.00000;,
 -409.09092;0.00000;-40.00000;,
 -368.18182;0.00000;-40.00000;,
 -368.18182;0.00000;-80.00000;,
 -409.09092;0.00000;-80.00000;,
 -286.36363;0.00000;-40.00000;,
 -245.45454;0.00000;-40.00000;,
 -245.45454;0.00000;-80.00000;,
 -286.36363;0.00000;-80.00000;,
 0.00000;0.00000;-80.00000;,
 -40.90909;0.00000;-80.00000;,
 40.90909;0.00000;-80.00000;,
 122.72727;0.00000;-80.00000;,
 81.81819;0.00000;-80.00000;,
 163.63637;0.00000;-40.00000;,
 163.63637;0.00000;-80.00000;,
 204.54546;0.00000;-80.00000;,
 245.45454;0.00000;-80.00000;,
 286.36365;0.00000;-80.00000;,
 327.27273;0.00000;-80.00000;,
 368.18184;0.00000;-80.00000;,
 450.00001;0.00000;-80.00000;,
 409.09092;0.00000;-80.00000;,
 0.00000;0.00000;-120.00000;,
 -40.90909;0.00000;-120.00000;,
 40.90909;0.00000;-120.00000;,
 40.90909;0.00000;-80.00000;,
 81.81819;0.00000;-120.00000;,
 40.90909;0.00000;-120.00000;,
 122.72727;0.00000;-120.00000;,
 163.63637;0.00000;-120.00000;,
 245.45454;0.00000;-120.00000;,
 204.54546;0.00000;-120.00000;,
 368.18184;0.00000;-120.00000;,
 327.27273;0.00000;-120.00000;,
 450.00001;0.00000;-120.00000;,
 409.09092;0.00000;-120.00000;,
 0.00000;0.00000;-160.00000;,
 -40.90909;0.00000;-160.00000;,
 40.90909;0.00000;-160.00000;,
 163.63637;0.00000;-160.00000;,
 122.72727;0.00000;-160.00000;,
 245.45454;0.00000;-160.00000;,
 204.54546;0.00000;-160.00000;,
 368.18184;0.00000;-160.00000;,
 327.27273;0.00000;-160.00000;,
 450.00001;0.00000;-160.00000;,
 409.09092;0.00000;-160.00000;,
 0.00000;0.00000;-200.00000;,
 -40.90909;0.00000;-200.00000;,
 40.90909;0.00000;-200.00000;,
 40.90909;0.00000;-160.00000;,
 81.81819;0.00000;-160.00000;,
 81.81819;0.00000;-200.00000;,
 40.90909;0.00000;-200.00000;,
 122.72727;0.00000;-200.00000;,
 163.63637;0.00000;-200.00000;,
 204.54546;0.00000;-200.00000;,
 245.45454;0.00000;-200.00000;,
 286.36365;0.00000;-160.00000;,
 286.36365;0.00000;-200.00000;,
 327.27273;0.00000;-200.00000;,
 368.18184;0.00000;-200.00000;,
 409.09092;0.00000;-200.00000;,
 450.00001;0.00000;-200.00000;,
 -40.90909;100.91825;-120.00000;,
 -81.81818;100.91825;-120.00000;,
 -81.81818;0.00000;-120.00000;,
 -40.90909;0.00000;-120.00000;,
 -40.90909;100.91825;-160.00000;,
 -40.90909;0.00000;-160.00000;,
 -81.81818;100.91825;-160.00000;,
 -81.81818;0.00000;-160.00000;,
 -81.81818;100.91825;-120.00000;,
 -40.90909;100.91825;-120.00000;,
 -40.90909;100.91825;-160.00000;,
 -81.81818;100.91825;-160.00000;,
 -40.90909;120.69284;0.00000;,
 -81.81818;120.69284;0.00000;,
 -81.81818;0.00000;0.00000;,
 -40.90909;0.00000;0.00000;,
 -40.90909;120.69284;-40.00000;,
 -40.90909;0.00000;-40.00000;,
 -81.81818;120.69284;-40.00000;,
 -81.81818;0.00000;-40.00000;,
 -81.81818;120.69284;0.00000;,
 -40.90909;120.69284;0.00000;,
 -40.90909;120.69284;-40.00000;,
 -81.81818;120.69284;-40.00000;,
 -40.90909;120.69284;-80.00000;,
 -40.90909;0.00000;-80.00000;,
 -81.81818;120.69284;-80.00000;,
 -81.81818;0.00000;-80.00000;,
 -40.90909;120.69284;-80.00000;,
 -81.81818;120.69284;-80.00000;,
 -81.81818;127.51161;80.00000;,
 -122.72727;127.51161;80.00000;,
 -122.72727;0.00000;80.00000;,
 -81.81818;0.00000;80.00000;,
 -122.72727;127.51161;40.00000;,
 -81.81818;127.51161;40.00000;,
 -81.81818;0.00000;40.00000;,
 -122.72727;0.00000;40.00000;,
 -122.72727;127.51161;80.00000;,
 -81.81818;127.51161;80.00000;,
 -81.81818;127.51161;40.00000;,
 -122.72727;127.51161;40.00000;,
 -40.90909;127.51161;80.00000;,
 -40.90909;0.00000;80.00000;,
 -40.90909;127.51161;40.00000;,
 -40.90909;0.00000;40.00000;,
 -40.90909;127.51161;80.00000;,
 -40.90909;127.51161;40.00000;,
 -81.81818;112.51024;200.00000;,
 -122.72727;112.51024;200.00000;,
 -122.72727;0.00000;200.00000;,
 -81.81818;0.00000;200.00000;,
 -122.72727;112.51024;160.00000;,
 -81.81818;112.51024;160.00000;,
 -81.81818;0.00000;160.00000;,
 -122.72727;0.00000;160.00000;,
 -122.72727;112.51024;200.00000;,
 -81.81818;112.51024;200.00000;,
 -81.81818;112.51024;160.00000;,
 -122.72727;112.51024;160.00000;,
 -40.90909;112.51024;200.00000;,
 -40.90909;0.00000;200.00000;,
 -40.90909;112.51024;160.00000;,
 -40.90909;0.00000;160.00000;,
 -40.90909;112.51024;200.00000;,
 -40.90909;112.51024;160.00000;,
 -40.90909;112.51024;120.00000;,
 -40.90909;0.00000;120.00000;,
 -81.81818;112.51024;120.00000;,
 -81.81818;0.00000;120.00000;,
 -40.90909;112.51024;120.00000;,
 -81.81818;112.51024;120.00000;,
 -163.63637;105.69146;-120.00000;,
 -204.54546;105.69146;-120.00000;,
 -204.54546;0.00000;-120.00000;,
 -163.63637;0.00000;-120.00000;,
 -204.54546;105.69146;-160.00000;,
 -163.63637;105.69146;-160.00000;,
 -163.63637;0.00000;-160.00000;,
 -204.54546;0.00000;-160.00000;,
 -204.54546;105.69146;-120.00000;,
 -163.63637;105.69146;-120.00000;,
 -163.63637;105.69146;-160.00000;,
 -204.54546;105.69146;-160.00000;,
 -122.72727;105.69146;-120.00000;,
 -122.72727;0.00000;-120.00000;,
 -122.72727;105.69146;-160.00000;,
 -122.72727;0.00000;-160.00000;,
 -122.72727;105.69146;-120.00000;,
 -122.72727;105.69146;-160.00000;,
 -163.63637;94.09950;0.00000;,
 -204.54546;94.09950;0.00000;,
 -204.54546;0.00000;0.00000;,
 -163.63637;0.00000;0.00000;,
 -163.63637;94.09950;-40.00000;,
 -163.63637;0.00000;-40.00000;,
 -204.54546;94.09950;-40.00000;,
 -204.54546;0.00000;-40.00000;,
 -204.54546;94.09950;0.00000;,
 -163.63637;94.09950;0.00000;,
 -163.63637;94.09950;-40.00000;,
 -204.54546;94.09950;-40.00000;,
 -204.54546;94.09950;-80.00000;,
 -163.63637;94.09950;-80.00000;,
 -163.63637;0.00000;-80.00000;,
 -204.54546;0.00000;-80.00000;,
 -163.63637;94.09950;-80.00000;,
 -204.54546;94.09950;-80.00000;,
 -122.72727;94.09950;-40.00000;,
 -122.72727;0.00000;-40.00000;,
 -122.72727;94.09950;-80.00000;,
 -122.72727;0.00000;-80.00000;,
 -122.72727;94.09950;-40.00000;,
 -122.72727;94.09950;-80.00000;,
 -163.63637;98.19078;80.00000;,
 -204.54546;98.19078;80.00000;,
 -204.54546;0.00000;80.00000;,
 -163.63637;0.00000;80.00000;,
 -163.63637;98.19078;40.00000;,
 -163.63637;0.00000;40.00000;,
 -204.54546;98.19078;40.00000;,
 -204.54546;0.00000;40.00000;,
 -204.54546;98.19078;80.00000;,
 -163.63637;98.19078;80.00000;,
 -163.63637;98.19078;40.00000;,
 -204.54546;98.19078;40.00000;,
 -163.63637;105.69147;200.00000;,
 -204.54546;105.69147;200.00000;,
 -204.54546;0.00000;200.00000;,
 -163.63637;0.00000;200.00000;,
 -163.63637;105.69147;160.00000;,
 -163.63637;0.00000;160.00000;,
 -204.54546;105.69147;160.00000;,
 -204.54546;0.00000;160.00000;,
 -204.54546;105.69147;200.00000;,
 -163.63637;105.69147;200.00000;,
 -163.63637;105.69147;160.00000;,
 -204.54546;105.69147;160.00000;,
 -163.63637;105.69147;120.00000;,
 -163.63637;0.00000;120.00000;,
 -204.54546;105.69147;120.00000;,
 -204.54546;0.00000;120.00000;,
 -163.63637;105.69147;120.00000;,
 -204.54546;105.69147;120.00000;,
 -245.45454;116.60152;-80.00000;,
 -286.36363;116.60152;-80.00000;,
 -286.36363;0.00000;-80.00000;,
 -245.45454;0.00000;-80.00000;,
 -245.45454;116.60152;-120.00000;,
 -245.45454;0.00000;-120.00000;,
 -286.36363;116.60152;-120.00000;,
 -286.36363;0.00000;-120.00000;,
 -286.36363;116.60152;-80.00000;,
 -245.45454;116.60152;-80.00000;,
 -245.45454;116.60152;-120.00000;,
 -286.36363;116.60152;-120.00000;,
 -245.45454;116.60152;-160.00000;,
 -245.45454;0.00000;-160.00000;,
 -286.36363;116.60152;-160.00000;,
 -286.36363;0.00000;-160.00000;,
 -245.45454;116.60152;-160.00000;,
 -286.36363;116.60152;-160.00000;,
 -286.36363;112.51023;0.00000;,
 -327.27273;112.51023;0.00000;,
 -327.27273;0.00000;0.00000;,
 -286.36363;0.00000;0.00000;,
 -327.27273;112.51023;-40.00000;,
 -286.36363;112.51023;-40.00000;,
 -286.36363;0.00000;-40.00000;,
 -327.27273;0.00000;-40.00000;,
 -327.27273;112.51023;0.00000;,
 -286.36363;112.51023;0.00000;,
 -286.36363;112.51023;-40.00000;,
 -327.27273;112.51023;-40.00000;,
 -245.45454;112.51023;0.00000;,
 -245.45454;0.00000;0.00000;,
 -245.45454;112.51023;-40.00000;,
 -245.45454;0.00000;-40.00000;,
 -245.45454;112.51023;0.00000;,
 -245.45454;112.51023;-40.00000;,
 -245.45454;105.00957;120.00000;,
 -286.36363;105.00957;120.00000;,
 -286.36363;0.00000;120.00000;,
 -245.45454;0.00000;120.00000;,
 -245.45454;105.00957;80.00000;,
 -245.45454;0.00000;80.00000;,
 -286.36363;105.00957;80.00000;,
 -286.36363;0.00000;80.00000;,
 -286.36363;105.00957;120.00000;,
 -245.45454;105.00957;120.00000;,
 -245.45454;105.00957;80.00000;,
 -286.36363;105.00957;80.00000;,
 -245.45454;105.00957;40.00000;,
 -245.45454;0.00000;40.00000;,
 -286.36363;105.00957;40.00000;,
 -286.36363;0.00000;40.00000;,
 -245.45454;105.00957;40.00000;,
 -286.36363;105.00957;40.00000;,
 -286.36363;90.00820;200.00000;,
 -327.27273;90.00820;200.00000;,
 -327.27273;0.00000;200.00000;,
 -286.36363;0.00000;200.00000;,
 -327.27273;90.00820;160.00000;,
 -286.36363;90.00820;160.00000;,
 -286.36363;0.00000;160.00000;,
 -327.27273;0.00000;160.00000;,
 -327.27273;90.00820;200.00000;,
 -286.36363;90.00820;200.00000;,
 -286.36363;90.00820;160.00000;,
 -327.27273;90.00820;160.00000;,
 -245.45454;90.00820;200.00000;,
 -245.45454;0.00000;200.00000;,
 -245.45454;90.00820;160.00000;,
 -245.45454;0.00000;160.00000;,
 -245.45454;90.00820;200.00000;,
 -245.45454;90.00820;160.00000;,
 -368.18182;102.28204;200.00000;,
 -409.09092;102.28204;200.00000;,
 -409.09092;0.00000;200.00000;,
 -368.18182;0.00000;200.00000;,
 -368.18182;102.28204;160.00000;,
 -368.18182;0.00000;160.00000;,
 -409.09092;102.28204;160.00000;,
 -409.09092;0.00000;160.00000;,
 -409.09092;102.28204;200.00000;,
 -368.18182;102.28204;200.00000;,
 -368.18182;102.28204;160.00000;,
 -409.09092;102.28204;160.00000;,
 -368.18182;102.28204;120.00000;,
 -368.18182;0.00000;120.00000;,
 -409.09092;102.28204;120.00000;,
 -409.09092;0.00000;120.00000;,
 -368.18182;102.28204;120.00000;,
 -409.09092;102.28204;120.00000;,
 -368.18182;102.28204;80.00000;,
 -368.18182;0.00000;80.00000;,
 -409.09092;102.28204;80.00000;,
 -409.09092;0.00000;80.00000;,
 -368.18182;102.28204;80.00000;,
 -409.09092;102.28204;80.00000;,
 -368.18182;96.82703;40.00000;,
 -409.09092;96.82703;40.00000;,
 -409.09092;0.00000;40.00000;,
 -368.18182;0.00000;40.00000;,
 -368.18182;96.82703;0.00000;,
 -368.18182;0.00000;0.00000;,
 -409.09092;96.82703;0.00000;,
 -409.09092;0.00000;0.00000;,
 -409.09092;96.82703;40.00000;,
 -368.18182;96.82703;40.00000;,
 -368.18182;96.82703;0.00000;,
 -409.09092;96.82703;0.00000;,
 -368.18182;96.82703;-40.00000;,
 -368.18182;0.00000;-40.00000;,
 -409.09092;96.82703;-40.00000;,
 -409.09092;0.00000;-40.00000;,
 -368.18182;96.82703;-40.00000;,
 -409.09092;96.82703;-40.00000;,
 -368.18182;120.69280;-80.00000;,
 -409.09092;120.69280;-80.00000;,
 -409.09092;0.00000;-80.00000;,
 -368.18182;0.00000;-80.00000;,
 -409.09092;120.69280;-120.00000;,
 -409.09092;0.00000;-120.00000;,
 -409.09092;120.69280;-80.00000;,
 -368.18182;120.69280;-80.00000;,
 -368.18182;120.69280;-120.00000;,
 -409.09092;120.69280;-120.00000;,
 -327.27273;120.69280;-80.00000;,
 -327.27273;0.00000;-80.00000;,
 -327.27273;120.69280;-120.00000;,
 -327.27273;0.00000;-120.00000;,
 -327.27273;120.69280;-80.00000;,
 -327.27273;120.69280;-120.00000;,
 -409.09092;120.69280;-160.00000;,
 -368.18182;120.69280;-160.00000;,
 -368.18182;0.00000;-160.00000;,
 -409.09092;0.00000;-160.00000;,
 -368.18182;120.69280;-160.00000;,
 -409.09092;120.69280;-160.00000;,
 -327.27273;120.69280;-160.00000;,
 -327.27273;0.00000;-160.00000;,
 -327.27273;120.69280;-160.00000;,
 81.81819;111.82836;-120.00000;,
 40.90909;111.82836;-120.00000;,
 40.90909;0.00000;-120.00000;,
 81.81819;0.00000;-120.00000;,
 40.90909;111.82836;-160.00000;,
 81.81819;111.82836;-160.00000;,
 81.81819;0.00000;-160.00000;,
 40.90909;0.00000;-160.00000;,
 40.90909;111.82836;-120.00000;,
 81.81819;111.82836;-120.00000;,
 81.81819;111.82836;-160.00000;,
 40.90909;111.82836;-160.00000;,
 122.72727;111.82836;-120.00000;,
 122.72727;0.00000;-120.00000;,
 122.72727;111.82836;-160.00000;,
 122.72727;0.00000;-160.00000;,
 122.72727;111.82836;-120.00000;,
 122.72727;111.82836;-160.00000;,
 81.81819;101.60020;-40.00000;,
 40.90909;101.60020;-40.00000;,
 40.90909;0.00000;-40.00000;,
 81.81819;0.00000;-40.00000;,
 81.81819;101.60020;-80.00000;,
 81.81819;0.00000;-80.00000;,
 40.90909;101.60020;-80.00000;,
 40.90909;0.00000;-80.00000;,
 40.90909;101.60020;-40.00000;,
 81.81819;101.60020;-40.00000;,
 81.81819;101.60020;-80.00000;,
 40.90909;101.60020;-80.00000;,
 81.81819;105.00960;80.00000;,
 40.90909;105.00960;80.00000;,
 40.90909;0.00000;80.00000;,
 81.81819;0.00000;80.00000;,
 81.81819;105.00960;40.00000;,
 81.81819;0.00000;40.00000;,
 40.90909;105.00960;40.00000;,
 40.90909;0.00000;40.00000;,
 40.90909;105.00960;80.00000;,
 81.81819;105.00960;80.00000;,
 81.81819;105.00960;40.00000;,
 40.90909;105.00960;40.00000;,
 81.81819;105.00960;0.00000;,
 81.81819;0.00000;0.00000;,
 40.90909;105.00960;0.00000;,
 40.90909;0.00000;0.00000;,
 81.81819;105.00960;0.00000;,
 40.90909;105.00960;0.00000;,
 81.81819;96.14511;200.00000;,
 40.90909;96.14511;200.00000;,
 40.90909;0.00000;200.00000;,
 81.81819;0.00000;200.00000;,
 40.90909;96.14511;160.00000;,
 40.90909;0.00000;160.00000;,
 40.90909;96.14511;200.00000;,
 81.81819;96.14511;200.00000;,
 81.81819;96.14511;160.00000;,
 40.90909;96.14511;160.00000;,
 122.72727;96.14511;200.00000;,
 122.72727;0.00000;200.00000;,
 122.72727;96.14511;160.00000;,
 122.72727;0.00000;160.00000;,
 81.81819;96.14511;160.00000;,
 81.81819;0.00000;160.00000;,
 122.72727;96.14511;200.00000;,
 122.72727;96.14511;160.00000;,
 81.81819;96.14511;120.00000;,
 81.81819;0.00000;120.00000;,
 40.90909;96.14511;120.00000;,
 40.90909;0.00000;120.00000;,
 81.81819;96.14511;120.00000;,
 40.90909;96.14511;120.00000;,
 204.54546;95.46326;-80.00000;,
 163.63637;95.46326;-80.00000;,
 163.63637;0.00000;-80.00000;,
 204.54546;0.00000;-80.00000;,
 204.54546;95.46326;-120.00000;,
 204.54546;0.00000;-120.00000;,
 163.63637;95.46326;-120.00000;,
 163.63637;0.00000;-120.00000;,
 163.63637;95.46326;-80.00000;,
 204.54546;95.46326;-80.00000;,
 204.54546;95.46326;-120.00000;,
 163.63637;95.46326;-120.00000;,
 204.54546;95.46326;-160.00000;,
 204.54546;0.00000;-160.00000;,
 163.63637;95.46326;-160.00000;,
 163.63637;0.00000;-160.00000;,
 204.54546;95.46326;-160.00000;,
 163.63637;95.46326;-160.00000;,
 163.63637;97.50884;0.00000;,
 122.72727;97.50884;0.00000;,
 122.72727;0.00000;0.00000;,
 163.63637;0.00000;0.00000;,
 122.72727;97.50884;-40.00000;,
 163.63637;97.50884;-40.00000;,
 163.63637;0.00000;-40.00000;,
 122.72727;0.00000;-40.00000;,
 122.72727;97.50884;0.00000;,
 163.63637;97.50884;0.00000;,
 163.63637;97.50884;-40.00000;,
 122.72727;97.50884;-40.00000;,
 204.54546;97.50884;0.00000;,
 204.54546;0.00000;0.00000;,
 204.54546;97.50884;-40.00000;,
 204.54546;0.00000;-40.00000;,
 204.54546;97.50884;0.00000;,
 204.54546;97.50884;-40.00000;,
 204.54546;100.91827;120.00000;,
 163.63637;100.91827;120.00000;,
 163.63637;0.00000;120.00000;,
 204.54546;0.00000;120.00000;,
 204.54546;100.91827;80.00000;,
 204.54546;0.00000;80.00000;,
 163.63637;100.91828;80.00000;,
 163.63637;0.00000;80.00000;,
 163.63637;100.91827;120.00000;,
 204.54546;100.91827;120.00000;,
 204.54546;100.91827;80.00000;,
 163.63637;100.91828;80.00000;,
 122.72727;100.91827;80.00000;,
 122.72727;0.00000;80.00000;,
 122.72727;100.91827;40.00000;,
 163.63637;100.91827;40.00000;,
 163.63637;0.00000;40.00000;,
 122.72727;0.00000;40.00000;,
 122.72727;100.91827;80.00000;,
 163.63637;100.91827;40.00000;,
 122.72727;100.91827;40.00000;,
 204.54546;100.91827;40.00000;,
 204.54546;0.00000;40.00000;,
 204.54546;100.91827;40.00000;,
 204.54546;113.19208;200.00000;,
 163.63637;113.19208;200.00000;,
 163.63637;0.00000;200.00000;,
 204.54546;0.00000;200.00000;,
 204.54546;113.19208;160.00000;,
 204.54546;0.00000;160.00000;,
 163.63637;113.19208;160.00000;,
 163.63637;0.00000;160.00000;,
 163.63637;113.19208;200.00000;,
 204.54546;113.19208;200.00000;,
 204.54546;113.19208;160.00000;,
 163.63637;113.19208;160.00000;,
 286.36365;113.87410;-80.00000;,
 245.45454;113.87410;-80.00000;,
 245.45454;0.00000;-80.00000;,
 286.36365;0.00000;-80.00000;,
 245.45454;113.87410;-120.00000;,
 245.45454;0.00000;-120.00000;,
 245.45454;113.87410;-80.00000;,
 286.36365;113.87410;-80.00000;,
 286.36365;113.87410;-120.00000;,
 245.45454;113.87410;-120.00000;,
 327.27273;113.87410;-80.00000;,
 327.27273;0.00000;-80.00000;,
 327.27273;113.87410;-120.00000;,
 327.27273;0.00000;-120.00000;,
 327.27273;113.87410;-80.00000;,
 327.27273;113.87410;-120.00000;,
 245.45454;113.87410;-160.00000;,
 286.36365;113.87410;-160.00000;,
 286.36365;0.00000;-160.00000;,
 245.45454;0.00000;-160.00000;,
 286.36365;113.87410;-160.00000;,
 245.45454;113.87410;-160.00000;,
 327.27273;113.87410;-160.00000;,
 327.27273;0.00000;-160.00000;,
 327.27273;113.87410;-160.00000;,
 286.36365;148.65000;80.00000;,
 245.45454;148.65000;80.00000;,
 245.45454;0.00000;80.00000;,
 286.36365;0.00000;80.00000;,
 286.36365;148.65000;40.00000;,
 286.36365;0.00000;40.00000;,
 245.45454;148.65000;40.00000;,
 245.45454;0.00000;40.00000;,
 245.45454;148.65000;80.00000;,
 286.36365;148.65000;80.00000;,
 286.36365;148.65000;40.00000;,
 245.45454;148.65000;40.00000;,
 286.36365;148.65000;0.00000;,
 286.36365;0.00000;0.00000;,
 245.45454;148.65000;0.00000;,
 245.45454;0.00000;0.00000;,
 286.36365;148.65000;0.00000;,
 245.45454;148.65000;0.00000;,
 286.36365;148.65000;-40.00000;,
 286.36365;0.00000;-40.00000;,
 245.45454;148.65000;-40.00000;,
 245.45454;0.00000;-40.00000;,
 286.36365;148.65000;-40.00000;,
 245.45454;148.65000;-40.00000;,
 286.36365;108.41902;200.00000;,
 245.45454;108.41902;200.00000;,
 245.45454;0.00000;200.00000;,
 286.36365;0.00000;200.00000;,
 245.45454;108.41902;160.00000;,
 245.45454;0.00000;160.00000;,
 245.45454;108.41902;200.00000;,
 286.36365;108.41902;200.00000;,
 286.36365;108.41902;160.00000;,
 245.45454;108.41902;160.00000;,
 327.27273;108.41902;200.00000;,
 327.27273;0.00000;200.00000;,
 327.27273;108.41902;160.00000;,
 327.27273;0.00000;160.00000;,
 327.27273;108.41902;200.00000;,
 327.27273;108.41902;160.00000;,
 245.45454;108.41902;120.00000;,
 286.36365;108.41902;120.00000;,
 286.36365;0.00000;120.00000;,
 245.45454;0.00000;120.00000;,
 286.36365;108.41902;120.00000;,
 245.45454;108.41902;120.00000;,
 327.27273;108.41902;120.00000;,
 327.27273;0.00000;120.00000;,
 327.27273;108.41902;120.00000;,
 409.09092;101.60015;80.00000;,
 368.18184;101.60015;80.00000;,
 368.18184;0.00000;80.00000;,
 409.09092;0.00000;80.00000;,
 409.09092;101.60015;40.00000;,
 409.09092;0.00000;40.00000;,
 368.18184;101.60016;40.00000;,
 368.18184;0.00000;40.00000;,
 368.18184;101.60015;80.00000;,
 409.09092;101.60015;80.00000;,
 409.09092;101.60015;40.00000;,
 368.18184;101.60016;40.00000;,
 327.27273;101.60015;40.00000;,
 327.27273;0.00000;40.00000;,
 327.27273;101.60015;0.00000;,
 368.18184;101.60015;0.00000;,
 368.18184;0.00000;0.00000;,
 327.27273;0.00000;0.00000;,
 327.27273;101.60015;40.00000;,
 368.18184;101.60015;0.00000;,
 327.27273;101.60015;0.00000;,
 409.09092;101.60015;0.00000;,
 409.09092;0.00000;0.00000;,
 409.09092;101.60015;0.00000;,
 409.09092;76.37059;200.00000;,
 368.18184;76.37059;200.00000;,
 368.18184;0.00000;200.00000;,
 409.09092;0.00000;200.00000;,
 409.09092;76.37059;160.00000;,
 409.09092;0.00000;160.00000;,
 368.18184;76.37059;160.00000;,
 368.18184;0.00000;160.00000;,
 368.18184;76.37059;200.00000;,
 409.09092;76.37059;200.00000;,
 409.09092;76.37059;160.00000;,
 368.18184;76.37059;160.00000;,
 409.09092;76.37059;120.00000;,
 409.09092;0.00000;120.00000;,
 368.18184;76.37059;120.00000;,
 368.18184;0.00000;120.00000;,
 409.09092;76.37059;120.00000;,
 368.18184;76.37059;120.00000;,
 409.09092;117.28331;-40.00000;,
 368.18184;117.28331;-40.00000;,
 368.18184;0.00000;-40.00000;,
 409.09092;0.00000;-40.00000;,
 409.09092;117.28331;-80.00000;,
 409.09092;0.00000;-80.00000;,
 368.18184;117.28331;-80.00000;,
 368.18184;0.00000;-80.00000;,
 368.18184;117.28331;-40.00000;,
 409.09092;117.28331;-40.00000;,
 409.09092;117.28331;-80.00000;,
 368.18184;117.28331;-80.00000;,
 409.09092;117.28331;-120.00000;,
 409.09092;0.00000;-120.00000;,
 368.18184;117.28331;-120.00000;,
 368.18184;0.00000;-120.00000;,
 409.09092;117.28331;-120.00000;,
 368.18184;117.28331;-120.00000;,
 409.09092;117.28331;-160.00000;,
 409.09092;0.00000;-160.00000;,
 368.18184;117.28331;-160.00000;,
 368.18184;0.00000;-160.00000;,
 409.09092;117.28331;-160.00000;,
 368.18184;117.28331;-160.00000;,
 -327.27273;0.00000;200.00000;,
 -368.18182;0.00000;200.00000;,
 -368.18182;0.00000;200.00000;,
 -327.27273;0.00000;200.00000;,
 -327.27273;0.00000;160.00000;,
 -327.27273;0.00000;160.00000;,
 -368.18182;0.00000;160.00000;,
 -368.18182;0.00000;160.00000;,
 -368.18182;0.00000;200.00000;,
 -327.27273;0.00000;200.00000;,
 -327.27273;0.00000;160.00000;,
 -368.18182;0.00000;160.00000;,
 -204.54546;0.00000;200.00000;,
 -245.45454;0.00000;200.00000;,
 -245.45454;0.00000;200.00000;,
 -204.54546;0.00000;200.00000;,
 -204.54546;0.00000;160.00000;,
 -204.54546;0.00000;160.00000;,
 -245.45454;0.00000;160.00000;,
 -245.45454;0.00000;160.00000;,
 -245.45454;0.00000;200.00000;,
 -204.54546;0.00000;200.00000;,
 -204.54546;0.00000;160.00000;,
 -245.45454;0.00000;160.00000;,
 -122.72727;0.00000;200.00000;,
 -163.63637;0.00000;200.00000;,
 -163.63637;0.00000;200.00000;,
 -122.72727;0.00000;200.00000;,
 -122.72727;0.00000;160.00000;,
 -122.72727;0.00000;160.00000;,
 -163.63637;0.00000;160.00000;,
 -163.63637;0.00000;160.00000;,
 -163.63637;0.00000;200.00000;,
 -122.72727;0.00000;200.00000;,
 -122.72727;0.00000;160.00000;,
 -163.63637;0.00000;160.00000;,
 -368.18182;0.00000;120.00000;,
 -368.18182;0.00000;120.00000;,
 -327.27273;0.00000;120.00000;,
 -368.18182;0.00000;120.00000;,
 -286.36363;0.00000;160.00000;,
 -286.36363;0.00000;160.00000;,
 -286.36363;0.00000;160.00000;,
 -286.36363;0.00000;120.00000;,
 -286.36363;0.00000;120.00000;,
 -245.45454;0.00000;120.00000;,
 -245.45454;0.00000;120.00000;,
 -286.36363;0.00000;120.00000;,
 -245.45454;0.00000;120.00000;,
 -204.54546;0.00000;120.00000;,
 -204.54546;0.00000;120.00000;,
 -204.54546;0.00000;120.00000;,
 -163.63637;0.00000;120.00000;,
 -163.63637;0.00000;120.00000;,
 -122.72727;0.00000;120.00000;,
 -163.63637;0.00000;120.00000;,
 -81.81818;0.00000;160.00000;,
 -81.81818;0.00000;160.00000;,
 -81.81818;0.00000;120.00000;,
 -81.81818;0.00000;120.00000;,
 -81.81818;0.00000;160.00000;,
 -81.81818;0.00000;120.00000;,
 -368.18182;0.00000;80.00000;,
 -368.18182;0.00000;80.00000;,
 -327.27273;0.00000;80.00000;,
 -368.18182;0.00000;80.00000;,
 -286.36363;0.00000;80.00000;,
 -286.36363;0.00000;80.00000;,
 -286.36363;0.00000;80.00000;,
 -245.45454;0.00000;80.00000;,
 -245.45454;0.00000;80.00000;,
 -204.54546;0.00000;80.00000;,
 -245.45454;0.00000;80.00000;,
 -204.54546;0.00000;80.00000;,
 -163.63637;0.00000;80.00000;,
 -163.63637;0.00000;80.00000;,
 -204.54546;0.00000;80.00000;,
 -163.63637;0.00000;80.00000;,
 -122.72727;0.00000;80.00000;,
 -122.72727;0.00000;80.00000;,
 -122.72727;0.00000;80.00000;,
 -81.81818;0.00000;80.00000;,
 -81.81818;0.00000;80.00000;,
 -81.81818;0.00000;80.00000;,
 -40.90909;0.00000;120.00000;,
 -40.90909;0.00000;120.00000;,
 -40.90909;0.00000;80.00000;,
 -40.90909;0.00000;80.00000;,
 -40.90909;0.00000;120.00000;,
 -40.90909;0.00000;80.00000;,
 -409.09092;0.00000;80.00000;,
 -450.00001;0.00000;80.00000;,
 -450.00001;0.00000;80.00000;,
 -409.09092;0.00000;80.00000;,
 -409.09092;0.00000;40.00000;,
 -409.09092;0.00000;40.00000;,
 -450.00001;0.00000;40.00000;,
 -450.00001;0.00000;40.00000;,
 -450.00001;0.00000;80.00000;,
 -409.09092;0.00000;80.00000;,
 -409.09092;0.00000;40.00000;,
 -450.00001;0.00000;40.00000;,
 -368.18182;0.00000;40.00000;,
 -368.18182;0.00000;40.00000;,
 -327.27273;0.00000;40.00000;,
 -368.18182;0.00000;40.00000;,
 -286.36363;0.00000;40.00000;,
 -286.36363;0.00000;40.00000;,
 -286.36363;0.00000;40.00000;,
 -204.54546;0.00000;40.00000;,
 -204.54546;0.00000;40.00000;,
 -245.45454;0.00000;40.00000;,
 -245.45454;0.00000;40.00000;,
 -204.54546;0.00000;40.00000;,
 -245.45454;0.00000;40.00000;,
 -409.09092;0.00000;0.00000;,
 -409.09092;0.00000;0.00000;,
 -450.00001;0.00000;0.00000;,
 -450.00001;0.00000;0.00000;,
 -409.09092;0.00000;0.00000;,
 -450.00001;0.00000;0.00000;,
 -368.18182;0.00000;0.00000;,
 -368.18182;0.00000;0.00000;,
 -327.27273;0.00000;0.00000;,
 -368.18182;0.00000;0.00000;,
 -286.36363;0.00000;0.00000;,
 -286.36363;0.00000;0.00000;,
 -327.27273;0.00000;0.00000;,
 -327.27273;0.00000;0.00000;,
 -286.36363;0.00000;0.00000;,
 -245.45454;0.00000;0.00000;,
 -245.45454;0.00000;0.00000;,
 -204.54546;0.00000;0.00000;,
 -245.45454;0.00000;0.00000;,
 -163.63637;0.00000;40.00000;,
 -163.63637;0.00000;40.00000;,
 -204.54546;0.00000;0.00000;,
 -163.63637;0.00000;0.00000;,
 -163.63637;0.00000;0.00000;,
 -204.54546;0.00000;0.00000;,
 -163.63637;0.00000;40.00000;,
 -163.63637;0.00000;0.00000;,
 -122.72727;0.00000;40.00000;,
 -122.72727;0.00000;40.00000;,
 -122.72727;0.00000;40.00000;,
 -122.72727;0.00000;0.00000;,
 -81.81818;0.00000;40.00000;,
 -81.81818;0.00000;40.00000;,
 -81.81818;0.00000;40.00000;,
 -81.81818;0.00000;0.00000;,
 -40.90909;0.00000;40.00000;,
 -40.90909;0.00000;40.00000;,
 -40.90909;0.00000;0.00000;,
 -40.90909;0.00000;0.00000;,
 -81.81818;0.00000;0.00000;,
 -81.81818;0.00000;0.00000;,
 -40.90909;0.00000;40.00000;,
 -40.90909;0.00000;0.00000;,
 -409.09092;0.00000;-40.00000;,
 -409.09092;0.00000;-40.00000;,
 -450.00001;0.00000;-40.00000;,
 -450.00001;0.00000;-40.00000;,
 -409.09092;0.00000;-40.00000;,
 -450.00001;0.00000;-40.00000;,
 -327.27273;0.00000;-40.00000;,
 -327.27273;0.00000;-40.00000;,
 -368.18182;0.00000;-40.00000;,
 -368.18182;0.00000;-40.00000;,
 -327.27273;0.00000;-40.00000;,
 -368.18182;0.00000;-40.00000;,
 -204.54546;0.00000;-40.00000;,
 -204.54546;0.00000;-40.00000;,
 -245.45454;0.00000;-40.00000;,
 -245.45454;0.00000;-40.00000;,
 -204.54546;0.00000;-40.00000;,
 -245.45454;0.00000;-40.00000;,
 -163.63637;0.00000;-40.00000;,
 -122.72727;0.00000;-40.00000;,
 -122.72727;0.00000;-40.00000;,
 -163.63637;0.00000;-40.00000;,
 -122.72727;0.00000;-40.00000;,
 -163.63637;0.00000;-40.00000;,
 -81.81818;0.00000;-40.00000;,
 -81.81818;0.00000;-40.00000;,
 -81.81818;0.00000;-40.00000;,
 -409.09092;0.00000;-80.00000;,
 -409.09092;0.00000;-80.00000;,
 -450.00001;0.00000;-80.00000;,
 -450.00001;0.00000;-80.00000;,
 -409.09092;0.00000;-80.00000;,
 -450.00001;0.00000;-80.00000;,
 -368.18182;0.00000;-80.00000;,
 -327.27273;0.00000;-80.00000;,
 -327.27273;0.00000;-80.00000;,
 -368.18182;0.00000;-80.00000;,
 -327.27273;0.00000;-80.00000;,
 -368.18182;0.00000;-80.00000;,
 -286.36363;0.00000;-40.00000;,
 -286.36363;0.00000;-40.00000;,
 -286.36363;0.00000;-80.00000;,
 -286.36363;0.00000;-80.00000;,
 -286.36363;0.00000;-40.00000;,
 -286.36363;0.00000;-80.00000;,
 -204.54546;0.00000;-80.00000;,
 -204.54546;0.00000;-80.00000;,
 -245.45454;0.00000;-80.00000;,
 -245.45454;0.00000;-80.00000;,
 -204.54546;0.00000;-80.00000;,
 -245.45454;0.00000;-80.00000;,
 -81.81818;0.00000;-80.00000;,
 -81.81818;0.00000;-80.00000;,
 -122.72727;0.00000;-80.00000;,
 -122.72727;0.00000;-80.00000;,
 -81.81818;0.00000;-80.00000;,
 -122.72727;0.00000;-80.00000;,
 -409.09092;0.00000;-120.00000;,
 -409.09092;0.00000;-120.00000;,
 -450.00001;0.00000;-120.00000;,
 -450.00001;0.00000;-120.00000;,
 -409.09092;0.00000;-120.00000;,
 -450.00001;0.00000;-120.00000;,
 -286.36363;0.00000;-120.00000;,
 -286.36363;0.00000;-120.00000;,
 -327.27273;0.00000;-120.00000;,
 -327.27273;0.00000;-120.00000;,
 -286.36363;0.00000;-120.00000;,
 -327.27273;0.00000;-120.00000;,
 -245.45454;0.00000;-120.00000;,
 -245.45454;0.00000;-120.00000;,
 -204.54546;0.00000;-120.00000;,
 -245.45454;0.00000;-120.00000;,
 -163.63637;0.00000;-80.00000;,
 -163.63637;0.00000;-80.00000;,
 -204.54546;0.00000;-120.00000;,
 -163.63637;0.00000;-120.00000;,
 -163.63637;0.00000;-120.00000;,
 -204.54546;0.00000;-120.00000;,
 -163.63637;0.00000;-80.00000;,
 -163.63637;0.00000;-120.00000;,
 -122.72727;0.00000;-120.00000;,
 -122.72727;0.00000;-120.00000;,
 -122.72727;0.00000;-120.00000;,
 -81.81818;0.00000;-120.00000;,
 -40.90909;0.00000;-80.00000;,
 -40.90909;0.00000;-80.00000;,
 -40.90909;0.00000;-120.00000;,
 -40.90909;0.00000;-120.00000;,
 -81.81818;0.00000;-120.00000;,
 -81.81818;0.00000;-120.00000;,
 -40.90909;0.00000;-80.00000;,
 -40.90909;0.00000;-120.00000;,
 -409.09092;0.00000;-160.00000;,
 -409.09092;0.00000;-160.00000;,
 -450.00001;0.00000;-160.00000;,
 -450.00001;0.00000;-160.00000;,
 -409.09092;0.00000;-160.00000;,
 -450.00001;0.00000;-160.00000;,
 -286.36363;0.00000;-160.00000;,
 -286.36363;0.00000;-160.00000;,
 -327.27273;0.00000;-160.00000;,
 -327.27273;0.00000;-160.00000;,
 -286.36363;0.00000;-160.00000;,
 -327.27273;0.00000;-160.00000;,
 -204.54546;0.00000;-160.00000;,
 -204.54546;0.00000;-160.00000;,
 -245.45454;0.00000;-160.00000;,
 -245.45454;0.00000;-160.00000;,
 -204.54546;0.00000;-160.00000;,
 -245.45454;0.00000;-160.00000;,
 -81.81818;0.00000;-160.00000;,
 -81.81818;0.00000;-160.00000;,
 -122.72727;0.00000;-160.00000;,
 -122.72727;0.00000;-160.00000;,
 -81.81818;0.00000;-160.00000;,
 -122.72727;0.00000;-160.00000;,
 -450.00001;0.00000;-200.00000;,
 -409.09092;0.00000;-200.00000;,
 -409.09092;0.00000;-200.00000;,
 -450.00001;0.00000;-200.00000;,
 -409.09092;0.00000;-200.00000;,
 -450.00001;0.00000;-200.00000;,
 -368.18182;0.00000;-160.00000;,
 -368.18182;0.00000;-160.00000;,
 -368.18182;0.00000;-200.00000;,
 -368.18182;0.00000;-200.00000;,
 -368.18182;0.00000;-160.00000;,
 -368.18182;0.00000;-200.00000;,
 -327.27273;0.00000;-200.00000;,
 -327.27273;0.00000;-200.00000;,
 -327.27273;0.00000;-200.00000;,
 -286.36363;0.00000;-200.00000;,
 -286.36363;0.00000;-200.00000;,
 -286.36363;0.00000;-200.00000;,
 -245.45454;0.00000;-200.00000;,
 -245.45454;0.00000;-200.00000;,
 -245.45454;0.00000;-200.00000;,
 -204.54546;0.00000;-200.00000;,
 -204.54546;0.00000;-200.00000;,
 -204.54546;0.00000;-200.00000;,
 -163.63637;0.00000;-160.00000;,
 -163.63637;0.00000;-160.00000;,
 -163.63637;0.00000;-200.00000;,
 -163.63637;0.00000;-200.00000;,
 -163.63637;0.00000;-160.00000;,
 -163.63637;0.00000;-200.00000;,
 -122.72727;0.00000;-200.00000;,
 -122.72727;0.00000;-200.00000;,
 -122.72727;0.00000;-200.00000;,
 -81.81818;0.00000;-200.00000;,
 -81.81818;0.00000;-200.00000;,
 -81.81818;0.00000;-200.00000;,
 -40.90909;0.00000;-160.00000;,
 -40.90909;0.00000;-160.00000;,
 -40.90909;0.00000;-200.00000;,
 -40.90909;0.00000;-200.00000;,
 -40.90909;0.00000;-160.00000;,
 -40.90909;0.00000;-200.00000;;
 
 512;
 4;0,1,2,3;,
 4;4,5,6,7;,
 4;5,8,9,6;,
 4;10,11,12,13;,
 4;14,15,16,17;,
 4;18,19,20,21;,
 4;22,23,24,25;,
 4;3,2,26,27;,
 4;7,6,28,29;,
 4;6,9,30,28;,
 4;31,13,32,33;,
 4;13,12,34,32;,
 4;12,17,35,34;,
 4;17,16,36,35;,
 4;21,20,37,38;,
 4;25,24,39,40;,
 4;27,26,41,42;,
 4;29,28,43,44;,
 4;28,30,45,43;,
 4;46,33,47,48;,
 4;33,32,49,47;,
 4;32,34,50,49;,
 4;35,36,51,52;,
 4;36,53,54,51;,
 4;53,38,55,54;,
 4;38,37,56,55;,
 4;37,40,57,56;,
 4;40,39,58,57;,
 4;41,59,60,61;,
 4;62,63,64,65;,
 4;44,43,66,67;,
 4;43,45,68,66;,
 4;47,49,69,70;,
 4;52,51,71,72;,
 4;54,55,73,74;,
 4;55,56,75,73;,
 4;57,58,76,77;,
 4;78,79,80,81;,
 4;67,66,82,83;,
 4;66,68,84,82;,
 4;70,69,85,86;,
 4;69,87,88,85;,
 4;87,72,89,88;,
 4;72,71,90,89;,
 4;74,73,91,92;,
 4;77,76,93,94;,
 4;83,82,95,96;,
 4;82,84,97,95;,
 4;98,86,99,100;,
 4;86,85,101,99;,
 4;89,90,102,103;,
 4;92,91,104,105;,
 4;91,106,107,104;,
 4;106,94,108,107;,
 4;94,93,109,108;,
 4;110,111,112,113;,
 4;114,115,116,117;,
 4;96,95,118,119;,
 4;95,97,120,118;,
 4;99,101,121,122;,
 4;101,123,124,121;,
 4;123,103,125,124;,
 4;103,102,126,125;,
 4;102,105,127,126;,
 4;105,104,128,127;,
 4;104,107,129,128;,
 4;108,109,130,131;,
 4;119,118,132,133;,
 4;118,120,134,132;,
 4;135,122,136,137;,
 4;122,121,138,136;,
 4;121,124,139,138;,
 4;125,126,140,141;,
 4;128,129,142,143;,
 4;131,130,144,145;,
 4;133,132,146,147;,
 4;132,134,148,146;,
 4;138,139,149,150;,
 4;141,140,151,152;,
 4;143,142,153,154;,
 4;145,144,155,156;,
 4;147,146,157,158;,
 4;146,148,159,157;,
 4;160,161,162,163;,
 4;161,150,164,162;,
 4;150,149,165,164;,
 4;149,152,166,165;,
 4;152,151,167,166;,
 4;151,168,169,167;,
 4;168,154,170,169;,
 4;154,153,171,170;,
 4;153,156,172,171;,
 4;156,155,173,172;,
 4;174,175,176,177;,
 4;178,174,177,179;,
 4;180,178,179,181;,
 4;175,180,181,176;,
 4;182,183,184,185;,
 4;186,187,188,189;,
 4;190,186,189,191;,
 4;187,192,193,188;,
 4;194,195,196,197;,
 4;198,190,191,199;,
 4;200,198,199,201;,
 4;192,200,201,193;,
 4;197,196,202,203;,
 4;204,205,206,207;,
 4;208,209,210,211;,
 4;205,208,211,206;,
 4;212,213,214,215;,
 4;216,204,207,217;,
 4;218,216,217,219;,
 4;209,218,219,210;,
 4;213,220,221,214;,
 4;222,223,224,225;,
 4;226,227,228,229;,
 4;223,226,229,224;,
 4;230,231,232,233;,
 4;234,222,225,235;,
 4;236,234,235,237;,
 4;231,238,239,232;,
 4;240,236,237,241;,
 4;242,240,241,243;,
 4;227,242,243,228;,
 4;232,239,244,245;,
 4;246,247,248,249;,
 4;250,251,252,253;,
 4;247,250,253,248;,
 4;254,255,256,257;,
 4;258,246,249,259;,
 4;260,258,259,261;,
 4;251,260,261,252;,
 4;255,262,263,256;,
 4;264,265,266,267;,
 4;268,264,267,269;,
 4;265,270,271,266;,
 4;272,273,274,275;,
 4;276,277,278,279;,
 4;270,276,279,271;,
 4;275,274,280,281;,
 4;282,268,269,283;,
 4;284,282,283,285;,
 4;277,284,285,278;,
 4;274,286,287,280;,
 4;288,289,290,291;,
 4;292,288,291,293;,
 4;294,292,293,295;,
 4;289,294,295,290;,
 4;296,297,298,299;,
 4;300,301,302,303;,
 4;304,300,303,305;,
 4;301,306,307,302;,
 4;308,309,310,311;,
 4;312,304,305,313;,
 4;314,312,313,315;,
 4;306,314,315,307;,
 4;311,310,316,317;,
 4;318,319,320,321;,
 4;322,318,321,323;,
 4;319,324,325,320;,
 4;326,327,328,329;,
 4;330,322,323,331;,
 4;332,330,331,333;,
 4;324,332,333,325;,
 4;329,328,334,335;,
 4;336,337,338,339;,
 4;340,341,342,343;,
 4;337,340,343,338;,
 4;344,345,346,347;,
 4;348,336,339,349;,
 4;350,348,349,351;,
 4;341,350,351,342;,
 4;345,352,353,346;,
 4;354,355,356,357;,
 4;358,354,357,359;,
 4;355,360,361,356;,
 4;362,363,364,365;,
 4;366,358,359,367;,
 4;368,366,367,369;,
 4;360,368,369,361;,
 4;365,364,370,371;,
 4;372,373,374,375;,
 4;376,377,378,379;,
 4;373,376,379,374;,
 4;380,381,382,383;,
 4;384,372,375,385;,
 4;386,384,385,387;,
 4;377,386,387,378;,
 4;381,388,389,382;,
 4;390,391,392,393;,
 4;394,390,393,395;,
 4;391,396,397,392;,
 4;398,399,400,401;,
 4;402,394,395,403;,
 4;396,404,405,397;,
 4;401,400,406,407;,
 4;408,402,403,409;,
 4;410,408,409,411;,
 4;404,410,411,405;,
 4;407,406,412,413;,
 4;414,415,416,417;,
 4;418,414,417,419;,
 4;415,420,421,416;,
 4;422,423,424,425;,
 4;426,418,419,427;,
 4;428,426,427,429;,
 4;420,428,429,421;,
 4;425,424,430,431;,
 4;432,433,434,435;,
 4;433,436,437,434;,
 4;438,439,440,441;,
 4;442,432,435,443;,
 4;444,442,443,445;,
 4;439,446,447,440;,
 4;448,449,450,451;,
 4;436,448,451,437;,
 4;441,440,452,453;,
 4;454,444,445,455;,
 4;449,454,455,450;,
 4;440,447,456,452;,
 4;457,458,459,460;,
 4;461,462,463,464;,
 4;458,461,464,459;,
 4;465,466,467,468;,
 4;469,457,460,470;,
 4;471,469,470,472;,
 4;462,471,472,463;,
 4;466,473,474,467;,
 4;475,476,477,478;,
 4;479,475,478,480;,
 4;481,479,480,482;,
 4;476,481,482,477;,
 4;483,484,485,486;,
 4;487,488,489,490;,
 4;491,487,490,492;,
 4;488,493,494,489;,
 4;495,496,497,498;,
 4;499,491,492,500;,
 4;501,499,500,502;,
 4;493,501,502,494;,
 4;498,497,503,504;,
 4;505,506,507,508;,
 4;506,509,510,507;,
 4;511,512,513,514;,
 4;515,505,508,516;,
 4;517,515,516,518;,
 4;519,517,518,520;,
 4;512,521,522,513;,
 4;523,519,520,524;,
 4;525,523,524,526;,
 4;509,525,526,510;,
 4;514,513,527,528;,
 4;529,530,531,532;,
 4;533,529,532,534;,
 4;530,535,536,531;,
 4;537,538,539,540;,
 4;541,533,534,542;,
 4;543,541,542,544;,
 4;535,543,544,536;,
 4;540,539,545,546;,
 4;547,548,549,550;,
 4;551,552,553,554;,
 4;548,551,554,549;,
 4;555,556,557,558;,
 4;559,547,550,560;,
 4;561,559,560,562;,
 4;552,561,562,553;,
 4;556,563,564,557;,
 4;565,566,567,568;,
 4;569,565,568,570;,
 4;566,571,572,567;,
 4;573,574,575,576;,
 4;571,577,578,572;,
 4;579,580,581,582;,
 4;577,579,582,578;,
 4;583,576,584,585;,
 4;586,569,570,587;,
 4;580,586,587,581;,
 4;576,575,588,584;,
 4;589,590,591,592;,
 4;593,589,592,594;,
 4;595,593,594,596;,
 4;590,595,596,591;,
 4;597,598,599,600;,
 4;601,602,603,604;,
 4;602,605,606,603;,
 4;607,608,609,610;,
 4;611,601,604,612;,
 4;613,611,612,614;,
 4;608,615,616,609;,
 4;617,618,619,620;,
 4;605,617,620,606;,
 4;610,609,621,622;,
 4;623,613,614,624;,
 4;618,623,624,619;,
 4;609,616,625,621;,
 4;626,627,628,629;,
 4;630,626,629,631;,
 4;627,632,633,628;,
 4;634,635,636,637;,
 4;638,630,631,639;,
 4;632,640,641,633;,
 4;637,636,642,643;,
 4;644,638,639,645;,
 4;646,644,645,647;,
 4;640,646,647,641;,
 4;643,642,648,649;,
 4;650,651,652,653;,
 4;651,654,655,652;,
 4;656,657,658,659;,
 4;660,650,653,661;,
 4;662,660,661,663;,
 4;657,664,665,658;,
 4;666,667,668,669;,
 4;654,666,669,655;,
 4;659,658,670,671;,
 4;672,662,663,673;,
 4;667,672,673,668;,
 4;658,665,674,670;,
 4;675,676,677,678;,
 4;679,675,678,680;,
 4;676,681,682,677;,
 4;683,684,685,686;,
 4;681,687,688,682;,
 4;689,690,691,692;,
 4;687,689,692,688;,
 4;693,686,694,695;,
 4;696,679,680,697;,
 4;690,696,697,691;,
 4;686,685,698,694;,
 4;699,700,701,702;,
 4;703,699,702,704;,
 4;700,705,706,701;,
 4;707,708,709,710;,
 4;711,703,704,712;,
 4;713,711,712,714;,
 4;705,713,714,706;,
 4;710,709,715,716;,
 4;717,718,719,720;,
 4;721,717,720,722;,
 4;718,723,724,719;,
 4;725,726,727,728;,
 4;729,721,722,730;,
 4;723,731,732,724;,
 4;728,727,733,734;,
 4;735,729,730,736;,
 4;737,735,736,738;,
 4;731,737,738,732;,
 4;734,733,739,740;,
 4;741,742,743,744;,
 4;745,741,744,746;,
 4;742,747,748,743;,
 4;749,750,751,752;,
 4;753,754,755,756;,
 4;757,753,756,758;,
 4;754,759,760,755;,
 4;761,762,763,764;,
 4;765,766,767,768;,
 4;769,765,768,770;,
 4;766,771,772,767;,
 4;773,774,775,776;,
 4;747,777,778,748;,
 4;752,751,779,780;,
 4;781,745,746,782;,
 4;751,783,784,779;,
 4;759,781,782,760;,
 4;785,786,787,788;,
 4;783,764,789,784;,
 4;790,757,758,791;,
 4;764,763,792,789;,
 4;771,793,794,772;,
 4;776,775,795,796;,
 4;797,769,770,798;,
 4;799,797,798,800;,
 4;775,801,802,795;,
 4;777,803,804,778;,
 4;780,779,805,806;,
 4;807,785,788,808;,
 4;779,784,809,805;,
 4;786,810,811,787;,
 4;789,792,812,813;,
 4;793,790,791,794;,
 4;814,815,816,817;,
 4;792,796,818,812;,
 4;815,819,820,816;,
 4;796,795,821,818;,
 4;819,822,823,820;,
 4;795,802,824,821;,
 4;825,799,800,826;,
 4;827,825,826,828;,
 4;822,827,828,823;,
 4;802,829,830,824;,
 4;831,832,833,834;,
 4;835,831,834,836;,
 4;832,837,838,833;,
 4;839,840,841,842;,
 4;803,843,844,804;,
 4;806,805,845,846;,
 4;847,807,808,848;,
 4;805,809,849,845;,
 4;850,814,817,851;,
 4;810,852,853,811;,
 4;813,812,854,855;,
 4;856,835,836,857;,
 4;837,858,859,838;,
 4;842,841,860,861;,
 4;843,862,863,844;,
 4;846,845,864,865;,
 4;866,847,848,867;,
 4;868,866,867,869;,
 4;845,849,870,864;,
 4;852,871,872,853;,
 4;855,854,873,874;,
 4;875,850,851,876;,
 4;877,878,879,880;,
 4;854,881,882,873;,
 4;883,875,876,884;,
 4;881,885,886,882;,
 4;887,883,884,888;,
 4;885,889,890,886;,
 4;891,887,888,892;,
 4;893,891,892,894;,
 4;895,893,894,896;,
 4;889,897,898,890;,
 4;899,856,857,900;,
 4;858,901,902,859;,
 4;861,860,903,904;,
 4;905,868,869,906;,
 4;862,907,908,863;,
 4;865,864,909,910;,
 4;911,877,880,912;,
 4;871,913,914,872;,
 4;874,873,915,916;,
 4;917,918,919,920;,
 4;878,917,920,879;,
 4;882,886,921,922;,
 4;923,895,896,924;,
 4;886,890,925,921;,
 4;926,899,900,927;,
 4;901,928,929,902;,
 4;904,903,930,931;,
 4;932,933,934,935;,
 4;907,932,935,908;,
 4;910,909,936,937;,
 4;938,905,906,939;,
 4;940,938,939,941;,
 4;909,942,943,936;,
 4;944,911,912,945;,
 4;913,946,947,914;,
 4;916,915,948,949;,
 4;950,923,924,951;,
 4;918,952,953,919;,
 4;921,925,954,955;,
 4;956,926,927,957;,
 4;928,958,959,929;,
 4;931,930,960,961;,
 4;962,940,941,963;,
 4;933,964,965,934;,
 4;936,943,966,967;,
 4;946,968,969,947;,
 4;949,948,970,971;,
 4;972,944,945,973;,
 4;974,975,976,977;,
 4;948,978,979,970;,
 4;952,972,973,953;,
 4;975,980,981,976;,
 4;978,955,982,979;,
 4;955,954,983,982;,
 4;984,950,951,985;,
 4;986,984,985,987;,
 4;988,986,987,989;,
 4;954,990,991,983;,
 4;992,956,957,993;,
 4;958,994,995,959;,
 4;961,960,996,997;,
 4;998,962,963,999;,
 4;964,1000,1001,965;,
 4;967,966,1002,1003;,
 4;1004,974,977,1005;,
 4;968,1006,1007,969;,
 4;971,970,1008,1009;,
 4;1010,988,989,1011;,
 4;980,1012,1013,981;,
 4;982,983,1014,1015;,
 4;1016,1017,1018,1019;,
 4;994,1016,1019,995;,
 4;997,996,1020,1021;,
 4;1022,992,993,1023;,
 4;1017,1024,1025,1018;,
 4;996,1026,1027,1020;,
 4;1000,1022,1023,1001;,
 4;1024,1028,1029,1025;,
 4;1026,1003,1030,1027;,
 4;1028,1031,1032,1029;,
 4;1003,1002,1033,1030;,
 4;1006,998,999,1007;,
 4;1031,1034,1035,1032;,
 4;1002,1009,1036,1033;,
 4;1034,1037,1038,1035;,
 4;1009,1008,1039,1036;,
 4;1040,1004,1005,1041;,
 4;1037,1042,1043,1038;,
 4;1008,1044,1045,1039;,
 4;1012,1040,1041,1013;,
 4;1042,1046,1047,1043;,
 4;1044,1015,1048,1045;,
 4;1046,1049,1050,1047;,
 4;1015,1014,1051,1048;,
 4;1052,1010,1011,1053;,
 4;1054,1052,1053,1055;,
 4;1049,1054,1055,1050;,
 4;1014,1056,1057,1051;;
 
 MeshMaterialList {
  6;
  512;
  4,
  0,
  0,
  4,
  4,
  4,
  4,
  4,
  0,
  0,
  4,
  4,
  4,
  4,
  4,
  4,
  4,
  0,
  0,
  4,
  4,
  4,
  4,
  4,
  4,
  4,
  4,
  4,
  4,
  4,
  0,
  0,
  4,
  4,
  4,
  4,
  4,
  4,
  0,
  0,
  4,
  4,
  4,
  4,
  4,
  4,
  0,
  0,
  4,
  4,
  4,
  4,
  4,
  4,
  4,
  4,
  4,
  0,
  0,
  4,
  4,
  4,
  4,
  4,
  4,
  4,
  4,
  0,
  0,
  4,
  4,
  4,
  4,
  4,
  4,
  0,
  0,
  4,
  4,
  4,
  4,
  0,
  0,
  4,
  4,
  4,
  4,
  4,
  4,
  4,
  4,
  4,
  4,
  1,
  1,
  1,
  1,
  5,
  1,
  1,
  1,
  5,
  1,
  1,
  1,
  5,
  1,
  1,
  1,
  5,
  1,
  1,
  1,
  5,
  1,
  1,
  1,
  5,
  1,
  1,
  5,
  1,
  1,
  1,
  5,
  1,
  1,
  1,
  5,
  1,
  1,
  1,
  5,
  1,
  1,
  1,
  5,
  1,
  1,
  5,
  1,
  1,
  1,
  5,
  1,
  1,
  1,
  1,
  5,
  1,
  1,
  1,
  5,
  1,
  1,
  1,
  5,
  1,
  1,
  1,
  5,
  1,
  1,
  1,
  5,
  1,
  1,
  1,
  5,
  1,
  1,
  1,
  5,
  1,
  1,
  1,
  5,
  1,
  1,
  1,
  5,
  1,
  1,
  1,
  5,
  1,
  1,
  1,
  5,
  1,
  1,
  1,
  5,
  1,
  1,
  5,
  1,
  1,
  1,
  5,
  1,
  1,
  1,
  5,
  1,
  1,
  1,
  5,
  1,
  1,
  5,
  1,
  1,
  5,
  1,
  1,
  5,
  1,
  1,
  5,
  1,
  1,
  1,
  5,
  1,
  1,
  1,
  5,
  1,
  1,
  1,
  1,
  5,
  1,
  1,
  1,
  5,
  1,
  1,
  1,
  5,
  1,
  1,
  5,
  1,
  1,
  1,
  5,
  1,
  1,
  1,
  5,
  1,
  1,
  1,
  5,
  1,
  1,
  1,
  5,
  1,
  1,
  1,
  5,
  1,
  1,
  1,
  5,
  1,
  1,
  1,
  5,
  1,
  1,
  1,
  5,
  1,
  1,
  5,
  1,
  1,
  1,
  1,
  5,
  1,
  1,
  5,
  1,
  1,
  5,
  1,
  1,
  5,
  1,
  1,
  5,
  1,
  1,
  1,
  5,
  1,
  1,
  5,
  1,
  1,
  1,
  5,
  1,
  1,
  5,
  1,
  1,
  5,
  1,
  1,
  5,
  1,
  1,
  5,
  1,
  1,
  1,
  5,
  1,
  1,
  1,
  5,
  1,
  1,
  5,
  1,
  1,
  1,
  5,
  1,
  1,
  1,
  5,
  1,
  1,
  1,
  5,
  1,
  1,
  5,
  1,
  1,
  1,
  5,
  2,
  2,
  2,
  4,
  2,
  2,
  2,
  4,
  2,
  2,
  2,
  4,
  2,
  4,
  2,
  4,
  2,
  2,
  4,
  2,
  4,
  2,
  4,
  2,
  2,
  4,
  2,
  4,
  2,
  4,
  2,
  4,
  2,
  2,
  4,
  2,
  4,
  2,
  4,
  2,
  2,
  2,
  4,
  2,
  2,
  2,
  4,
  2,
  4,
  2,
  4,
  2,
  2,
  4,
  2,
  2,
  4,
  2,
  4,
  2,
  2,
  4,
  2,
  4,
  2,
  2,
  4,
  2,
  4,
  2,
  4,
  2,
  2,
  2,
  4,
  2,
  2,
  4,
  2,
  2,
  4,
  2,
  2,
  4,
  2,
  2,
  4,
  2,
  4,
  2,
  2,
  4,
  2,
  2,
  4,
  2,
  2,
  4,
  2,
  2,
  4,
  2,
  2,
  4,
  2,
  2,
  4,
  2,
  2,
  4,
  2,
  4,
  2,
  2,
  4,
  2,
  2,
  4,
  4,
  2,
  2,
  2,
  4,
  2,
  2,
  4,
  2,
  2,
  4,
  2,
  2,
  4,
  2,
  2,
  4,
  2,
  2,
  4,
  2,
  2,
  4,
  2,
  2,
  4,
  2,
  4,
  2,
  2,
  4,
  2,
  4,
  2,
  2,
  4,
  2,
  2,
  4,
  2,
  4,
  2,
  2,
  2,
  4;;
  Material {
   0.800000;0.800000;0.800000;1.000000;;
   5.000000;
   0.000000;0.000000;0.000000;;
   0.000000;0.000000;0.000000;;
   TextureFilename {
    "data\\TEXTURE\\road.png";
   }
  }
  Material {
   0.800000;0.800000;0.800000;1.000000;;
   5.000000;
   0.000000;0.000000;0.000000;;
   0.000000;0.000000;0.000000;;
   TextureFilename {
    "data\\TEXTURE\\bill.png";
   }
  }
  Material {
   0.800000;0.800000;0.800000;1.000000;;
   5.000000;
   0.000000;0.000000;0.000000;;
   0.000000;0.000000;0.000000;;
  }
  Material {
   0.392000;0.150400;0.028000;1.000000;;
   5.000000;
   0.000000;0.000000;0.000000;;
   0.000000;0.000000;0.000000;;
  }
  Material {
   0.800000;0.800000;0.800000;1.000000;;
   5.000000;
   0.000000;0.000000;0.000000;;
   0.000000;0.000000;0.000000;;
   TextureFilename {
    "data\\TEXTURE\\thumbnail.png";
   }
  }
  Material {
   0.461176;0.461176;0.461176;1.000000;;
   5.000000;
   0.000000;0.000000;0.000000;;
   0.000000;0.000000;0.000000;;
  }
 }
 MeshNormals {
  18;
  0.000000;1.000000;0.000000;,
  0.000000;0.000000;1.000000;,
  1.000000;0.000000;0.000000;,
  0.000000;0.000000;-1.000000;,
  -1.000000;0.000000;0.000000;,
  0.000000;0.000000;0.000000;,
  0.000000;1.000000;0.000000;,
  0.000000;1.000000;0.000000;,
  0.000000;1.000000;-0.000000;,
  -0.000000;1.000000;-0.000000;,
  0.000000;1.000000;-0.000000;,
  0.000000;1.000000;-0.000000;,
  0.000000;1.000000;0.000000;,
  0.000000;1.000000;0.000000;,
  0.000000;1.000000;-0.000000;,
  -0.000000;1.000000;-0.000000;,
  0.000000;1.000000;-0.000000;,
  0.000000;1.000000;-0.000000;;
  512;
  4;0,0,0,0;,
  4;0,0,0,0;,
  4;0,0,0,0;,
  4;0,0,0,0;,
  4;0,0,0,0;,
  4;0,0,0,0;,
  4;0,0,0,0;,
  4;0,0,0,0;,
  4;0,0,0,0;,
  4;0,0,0,0;,
  4;0,0,0,0;,
  4;0,0,0,0;,
  4;0,0,0,0;,
  4;0,0,0,0;,
  4;0,0,0,0;,
  4;0,0,0,0;,
  4;0,0,0,0;,
  4;0,0,0,0;,
  4;0,0,0,0;,
  4;0,0,0,0;,
  4;0,0,0,0;,
  4;0,0,0,0;,
  4;0,0,0,0;,
  4;0,0,0,0;,
  4;0,0,0,0;,
  4;0,0,0,0;,
  4;0,0,0,0;,
  4;0,0,0,0;,
  4;0,0,0,0;,
  4;0,0,0,0;,
  4;0,0,0,0;,
  4;0,0,0,0;,
  4;0,0,0,0;,
  4;0,0,0,0;,
  4;0,0,0,0;,
  4;0,0,0,0;,
  4;0,0,0,0;,
  4;0,0,0,0;,
  4;0,0,0,0;,
  4;0,0,0,0;,
  4;0,0,0,0;,
  4;0,0,0,0;,
  4;0,0,0,0;,
  4;0,0,0,0;,
  4;0,0,0,0;,
  4;0,0,0,0;,
  4;0,0,0,0;,
  4;0,0,0,0;,
  4;0,0,0,0;,
  4;0,0,0,0;,
  4;0,0,0,0;,
  4;0,0,0,0;,
  4;0,0,0,0;,
  4;0,0,0,0;,
  4;0,0,0,0;,
  4;0,0,0,0;,
  4;0,0,0,0;,
  4;0,0,0,0;,
  4;0,0,0,0;,
  4;0,0,0,0;,
  4;0,0,0,0;,
  4;0,0,0,0;,
  4;0,0,0,0;,
  4;0,0,0,0;,
  4;0,0,0,0;,
  4;0,0,0,0;,
  4;0,0,0,0;,
  4;0,0,0,0;,
  4;0,0,0,0;,
  4;0,0,0,0;,
  4;0,0,0,0;,
  4;0,0,0,0;,
  4;0,0,0,0;,
  4;0,0,0,0;,
  4;0,0,0,0;,
  4;0,0,0,0;,
  4;0,0,0,0;,
  4;0,0,0,0;,
  4;0,0,0,0;,
  4;0,0,0,0;,
  4;0,0,0,0;,
  4;0,0,0,0;,
  4;0,0,0,0;,
  4;0,0,0,0;,
  4;0,0,0,0;,
  4;0,0,0,0;,
  4;0,0,0,0;,
  4;0,0,0,0;,
  4;0,0,0,0;,
  4;0,0,0,0;,
  4;0,0,0,0;,
  4;0,0,0,0;,
  4;0,0,0,0;,
  4;1,1,1,1;,
  4;2,2,2,2;,
  4;3,3,3,3;,
  4;4,4,4,4;,
  4;0,0,0,0;,
  4;1,1,1,1;,
  4;2,2,2,2;,
  4;4,4,4,4;,
  4;0,0,0,0;,
  4;2,2,2,2;,
  4;3,3,3,3;,
  4;4,4,4,4;,
  4;0,0,0,0;,
  4;1,1,1,1;,
  4;3,3,3,3;,
  4;4,4,4,4;,
  4;0,0,0,0;,
  4;1,1,1,1;,
  4;2,2,2,2;,
  4;3,3,3,3;,
  4;0,0,0,0;,
  4;1,1,1,1;,
  4;3,3,3,3;,
  4;4,4,4,4;,
  4;0,0,0,0;,
  4;1,1,1,1;,
  4;2,2,2,2;,
  4;0,0,0,0;,
  4;2,2,2,2;,
  4;3,3,3,3;,
  4;4,4,4,4;,
  4;0,0,0,0;,
  4;1,1,1,1;,
  4;3,3,3,3;,
  4;4,4,4,4;,
  4;0,0,0,0;,
  4;1,1,1,1;,
  4;2,2,2,2;,
  4;3,3,3,3;,
  4;0,0,0,0;,
  4;1,1,1,1;,
  4;2,2,2,2;,
  4;4,4,4,4;,
  4;0,0,0,0;,
  4;3,3,3,3;,
  4;4,4,4,4;,
  4;0,0,0,0;,
  4;1,1,1,1;,
  4;2,2,2,2;,
  4;3,3,3,3;,
  4;0,0,0,0;,
  4;1,1,1,1;,
  4;2,2,2,2;,
  4;3,3,3,3;,
  4;4,4,4,4;,
  4;0,0,0,0;,
  4;1,1,1,1;,
  4;2,2,2,2;,
  4;4,4,4,4;,
  4;0,0,0,0;,
  4;2,2,2,2;,
  4;3,3,3,3;,
  4;4,4,4,4;,
  4;0,0,0,0;,
  4;1,1,1,1;,
  4;2,2,2,2;,
  4;4,4,4,4;,
  4;0,0,0,0;,
  4;2,2,2,2;,
  4;3,3,3,3;,
  4;4,4,4,4;,
  4;0,0,0,0;,
  4;1,1,1,1;,
  4;3,3,3,3;,
  4;4,4,4,4;,
  4;0,0,0,0;,
  4;1,1,1,1;,
  4;2,2,2,2;,
  4;3,3,3,3;,
  4;0,0,0,0;,
  4;1,1,1,1;,
  4;2,2,2,2;,
  4;4,4,4,4;,
  4;0,0,0,0;,
  4;2,2,2,2;,
  4;3,3,3,3;,
  4;4,4,4,4;,
  4;0,0,0,0;,
  4;1,1,1,1;,
  4;3,3,3,3;,
  4;4,4,4,4;,
  4;0,0,0,0;,
  4;1,1,1,1;,
  4;2,2,2,2;,
  4;3,3,3,3;,
  4;0,0,0,0;,
  4;1,1,1,1;,
  4;2,2,2,2;,
  4;4,4,4,4;,
  4;0,0,0,0;,
  4;2,2,2,2;,
  4;4,4,4,4;,
  4;0,0,0,0;,
  4;2,2,2,2;,
  4;3,3,3,3;,
  4;4,4,4,4;,
  4;0,0,0,0;,
  4;1,1,1,1;,
  4;2,2,2,2;,
  4;4,4,4,4;,
  4;0,0,0,0;,
  4;2,2,2,2;,
  4;3,3,3,3;,
  4;4,4,4,4;,
  4;0,0,0,0;,
  4;1,1,1,1;,
  4;4,4,4,4;,
  4;0,0,0,0;,
  4;1,1,1,1;,
  4;2,2,2,2;,
  4;0,0,0,0;,
  4;3,3,3,3;,
  4;4,4,4,4;,
  4;0,0,0,0;,
  4;2,2,2,2;,
  4;3,3,3,3;,
  4;0,0,0,0;,
  4;1,1,1,1;,
  4;3,3,3,3;,
  4;4,4,4,4;,
  4;0,0,0,0;,
  4;1,1,1,1;,
  4;2,2,2,2;,
  4;3,3,3,3;,
  4;0,0,0,0;,
  4;1,1,1,1;,
  4;2,2,2,2;,
  4;3,3,3,3;,
  4;4,4,4,4;,
  4;0,0,0,0;,
  4;1,1,1,1;,
  4;2,2,2,2;,
  4;4,4,4,4;,
  4;0,0,0,0;,
  4;2,2,2,2;,
  4;3,3,3,3;,
  4;4,4,4,4;,
  4;0,0,0,0;,
  4;1,1,1,1;,
  4;4,4,4,4;,
  4;0,0,0,0;,
  4;1,1,1,1;,
  4;2,2,2,2;,
  4;3,3,3,3;,
  4;0,0,0,0;,
  4;2,2,2,2;,
  4;3,3,3,3;,
  4;4,4,4,4;,
  4;0,0,0,0;,
  4;1,1,1,1;,
  4;2,2,2,2;,
  4;4,4,4,4;,
  4;0,0,0,0;,
  4;2,2,2,2;,
  4;3,3,3,3;,
  4;4,4,4,4;,
  4;0,0,0,0;,
  4;1,1,1,1;,
  4;3,3,3,3;,
  4;4,4,4,4;,
  4;0,0,0,0;,
  4;1,1,1,1;,
  4;2,2,2,2;,
  4;3,3,3,3;,
  4;0,0,0,0;,
  4;1,1,1,1;,
  4;2,2,2,2;,
  4;4,4,4,4;,
  4;6,6,7,8;,
  4;1,1,1,1;,
  4;3,3,3,3;,
  4;4,4,4,4;,
  4;9,8,10,9;,
  4;2,2,2,2;,
  4;3,3,3,3;,
  4;8,7,11,10;,
  4;1,1,1,1;,
  4;2,2,2,2;,
  4;3,3,3,3;,
  4;4,4,4,4;,
  4;0,0,0,0;,
  4;1,1,1,1;,
  4;4,4,4,4;,
  4;0,0,0,0;,
  4;1,1,1,1;,
  4;2,2,2,2;,
  4;0,0,0,0;,
  4;3,3,3,3;,
  4;4,4,4,4;,
  4;0,0,0,0;,
  4;2,2,2,2;,
  4;3,3,3,3;,
  4;0,0,0,0;,
  4;1,1,1,1;,
  4;2,2,2,2;,
  4;4,4,4,4;,
  4;0,0,0,0;,
  4;2,2,2,2;,
  4;4,4,4,4;,
  4;0,0,0,0;,
  4;2,2,2,2;,
  4;3,3,3,3;,
  4;4,4,4,4;,
  4;0,0,0,0;,
  4;1,1,1,1;,
  4;4,4,4,4;,
  4;0,0,0,0;,
  4;1,1,1,1;,
  4;2,2,2,2;,
  4;0,0,0,0;,
  4;3,3,3,3;,
  4;4,4,4,4;,
  4;0,0,0,0;,
  4;2,2,2,2;,
  4;3,3,3,3;,
  4;0,0,0,0;,
  4;1,1,1,1;,
  4;2,2,2,2;,
  4;4,4,4,4;,
  4;12,12,13,14;,
  4;1,1,1,1;,
  4;3,3,3,3;,
  4;4,4,4,4;,
  4;15,14,16,15;,
  4;2,2,2,2;,
  4;3,3,3,3;,
  4;14,13,17,16;,
  4;1,1,1,1;,
  4;2,2,2,2;,
  4;4,4,4,4;,
  4;0,0,0,0;,
  4;2,2,2,2;,
  4;3,3,3,3;,
  4;4,4,4,4;,
  4;0,0,0,0;,
  4;1,1,1,1;,
  4;2,2,2,2;,
  4;4,4,4,4;,
  4;0,0,0,0;,
  4;2,2,2,2;,
  4;4,4,4,4;,
  4;0,0,0,0;,
  4;2,2,2,2;,
  4;3,3,3,3;,
  4;4,4,4,4;,
  4;0,0,0,0;,
  4;5,5,5,5;,
  4;5,5,5,5;,
  4;5,5,5,5;,
  4;0,0,0,0;,
  4;5,5,5,5;,
  4;5,5,5,5;,
  4;5,5,5,5;,
  4;0,0,0,0;,
  4;5,5,5,5;,
  4;5,5,5,5;,
  4;5,5,5,5;,
  4;0,0,0,0;,
  4;5,5,5,5;,
  4;0,0,0,0;,
  4;5,5,5,5;,
  4;0,0,0,0;,
  4;5,5,5,5;,
  4;5,5,5,5;,
  4;0,0,0,0;,
  4;5,5,5,5;,
  4;0,0,0,0;,
  4;5,5,5,5;,
  4;0,0,0,0;,
  4;5,5,5,5;,
  4;5,5,5,5;,
  4;0,0,0,0;,
  4;5,5,5,5;,
  4;0,0,0,0;,
  4;5,5,5,5;,
  4;0,0,0,0;,
  4;5,5,5,5;,
  4;0,0,0,0;,
  4;5,5,5,5;,
  4;5,5,5,5;,
  4;0,0,0,0;,
  4;5,5,5,5;,
  4;0,0,0,0;,
  4;5,5,5,5;,
  4;0,0,0,0;,
  4;5,5,5,5;,
  4;5,5,5,5;,
  4;5,5,5,5;,
  4;0,0,0,0;,
  4;5,5,5,5;,
  4;5,5,5,5;,
  4;5,5,5,5;,
  4;0,0,0,0;,
  4;5,5,5,5;,
  4;0,0,0,0;,
  4;5,5,5,5;,
  4;0,0,0,0;,
  4;5,5,5,5;,
  4;5,5,5,5;,
  4;0,0,0,0;,
  4;5,5,5,5;,
  4;5,5,5,5;,
  4;0,0,0,0;,
  4;5,5,5,5;,
  4;0,0,0,0;,
  4;5,5,5,5;,
  4;5,5,5,5;,
  4;0,0,0,0;,
  4;5,5,5,5;,
  4;0,0,0,0;,
  4;5,5,5,5;,
  4;5,5,5,5;,
  4;0,0,0,0;,
  4;5,5,5,5;,
  4;0,0,0,0;,
  4;5,5,5,5;,
  4;0,0,0,0;,
  4;5,5,5,5;,
  4;5,5,5,5;,
  4;5,5,5,5;,
  4;0,0,0,0;,
  4;5,5,5,5;,
  4;5,5,5,5;,
  4;0,0,0,0;,
  4;5,5,5,5;,
  4;5,5,5,5;,
  4;0,0,0,0;,
  4;5,5,5,5;,
  4;5,5,5,5;,
  4;0,0,0,0;,
  4;5,5,5,5;,
  4;5,5,5,5;,
  4;0,0,0,0;,
  4;5,5,5,5;,
  4;0,0,0,0;,
  4;5,5,5,5;,
  4;5,5,5,5;,
  4;0,0,0,0;,
  4;5,5,5,5;,
  4;5,5,5,5;,
  4;0,0,0,0;,
  4;5,5,5,5;,
  4;5,5,5,5;,
  4;0,0,0,0;,
  4;5,5,5,5;,
  4;5,5,5,5;,
  4;0,0,0,0;,
  4;5,5,5,5;,
  4;5,5,5,5;,
  4;0,0,0,0;,
  4;5,5,5,5;,
  4;5,5,5,5;,
  4;0,0,0,0;,
  4;5,5,5,5;,
  4;5,5,5,5;,
  4;0,0,0,0;,
  4;5,5,5,5;,
  4;0,0,0,0;,
  4;5,5,5,5;,
  4;5,5,5,5;,
  4;0,0,0,0;,
  4;5,5,5,5;,
  4;5,5,5,5;,
  4;0,0,0,0;,
  4;0,0,0,0;,
  4;5,5,5,5;,
  4;5,5,5,5;,
  4;5,5,5,5;,
  4;0,0,0,0;,
  4;5,5,5,5;,
  4;5,5,5,5;,
  4;0,0,0,0;,
  4;5,5,5,5;,
  4;5,5,5,5;,
  4;0,0,0,0;,
  4;5,5,5,5;,
  4;5,5,5,5;,
  4;0,0,0,0;,
  4;5,5,5,5;,
  4;5,5,5,5;,
  4;0,0,0,0;,
  4;5,5,5,5;,
  4;5,5,5,5;,
  4;0,0,0,0;,
  4;5,5,5,5;,
  4;5,5,5,5;,
  4;0,0,0,0;,
  4;5,5,5,5;,
  4;5,5,5,5;,
  4;0,0,0,0;,
  4;5,5,5,5;,
  4;0,0,0,0;,
  4;5,5,5,5;,
  4;5,5,5,5;,
  4;0,0,0,0;,
  4;5,5,5,5;,
  4;0,0,0,0;,
  4;5,5,5,5;,
  4;5,5,5,5;,
  4;0,0,0,0;,
  4;5,5,5,5;,
  4;5,5,5,5;,
  4;0,0,0,0;,
  4;5,5,5,5;,
  4;0,0,0,0;,
  4;5,5,5,5;,
  4;5,5,5,5;,
  4;5,5,5,5;,
  4;0,0,0,0;;
 }
 MeshTextureCoords {
  1058;
  -22.000000;-9.481347;,
  -19.954546;-9.481347;,
  -19.954546;-7.485078;,
  -22.000000;-7.485078;,
  0.352336;0.500000;,
  0.500000;0.500000;,
  0.500000;0.500000;,
  0.352336;0.500000;,
  0.647664;0.500000;,
  0.647664;0.500000;,
  6.636364;-9.481347;,
  8.681818;-9.481347;,
  8.681818;-7.485078;,
  6.636364;-7.485078;,
  10.727273;-9.481347;,
  12.772727;-9.481347;,
  12.772727;-7.485078;,
  10.727273;-7.485078;,
  16.863636;-9.481347;,
  18.909092;-9.481347;,
  18.909092;-7.485078;,
  16.863636;-7.485078;,
  20.954546;-9.481347;,
  23.000000;-9.481347;,
  23.000000;-7.485078;,
  20.954546;-7.485078;,
  -19.954546;-5.488808;,
  -22.000000;-5.488808;,
  0.500000;0.500000;,
  0.352336;0.500000;,
  0.647664;0.500000;,
  4.590909;-7.485078;,
  6.636364;-5.488808;,
  4.590909;-5.488808;,
  8.681818;-5.488808;,
  10.727273;-5.488808;,
  12.772727;-5.488808;,
  18.909092;-5.488808;,
  16.863636;-5.488808;,
  23.000000;-5.488808;,
  20.954546;-5.488808;,
  -19.954546;-3.492539;,
  -22.000000;-3.492539;,
  0.500000;0.500000;,
  0.352336;0.500000;,
  0.647664;0.500000;,
  2.545455;-5.488808;,
  4.590909;-3.492539;,
  2.545455;-3.492539;,
  6.636364;-3.492539;,
  8.681818;-3.492539;,
  12.772727;-3.492539;,
  10.727273;-3.492539;,
  14.818182;-5.488808;,
  14.818182;-3.492539;,
  16.863636;-3.492539;,
  18.909092;-3.492539;,
  20.954546;-3.492539;,
  23.000000;-3.492539;,
  -17.909090;-3.492539;,
  -17.909090;-1.496269;,
  -19.954546;-1.496269;,
  -7.681818;-3.492539;,
  -5.636364;-3.492539;,
  -5.636364;-1.496269;,
  -7.681818;-1.496269;,
  0.500000;0.500000;,
  0.352336;0.500000;,
  0.647664;0.500000;,
  6.636364;-1.496269;,
  4.590909;-1.496269;,
  12.772727;-1.496269;,
  10.727273;-1.496269;,
  16.863636;-1.496269;,
  14.818182;-1.496269;,
  18.909092;-1.496269;,
  23.000000;-1.496269;,
  20.954546;-1.496269;,
  -13.818181;-1.496269;,
  -11.772727;-1.496269;,
  -11.772727;0.500000;,
  -13.818181;0.500000;,
  0.500000;0.500000;,
  0.352336;0.500000;,
  0.647664;0.500000;,
  6.636364;0.500000;,
  4.590909;0.500000;,
  8.681818;-1.496269;,
  8.681818;0.500000;,
  10.727273;0.500000;,
  12.772727;0.500000;,
  16.863636;0.500000;,
  14.818182;0.500000;,
  23.000000;0.500000;,
  20.954546;0.500000;,
  0.500000;0.500000;,
  0.352336;0.500000;,
  0.647664;0.500000;,
  2.545455;0.500000;,
  4.590909;2.496269;,
  2.545455;2.496269;,
  6.636364;2.496269;,
  12.772727;2.496269;,
  10.727273;2.496269;,
  16.863636;2.496269;,
  14.818182;2.496269;,
  18.909092;0.500000;,
  18.909092;2.496269;,
  20.954546;2.496269;,
  23.000000;2.496269;,
  -19.954546;2.496269;,
  -17.909090;2.496269;,
  -17.909090;4.492539;,
  -19.954546;4.492539;,
  -13.818181;2.496269;,
  -11.772727;2.496269;,
  -11.772727;4.492539;,
  -13.818181;4.492539;,
  0.500000;0.500000;,
  0.352336;0.500000;,
  0.647664;0.500000;,
  6.636364;4.492539;,
  4.590909;4.492539;,
  8.681818;2.496269;,
  8.681818;4.492539;,
  10.727273;4.492539;,
  12.772727;4.492539;,
  14.818182;4.492539;,
  16.863636;4.492539;,
  18.909092;4.492539;,
  23.000000;4.492539;,
  20.954546;4.492539;,
  0.500000;0.500000;,
  0.352336;0.500000;,
  0.647664;0.500000;,
  2.545455;4.492539;,
  4.590909;6.488808;,
  2.545455;6.488808;,
  6.636364;6.488808;,
  8.681818;6.488808;,
  12.772727;6.488808;,
  10.727273;6.488808;,
  18.909092;6.488808;,
  16.863636;6.488808;,
  23.000000;6.488808;,
  20.954546;6.488808;,
  0.500000;0.500000;,
  0.352336;0.500000;,
  0.647664;0.500000;,
  8.681818;8.485078;,
  6.636364;8.485078;,
  12.772727;8.485078;,
  10.727273;8.485078;,
  18.909092;8.485078;,
  16.863636;8.485078;,
  23.000000;8.485078;,
  20.954546;8.485078;,
  0.500000;0.500000;,
  0.352336;0.500000;,
  0.647664;0.500000;,
  2.545455;8.485078;,
  4.590909;8.485078;,
  4.590909;10.481347;,
  2.545455;10.481347;,
  6.636364;10.481347;,
  8.681818;10.481347;,
  10.727273;10.481347;,
  12.772727;10.481347;,
  14.818182;8.485078;,
  14.818182;10.481347;,
  16.863636;10.481347;,
  18.909092;10.481347;,
  20.954546;10.481347;,
  23.000000;10.481347;,
  0.013633;-1.379577;,
  -0.472735;-1.379577;,
  -0.472735;0.500000;,
  0.013633;0.500000;,
  0.013633;-1.379577;,
  0.013633;0.500000;,
  -0.472735;-1.379577;,
  -0.472735;0.500000;,
  -3.590909;-4.545912;,
  -1.545454;-4.545912;,
  -1.545454;-4.545912;,
  -3.590909;-4.545912;,
  0.013633;-1.747874;,
  -0.472735;-1.747874;,
  -0.472735;0.500000;,
  0.013633;0.500000;,
  0.013633;-1.747874;,
  0.013633;0.500000;,
  -0.472735;-1.747874;,
  -0.472735;0.500000;,
  -3.590909;-5.534642;,
  -1.545454;-5.534642;,
  -1.545454;-5.534642;,
  -3.590909;-5.534642;,
  0.013633;-1.747874;,
  0.013633;0.500000;,
  -0.472735;-1.747874;,
  -0.472735;0.500000;,
  -1.545454;-5.534642;,
  -3.590909;-5.534642;,
  -0.472735;-1.874872;,
  -0.959102;-1.874872;,
  -0.959102;0.500000;,
  -0.472735;0.500000;,
  -0.959102;-1.874872;,
  -0.472735;-1.874872;,
  -0.472735;0.500000;,
  -0.959102;0.500000;,
  -5.636364;-5.875580;,
  -3.590909;-5.875580;,
  -3.590909;-5.875580;,
  -5.636364;-5.875580;,
  0.013633;-1.874872;,
  0.013633;0.500000;,
  0.013633;-1.874872;,
  0.013633;0.500000;,
  -1.545454;-5.875580;,
  -1.545454;-5.875580;,
  -0.472735;-1.595475;,
  -0.959102;-1.595475;,
  -0.959102;0.500000;,
  -0.472735;0.500000;,
  -0.959102;-1.595475;,
  -0.472735;-1.595475;,
  -0.472735;0.500000;,
  -0.959102;0.500000;,
  -5.636364;-5.125512;,
  -3.590909;-5.125512;,
  -3.590909;-5.125512;,
  -5.636364;-5.125512;,
  0.013633;-1.595475;,
  0.013633;0.500000;,
  0.013633;-1.595475;,
  0.013633;0.500000;,
  -1.545454;-5.125512;,
  -1.545454;-5.125512;,
  0.013633;-1.595475;,
  0.013633;0.500000;,
  -0.472735;-1.595475;,
  -0.472735;0.500000;,
  -1.545454;-5.125512;,
  -3.590909;-5.125512;,
  -1.445469;-1.468477;,
  -1.931837;-1.468477;,
  -1.931837;0.500000;,
  -1.445469;0.500000;,
  -1.931837;-1.468477;,
  -1.445469;-1.468477;,
  -1.445469;0.500000;,
  -1.931837;0.500000;,
  -9.727273;-4.784573;,
  -7.681818;-4.784573;,
  -7.681818;-4.784573;,
  -9.727273;-4.784573;,
  -0.959102;-1.468477;,
  -0.959102;0.500000;,
  -0.959102;-1.468477;,
  -0.959102;0.500000;,
  -5.636364;-4.784573;,
  -5.636364;-4.784573;,
  -1.445469;-1.252580;,
  -1.931837;-1.252580;,
  -1.931837;0.500000;,
  -1.445469;0.500000;,
  -1.445469;-1.252580;,
  -1.445469;0.500000;,
  -1.931837;-1.252580;,
  -1.931837;0.500000;,
  -9.727273;-4.204975;,
  -7.681818;-4.204975;,
  -7.681818;-4.204975;,
  -9.727273;-4.204975;,
  -1.931837;-1.252580;,
  -1.445469;-1.252580;,
  -1.445469;0.500000;,
  -1.931837;0.500000;,
  -7.681818;-4.204975;,
  -9.727273;-4.204975;,
  -0.959102;-1.252580;,
  -0.959102;0.500000;,
  -0.959102;-1.252580;,
  -0.959102;0.500000;,
  -5.636364;-4.204975;,
  -5.636364;-4.204975;,
  -1.445469;-1.328779;,
  -1.931837;-1.328779;,
  -1.931837;0.500000;,
  -1.445469;0.500000;,
  -1.445469;-1.328779;,
  -1.445469;0.500000;,
  -1.931837;-1.328779;,
  -1.931837;0.500000;,
  -9.727273;-4.409539;,
  -7.681818;-4.409539;,
  -7.681818;-4.409539;,
  -9.727273;-4.409539;,
  -1.445469;-1.468477;,
  -1.931837;-1.468477;,
  -1.931837;0.500000;,
  -1.445469;0.500000;,
  -1.445469;-1.468477;,
  -1.445469;0.500000;,
  -1.931837;-1.468477;,
  -1.931837;0.500000;,
  -9.727273;-4.784573;,
  -7.681818;-4.784573;,
  -7.681818;-4.784573;,
  -9.727273;-4.784573;,
  -1.445469;-1.468477;,
  -1.445469;0.500000;,
  -1.931837;-1.468477;,
  -1.931837;0.500000;,
  -7.681818;-4.784573;,
  -9.727273;-4.784573;,
  -2.418204;-1.671674;,
  -2.904571;-1.671674;,
  -2.904571;0.500000;,
  -2.418204;0.500000;,
  -2.418204;-1.671674;,
  -2.418204;0.500000;,
  -2.904571;-1.671674;,
  -2.904571;0.500000;,
  -13.818181;-5.330076;,
  -11.772727;-5.330076;,
  -11.772727;-5.330076;,
  -13.818181;-5.330076;,
  -2.418204;-1.671674;,
  -2.418204;0.500000;,
  -2.904571;-1.671674;,
  -2.904571;0.500000;,
  -11.772727;-5.330076;,
  -13.818181;-5.330076;,
  -2.904571;-1.595475;,
  -3.390939;-1.595475;,
  -3.390939;0.500000;,
  -2.904571;0.500000;,
  -3.390939;-1.595475;,
  -2.904571;-1.595475;,
  -2.904571;0.500000;,
  -3.390939;0.500000;,
  -15.863636;-5.125511;,
  -13.818181;-5.125511;,
  -13.818181;-5.125511;,
  -15.863636;-5.125511;,
  -2.418204;-1.595475;,
  -2.418204;0.500000;,
  -2.418204;-1.595475;,
  -2.418204;0.500000;,
  -11.772727;-5.125511;,
  -11.772727;-5.125511;,
  -2.418204;-1.455777;,
  -2.904571;-1.455777;,
  -2.904571;0.500000;,
  -2.418204;0.500000;,
  -2.418204;-1.455777;,
  -2.418204;0.500000;,
  -2.904571;-1.455777;,
  -2.904571;0.500000;,
  -13.818181;-4.750478;,
  -11.772727;-4.750478;,
  -11.772727;-4.750478;,
  -13.818181;-4.750478;,
  -2.418204;-1.455777;,
  -2.418204;0.500000;,
  -2.904571;-1.455777;,
  -2.904571;0.500000;,
  -11.772727;-4.750478;,
  -13.818181;-4.750478;,
  -2.904571;-1.176380;,
  -3.390939;-1.176380;,
  -3.390939;0.500000;,
  -2.904571;0.500000;,
  -3.390939;-1.176380;,
  -2.904571;-1.176380;,
  -2.904571;0.500000;,
  -3.390939;0.500000;,
  -15.863636;-4.000410;,
  -13.818181;-4.000410;,
  -13.818181;-4.000410;,
  -15.863636;-4.000410;,
  -2.418204;-1.176380;,
  -2.418204;0.500000;,
  -2.418204;-1.176380;,
  -2.418204;0.500000;,
  -11.772727;-4.000410;,
  -11.772727;-4.000410;,
  -3.877306;-1.404977;,
  -4.363673;-1.404977;,
  -4.363673;0.500000;,
  -3.877306;0.500000;,
  -3.877306;-1.404977;,
  -3.877306;0.500000;,
  -4.363673;-1.404977;,
  -4.363673;0.500000;,
  -19.954546;-4.614102;,
  -17.909090;-4.614102;,
  -17.909090;-4.614102;,
  -19.954546;-4.614102;,
  -3.877306;-1.404977;,
  -3.877306;0.500000;,
  -4.363673;-1.404977;,
  -4.363673;0.500000;,
  -17.909090;-4.614102;,
  -19.954546;-4.614102;,
  -3.877306;-1.404977;,
  -3.877306;0.500000;,
  -4.363673;-1.404977;,
  -4.363673;0.500000;,
  -17.909090;-4.614102;,
  -19.954546;-4.614102;,
  -3.877306;-1.303379;,
  -4.363673;-1.303379;,
  -4.363673;0.500000;,
  -3.877306;0.500000;,
  -3.877306;-1.303379;,
  -3.877306;0.500000;,
  -4.363673;-1.303379;,
  -4.363673;0.500000;,
  -19.954546;-4.341351;,
  -17.909090;-4.341351;,
  -17.909090;-4.341351;,
  -19.954546;-4.341351;,
  -3.877306;-1.303379;,
  -3.877306;0.500000;,
  -4.363673;-1.303379;,
  -4.363673;0.500000;,
  -17.909090;-4.341351;,
  -19.954546;-4.341351;,
  -3.877306;-1.747873;,
  -4.363673;-1.747873;,
  -4.363673;0.500000;,
  -3.877306;0.500000;,
  -4.363673;-1.747873;,
  -4.363673;0.500000;,
  -19.954546;-5.534640;,
  -17.909090;-5.534640;,
  -17.909090;-5.534640;,
  -19.954546;-5.534640;,
  -3.390939;-1.747873;,
  -3.390939;0.500000;,
  -3.390939;-1.747873;,
  -3.390939;0.500000;,
  -15.863636;-5.534640;,
  -15.863636;-5.534640;,
  -4.363673;-1.747873;,
  -3.877306;-1.747873;,
  -3.877306;0.500000;,
  -4.363673;0.500000;,
  -17.909090;-5.534640;,
  -19.954546;-5.534640;,
  -3.390939;-1.747873;,
  -3.390939;0.500000;,
  -15.863636;-5.534640;,
  1.472735;-1.582775;,
  0.986367;-1.582775;,
  0.986367;0.500000;,
  1.472735;0.500000;,
  0.986367;-1.582775;,
  1.472735;-1.582775;,
  1.472735;0.500000;,
  0.986367;0.500000;,
  2.545455;-5.091418;,
  4.590909;-5.091418;,
  4.590909;-5.091418;,
  2.545455;-5.091418;,
  1.959102;-1.582775;,
  1.959102;0.500000;,
  1.959102;-1.582775;,
  1.959102;0.500000;,
  6.636364;-5.091418;,
  6.636364;-5.091418;,
  1.472735;-1.392278;,
  0.986367;-1.392278;,
  0.986367;0.500000;,
  1.472735;0.500000;,
  1.472735;-1.392278;,
  1.472735;0.500000;,
  0.986367;-1.392278;,
  0.986367;0.500000;,
  2.545455;-4.580010;,
  4.590909;-4.580010;,
  4.590909;-4.580010;,
  2.545455;-4.580010;,
  1.472735;-1.455777;,
  0.986367;-1.455777;,
  0.986367;0.500000;,
  1.472735;0.500000;,
  1.472735;-1.455777;,
  1.472735;0.500000;,
  0.986367;-1.455777;,
  0.986367;0.500000;,
  2.545455;-4.750480;,
  4.590909;-4.750480;,
  4.590909;-4.750480;,
  2.545455;-4.750480;,
  1.472735;-1.455777;,
  1.472735;0.500000;,
  0.986367;-1.455777;,
  0.986367;0.500000;,
  4.590909;-4.750480;,
  2.545455;-4.750480;,
  1.472735;-1.290679;,
  0.986367;-1.290679;,
  0.986367;0.500000;,
  1.472735;0.500000;,
  0.986367;-1.290679;,
  0.986367;0.500000;,
  2.545455;-4.307255;,
  4.590909;-4.307255;,
  4.590909;-4.307255;,
  2.545455;-4.307255;,
  1.959102;-1.290679;,
  1.959102;0.500000;,
  1.959102;-1.290679;,
  1.959102;0.500000;,
  1.472735;-1.290679;,
  1.472735;0.500000;,
  6.636364;-4.307255;,
  6.636364;-4.307255;,
  1.472735;-1.290679;,
  1.472735;0.500000;,
  0.986367;-1.290679;,
  0.986367;0.500000;,
  4.590909;-4.307255;,
  2.545455;-4.307255;,
  2.931837;-1.277979;,
  2.445469;-1.277979;,
  2.445469;0.500000;,
  2.931837;0.500000;,
  2.931837;-1.277979;,
  2.931837;0.500000;,
  2.445469;-1.277979;,
  2.445469;0.500000;,
  8.681818;-4.273163;,
  10.727273;-4.273163;,
  10.727273;-4.273163;,
  8.681818;-4.273163;,
  2.931837;-1.277979;,
  2.931837;0.500000;,
  2.445469;-1.277979;,
  2.445469;0.500000;,
  10.727273;-4.273163;,
  8.681818;-4.273163;,
  2.445469;-1.316078;,
  1.959102;-1.316078;,
  1.959102;0.500000;,
  2.445469;0.500000;,
  1.959102;-1.316078;,
  2.445469;-1.316078;,
  2.445469;0.500000;,
  1.959102;0.500000;,
  6.636364;-4.375442;,
  8.681818;-4.375442;,
  8.681818;-4.375442;,
  6.636364;-4.375442;,
  2.931837;-1.316078;,
  2.931837;0.500000;,
  2.931837;-1.316078;,
  2.931837;0.500000;,
  10.727273;-4.375442;,
  10.727273;-4.375442;,
  2.931837;-1.379578;,
  2.445469;-1.379578;,
  2.445469;0.500000;,
  2.931837;0.500000;,
  2.931837;-1.379578;,
  2.931837;0.500000;,
  2.445469;-1.379578;,
  2.445469;0.500000;,
  8.681818;-4.545913;,
  10.727273;-4.545913;,
  10.727273;-4.545913;,
  8.681818;-4.545914;,
  1.959102;-1.379578;,
  1.959102;0.500000;,
  1.959102;-1.379578;,
  2.445469;-1.379578;,
  2.445469;0.500000;,
  1.959102;0.500000;,
  6.636364;-4.545913;,
  8.681818;-4.545913;,
  6.636364;-4.545913;,
  2.931837;-1.379578;,
  2.931837;0.500000;,
  10.727273;-4.545913;,
  2.931837;-1.608174;,
  2.445469;-1.608174;,
  2.445469;0.500000;,
  2.931837;0.500000;,
  2.931837;-1.608174;,
  2.931837;0.500000;,
  2.445469;-1.608174;,
  2.445469;0.500000;,
  8.681818;-5.159604;,
  10.727273;-5.159604;,
  10.727273;-5.159604;,
  8.681818;-5.159604;,
  3.904571;-1.620877;,
  3.418204;-1.620877;,
  3.418204;0.500000;,
  3.904571;0.500000;,
  3.418204;-1.620877;,
  3.418204;0.500000;,
  12.772727;-5.193705;,
  14.818182;-5.193705;,
  14.818182;-5.193705;,
  12.772727;-5.193705;,
  4.390939;-1.620877;,
  4.390939;0.500000;,
  4.390939;-1.620877;,
  4.390939;0.500000;,
  16.863636;-5.193705;,
  16.863636;-5.193705;,
  3.418204;-1.620877;,
  3.904571;-1.620877;,
  3.904571;0.500000;,
  3.418204;0.500000;,
  14.818182;-5.193705;,
  12.772727;-5.193705;,
  4.390939;-1.620877;,
  4.390939;0.500000;,
  16.863636;-5.193705;,
  3.904571;-2.268569;,
  3.418204;-2.268569;,
  3.418204;0.500000;,
  3.904571;0.500000;,
  3.904571;-2.268569;,
  3.904571;0.500000;,
  3.418204;-2.268569;,
  3.418204;0.500000;,
  12.772727;-6.932500;,
  14.818182;-6.932500;,
  14.818182;-6.932500;,
  12.772727;-6.932500;,
  3.904571;-2.268569;,
  3.904571;0.500000;,
  3.418204;-2.268569;,
  3.418204;0.500000;,
  14.818182;-6.932500;,
  12.772727;-6.932500;,
  3.904571;-2.268569;,
  3.904571;0.500000;,
  3.418204;-2.268569;,
  3.418204;0.500000;,
  14.818182;-6.932500;,
  12.772727;-6.932500;,
  3.904571;-1.519277;,
  3.418204;-1.519277;,
  3.418204;0.500000;,
  3.904571;0.500000;,
  3.418204;-1.519277;,
  3.418204;0.500000;,
  12.772727;-4.920951;,
  14.818182;-4.920951;,
  14.818182;-4.920951;,
  12.772727;-4.920951;,
  4.390939;-1.519277;,
  4.390939;0.500000;,
  4.390939;-1.519277;,
  4.390939;0.500000;,
  16.863636;-4.920951;,
  16.863636;-4.920951;,
  3.418204;-1.519277;,
  3.904571;-1.519277;,
  3.904571;0.500000;,
  3.418204;0.500000;,
  14.818182;-4.920951;,
  12.772727;-4.920951;,
  4.390939;-1.519277;,
  4.390939;0.500000;,
  16.863636;-4.920951;,
  5.363673;-1.392277;,
  4.877306;-1.392277;,
  4.877306;0.500000;,
  5.363673;0.500000;,
  5.363673;-1.392277;,
  5.363673;0.500000;,
  4.877306;-1.392277;,
  4.877306;0.500000;,
  18.909092;-4.580008;,
  20.954546;-4.580008;,
  20.954546;-4.580008;,
  18.909092;-4.580008;,
  4.390939;-1.392277;,
  4.390939;0.500000;,
  4.390939;-1.392277;,
  4.877306;-1.392277;,
  4.877306;0.500000;,
  4.390939;0.500000;,
  16.863636;-4.580008;,
  18.909092;-4.580008;,
  16.863636;-4.580008;,
  5.363673;-1.392277;,
  5.363673;0.500000;,
  20.954546;-4.580008;,
  5.363673;-0.922383;,
  4.877306;-0.922383;,
  4.877306;0.500000;,
  5.363673;0.500000;,
  5.363673;-0.922383;,
  5.363673;0.500000;,
  4.877306;-0.922383;,
  4.877306;0.500000;,
  18.909092;-3.318529;,
  20.954546;-3.318529;,
  20.954546;-3.318529;,
  18.909092;-3.318529;,
  5.363673;-0.922383;,
  5.363673;0.500000;,
  4.877306;-0.922383;,
  4.877306;0.500000;,
  20.954546;-3.318529;,
  18.909092;-3.318529;,
  5.363673;-1.684372;,
  4.877306;-1.684372;,
  4.877306;0.500000;,
  5.363673;0.500000;,
  5.363673;-1.684372;,
  5.363673;0.500000;,
  4.877306;-1.684372;,
  4.877306;0.500000;,
  18.909092;-5.364165;,
  20.954546;-5.364165;,
  20.954546;-5.364165;,
  18.909092;-5.364165;,
  5.363673;-1.684372;,
  5.363673;0.500000;,
  4.877306;-1.684372;,
  4.877306;0.500000;,
  20.954546;-5.364165;,
  18.909092;-5.364165;,
  5.363673;-1.684372;,
  5.363673;0.500000;,
  4.877306;-1.684372;,
  4.877306;0.500000;,
  20.954546;-5.364165;,
  18.909092;-5.364165;,
  -3.589917;0.500000;,
  -4.101157;0.500000;,
  -4.101157;0.500000;,
  -3.589917;0.500000;,
  -3.589917;0.500000;,
  -3.589917;0.500000;,
  -4.101157;0.500000;,
  -4.101157;0.500000;,
  -17.909090;-9.481347;,
  -15.863636;-9.481347;,
  -15.863636;-7.485078;,
  -17.909090;-7.485078;,
  -2.056198;0.500000;,
  -2.567438;0.500000;,
  -2.567438;0.500000;,
  -2.056198;0.500000;,
  -2.056198;0.500000;,
  -2.056198;0.500000;,
  -2.567438;0.500000;,
  -2.567438;0.500000;,
  -11.772727;-9.481347;,
  -9.727273;-9.481347;,
  -9.727273;-7.485078;,
  -11.772727;-7.485078;,
  -1.033719;0.500000;,
  -1.544959;0.500000;,
  -1.544959;0.500000;,
  -1.033719;0.500000;,
  -1.033719;0.500000;,
  -1.033719;0.500000;,
  -1.544959;0.500000;,
  -1.544959;0.500000;,
  -7.681818;-9.481347;,
  -5.636364;-9.481347;,
  -5.636364;-7.485078;,
  -7.681818;-7.485078;,
  -4.101157;0.500000;,
  -4.101157;0.500000;,
  -15.863636;-5.488808;,
  -17.909090;-5.488808;,
  -3.078677;0.500000;,
  -3.078677;0.500000;,
  -13.818181;-7.485078;,
  -13.818181;-5.488808;,
  -3.078677;0.500000;,
  -2.567438;0.500000;,
  -2.567438;0.500000;,
  -3.078677;0.500000;,
  -11.772727;-5.488808;,
  -2.056198;0.500000;,
  -2.056198;0.500000;,
  -9.727273;-5.488808;,
  -1.544959;0.500000;,
  -1.544959;0.500000;,
  -5.636364;-5.488808;,
  -7.681818;-5.488808;,
  -0.522479;0.500000;,
  -0.522479;0.500000;,
  -0.522479;0.500000;,
  -0.522479;0.500000;,
  -3.590909;-7.485078;,
  -3.590909;-5.488808;,
  -4.101157;0.500000;,
  -4.101157;0.500000;,
  -15.863636;-3.492539;,
  -17.909090;-3.492539;,
  -3.078677;0.500000;,
  -3.078677;0.500000;,
  -13.818181;-3.492539;,
  -2.567438;0.500000;,
  -2.567438;0.500000;,
  -9.727273;-3.492539;,
  -11.772727;-3.492539;,
  -2.056198;0.500000;,
  -1.544959;0.500000;,
  -1.544959;0.500000;,
  -2.056198;0.500000;,
  -7.681818;-3.492539;,
  -1.033719;0.500000;,
  -1.033719;0.500000;,
  -5.636364;-3.492539;,
  -0.522479;0.500000;,
  -0.522479;0.500000;,
  -3.590909;-3.492539;,
  -0.011240;0.500000;,
  -0.011240;0.500000;,
  -0.011240;0.500000;,
  -0.011240;0.500000;,
  -1.545454;-5.488808;,
  -1.545454;-3.492539;,
  -4.612397;0.500000;,
  -5.123636;0.500000;,
  -5.123636;0.500000;,
  -4.612397;0.500000;,
  -4.612397;0.500000;,
  -4.612397;0.500000;,
  -5.123636;0.500000;,
  -5.123636;0.500000;,
  -22.000000;-3.492539;,
  -19.954546;-3.492539;,
  -19.954546;-1.496269;,
  -22.000000;-1.496269;,
  -4.101157;0.500000;,
  -4.101157;0.500000;,
  -15.863636;-1.496269;,
  -17.909090;-1.496269;,
  -3.078677;0.500000;,
  -3.078677;0.500000;,
  -13.818181;-1.496269;,
  -2.056198;0.500000;,
  -2.056198;0.500000;,
  -2.567438;0.500000;,
  -2.567438;0.500000;,
  -9.727273;-1.496269;,
  -11.772727;-1.496269;,
  -4.612397;0.500000;,
  -4.612397;0.500000;,
  -5.123636;0.500000;,
  -5.123636;0.500000;,
  -19.954546;0.500000;,
  -22.000000;0.500000;,
  -4.101157;0.500000;,
  -4.101157;0.500000;,
  -15.863636;0.500000;,
  -17.909090;0.500000;,
  -3.078677;0.500000;,
  -3.078677;0.500000;,
  -3.589917;0.500000;,
  -3.589917;0.500000;,
  -13.818181;0.500000;,
  -2.567438;0.500000;,
  -2.567438;0.500000;,
  -9.727273;0.500000;,
  -11.772727;0.500000;,
  -1.544959;0.500000;,
  -1.544959;0.500000;,
  -2.056198;0.500000;,
  -1.544959;0.500000;,
  -1.544959;0.500000;,
  -2.056198;0.500000;,
  -7.681818;-1.496269;,
  -7.681818;0.500000;,
  -1.033719;0.500000;,
  -1.033719;0.500000;,
  -5.636364;-1.496269;,
  -5.636364;0.500000;,
  -0.522479;0.500000;,
  -0.522479;0.500000;,
  -3.590909;-1.496269;,
  -3.590909;0.500000;,
  -0.011240;0.500000;,
  -0.011240;0.500000;,
  -0.011240;0.500000;,
  -0.011240;0.500000;,
  -0.522479;0.500000;,
  -0.522479;0.500000;,
  -1.545454;-1.496269;,
  -1.545454;0.500000;,
  -4.612397;0.500000;,
  -4.612397;0.500000;,
  -5.123636;0.500000;,
  -5.123636;0.500000;,
  -19.954546;2.496269;,
  -22.000000;2.496269;,
  -3.589917;0.500000;,
  -3.589917;0.500000;,
  -4.101157;0.500000;,
  -4.101157;0.500000;,
  -15.863636;2.496269;,
  -17.909090;2.496269;,
  -2.056198;0.500000;,
  -2.056198;0.500000;,
  -2.567438;0.500000;,
  -2.567438;0.500000;,
  -9.727273;2.496269;,
  -11.772727;2.496269;,
  -1.544959;0.500000;,
  -1.033719;0.500000;,
  -1.033719;0.500000;,
  -1.544959;0.500000;,
  -5.636364;2.496269;,
  -7.681818;2.496269;,
  -0.522479;0.500000;,
  -0.522479;0.500000;,
  -3.590909;2.496269;,
  -4.612397;0.500000;,
  -4.612397;0.500000;,
  -5.123636;0.500000;,
  -5.123636;0.500000;,
  -19.954546;4.492539;,
  -22.000000;4.492539;,
  -4.101157;0.500000;,
  -3.589917;0.500000;,
  -3.589917;0.500000;,
  -4.101157;0.500000;,
  -15.863636;4.492539;,
  -17.909090;4.492539;,
  -3.078677;0.500000;,
  -3.078677;0.500000;,
  -3.078677;0.500000;,
  -3.078677;0.500000;,
  -13.818181;2.496269;,
  -13.818181;4.492539;,
  -2.056198;0.500000;,
  -2.056198;0.500000;,
  -2.567438;0.500000;,
  -2.567438;0.500000;,
  -9.727273;4.492539;,
  -11.772727;4.492539;,
  -0.522479;0.500000;,
  -0.522479;0.500000;,
  -1.033719;0.500000;,
  -1.033719;0.500000;,
  -3.590909;4.492539;,
  -5.636364;4.492539;,
  -4.612397;0.500000;,
  -4.612397;0.500000;,
  -5.123636;0.500000;,
  -5.123636;0.500000;,
  -19.954546;6.488808;,
  -22.000000;6.488808;,
  -3.078677;0.500000;,
  -3.078677;0.500000;,
  -3.589917;0.500000;,
  -3.589917;0.500000;,
  -13.818181;6.488808;,
  -15.863636;6.488808;,
  -2.567438;0.500000;,
  -2.567438;0.500000;,
  -9.727273;6.488808;,
  -11.772727;6.488808;,
  -1.544959;0.500000;,
  -1.544959;0.500000;,
  -2.056198;0.500000;,
  -1.544959;0.500000;,
  -1.544959;0.500000;,
  -2.056198;0.500000;,
  -7.681818;4.492539;,
  -7.681818;6.488808;,
  -1.033719;0.500000;,
  -1.033719;0.500000;,
  -5.636364;6.488808;,
  -3.590909;6.488808;,
  -0.011240;0.500000;,
  -0.011240;0.500000;,
  -0.011240;0.500000;,
  -0.011240;0.500000;,
  -0.522479;0.500000;,
  -0.522479;0.500000;,
  -1.545454;4.492539;,
  -1.545454;6.488808;,
  -4.612397;0.500000;,
  -4.612397;0.500000;,
  -5.123636;0.500000;,
  -5.123636;0.500000;,
  -19.954546;8.485078;,
  -22.000000;8.485078;,
  -3.078677;0.500000;,
  -3.078677;0.500000;,
  -3.589917;0.500000;,
  -3.589917;0.500000;,
  -13.818181;8.485078;,
  -15.863636;8.485078;,
  -2.056198;0.500000;,
  -2.056198;0.500000;,
  -2.567438;0.500000;,
  -2.567438;0.500000;,
  -9.727273;8.485078;,
  -11.772727;8.485078;,
  -0.522479;0.500000;,
  -0.522479;0.500000;,
  -1.033719;0.500000;,
  -1.033719;0.500000;,
  -3.590909;8.485078;,
  -5.636364;8.485078;,
  -5.123636;0.500000;,
  -4.612397;0.500000;,
  -4.612397;0.500000;,
  -5.123636;0.500000;,
  -19.954546;10.481347;,
  -22.000000;10.481347;,
  -4.101157;0.500000;,
  -4.101157;0.500000;,
  -4.101157;0.500000;,
  -4.101157;0.500000;,
  -17.909090;8.485078;,
  -17.909090;10.481347;,
  -3.589917;0.500000;,
  -3.589917;0.500000;,
  -15.863636;10.481347;,
  -3.078677;0.500000;,
  -3.078677;0.500000;,
  -13.818181;10.481347;,
  -2.567438;0.500000;,
  -2.567438;0.500000;,
  -11.772727;10.481347;,
  -2.056198;0.500000;,
  -2.056198;0.500000;,
  -9.727273;10.481347;,
  -1.544959;0.500000;,
  -1.544959;0.500000;,
  -1.544959;0.500000;,
  -1.544959;0.500000;,
  -7.681818;8.485078;,
  -7.681818;10.481347;,
  -1.033719;0.500000;,
  -1.033719;0.500000;,
  -5.636364;10.481347;,
  -0.522479;0.500000;,
  -0.522479;0.500000;,
  -3.590909;10.481347;,
  -0.011240;0.500000;,
  -0.011240;0.500000;,
  -0.011240;0.500000;,
  -0.011240;0.500000;,
  -1.545454;8.485078;,
  -1.545454;10.481347;;
 }
}
