xof 0302txt 0064
template Header {
 <3D82AB43-62DA-11cf-AB39-0020AF71E433>
 WORD major;
 WORD minor;
 DWORD flags;
}

template Vector {
 <3D82AB5E-62DA-11cf-AB39-0020AF71E433>
 FLOAT x;
 FLOAT y;
 FLOAT z;
}

template Coords2d {
 <F6F23F44-7686-11cf-8F52-0040333594A3>
 FLOAT u;
 FLOAT v;
}

template Matrix4x4 {
 <F6F23F45-7686-11cf-8F52-0040333594A3>
 array FLOAT matrix[16];
}

template ColorRGBA {
 <35FF44E0-6C7C-11cf-8F52-0040333594A3>
 FLOAT red;
 FLOAT green;
 FLOAT blue;
 FLOAT alpha;
}

template ColorRGB {
 <D3E16E81-7835-11cf-8F52-0040333594A3>
 FLOAT red;
 FLOAT green;
 FLOAT blue;
}

template IndexedColor {
 <1630B820-7842-11cf-8F52-0040333594A3>
 DWORD index;
 ColorRGBA indexColor;
}

template Boolean {
 <4885AE61-78E8-11cf-8F52-0040333594A3>
 WORD truefalse;
}

template Boolean2d {
 <4885AE63-78E8-11cf-8F52-0040333594A3>
 Boolean u;
 Boolean v;
}

template MaterialWrap {
 <4885AE60-78E8-11cf-8F52-0040333594A3>
 Boolean u;
 Boolean v;
}

template TextureFilename {
 <A42790E1-7810-11cf-8F52-0040333594A3>
 STRING filename;
}

template Material {
 <3D82AB4D-62DA-11cf-AB39-0020AF71E433>
 ColorRGBA faceColor;
 FLOAT power;
 ColorRGB specularColor;
 ColorRGB emissiveColor;
 [...]
}

template MeshFace {
 <3D82AB5F-62DA-11cf-AB39-0020AF71E433>
 DWORD nFaceVertexIndices;
 array DWORD faceVertexIndices[nFaceVertexIndices];
}

template MeshFaceWraps {
 <4885AE62-78E8-11cf-8F52-0040333594A3>
 DWORD nFaceWrapValues;
 Boolean2d faceWrapValues;
}

template MeshTextureCoords {
 <F6F23F40-7686-11cf-8F52-0040333594A3>
 DWORD nTextureCoords;
 array Coords2d textureCoords[nTextureCoords];
}

template MeshMaterialList {
 <F6F23F42-7686-11cf-8F52-0040333594A3>
 DWORD nMaterials;
 DWORD nFaceIndexes;
 array DWORD faceIndexes[nFaceIndexes];
 [Material]
}

template MeshNormals {
 <F6F23F43-7686-11cf-8F52-0040333594A3>
 DWORD nNormals;
 array Vector normals[nNormals];
 DWORD nFaceNormals;
 array MeshFace faceNormals[nFaceNormals];
}

template MeshVertexColors {
 <1630B821-7842-11cf-8F52-0040333594A3>
 DWORD nVertexColors;
 array IndexedColor vertexColors[nVertexColors];
}

template Mesh {
 <3D82AB44-62DA-11cf-AB39-0020AF71E433>
 DWORD nVertices;
 array Vector vertices[nVertices];
 DWORD nFaces;
 array MeshFace faces[nFaces];
 [...]
}

Header{
1;
0;
1;
}

Mesh {
 381;
 -0.33011;1.33209;12.13638;,
 -1.56667;2.15092;8.88480;,
 1.49776;2.20172;8.88939;,
 0.27928;1.34220;12.13729;,
 -0.22306;1.31444;7.34305;,
 0.18723;1.32125;7.34366;,
 0.34662;2.78529;-10.54455;,
 -0.01657;2.85345;-10.54848;,
 -0.02287;2.98099;-7.74987;,
 0.38581;2.90792;-7.73874;,
 -0.37731;2.77329;-10.54563;,
 -0.42895;2.89441;-7.73996;,
 -0.34105;1.01328;-10.53641;,
 0.01497;0.95007;-10.53458;,
 0.01104;0.93200;-7.71215;,
 -0.38942;0.99975;-7.71661;,
 0.36868;1.02504;-10.53534;,
 0.40903;1.01299;-7.71542;,
 0.67756;1.23604;-10.53595;,
 0.76412;1.24050;-7.71761;,
 -0.65674;1.21392;-10.53795;,
 -0.75184;1.21537;-7.71988;,
 0.87821;1.55174;-10.53728;,
 0.99499;1.58059;-7.72138;,
 -0.86774;1.52279;-10.53989;,
 -0.99384;1.54762;-7.72437;,
 0.95029;1.91499;-10.53906;,
 1.07823;1.97174;-7.72607;,
 -0.95181;1.88346;-10.54191;,
 -1.08999;1.93580;-7.72930;,
 0.86609;2.28276;-10.54110;,
 0.98196;2.36755;-7.73109;,
 -0.87985;2.25382;-10.54371;,
 -1.00688;2.33458;-7.73407;,
 0.65521;2.58453;-10.54300;,
 0.74008;2.69216;-7.73549;,
 -0.77588;2.66703;-7.73776;,
 -0.67908;2.56241;-10.54502;,
 -0.31317;2.49772;-12.51089;,
 -0.56774;2.31982;-12.51037;,
 0.29754;2.50784;-12.50997;,
 0.55786;2.33848;-12.50867;,
 -0.73712;2.05949;-12.50928;,
 0.73577;2.08390;-12.50707;,
 -0.79780;1.74706;-12.50776;,
 0.80677;1.77366;-12.50534;,
 -0.72690;1.44281;-12.50606;,
 0.74599;1.46723;-12.50385;,
 -0.54888;1.18224;-12.50442;,
 0.57671;1.20090;-12.50274;,
 -0.28257;1.01297;-12.50310;,
 0.31615;1.02290;-12.50221;,
 -0.00885;2.56533;-12.51329;,
 0.00091;2.13306;-14.24401;,
 0.18311;2.09886;-14.24206;,
 -0.18006;2.09283;-14.24260;,
 -0.16187;1.20990;-14.23798;,
 0.01775;0.95966;-12.50157;,
 0.01673;1.17820;-14.23707;,
 0.19418;1.21580;-14.23745;,
 0.34912;1.32167;-14.23773;,
 -0.32024;1.31057;-14.23874;,
 0.44978;1.48002;-14.23840;,
 -0.42608;1.46550;-14.23972;,
 0.48594;1.66226;-14.23930;,
 -0.46825;1.64645;-14.24072;,
 0.44370;1.84675;-14.24032;,
 -0.43216;1.83223;-14.24163;,
 0.33792;1.99814;-14.24130;,
 -0.33145;1.98705;-14.24230;,
 4.31871;1.65151;12.38362;,
 2.99872;1.67984;11.11534;,
 2.99567;1.53659;14.72747;,
 6.15865;1.54994;15.71758;,
 -4.37829;1.50733;12.37059;,
 -3.05617;1.57946;11.10627;,
 -3.05920;1.43621;14.71840;,
 -6.22382;1.34467;15.69904;,
 4.43576;1.66935;11.98285;,
 6.52516;1.60350;14.52063;,
 -4.49468;1.52130;11.96947;,
 -6.58831;1.38611;14.50099;,
 1.19603;2.48767;-7.41099;,
 1.13222;2.45109;2.33149;,
 1.94695;2.46460;2.33271;,
 2.53799;2.50992;-7.40897;,
 -1.22577;2.44753;-7.41462;,
 -1.18996;2.41259;2.32801;,
 -2.00469;2.39909;2.32679;,
 -2.56773;2.42528;-7.41663;,
 2.54370;1.88731;2.33666;,
 2.55761;1.04755;2.34104;,
 2.56363;0.73300;-4.85954;,
 -2.58198;1.80233;2.32898;,
 -2.56807;0.96258;2.33337;,
 -2.54209;0.64836;-4.86719;,
 1.97229;0.44252;2.34327;,
 1.17388;0.42928;2.34207;,
 1.22167;0.71076;-4.86155;,
 -1.96303;0.37728;2.33737;,
 -1.16461;0.39051;2.33857;,
 -1.20013;0.67061;-4.86518;,
 0.55492;1.85434;2.33368;,
 0.56884;1.01459;2.33807;,
 -0.59321;1.83530;2.33196;,
 -0.57930;0.99555;2.33635;,
 -1.31777;2.29821;12.12669;,
 -1.30305;1.32175;13.10536;,
 -1.99216;1.99875;12.13026;,
 -1.68153;2.21582;12.12964;,
 1.23439;2.34052;12.13051;,
 1.24912;1.36406;13.10918;,
 0.56001;2.04106;12.13409;,
 0.87064;2.25813;12.13346;,
 -1.71810;2.30087;7.32242;,
 -1.68153;2.21582;12.12964;,
 -2.06476;2.05864;7.32313;,
 -1.99216;1.99875;12.13026;,
 0.87064;2.25813;12.13346;,
 0.83407;2.34318;7.32624;,
 0.48741;2.10095;7.32696;,
 0.56001;2.04106;12.13409;,
 -0.95150;2.22792;12.13073;,
 -0.90337;2.31438;7.32364;,
 -0.54887;2.08377;7.32540;,
 -0.63384;2.02127;12.13230;,
 1.64880;2.35669;7.32746;,
 1.60068;2.27023;12.13456;,
 2.00330;2.12608;7.32922;,
 1.91833;2.06358;12.13612;,
 -2.29539;1.70414;7.32461;,
 -2.19881;1.68109;12.13160;,
 0.25678;1.74645;7.32843;,
 0.35335;1.72340;12.13543;,
 -0.30661;1.73711;7.32759;,
 -0.41676;1.71064;12.13427;,
 2.24555;1.77942;7.33141;,
 2.13540;1.75295;12.13809;,
 -2.37805;1.27870;7.32669;,
 -2.27289;1.29989;12.13346;,
 2.34226;1.35695;7.33376;,
 2.22206;1.37440;12.14020;,
 -2.28147;0.86437;7.32901;,
 -2.18635;0.92863;12.13553;,
 0.27069;0.90668;7.33283;,
 0.36581;0.97094;12.13936;,
 -0.29270;0.89734;7.33199;,
 -0.40430;0.95817;12.13821;,
 2.25947;0.93965;7.33581;,
 2.14787;1.00048;12.14202;,
 -2.03909;0.50957;7.33124;,
 -1.96916;0.61070;12.13753;,
 0.51308;0.55188;7.33507;,
 0.58301;0.65301;12.14135;,
 -0.52320;0.53470;7.33350;,
 -0.61084;0.63322;12.13956;,
 2.02897;0.57701;7.33733;,
 1.94133;0.67553;12.14338;,
 -1.67643;0.27908;7.33301;,
 -1.64420;0.40416;12.13914;,
 0.87573;0.32139;7.33682;,
 0.90797;0.44647;12.14295;,
 -0.87801;0.29232;7.33420;,
 -0.92877;0.41602;12.14020;,
 1.67415;0.33463;7.33802;,
 1.62339;0.45833;12.14403;,
 -1.27591;0.20633;7.33507;,
 -1.28531;0.33898;12.14099;,
 1.27625;0.24864;7.33890;,
 1.26686;0.38128;12.14481;,
 -1.31214;2.39283;7.31912;,
 -1.31777;2.29821;12.12669;,
 1.23439;2.34052;12.13051;,
 1.24003;2.43514;7.32295;,
 -1.81688;1.81923;13.62942;,
 -1.58605;1.97915;13.62905;,
 0.73529;1.86154;13.63324;,
 0.96614;2.02146;13.63287;,
 -1.04358;1.98814;13.62986;,
 -0.80756;1.83597;13.63093;,
 -0.63384;2.02127;12.13230;,
 -0.95150;2.22792;12.13073;,
 1.50860;2.03045;13.63367;,
 1.74461;1.87828;13.63474;,
 1.91833;2.06358;12.13612;,
 1.60068;2.27023;12.13456;,
 -1.97048;1.58522;13.63028;,
 -2.19881;1.68109;12.13160;,
 0.58169;1.62753;13.63410;,
 0.35335;1.72340;12.13543;,
 -0.64629;1.60718;13.63226;,
 -0.41676;1.71064;12.13427;,
 1.90588;1.64948;13.63608;,
 2.13540;1.75295;12.13809;,
 -2.02557;1.30441;13.63149;,
 -2.27289;1.29989;12.13346;,
 0.52660;1.34672;13.63532;,
 0.27928;1.34220;12.13729;,
 -0.58192;1.32834;13.63365;,
 -0.33011;1.33209;12.13638;,
 1.97024;1.37065;13.63749;,
 2.22206;1.37440;12.14020;,
 -1.96130;1.03094;13.63286;,
 -2.18635;0.92863;12.13553;,
 0.59087;1.07325;13.63669;,
 0.36581;0.97094;12.13936;,
 -0.63711;1.05290;13.63487;,
 -0.40430;0.95817;12.13821;,
 1.91506;1.09520;13.63868;,
 2.14787;1.00048;12.14202;,
 -1.79994;0.79678;13.63423;,
 -1.96916;0.61070;12.13753;,
 0.75223;0.83909;13.63806;,
 0.58301;0.65301;12.14135;,
 -0.79061;0.81352;13.63572;,
 -0.61084;0.63322;12.13956;,
 1.76155;0.85582;13.63955;,
 1.94133;0.67553;12.14338;,
 -1.55851;0.64468;13.63528;,
 -1.64420;0.40416;12.13914;,
 0.99366;0.68699;13.63912;,
 0.90797;0.44647;12.14295;,
 -1.02688;0.65349;13.63609;,
 -0.92877;0.41602;12.14020;,
 1.52529;0.69580;13.63991;,
 1.62339;0.45833;12.14403;,
 -1.29182;0.59670;13.63654;,
 -1.28531;0.33898;12.14099;,
 1.26034;0.63901;13.64037;,
 1.26686;0.38128;12.14481;,
 -1.31574;2.03989;13.62725;,
 1.23643;2.08220;13.63107;,
 -0.75292;2.86435;-5.41064;,
 -0.83743;2.60227;-6.87992;,
 -0.91531;2.46206;-5.23671;,
 -0.03083;1.75987;11.07555;,
 0.80118;2.62944;-6.87746;,
 0.70363;2.88849;-5.40847;,
 0.87874;2.49180;-5.23401;,
 -0.29996;2.19190;-3.93878;,
 -0.56152;2.22092;-4.60123;,
 -0.59505;2.55471;-4.43314;,
 -0.32647;2.52526;-3.73696;,
 0.53123;2.23903;-4.59960;,
 0.26879;2.20132;-3.93793;,
 0.55318;2.57375;-4.43142;,
 0.28364;2.53538;-3.73604;,
 -0.73356;2.26870;-5.60599;,
 -0.77581;2.60198;-5.46506;,
 0.70460;2.29254;-5.60384;,
 0.73536;2.62703;-5.46280;,
 -0.79829;2.32629;-6.77039;,
 -0.84377;2.66165;-6.71274;,
 0.77087;2.35231;-6.76804;,
 0.80504;2.68898;-6.71027;,
 -0.73200;2.38723;-7.95744;,
 -0.77410;2.72242;-7.93623;,
 0.70616;2.41108;-7.95528;,
 0.73707;2.74747;-7.93397;,
 -0.55865;2.43957;-8.93884;,
 -0.59190;2.77687;-8.99162;,
 0.53411;2.45769;-8.93720;,
 0.55633;2.79591;-8.98988;,
 -0.30215;2.47719;-9.60051;,
 -0.31612;2.81537;-9.68695;,
 0.27849;2.48682;-9.59963;,
 0.28150;2.82527;-9.68607;,
 -0.01164;2.49312;-9.85266;,
 -0.01678;2.83042;-10.15216;,
 -0.01574;2.18627;-3.71603;,
 -0.02186;2.52127;-3.34273;,
 -0.30941;3.55942;-5.55146;,
 -0.18142;3.54539;-5.21973;,
 -0.48930;3.25383;-4.83426;,
 -0.27533;3.23037;-4.27962;,
 0.10930;3.55021;-5.21930;,
 0.23774;3.56849;-5.55064;,
 0.42551;3.26900;-4.83289;,
 0.21078;3.23843;-4.27889;,
 -0.39552;3.58195;-6.04316;,
 -0.63330;3.29151;-5.65642;,
 0.32453;3.59389;-6.04209;,
 0.57065;3.31147;-5.65462;,
 -0.42792;3.61037;-6.63769;,
 -0.68746;3.33904;-6.65045;,
 0.35775;3.62340;-6.63651;,
 0.62618;3.36082;-6.64849;,
 -0.39471;3.63933;-7.22068;,
 -0.63195;3.38745;-7.62524;,
 0.32534;3.65127;-7.21960;,
 0.57201;3.40741;-7.62343;,
 -0.30791;3.66529;-7.72355;,
 -0.48679;3.43085;-8.46607;,
 0.23924;3.67436;-7.72273;,
 0.42802;3.44602;-8.46470;,
 -0.17649;3.68362;-8.05488;,
 -0.26707;3.46150;-9.02006;,
 0.10828;3.68834;-8.05446;,
 0.20906;3.46939;-9.01935;,
 -0.03402;3.69097;-8.16601;,
 -0.02887;3.47380;-9.20586;,
 -0.03617;3.54337;-5.09992;,
 -0.03245;3.22702;-4.07928;,
 0.26237;2.93846;-3.83304;,
 -0.02817;2.92481;-3.59462;,
 -0.31828;2.92883;-3.83391;,
 -0.30842;3.20491;-9.49646;,
 -0.02388;3.21960;-9.71839;,
 0.26033;3.21434;-9.49561;,
 0.52187;3.18642;-8.83306;,
 -0.57088;3.16831;-8.83470;,
 0.69388;3.14030;-7.82816;,
 -0.74428;3.11646;-7.83031;,
 0.75858;3.08465;-6.66359;,
 -0.81058;3.05863;-6.66593;,
 0.69226;3.02569;-5.47638;,
 -0.74590;3.00185;-5.47853;,
 0.51888;2.97498;-4.49482;,
 -0.57388;2.95686;-4.49646;,
 -0.43737;2.90339;-2.21506;,
 -0.78430;2.67601;-2.21286;,
 0.37739;2.91690;-2.21384;,
 0.73165;2.70114;-2.21059;,
 -1.01530;2.34355;-2.20917;,
 0.97353;2.37652;-2.20619;,
 -1.09842;1.94476;-2.20440;,
 1.06981;1.98071;-2.20116;,
 -1.00227;1.55660;-2.19946;,
 0.98657;1.58957;-2.19649;,
 -0.76026;1.22435;-2.19497;,
 0.75569;1.24948;-2.19270;,
 -0.40927;1.00855;-2.18029;,
 0.41200;1.02216;-2.17906;,
 0.00261;0.94096;-2.18724;,
 -0.03130;2.98997;-2.22497;,
 -10.04152;1.54885;8.91560;,
 -10.50139;1.61156;6.94881;,
 -6.68149;1.67845;7.12640;,
 -6.68284;1.63018;8.56266;,
 9.98780;1.88089;8.94562;,
 10.45120;1.95891;6.98020;,
 6.63068;1.89914;7.14635;,
 6.62933;1.85087;8.58260;,
 1.86137;2.72037;1.95562;,
 -1.92652;2.65758;1.94994;,
 -2.89745;1.84092;5.35971;,
 -2.50647;1.84739;5.36030;,
 -2.25992;2.21984;-3.93006;,
 2.84863;1.93617;5.36831;,
 2.45764;1.92969;5.36773;,
 2.22672;2.29422;-3.92333;,
 2.27748;1.62548;12.96501;,
 -2.33908;1.54895;12.95809;,
 -3.95682;1.99521;-0.27691;,
 -2.33635;1.31976;0.30244;,
 3.91918;2.12578;-0.26511;,
 2.32026;1.39696;0.30941;,
 -3.49398;1.73125;7.13490;,
 -3.50803;1.68459;8.56690;,
 3.44315;1.84626;7.14529;,
 3.45445;1.80001;8.57733;,
 -2.36955;0.84300;12.10390;,
 2.33390;0.92098;12.11094;,
 -3.54207;2.14718;-2.00210;,
 3.50479;2.26400;-1.99155;,
 0.01154;1.63080;-15.77889;,
 0.14812;3.18784;-4.12706;,
 -0.21148;3.18188;-4.12759;,
 0.53705;3.04417;-4.64876;,
 -0.59387;3.02543;-4.65046;,
 -0.03736;3.75134;-6.60428;,
 2.52500;6.54133;14.30772;,
 2.52986;6.42042;12.40524;,
 2.60893;1.52231;13.82789;,
 -2.75343;6.45382;14.29984;,
 -2.74858;6.33292;12.39734;,
 -2.66951;1.43481;13.81999;,
 2.60925;1.89322;9.51079;,
 -2.66919;1.80571;9.50288;,
 -2.74089;6.44925;11.45245;,
 2.52115;6.53648;11.46032;;
 
 1294;
 3;0,1,2;,
 3;3,0,2;,
 3;4,0,5;,
 3;0,3,5;,
 3;6,7,8;,
 3;9,6,8;,
 3;8,7,10;,
 3;11,8,10;,
 3;12,13,14;,
 3;15,12,14;,
 3;14,13,16;,
 3;17,14,16;,
 3;16,18,17;,
 3;18,19,17;,
 3;20,12,15;,
 3;21,20,15;,
 3;18,22,19;,
 3;22,23,19;,
 3;24,20,21;,
 3;25,24,21;,
 3;22,26,23;,
 3;26,27,23;,
 3;28,24,25;,
 3;29,28,25;,
 3;26,30,27;,
 3;30,31,27;,
 3;32,28,29;,
 3;33,32,29;,
 3;34,35,30;,
 3;35,31,30;,
 3;36,37,32;,
 3;33,36,32;,
 3;6,9,34;,
 3;9,35,34;,
 3;11,10,37;,
 3;36,11,37;,
 3;10,38,37;,
 3;38,39,37;,
 3;40,6,34;,
 3;41,40,34;,
 3;37,39,32;,
 3;39,42,32;,
 3;41,34,30;,
 3;43,41,30;,
 3;32,42,28;,
 3;42,44,28;,
 3;43,30,26;,
 3;45,43,26;,
 3;28,44,24;,
 3;44,46,24;,
 3;45,26,22;,
 3;47,45,22;,
 3;24,46,20;,
 3;46,48,20;,
 3;47,22,18;,
 3;49,47,18;,
 3;20,48,12;,
 3;48,50,12;,
 3;49,18,16;,
 3;51,49,16;,
 3;7,52,10;,
 3;52,38,10;,
 3;7,6,52;,
 3;6,40,52;,
 3;52,40,53;,
 3;40,54,53;,
 3;52,53,38;,
 3;53,55,38;,
 3;50,56,57;,
 3;56,58,57;,
 3;51,57,59;,
 3;57,58,59;,
 3;60,49,51;,
 3;59,60,51;,
 3;48,61,50;,
 3;61,56,50;,
 3;62,47,49;,
 3;60,62,49;,
 3;46,63,48;,
 3;63,61,48;,
 3;64,45,47;,
 3;62,64,47;,
 3;44,65,46;,
 3;65,63,46;,
 3;66,43,45;,
 3;64,66,45;,
 3;42,67,44;,
 3;67,65,44;,
 3;68,41,43;,
 3;66,68,43;,
 3;39,69,42;,
 3;69,67,42;,
 3;54,40,41;,
 3;68,54,41;,
 3;38,55,39;,
 3;55,69,39;,
 3;16,13,51;,
 3;13,57,51;,
 3;12,50,13;,
 3;50,57,13;,
 3;70,71,72;,
 3;73,70,72;,
 3;74,75,76;,
 3;77,74,76;,
 3;78,70,79;,
 3;70,73,79;,
 3;80,74,81;,
 3;74,77,81;,
 3;82,83,84;,
 3;85,82,84;,
 3;86,87,88;,
 3;89,86,88;,
 3;90,91,92;,
 3;85,90,92;,
 3;93,94,95;,
 3;89,93,95;,
 3;96,97,98;,
 3;92,96,98;,
 3;99,100,101;,
 3;95,99,101;,
 3;102,82,98;,
 3;103,102,98;,
 3;104,86,101;,
 3;105,104,101;,
 3;106,107,108;,
 3;109,106,108;,
 3;110,111,112;,
 3;113,110,112;,
 3;114,115,116;,
 3;115,117,116;,
 3;118,119,120;,
 3;121,118,120;,
 3;122,123,124;,
 3;125,122,124;,
 3;126,127,128;,
 3;127,129,128;,
 3;116,117,130;,
 3;117,131,130;,
 3;121,120,132;,
 3;133,121,132;,
 3;125,124,134;,
 3;135,125,134;,
 3;128,129,136;,
 3;129,137,136;,
 3;130,131,138;,
 3;131,139,138;,
 3;133,132,5;,
 3;3,133,5;,
 3;135,134,4;,
 3;0,135,4;,
 3;136,137,140;,
 3;137,141,140;,
 3;138,139,142;,
 3;139,143,142;,
 3;5,144,145;,
 3;3,5,145;,
 3;4,146,147;,
 3;0,4,147;,
 3;140,141,148;,
 3;141,149,148;,
 3;142,143,150;,
 3;143,151,150;,
 3;145,144,152;,
 3;153,145,152;,
 3;147,146,154;,
 3;155,147,154;,
 3;148,149,156;,
 3;149,157,156;,
 3;150,151,158;,
 3;151,159,158;,
 3;153,152,160;,
 3;161,153,160;,
 3;155,154,162;,
 3;163,155,162;,
 3;156,157,164;,
 3;157,165,164;,
 3;162,166,163;,
 3;166,167,163;,
 3;168,164,165;,
 3;169,168,165;,
 3;158,159,166;,
 3;159,167,166;,
 3;161,160,168;,
 3;169,161,168;,
 3;170,171,114;,
 3;171,115,114;,
 3;172,173,119;,
 3;118,172,119;,
 3;170,123,171;,
 3;123,122,171;,
 3;126,173,172;,
 3;127,126,172;,
 3;174,175,108;,
 3;175,109,108;,
 3;176,177,112;,
 3;177,113,112;,
 3;178,179,180;,
 3;181,178,180;,
 3;182,183,184;,
 3;185,182,184;,
 3;186,174,187;,
 3;174,108,187;,
 3;188,176,189;,
 3;176,112,189;,
 3;179,190,191;,
 3;180,179,191;,
 3;183,192,193;,
 3;184,183,193;,
 3;194,186,195;,
 3;186,187,195;,
 3;196,188,197;,
 3;188,189,197;,
 3;190,198,199;,
 3;191,190,199;,
 3;192,200,201;,
 3;193,192,201;,
 3;202,194,203;,
 3;194,195,203;,
 3;204,196,205;,
 3;196,197,205;,
 3;198,206,207;,
 3;199,198,207;,
 3;200,208,209;,
 3;201,200,209;,
 3;210,202,211;,
 3;202,203,211;,
 3;212,204,213;,
 3;204,205,213;,
 3;206,214,215;,
 3;207,206,215;,
 3;208,216,217;,
 3;209,208,217;,
 3;210,211,218;,
 3;211,219,218;,
 3;212,213,220;,
 3;213,221,220;,
 3;215,214,222;,
 3;223,215,222;,
 3;217,216,224;,
 3;225,217,224;,
 3;226,227,222;,
 3;227,223,222;,
 3;228,229,224;,
 3;229,225,224;,
 3;226,218,227;,
 3;218,219,227;,
 3;228,220,229;,
 3;220,221,229;,
 3;175,230,109;,
 3;230,106,109;,
 3;177,231,113;,
 3;231,110,113;,
 3;178,181,230;,
 3;181,106,230;,
 3;182,185,231;,
 3;185,110,231;,
 3;232,233,234;,
 3;235,232,234;,
 3;236,237,238;,
 3;237,235,238;,
 3;239,240,241;,
 3;242,239,241;,
 3;243,244,245;,
 3;244,246,245;,
 3;240,247,248;,
 3;241,240,248;,
 3;249,243,250;,
 3;243,245,250;,
 3;247,251,252;,
 3;248,247,252;,
 3;253,249,254;,
 3;249,250,254;,
 3;251,255,256;,
 3;252,251,256;,
 3;257,253,258;,
 3;253,254,258;,
 3;256,255,259;,
 3;260,256,259;,
 3;257,258,261;,
 3;258,262,261;,
 3;260,259,263;,
 3;264,260,263;,
 3;261,262,265;,
 3;262,266,265;,
 3;267,265,266;,
 3;268,267,266;,
 3;264,263,267;,
 3;268,264,267;,
 3;269,239,242;,
 3;270,269,242;,
 3;246,244,269;,
 3;270,246,269;,
 3;271,272,273;,
 3;272,274,273;,
 3;275,276,277;,
 3;278,275,277;,
 3;279,271,280;,
 3;271,273,280;,
 3;276,281,282;,
 3;277,276,282;,
 3;283,279,284;,
 3;279,280,284;,
 3;281,285,286;,
 3;282,281,286;,
 3;283,284,287;,
 3;284,288,287;,
 3;286,285,289;,
 3;290,286,289;,
 3;287,288,291;,
 3;288,292,291;,
 3;290,289,293;,
 3;294,290,293;,
 3;291,292,295;,
 3;292,296,295;,
 3;294,293,297;,
 3;298,294,297;,
 3;297,299,298;,
 3;299,300,298;,
 3;295,296,299;,
 3;296,300,299;,
 3;272,301,274;,
 3;301,302,274;,
 3;275,278,301;,
 3;278,302,301;,
 3;278,303,302;,
 3;303,304,302;,
 3;274,302,305;,
 3;302,304,305;,
 3;296,306,300;,
 3;306,307,300;,
 3;298,300,308;,
 3;300,307,308;,
 3;309,294,298;,
 3;308,309,298;,
 3;292,310,296;,
 3;310,306,296;,
 3;311,290,294;,
 3;309,311,294;,
 3;288,312,292;,
 3;312,310,292;,
 3;313,286,290;,
 3;311,313,290;,
 3;284,314,288;,
 3;314,312,288;,
 3;282,286,313;,
 3;315,282,313;,
 3;284,280,314;,
 3;280,316,314;,
 3;277,282,315;,
 3;317,277,315;,
 3;280,273,316;,
 3;273,318,316;,
 3;278,277,317;,
 3;303,278,317;,
 3;273,274,318;,
 3;274,305,318;,
 3;318,305,241;,
 3;305,242,241;,
 3;303,317,245;,
 3;246,303,245;,
 3;316,318,248;,
 3;318,241,248;,
 3;317,315,250;,
 3;245,317,250;,
 3;314,316,252;,
 3;316,248,252;,
 3;315,313,254;,
 3;250,315,254;,
 3;314,252,312;,
 3;252,256,312;,
 3;254,313,311;,
 3;258,254,311;,
 3;312,256,310;,
 3;256,260,310;,
 3;258,311,309;,
 3;262,258,309;,
 3;310,260,306;,
 3;260,264,306;,
 3;262,309,308;,
 3;266,262,308;,
 3;308,307,266;,
 3;307,268,266;,
 3;306,264,307;,
 3;264,268,307;,
 3;305,304,242;,
 3;304,270,242;,
 3;303,246,304;,
 3;246,270,304;,
 3;319,11,36;,
 3;320,319,36;,
 3;9,321,35;,
 3;321,322,35;,
 3;320,36,33;,
 3;323,320,33;,
 3;35,322,31;,
 3;322,324,31;,
 3;323,33,29;,
 3;325,323,29;,
 3;31,324,27;,
 3;324,326,27;,
 3;325,29,25;,
 3;327,325,25;,
 3;27,326,23;,
 3;326,328,23;,
 3;327,25,21;,
 3;329,327,21;,
 3;23,328,19;,
 3;328,330,19;,
 3;329,21,15;,
 3;331,329,15;,
 3;19,330,17;,
 3;330,332,17;,
 3;333,14,17;,
 3;332,333,17;,
 3;15,14,333;,
 3;331,15,333;,
 3;334,8,11;,
 3;319,334,11;,
 3;9,8,334;,
 3;321,9,334;,
 3;335,336,337;,
 3;338,335,337;,
 3;339,340,341;,
 3;342,339,341;,
 3;343,2,1;,
 3;344,343,1;,
 3;344,345,346;,
 3;347,344,346;,
 3;343,348,349;,
 3;350,343,349;,
 3;350,343,344;,
 3;347,350,344;,
 3;2,348,349;,
 3;351,2,349;,
 3;1,345,346;,
 3;352,1,346;,
 3;344,353,354;,
 3;347,344,354;,
 3;343,355,356;,
 3;350,343,356;,
 3;357,358,337;,
 3;358,338,337;,
 3;359,360,341;,
 3;360,342,341;,
 3;358,345,361;,
 3;345,354,361;,
 3;360,348,362;,
 3;348,356,362;,
 3;346,358,352;,
 3;358,361,352;,
 3;349,360,351;,
 3;360,362,351;,
 3;1,358,361;,
 3;76,1,361;,
 3;2,360,362;,
 3;72,2,362;,
 3;352,1,75;,
 3;361,352,75;,
 3;351,2,71;,
 3;362,351,71;,
 3;76,352,361;,
 3;72,351,362;,
 3;71,72,362;,
 3;75,76,361;,
 3;363,353,354;,
 3;364,355,356;,
 3;363,347,354;,
 3;364,350,356;,
 3;319,320,4;,
 3;322,321,5;,
 3;320,323,4;,
 3;324,322,5;,
 3;323,325,4;,
 3;326,324,5;,
 3;325,327,4;,
 3;328,326,5;,
 3;334,319,4;,
 3;321,334,5;,
 3;53,54,365;,
 3;55,53,365;,
 3;58,56,365;,
 3;59,58,365;,
 3;60,59,365;,
 3;56,61,365;,
 3;62,60,365;,
 3;61,63,365;,
 3;64,62,365;,
 3;63,65,365;,
 3;66,64,365;,
 3;65,67,365;,
 3;68,66,365;,
 3;67,69,365;,
 3;54,68,365;,
 3;69,55,365;,
 3;126,84,173;,
 3;84,126,128;,
 3;114,88,170;,
 3;88,114,116;,
 3;173,84,83;,
 3;170,88,87;,
 3;83,120,119;,
 3;120,83,102;,
 3;87,124,123;,
 3;124,87,104;,
 3;102,132,120;,
 3;132,102,5;,
 3;104,134,124;,
 3;134,104,4;,
 3;83,119,173;,
 3;87,123,170;,
 3;85,84,90;,
 3;89,88,93;,
 3;92,91,96;,
 3;95,94,99;,
 3;98,97,103;,
 3;101,100,105;,
 3;82,102,83;,
 3;86,104,87;,
 3;99,94,150;,
 3;96,91,156;,
 3;105,100,154;,
 3;103,97,152;,
 3;93,88,116;,
 3;90,84,128;,
 3;100,99,166;,
 3;97,96,168;,
 3;104,105,4;,
 3;102,103,5;,
 3;94,93,138;,
 3;91,90,140;,
 3;168,160,97;,
 3;158,166,99;,
 3;164,168,96;,
 3;166,162,100;,
 3;156,164,96;,
 3;162,154,100;,
 3;160,152,97;,
 3;150,158,99;,
 3;148,156,91;,
 3;154,146,105;,
 3;152,144,103;,
 3;142,150,94;,
 3;140,148,91;,
 3;146,4,105;,
 3;144,5,103;,
 3;138,142,94;,
 3;136,140,90;,
 3;130,138,93;,
 3;128,136,90;,
 3;116,130,93;,
 3;181,180,107;,
 3;185,184,111;,
 3;187,108,107;,
 3;189,112,111;,
 3;180,191,107;,
 3;184,193,111;,
 3;195,187,107;,
 3;197,189,111;,
 3;191,199,107;,
 3;193,201,111;,
 3;203,195,107;,
 3;205,197,111;,
 3;199,207,107;,
 3;201,209,111;,
 3;211,203,107;,
 3;213,205,111;,
 3;207,215,107;,
 3;209,217,111;,
 3;219,211,107;,
 3;221,213,111;,
 3;215,223,107;,
 3;217,225,111;,
 3;223,227,107;,
 3;225,229,111;,
 3;227,219,107;,
 3;229,221,111;,
 3;106,181,107;,
 3;110,185,111;,
 3;235,366,367;,
 3;366,235,368;,
 3;235,367,369;,
 3;368,235,237;,
 3;235,369,232;,
 3;275,301,370;,
 3;301,272,370;,
 3;295,299,370;,
 3;299,297,370;,
 3;297,293,370;,
 3;291,295,370;,
 3;293,289,370;,
 3;287,291,370;,
 3;289,285,370;,
 3;283,287,370;,
 3;285,281,370;,
 3;279,283,370;,
 3;281,276,370;,
 3;271,279,370;,
 3;276,275,370;,
 3;272,271,370;,
 3;371,372,373;,
 3;374,375,376;,
 3;372,377,373;,
 3;375,378,376;,
 3;329,331,4;,
 3;332,330,5;,
 3;333,332,5;,
 3;331,333,4;,
 3;5,4,333;,
 3;334,4,5;,
 3;328,5,330;,
 3;4,327,329;,
 3;352,76,1;,
 3;351,72,2;,
 3;71,360,2;,
 3;75,358,1;,
 3;72,71,2;,
 3;76,75,1;,
 3;345,353,344;,
 3;348,355,343;,
 3;353,363,344;,
 3;355,364,343;,
 3;347,363,344;,
 3;350,364,343;,
 3;1,358,345;,
 3;344,1,345;,
 3;2,360,348;,
 3;2,343,348;,
 3;346,345,354;,
 3;349,348,356;,
 3;354,347,346;,
 3;356,350,349;,
 3;354,353,345;,
 3;356,355,348;,
 3;359,341,355;,
 3;357,337,353;,
 3;341,340,355;,
 3;337,336,353;,
 3;345,358,357;,
 3;348,360,359;,
 3;353,345,357;,
 3;355,348,359;,
 3;375,374,379;,
 3;372,371,380;,
 3;345,358,346;,
 3;348,360,349;,
 3;75,361,358;,
 3;71,362,360;,
 3;2,1,0;,
 3;2,0,3;,
 3;5,0,4;,
 3;5,3,0;,
 3;8,7,6;,
 3;8,6,9;,
 3;10,7,8;,
 3;10,8,11;,
 3;14,13,12;,
 3;14,12,15;,
 3;16,13,14;,
 3;16,14,17;,
 3;17,18,16;,
 3;17,19,18;,
 3;15,12,20;,
 3;15,20,21;,
 3;19,22,18;,
 3;19,23,22;,
 3;21,20,24;,
 3;21,24,25;,
 3;23,26,22;,
 3;23,27,26;,
 3;25,24,28;,
 3;25,28,29;,
 3;27,30,26;,
 3;27,31,30;,
 3;29,28,32;,
 3;29,32,33;,
 3;30,35,34;,
 3;30,31,35;,
 3;32,37,36;,
 3;32,36,33;,
 3;34,9,6;,
 3;34,35,9;,
 3;37,10,11;,
 3;37,11,36;,
 3;37,38,10;,
 3;37,39,38;,
 3;34,6,40;,
 3;34,40,41;,
 3;32,39,37;,
 3;32,42,39;,
 3;30,34,41;,
 3;30,41,43;,
 3;28,42,32;,
 3;28,44,42;,
 3;26,30,43;,
 3;26,43,45;,
 3;24,44,28;,
 3;24,46,44;,
 3;22,26,45;,
 3;22,45,47;,
 3;20,46,24;,
 3;20,48,46;,
 3;18,22,47;,
 3;18,47,49;,
 3;12,48,20;,
 3;12,50,48;,
 3;16,18,49;,
 3;16,49,51;,
 3;10,52,7;,
 3;10,38,52;,
 3;52,6,7;,
 3;52,40,6;,
 3;53,40,52;,
 3;53,54,40;,
 3;38,53,52;,
 3;38,55,53;,
 3;57,56,50;,
 3;57,58,56;,
 3;59,57,51;,
 3;59,58,57;,
 3;51,49,60;,
 3;51,60,59;,
 3;50,61,48;,
 3;50,56,61;,
 3;49,47,62;,
 3;49,62,60;,
 3;48,63,46;,
 3;48,61,63;,
 3;47,45,64;,
 3;47,64,62;,
 3;46,65,44;,
 3;46,63,65;,
 3;45,43,66;,
 3;45,66,64;,
 3;44,67,42;,
 3;44,65,67;,
 3;43,41,68;,
 3;43,68,66;,
 3;42,69,39;,
 3;42,67,69;,
 3;41,40,54;,
 3;41,54,68;,
 3;39,55,38;,
 3;39,69,55;,
 3;51,13,16;,
 3;51,57,13;,
 3;13,50,12;,
 3;13,57,50;,
 3;72,71,70;,
 3;72,70,73;,
 3;76,75,74;,
 3;76,74,77;,
 3;79,70,78;,
 3;79,73,70;,
 3;81,74,80;,
 3;81,77,74;,
 3;84,83,82;,
 3;84,82,85;,
 3;88,87,86;,
 3;88,86,89;,
 3;92,91,90;,
 3;92,90,85;,
 3;95,94,93;,
 3;95,93,89;,
 3;98,97,96;,
 3;98,96,92;,
 3;101,100,99;,
 3;101,99,95;,
 3;98,82,102;,
 3;98,102,103;,
 3;101,86,104;,
 3;101,104,105;,
 3;108,107,106;,
 3;108,106,109;,
 3;112,111,110;,
 3;112,110,113;,
 3;116,115,114;,
 3;116,117,115;,
 3;120,119,118;,
 3;120,118,121;,
 3;124,123,122;,
 3;124,122,125;,
 3;128,127,126;,
 3;128,129,127;,
 3;130,117,116;,
 3;130,131,117;,
 3;132,120,121;,
 3;132,121,133;,
 3;134,124,125;,
 3;134,125,135;,
 3;136,129,128;,
 3;136,137,129;,
 3;138,131,130;,
 3;138,139,131;,
 3;5,132,133;,
 3;5,133,3;,
 3;4,134,135;,
 3;4,135,0;,
 3;140,137,136;,
 3;140,141,137;,
 3;142,139,138;,
 3;142,143,139;,
 3;145,144,5;,
 3;145,5,3;,
 3;147,146,4;,
 3;147,4,0;,
 3;148,141,140;,
 3;148,149,141;,
 3;150,143,142;,
 3;150,151,143;,
 3;152,144,145;,
 3;152,145,153;,
 3;154,146,147;,
 3;154,147,155;,
 3;156,149,148;,
 3;156,157,149;,
 3;158,151,150;,
 3;158,159,151;,
 3;160,152,153;,
 3;160,153,161;,
 3;162,154,155;,
 3;162,155,163;,
 3;164,157,156;,
 3;164,165,157;,
 3;163,166,162;,
 3;163,167,166;,
 3;165,164,168;,
 3;165,168,169;,
 3;166,159,158;,
 3;166,167,159;,
 3;168,160,161;,
 3;168,161,169;,
 3;114,171,170;,
 3;114,115,171;,
 3;119,173,172;,
 3;119,172,118;,
 3;171,123,170;,
 3;171,122,123;,
 3;172,173,126;,
 3;172,126,127;,
 3;108,175,174;,
 3;108,109,175;,
 3;112,177,176;,
 3;112,113,177;,
 3;180,179,178;,
 3;180,178,181;,
 3;184,183,182;,
 3;184,182,185;,
 3;187,174,186;,
 3;187,108,174;,
 3;189,176,188;,
 3;189,112,176;,
 3;191,190,179;,
 3;191,179,180;,
 3;193,192,183;,
 3;193,183,184;,
 3;195,186,194;,
 3;195,187,186;,
 3;197,188,196;,
 3;197,189,188;,
 3;199,198,190;,
 3;199,190,191;,
 3;201,200,192;,
 3;201,192,193;,
 3;203,194,202;,
 3;203,195,194;,
 3;205,196,204;,
 3;205,197,196;,
 3;207,206,198;,
 3;207,198,199;,
 3;209,208,200;,
 3;209,200,201;,
 3;211,202,210;,
 3;211,203,202;,
 3;213,204,212;,
 3;213,205,204;,
 3;215,214,206;,
 3;215,206,207;,
 3;217,216,208;,
 3;217,208,209;,
 3;218,211,210;,
 3;218,219,211;,
 3;220,213,212;,
 3;220,221,213;,
 3;222,214,215;,
 3;222,215,223;,
 3;224,216,217;,
 3;224,217,225;,
 3;222,227,226;,
 3;222,223,227;,
 3;224,229,228;,
 3;224,225,229;,
 3;227,218,226;,
 3;227,219,218;,
 3;229,220,228;,
 3;229,221,220;,
 3;109,230,175;,
 3;109,106,230;,
 3;113,231,177;,
 3;113,110,231;,
 3;230,181,178;,
 3;230,106,181;,
 3;231,185,182;,
 3;231,110,185;,
 3;234,233,232;,
 3;234,232,235;,
 3;238,237,236;,
 3;238,235,237;,
 3;241,240,239;,
 3;241,239,242;,
 3;245,244,243;,
 3;245,246,244;,
 3;248,247,240;,
 3;248,240,241;,
 3;250,243,249;,
 3;250,245,243;,
 3;252,251,247;,
 3;252,247,248;,
 3;254,249,253;,
 3;254,250,249;,
 3;256,255,251;,
 3;256,251,252;,
 3;258,253,257;,
 3;258,254,253;,
 3;259,255,256;,
 3;259,256,260;,
 3;261,258,257;,
 3;261,262,258;,
 3;263,259,260;,
 3;263,260,264;,
 3;265,262,261;,
 3;265,266,262;,
 3;266,265,267;,
 3;266,267,268;,
 3;267,263,264;,
 3;267,264,268;,
 3;242,239,269;,
 3;242,269,270;,
 3;269,244,246;,
 3;269,246,270;,
 3;273,272,271;,
 3;273,274,272;,
 3;277,276,275;,
 3;277,275,278;,
 3;280,271,279;,
 3;280,273,271;,
 3;282,281,276;,
 3;282,276,277;,
 3;284,279,283;,
 3;284,280,279;,
 3;286,285,281;,
 3;286,281,282;,
 3;287,284,283;,
 3;287,288,284;,
 3;289,285,286;,
 3;289,286,290;,
 3;291,288,287;,
 3;291,292,288;,
 3;293,289,290;,
 3;293,290,294;,
 3;295,292,291;,
 3;295,296,292;,
 3;297,293,294;,
 3;297,294,298;,
 3;298,299,297;,
 3;298,300,299;,
 3;299,296,295;,
 3;299,300,296;,
 3;274,301,272;,
 3;274,302,301;,
 3;301,278,275;,
 3;301,302,278;,
 3;302,303,278;,
 3;302,304,303;,
 3;305,302,274;,
 3;305,304,302;,
 3;300,306,296;,
 3;300,307,306;,
 3;308,300,298;,
 3;308,307,300;,
 3;298,294,309;,
 3;298,309,308;,
 3;296,310,292;,
 3;296,306,310;,
 3;294,290,311;,
 3;294,311,309;,
 3;292,312,288;,
 3;292,310,312;,
 3;290,286,313;,
 3;290,313,311;,
 3;288,314,284;,
 3;288,312,314;,
 3;313,286,282;,
 3;313,282,315;,
 3;314,280,284;,
 3;314,316,280;,
 3;315,282,277;,
 3;315,277,317;,
 3;316,273,280;,
 3;316,318,273;,
 3;317,277,278;,
 3;317,278,303;,
 3;318,274,273;,
 3;318,305,274;,
 3;241,305,318;,
 3;241,242,305;,
 3;245,317,303;,
 3;245,303,246;,
 3;248,318,316;,
 3;248,241,318;,
 3;250,315,317;,
 3;250,317,245;,
 3;252,316,314;,
 3;252,248,316;,
 3;254,313,315;,
 3;254,315,250;,
 3;312,252,314;,
 3;312,256,252;,
 3;311,313,254;,
 3;311,254,258;,
 3;310,256,312;,
 3;310,260,256;,
 3;309,311,258;,
 3;309,258,262;,
 3;306,260,310;,
 3;306,264,260;,
 3;308,309,262;,
 3;308,262,266;,
 3;266,307,308;,
 3;266,268,307;,
 3;307,264,306;,
 3;307,268,264;,
 3;242,304,305;,
 3;242,270,304;,
 3;304,246,303;,
 3;304,270,246;,
 3;36,11,319;,
 3;36,319,320;,
 3;35,321,9;,
 3;35,322,321;,
 3;33,36,320;,
 3;33,320,323;,
 3;31,322,35;,
 3;31,324,322;,
 3;29,33,323;,
 3;29,323,325;,
 3;27,324,31;,
 3;27,326,324;,
 3;25,29,325;,
 3;25,325,327;,
 3;23,326,27;,
 3;23,328,326;,
 3;21,25,327;,
 3;21,327,329;,
 3;19,328,23;,
 3;19,330,328;,
 3;15,21,329;,
 3;15,329,331;,
 3;17,330,19;,
 3;17,332,330;,
 3;17,14,333;,
 3;17,333,332;,
 3;333,14,15;,
 3;333,15,331;,
 3;11,8,334;,
 3;11,334,319;,
 3;334,8,9;,
 3;334,9,321;,
 3;337,336,335;,
 3;337,335,338;,
 3;341,340,339;,
 3;341,339,342;,
 3;1,2,343;,
 3;1,343,344;,
 3;346,345,344;,
 3;346,344,347;,
 3;349,348,343;,
 3;349,343,350;,
 3;344,343,350;,
 3;344,350,347;,
 3;349,348,2;,
 3;349,2,351;,
 3;346,345,1;,
 3;346,1,352;,
 3;354,353,344;,
 3;354,344,347;,
 3;356,355,343;,
 3;356,343,350;,
 3;337,358,357;,
 3;337,338,358;,
 3;341,360,359;,
 3;341,342,360;,
 3;361,345,358;,
 3;361,354,345;,
 3;362,348,360;,
 3;362,356,348;,
 3;352,358,346;,
 3;352,361,358;,
 3;351,360,349;,
 3;351,362,360;,
 3;361,358,1;,
 3;361,1,76;,
 3;362,360,2;,
 3;362,2,72;,
 3;75,1,352;,
 3;75,352,361;,
 3;71,2,351;,
 3;71,351,362;,
 3;361,352,76;,
 3;362,351,72;,
 3;362,72,71;,
 3;361,76,75;,
 3;354,353,363;,
 3;356,355,364;,
 3;354,347,363;,
 3;356,350,364;,
 3;4,320,319;,
 3;5,321,322;,
 3;4,323,320;,
 3;5,322,324;,
 3;4,325,323;,
 3;5,324,326;,
 3;4,327,325;,
 3;5,326,328;,
 3;4,319,334;,
 3;5,334,321;,
 3;365,54,53;,
 3;365,53,55;,
 3;365,56,58;,
 3;365,58,59;,
 3;365,59,60;,
 3;365,61,56;,
 3;365,60,62;,
 3;365,63,61;,
 3;365,62,64;,
 3;365,65,63;,
 3;365,64,66;,
 3;365,67,65;,
 3;365,66,68;,
 3;365,69,67;,
 3;365,68,54;,
 3;365,55,69;,
 3;173,84,126;,
 3;128,126,84;,
 3;170,88,114;,
 3;116,114,88;,
 3;83,84,173;,
 3;87,88,170;,
 3;119,120,83;,
 3;102,83,120;,
 3;123,124,87;,
 3;104,87,124;,
 3;120,132,102;,
 3;5,102,132;,
 3;124,134,104;,
 3;4,104,134;,
 3;173,119,83;,
 3;170,123,87;,
 3;90,84,85;,
 3;93,88,89;,
 3;96,91,92;,
 3;99,94,95;,
 3;103,97,98;,
 3;105,100,101;,
 3;83,102,82;,
 3;87,104,86;,
 3;150,94,99;,
 3;156,91,96;,
 3;154,100,105;,
 3;152,97,103;,
 3;116,88,93;,
 3;128,84,90;,
 3;166,99,100;,
 3;168,96,97;,
 3;4,105,104;,
 3;5,103,102;,
 3;138,93,94;,
 3;140,90,91;,
 3;97,160,168;,
 3;99,166,158;,
 3;96,168,164;,
 3;100,162,166;,
 3;96,164,156;,
 3;100,154,162;,
 3;97,152,160;,
 3;99,158,150;,
 3;91,156,148;,
 3;105,146,154;,
 3;103,144,152;,
 3;94,150,142;,
 3;91,148,140;,
 3;105,4,146;,
 3;103,5,144;,
 3;94,142,138;,
 3;90,140,136;,
 3;93,138,130;,
 3;90,136,128;,
 3;93,130,116;,
 3;107,180,181;,
 3;111,184,185;,
 3;107,108,187;,
 3;111,112,189;,
 3;107,191,180;,
 3;111,193,184;,
 3;107,187,195;,
 3;111,189,197;,
 3;107,199,191;,
 3;111,201,193;,
 3;107,195,203;,
 3;111,197,205;,
 3;107,207,199;,
 3;111,209,201;,
 3;107,203,211;,
 3;111,205,213;,
 3;107,215,207;,
 3;111,217,209;,
 3;107,211,219;,
 3;111,213,221;,
 3;107,223,215;,
 3;111,225,217;,
 3;107,227,223;,
 3;111,229,225;,
 3;107,219,227;,
 3;111,221,229;,
 3;107,181,106;,
 3;111,185,110;,
 3;367,366,235;,
 3;368,235,366;,
 3;369,367,235;,
 3;237,235,368;,
 3;232,369,235;,
 3;370,301,275;,
 3;370,272,301;,
 3;370,299,295;,
 3;370,297,299;,
 3;370,293,297;,
 3;370,295,291;,
 3;370,289,293;,
 3;370,291,287;,
 3;370,285,289;,
 3;370,287,283;,
 3;370,281,285;,
 3;370,283,279;,
 3;370,276,281;,
 3;370,279,271;,
 3;370,275,276;,
 3;370,271,272;,
 3;373,372,371;,
 3;376,375,374;,
 3;373,377,372;,
 3;376,378,375;,
 3;4,331,329;,
 3;5,330,332;,
 3;5,332,333;,
 3;4,333,331;,
 3;333,4,5;,
 3;5,4,334;,
 3;330,5,328;,
 3;329,327,4;,
 3;1,76,352;,
 3;2,72,351;,
 3;2,360,71;,
 3;1,358,75;,
 3;2,71,72;,
 3;1,75,76;,
 3;344,353,345;,
 3;343,355,348;,
 3;344,363,353;,
 3;343,364,355;,
 3;344,363,347;,
 3;343,364,350;,
 3;345,358,1;,
 3;345,1,344;,
 3;348,360,2;,
 3;348,343,2;,
 3;354,345,346;,
 3;356,348,349;,
 3;346,347,354;,
 3;349,350,356;,
 3;345,353,354;,
 3;348,355,356;,
 3;355,341,359;,
 3;353,337,357;,
 3;355,340,341;,
 3;353,336,337;,
 3;357,358,345;,
 3;359,360,348;,
 3;357,345,353;,
 3;359,348,355;,
 3;379,374,375;,
 3;380,371,372;,
 3;346,358,345;,
 3;349,360,348;,
 3;358,361,75;,
 3;360,362,71;;
 
 MeshMaterialList {
  3;
  1294;
  1,
  1,
  1,
  1,
  1,
  1,
  1,
  1,
  1,
  1,
  1,
  1,
  1,
  1,
  1,
  1,
  1,
  1,
  1,
  1,
  1,
  1,
  1,
  1,
  1,
  1,
  1,
  1,
  1,
  1,
  1,
  1,
  1,
  1,
  1,
  1,
  1,
  1,
  1,
  1,
  1,
  1,
  1,
  1,
  1,
  1,
  1,
  1,
  1,
  1,
  1,
  1,
  1,
  1,
  1,
  1,
  1,
  1,
  1,
  1,
  1,
  1,
  1,
  1,
  1,
  1,
  1,
  1,
  1,
  1,
  1,
  1,
  1,
  1,
  1,
  1,
  1,
  1,
  1,
  1,
  1,
  1,
  1,
  1,
  1,
  1,
  1,
  1,
  1,
  1,
  1,
  1,
  1,
  1,
  1,
  1,
  1,
  1,
  1,
  1,
  1,
  1,
  1,
  1,
  1,
  1,
  1,
  1,
  1,
  1,
  1,
  1,
  1,
  1,
  1,
  1,
  1,
  1,
  1,
  1,
  1,
  1,
  1,
  1,
  2,
  2,
  2,
  2,
  1,
  1,
  1,
  1,
  1,
  1,
  1,
  1,
  1,
  1,
  1,
  1,
  1,
  1,
  1,
  1,
  1,
  1,
  1,
  1,
  1,
  1,
  1,
  1,
  1,
  1,
  1,
  1,
  1,
  1,
  1,
  1,
  1,
  1,
  1,
  1,
  1,
  1,
  1,
  1,
  1,
  1,
  1,
  1,
  1,
  1,
  1,
  1,
  1,
  1,
  1,
  1,
  1,
  1,
  1,
  1,
  1,
  1,
  1,
  1,
  1,
  1,
  1,
  1,
  2,
  2,
  2,
  2,
  2,
  2,
  2,
  2,
  2,
  2,
  2,
  2,
  2,
  2,
  2,
  2,
  2,
  2,
  2,
  2,
  2,
  2,
  2,
  2,
  2,
  2,
  2,
  2,
  2,
  2,
  2,
  2,
  2,
  2,
  2,
  2,
  2,
  2,
  2,
  2,
  2,
  2,
  2,
  2,
  2,
  2,
  2,
  2,
  2,
  2,
  2,
  2,
  2,
  2,
  2,
  2,
  2,
  2,
  2,
  2,
  2,
  2,
  2,
  2,
  1,
  1,
  1,
  1,
  0,
  0,
  0,
  0,
  0,
  0,
  0,
  0,
  0,
  0,
  0,
  0,
  0,
  0,
  0,
  0,
  0,
  0,
  0,
  0,
  0,
  0,
  0,
  0,
  0,
  0,
  0,
  0,
  0,
  0,
  0,
  0,
  0,
  0,
  0,
  0,
  0,
  0,
  0,
  0,
  0,
  0,
  0,
  0,
  0,
  0,
  0,
  0,
  0,
  0,
  0,
  0,
  0,
  0,
  0,
  0,
  0,
  0,
  0,
  0,
  0,
  0,
  0,
  0,
  0,
  0,
  0,
  0,
  0,
  0,
  0,
  0,
  0,
  0,
  0,
  0,
  0,
  0,
  0,
  0,
  0,
  0,
  0,
  0,
  0,
  0,
  0,
  0,
  0,
  0,
  0,
  0,
  0,
  0,
  0,
  0,
  0,
  0,
  0,
  0,
  0,
  0,
  0,
  0,
  0,
  0,
  0,
  0,
  0,
  0,
  0,
  0,
  0,
  0,
  0,
  0,
  0,
  0,
  0,
  0,
  0,
  0,
  0,
  0,
  0,
  0,
  0,
  0,
  1,
  1,
  1,
  1,
  1,
  1,
  1,
  1,
  1,
  1,
  1,
  1,
  1,
  1,
  1,
  1,
  1,
  1,
  1,
  1,
  1,
  1,
  1,
  1,
  1,
  1,
  1,
  1,
  1,
  1,
  1,
  1,
  1,
  1,
  1,
  1,
  1,
  1,
  1,
  1,
  1,
  1,
  1,
  1,
  1,
  1,
  1,
  1,
  1,
  1,
  1,
  1,
  1,
  1,
  1,
  1,
  1,
  1,
  1,
  1,
  1,
  1,
  1,
  1,
  1,
  1,
  1,
  1,
  1,
  1,
  1,
  1,
  1,
  1,
  1,
  1,
  1,
  1,
  1,
  1,
  1,
  1,
  1,
  1,
  1,
  1,
  1,
  1,
  1,
  1,
  1,
  1,
  1,
  1,
  1,
  1,
  1,
  1,
  1,
  1,
  1,
  1,
  1,
  1,
  1,
  1,
  1,
  1,
  1,
  1,
  1,
  1,
  1,
  1,
  1,
  1,
  1,
  1,
  1,
  1,
  1,
  1,
  1,
  1,
  1,
  1,
  1,
  1,
  1,
  1,
  1,
  1,
  1,
  1,
  1,
  1,
  1,
  1,
  1,
  1,
  1,
  1,
  1,
  1,
  1,
  1,
  1,
  1,
  1,
  1,
  1,
  1,
  1,
  1,
  1,
  1,
  1,
  1,
  1,
  1,
  1,
  1,
  2,
  2,
  2,
  2,
  2,
  2,
  2,
  2,
  2,
  2,
  2,
  2,
  2,
  2,
  2,
  2,
  2,
  2,
  2,
  2,
  2,
  2,
  2,
  2,
  2,
  2,
  2,
  2,
  1,
  1,
  1,
  1,
  1,
  0,
  0,
  0,
  0,
  0,
  0,
  0,
  0,
  0,
  0,
  0,
  0,
  0,
  0,
  0,
  0,
  1,
  1,
  1,
  1,
  1,
  1,
  1,
  1,
  1,
  1,
  1,
  1,
  1,
  1,
  1,
  1,
  1,
  1,
  1,
  1,
  1,
  1,
  1,
  1,
  1,
  1,
  1,
  1,
  1,
  1,
  1,
  1,
  1,
  1,
  1,
  1,
  1,
  1,
  1,
  1,
  1,
  1,
  1,
  1,
  1,
  1,
  1,
  1,
  1,
  1,
  1,
  1,
  1,
  1,
  1,
  1,
  1,
  1,
  1,
  1,
  1,
  1,
  1,
  1,
  1,
  1,
  1,
  1,
  1,
  1,
  1,
  1,
  1,
  1,
  1,
  1,
  1,
  1,
  1,
  1,
  1,
  1,
  1,
  1,
  1,
  1,
  1,
  1,
  1,
  1,
  1,
  1,
  1,
  1,
  1,
  1,
  1,
  1,
  1,
  1,
  1,
  1,
  1,
  1,
  1,
  1,
  1,
  1,
  1,
  1,
  1,
  1,
  1,
  1,
  1,
  1,
  1,
  1,
  1,
  1,
  1,
  1,
  1,
  1,
  1,
  1,
  1,
  1,
  1,
  1,
  1,
  1,
  1,
  1,
  1,
  1,
  1,
  1,
  1,
  1,
  1,
  1,
  1,
  1,
  1,
  1,
  1,
  1,
  1,
  1,
  1,
  1,
  1,
  1,
  1,
  1,
  1,
  1,
  1,
  1,
  1,
  1,
  1,
  1,
  1,
  1,
  1,
  1,
  1,
  1,
  1,
  1,
  2,
  2,
  2,
  2,
  1,
  1,
  1,
  1,
  1,
  1,
  1,
  1,
  1,
  1,
  1,
  1,
  1,
  1,
  1,
  1,
  1,
  1,
  1,
  1,
  1,
  1,
  1,
  1,
  1,
  1,
  1,
  1,
  1,
  1,
  1,
  1,
  1,
  1,
  1,
  1,
  1,
  1,
  1,
  1,
  1,
  1,
  1,
  1,
  1,
  1,
  1,
  1,
  1,
  1,
  1,
  1,
  1,
  1,
  1,
  1,
  1,
  1,
  1,
  1,
  1,
  1,
  1,
  1,
  2,
  2,
  2,
  2,
  2,
  2,
  2,
  2,
  2,
  2,
  2,
  2,
  2,
  2,
  2,
  2,
  2,
  2,
  2,
  2,
  2,
  2,
  2,
  2,
  2,
  2,
  2,
  2,
  2,
  2,
  2,
  2,
  2,
  2,
  2,
  2,
  2,
  2,
  2,
  2,
  2,
  2,
  2,
  2,
  2,
  2,
  2,
  2,
  2,
  2,
  2,
  2,
  2,
  2,
  2,
  2,
  2,
  2,
  2,
  2,
  2,
  2,
  2,
  2,
  1,
  1,
  1,
  1,
  0,
  0,
  0,
  0,
  0,
  0,
  0,
  0,
  0,
  0,
  0,
  0,
  0,
  0,
  0,
  0,
  0,
  0,
  0,
  0,
  0,
  0,
  0,
  0,
  0,
  0,
  0,
  0,
  0,
  0,
  0,
  0,
  0,
  0,
  0,
  0,
  0,
  0,
  0,
  0,
  0,
  0,
  0,
  0,
  0,
  0,
  0,
  0,
  0,
  0,
  0,
  0,
  0,
  0,
  0,
  0,
  0,
  0,
  0,
  0,
  0,
  0,
  0,
  0,
  0,
  0,
  0,
  0,
  0,
  0,
  0,
  0,
  0,
  0,
  0,
  0,
  0,
  0,
  0,
  0,
  0,
  0,
  0,
  0,
  0,
  0,
  0,
  0,
  0,
  0,
  0,
  0,
  0,
  0,
  0,
  0,
  0,
  0,
  0,
  0,
  0,
  0,
  0,
  0,
  0,
  0,
  0,
  0,
  0,
  0,
  0,
  0,
  0,
  0,
  0,
  0,
  0,
  0,
  0,
  0,
  0,
  0,
  0,
  0,
  0,
  0,
  0,
  0,
  1,
  1,
  1,
  1,
  1,
  1,
  1,
  1,
  1,
  1,
  1,
  1,
  1,
  1,
  1,
  1,
  1,
  1,
  1,
  1,
  1,
  1,
  1,
  1,
  1,
  1,
  1,
  1,
  1,
  1,
  1,
  1,
  1,
  1,
  1,
  1,
  1,
  1,
  1,
  1,
  1,
  1,
  1,
  1,
  1,
  1,
  1,
  1,
  1,
  1,
  1,
  1,
  1,
  1,
  1,
  1,
  1,
  1,
  1,
  1,
  1,
  1,
  1,
  1,
  1,
  1,
  1,
  1,
  1,
  1,
  1,
  1,
  1,
  1,
  1,
  1,
  1,
  1,
  1,
  1,
  1,
  1,
  1,
  1,
  1,
  1,
  1,
  1,
  1,
  1,
  1,
  1,
  1,
  1,
  1,
  1,
  1,
  1,
  1,
  1,
  1,
  1,
  1,
  1,
  1,
  1,
  1,
  1,
  1,
  1,
  1,
  1,
  1,
  1,
  1,
  1,
  1,
  1,
  1,
  1,
  1,
  1,
  1,
  1,
  1,
  1,
  1,
  1,
  1,
  1,
  1,
  1,
  1,
  1,
  1,
  1,
  1,
  1,
  1,
  1,
  1,
  1,
  1,
  1,
  1,
  1,
  1,
  1,
  1,
  1,
  1,
  1,
  1,
  1,
  1,
  1,
  1,
  1,
  1,
  1,
  1,
  1,
  2,
  2,
  2,
  2,
  2,
  2,
  2,
  2,
  2,
  2,
  2,
  2,
  2,
  2,
  2,
  2,
  2,
  2,
  2,
  2,
  2,
  2,
  2,
  2,
  2,
  2,
  2,
  2,
  1,
  1,
  1,
  1,
  1,
  0,
  0,
  0,
  0,
  0,
  0,
  0,
  0,
  0,
  0,
  0,
  0,
  0,
  0,
  0,
  0,
  1,
  1,
  1,
  1,
  1,
  1,
  1,
  1,
  1,
  1,
  1,
  1,
  1,
  1,
  1,
  1,
  1,
  1,
  1,
  1,
  1,
  1,
  1,
  1,
  1,
  1,
  1,
  1,
  1,
  1,
  1,
  1,
  1,
  1,
  1,
  1,
  1,
  1,
  1,
  1,
  1,
  1,
  1,
  1,
  1,
  1,
  1,
  1;;
  Material {
   0.447000;0.380000;0.416000;0.440000;;
   28.000000;
   1.000000;1.000000;1.000000;;
   0.000000;0.000000;0.000000;;
  }
  Material {
   0.976471;0.984314;1.000000;1.000000;;
   0.000000;
   0.000000;0.000000;0.000000;;
   0.000000;0.000000;0.000000;;
   TextureFilename {
    "C:\\Users\\student\\Documents\\Visual Studio 2015\\Projects\\shooting3D\\data\\TEXTURE\\F_15.bmp";
   }
  }
  Material {
   0.439000;0.439000;0.439000;1.000000;;
   5.000000;
   0.000000;0.000000;0.000000;;
   0.109750;0.109750;0.109750;;
  }
 }
 MeshNormals {
  790;
  0.016633;-0.992141;-0.124013;,
  -0.129749;-0.984616;-0.117028;,
  0.162551;-0.981481;-0.101354;,
  0.016632;-0.992141;-0.124013;,
  -0.547582;0.831229;0.095980;,
  0.593865;0.801359;0.071753;,
  0.308197;0.946756;-0.093103;,
  -0.016519;0.999374;-0.031270;,
  -0.016356;0.995298;-0.095468;,
  0.358900;0.933068;-0.023991;,
  -0.339128;0.936025;-0.094073;,
  -0.389560;0.920659;-0.025112;,
  -0.361149;-0.932445;-0.010886;,
  0.016581;-0.999854;-0.004057;,
  0.016584;-0.999848;-0.005359;,
  -0.374968;-0.927023;-0.005123;,
  0.391889;-0.919961;-0.009758;,
  0.405503;-0.914085;-0.003954;,
  0.715039;-0.698715;-0.022721;,
  0.748179;-0.663413;-0.010583;,
  -0.691416;-0.722030;-0.024828;,
  -0.725742;-0.687848;-0.012791;,
  0.925522;-0.376481;-0.040887;,
  0.944036;-0.329393;-0.017226;,
  -0.912407;-0.406951;-0.043640;,
  -0.932544;-0.360501;-0.020038;,
  0.998058;0.011696;-0.061188;,
  0.995896;0.087655;-0.022520;,
  -0.997709;-0.021386;-0.064177;,
  -0.998183;0.054600;-0.025507;,
  0.897592;0.434689;-0.073308;,
  0.886829;0.461677;-0.019697;,
  -0.911284;0.404700;-0.076018;,
  -0.901580;0.432033;-0.022376;,
  0.641481;0.762196;-0.086940;,
  0.676984;0.735573;-0.025000;,
  -0.700916;0.712730;-0.027064;,
  -0.666133;0.740516;-0.088899;,
  -0.396837;0.898193;-0.189131;,
  -0.708434;0.683588;-0.175583;,
  0.367411;0.910863;-0.187985;,
  0.685908;0.706704;-0.173493;,
  -0.916296;0.369027;-0.155630;,
  0.904026;0.399196;-0.152903;,
  -0.991175;-0.019897;-0.131059;,
  0.991678;0.012986;-0.128087;,
  -0.909906;-0.401203;-0.105390;,
  0.923018;-0.370813;-0.102642;,
  -0.692144;-0.716760;-0.084805;,
  0.715768;-0.693425;-0.082696;,
  -0.361007;-0.929914;-0.070249;,
  0.391841;-0.917433;-0.069122;,
  -0.016044;0.983945;-0.177751;,
  -0.015586;0.964003;-0.265434;,
  0.395963;0.879364;-0.264446;,
  -0.424104;0.865767;-0.265676;,
  0.016640;-0.996238;-0.085049;,
  -0.318025;-0.928687;-0.190787;,
  0.016531;-0.978830;-0.204006;,
  0.349206;-0.917625;-0.189788;,
  0.675199;-0.710748;-0.197343;,
  -0.650681;-0.732722;-0.199329;,
  0.892939;-0.398777;-0.208896;,
  -0.878612;-0.428122;-0.211549;,
  0.973867;-0.029272;-0.225225;,
  -0.971681;-0.061538;-0.228141;,
  0.902595;0.356880;-0.240746;,
  -0.913204;0.326772;-0.243470;,
  0.700184;0.667170;-0.254218;,
  -0.721142;0.643615;-0.256349;,
  -0.016621;0.999077;0.039608;,
  -0.187863;0.979384;0.074254;,
  -0.170747;0.984778;0.032521;,
  -0.016621;0.999077;0.039610;,
  0.016622;-0.999077;-0.039610;,
  -0.155077;-0.985069;-0.074769;,
  -0.137913;-0.989895;-0.032983;,
  0.016622;-0.999077;-0.039610;,
  -0.016620;0.999077;0.039607;,
  -0.016623;0.999077;0.039609;,
  0.016617;-0.999077;-0.039613;,
  0.016617;-0.999077;-0.039613;,
  -0.268731;0.963213;0.001857;,
  0.314299;0.948931;0.027333;,
  -0.400123;0.916423;-0.008397;,
  0.366888;0.929885;0.026586;,
  -0.236650;-0.971591;-0.002614;,
  0.345661;-0.937990;-0.026344;,
  -0.369551;-0.929182;0.007244;,
  0.397587;-0.917212;-0.025441;,
  0.937482;0.345911;0.038373;,
  0.971426;-0.237078;0.011236;,
  0.929042;-0.368653;0.031221;,
  0.948544;-0.314644;-0.035548;,
  0.963063;0.269146;-0.008337;,
  0.916402;0.399246;-0.028456;,
  0.343214;-0.939205;-0.009933;,
  -0.236422;-0.970847;-0.039503;,
  -0.365590;-0.929604;-0.046704;,
  0.311863;0.950064;0.010914;,
  -0.268590;0.962475;0.038747;,
  -0.396341;0.916972;0.045562;,
  -0.953324;0.296406;-0.057592;,
  -0.916478;-0.393932;-0.069903;,
  -0.943144;-0.327844;0.054751;,
  -0.929237;0.363332;0.067137;,
  0.044492;-0.771708;-0.634419;,
  0.550645;-0.623377;-0.555150;,
  0.202178;-0.155557;-0.966916;,
  -0.011007;0.012859;-0.999857;,
  0.032973;-0.932271;-0.360254;,
  0.653209;-0.657879;-0.374852;,
  0.202174;-0.155554;-0.966917;,
  -0.011047;0.012912;-0.999856;,
  0.367958;-0.929421;-0.027994;,
  0.695395;-0.717802;-0.034429;,
  -0.695877;0.718127;-0.007033;,
  -0.368175;0.929705;0.009802;,
  -0.359288;-0.896080;-0.260677;,
  -0.671706;-0.740801;0.004985;,
  -0.337125;-0.941397;-0.010859;,
  -0.670345;-0.694901;-0.260289;,
  0.336864;0.941105;0.029050;,
  0.671114;0.740457;0.036476;,
  0.359286;0.896080;0.260679;,
  0.670352;0.694894;0.260289;,
  0.911072;-0.410647;-0.036287;,
  0.895227;-0.363431;-0.257849;,
  -0.916575;0.399801;-0.006975;,
  -0.896682;0.359919;0.257719;,
  -0.902836;-0.429963;0.004249;,
  -0.883483;-0.389432;-0.260385;,
  0.896844;0.440624;0.038995;,
  0.881911;0.392894;0.260514;,
  0.999189;-0.017414;-0.036303;,
  0.965652;0.016714;-0.259300;,
  0.997949;0.050525;0.039294;,
  0.964894;0.015298;0.262194;,
  0.929464;0.367544;-0.031742;,
  0.884489;0.387901;-0.259253;,
  -0.900507;-0.367562;0.232346;,
  -0.921347;-0.388230;-0.019938;,
  -0.911496;0.337524;-0.235059;,
  -0.933765;0.357475;0.017159;,
  0.941038;-0.336532;0.034543;,
  0.896078;-0.358385;0.261922;,
  0.719275;0.694364;-0.022405;,
  0.655956;0.711771;-0.251205;,
  -0.719207;-0.694534;-0.019058;,
  -0.655948;-0.711778;0.251206;,
  -0.741890;0.670310;0.016869;,
  -0.678428;0.689655;-0.253204;,
  0.741822;-0.670145;0.024593;,
  0.678428;-0.689654;0.253206;,
  0.400484;0.916148;-0.016903;,
  0.323680;0.904241;-0.278530;,
  -0.400460;-0.916314;-0.000850;,
  -0.323677;-0.904243;0.278529;,
  -0.430612;0.902537;-0.000395;,
  -0.352641;0.893030;-0.279540;,
  0.430579;-0.902371;0.018148;,
  0.352636;-0.893030;0.279543;,
  -0.016545;0.999853;-0.004575;,
  -0.015479;0.958827;-0.283568;,
  0.016594;-0.999852;0.004575;,
  0.015469;-0.958827;0.283568;,
  0.016533;-0.999723;-0.016754;,
  -0.016663;0.999721;0.016754;,
  -0.749881;0.640902;0.164080;,
  -0.454599;0.874955;0.166715;,
  -0.749873;0.640912;0.164082;,
  -0.454587;0.874960;0.166716;,
  0.424833;0.889540;0.168032;,
  0.727718;0.665411;0.166296;,
  0.424842;0.889536;0.168032;,
  0.727726;0.665403;0.166295;,
  -0.935985;0.312323;0.162436;,
  -0.935985;0.312325;0.162438;,
  0.924626;0.343172;0.165225;,
  0.924626;0.343171;0.165225;,
  -0.982784;-0.087577;0.162683;,
  -0.982786;-0.087561;0.162682;,
  0.984656;-0.054955;0.165628;,
  0.984656;-0.054952;0.165629;,
  -0.876195;-0.453543;0.163036;,
  -0.876191;-0.453551;0.163038;,
  0.890251;-0.424267;0.165684;,
  0.890250;-0.424268;0.165685;,
  -0.683350;-0.711047;0.165663;,
  -0.683346;-0.711051;0.165664;,
  0.706046;-0.688012;0.167746;,
  0.706043;-0.688015;0.167746;,
  -0.358580;-0.918257;0.168001;,
  -0.358581;-0.918257;0.167999;,
  0.388317;-0.905875;0.169118;,
  0.388315;-0.905875;0.169118;,
  0.016081;-0.985335;0.169873;,
  0.016080;-0.985335;0.169870;,
  -0.016582;0.985395;0.169477;,
  -0.016592;0.985395;0.169477;,
  -0.903344;0.426845;0.042100;,
  -0.922828;0.384254;0.027152;,
  -0.929090;0.369642;-0.012492;,
  -0.781618;0.618804;0.078459;,
  0.916362;0.400233;-0.009726;,
  0.909499;0.414629;0.029898;,
  0.888570;0.456549;0.044785;,
  0.810720;0.345175;-0.472849;,
  0.952488;0.072561;-0.295805;,
  0.951747;0.211761;-0.222115;,
  0.800589;0.119985;-0.587078;,
  -0.957573;0.180114;-0.224974;,
  -0.953480;0.040967;-0.298660;,
  -0.820296;0.318143;-0.475290;,
  -0.802363;0.093413;-0.589480;,
  0.990364;0.046834;-0.130325;,
  0.983668;0.159157;-0.084060;,
  -0.988146;0.126472;-0.087014;,
  -0.990978;0.013989;-0.133293;,
  0.999915;0.011461;-0.006279;,
  0.991319;0.128998;0.025411;,
  -0.995122;0.096070;0.022435;,
  -0.999722;-0.021689;-0.009275;,
  0.992126;0.022191;0.123261;,
  0.985912;0.116233;0.120280;,
  -0.989578;0.083493;0.117321;,
  -0.992681;-0.010710;0.120288;,
  0.962139;0.128199;0.240529;,
  0.953298;-0.016065;0.301604;,
  -0.966575;0.096228;0.237640;,
  -0.953141;-0.047666;0.298747;,
  0.845474;0.169969;0.506246;,
  0.820853;-0.046154;0.569271;,
  -0.852157;0.141835;0.503698;,
  -0.820575;-0.073358;0.566812;,
  -0.712941;0.314966;0.626507;,
  -0.841295;-0.054854;0.537786;,
  0.607523;0.519782;-0.600618;,
  0.785754;0.124459;-0.605888;,
  0.476840;-0.865635;-0.152641;,
  0.715186;-0.664100;-0.217899;,
  0.313648;-0.927171;-0.204887;,
  0.495587;-0.801601;-0.334409;,
  -0.282130;-0.937047;-0.205779;,
  -0.692125;-0.687430;-0.220008;,
  -0.447424;-0.880958;-0.154025;,
  -0.467740;-0.817571;-0.335851;,
  0.563556;-0.820830;-0.092967;,
  0.806903;-0.579179;-0.116013;,
  -0.786911;-0.605601;-0.118400;,
  -0.535755;-0.839056;-0.094613;,
  0.547047;-0.836140;-0.040112;,
  0.798056;-0.601915;-0.028358;,
  -0.777576;-0.628038;-0.030716;,
  -0.518909;-0.853812;-0.041706;,
  0.563552;-0.825976;0.013148;,
  0.807926;-0.586267;0.059548;,
  -0.535902;-0.844202;0.011500;,
  -0.788224;-0.612729;0.057154;,
  0.475609;-0.877057;0.067577;,
  0.713707;-0.683438;0.153413;,
  -0.446481;-0.892341;0.066192;,
  -0.691117;-0.706727;0.151308;,
  0.302715;-0.946075;0.115354;,
  0.481721;-0.837019;0.259508;,
  -0.271532;-0.955595;0.114494;,
  -0.454482;-0.852542;0.258107;,
  0.016171;-0.988694;0.149074;,
  0.014891;-0.931097;0.364466;,
  0.016442;-0.969867;-0.243080;,
  0.015462;-0.891912;-0.451944;,
  -0.712662;-0.485232;-0.506619;,
  0.405662;-0.616441;-0.674862;,
  0.729869;-0.461315;-0.504460;,
  0.703752;-0.544977;0.455778;,
  -0.361524;-0.735693;0.572761;,
  -0.686664;-0.568029;0.453691;,
  -0.891582;-0.392055;0.226659;,
  0.903405;-0.362297;0.229349;,
  -0.947429;-0.306657;0.091324;,
  0.956795;-0.275087;0.094178;,
  -0.943784;-0.330164;-0.016241;,
  0.954253;-0.298698;-0.013398;,
  -0.948817;-0.290806;-0.123202;,
  0.958299;-0.259192;-0.120345;,
  -0.898235;-0.350930;-0.264617;,
  0.910163;-0.320949;-0.261908;,
  -0.417763;0.906376;0.062907;,
  -0.723545;0.688047;0.055441;,
  0.387300;0.919722;0.064113;,
  0.700175;0.711647;0.057574;,
  -0.932814;0.357402;0.046058;,
  0.920313;0.388123;0.048834;,
  -0.997333;-0.063929;0.035227;,
  0.998794;-0.030835;0.038218;,
  -0.888968;-0.457289;0.024938;,
  0.903559;-0.427572;0.027623;,
  -0.647309;-0.762014;0.018026;,
  0.672155;-0.740140;0.020003;,
  -0.349520;-0.936745;0.018572;,
  0.380321;-0.924646;0.019666;,
  0.016548;-0.999723;0.016735;,
  -0.016642;0.997245;0.072282;,
  0.019927;-0.999190;-0.034956;,
  0.018245;-0.999231;-0.034702;,
  0.019171;-0.999167;-0.036023;,
  0.018919;-0.999257;-0.033568;,
  -0.013308;0.999300;0.034965;,
  -0.014990;0.999285;0.034706;,
  -0.014067;0.999252;0.036031;,
  -0.014313;0.999334;0.033574;,
  -0.223337;-0.973375;-0.051594;,
  0.255792;-0.966142;-0.033775;,
  -0.207285;0.977918;0.026621;,
  0.021348;0.999001;0.039263;,
  0.727459;-0.685418;0.031702;,
  -0.174680;-0.984250;-0.027194;,
  0.054565;-0.997742;-0.039149;,
  0.952077;0.305795;0.006239;,
  -0.244852;-0.969422;-0.016402;,
  -0.276898;0.960772;0.015621;,
  -0.408585;-0.910063;0.069602;,
  -0.198451;-0.977508;0.071376;,
  -0.438316;0.896022;-0.070871;,
  -0.230530;0.970396;-0.072019;,
  0.046978;-0.998280;-0.035065;,
  -0.023731;-0.997894;-0.060372;,
  0.013756;0.999287;0.035156;,
  -0.056975;0.996556;0.060251;,
  -0.900235;-0.435357;-0.006425;,
  -0.914188;0.405274;0.003705;,
  0.030078;0.996268;0.080899;,
  0.063328;-0.994720;-0.080758;,
  0.179020;0.983740;-0.014374;,
  -0.254307;0.962636;0.093061;,
  0.221981;0.970531;0.093774;,
  0.667745;0.739576;0.084521;,
  -0.692142;0.717032;0.082484;,
  0.016629;-0.998652;-0.049173;,
  -0.999207;-0.039826;-0.000020;,
  -0.999861;-0.016576;-0.001499;,
  -0.999485;-0.032076;-0.000513;,
  -0.999973;0.006675;-0.002976;,
  -0.999862;-0.016575;-0.001498;,
  -0.999996;-0.001077;-0.002483;,
  -0.999862;-0.016575;-0.001498;,
  -0.999861;-0.016575;-0.001498;,
  -0.999542;0.029922;-0.004452;,
  -0.998009;-0.063055;0.001459;,
  -0.016633;0.992141;0.124013;,
  -0.016632;0.992141;0.124013;,
  0.999888;0.014959;0.000370;,
  0.999831;0.018194;0.002626;,
  0.016621;-0.999104;-0.038929;,
  -0.016621;0.999104;0.038929;,
  -0.990236;-0.118840;-0.072872;,
  -0.994365;-0.067995;-0.081335;,
  -0.993844;0.085950;0.069899;,
  -0.996311;0.034995;0.078353;,
  0.402340;-0.910655;-0.093969;,
  0.762013;-0.647266;-0.019573;,
  -0.402342;0.910654;0.093971;,
  -0.680919;0.686026;0.256354;,
  -0.993965;-0.093642;-0.057139;,
  -0.956137;0.015557;0.292507;,
  -0.965890;-0.258435;0.016359;,
  -0.954216;-0.047221;-0.295367;,
  0.016599;-0.999669;-0.019654;,
  -0.035735;0.970138;0.239906;,
  -0.680929;0.686017;0.256352;,
  -0.402340;0.910655;0.093969;,
  0.670345;0.694901;0.260289;,
  0.359288;0.896080;0.260677;,
  -0.895227;0.363431;0.257849;,
  0.883483;0.389432;0.260385;,
  -0.965652;-0.016714;0.259301;,
  0.954216;0.047221;0.295367;,
  -0.884489;-0.387901;0.259253;,
  0.911496;-0.337524;0.235059;,
  -0.655956;-0.711771;0.251205;,
  0.678428;-0.689655;0.253204;,
  -0.323680;-0.904241;0.278530;,
  0.352641;-0.893030;0.279540;,
  0.015479;-0.958827;0.283568;,
  -0.035728;0.970139;0.239905;,
  0.760439;0.644367;0.080769;,
  0.700237;0.338378;0.628624;,
  0.841042;-0.026973;0.540297;,
  -0.622613;0.499394;-0.602460;,
  -0.787624;0.098378;-0.608251;,
  0.669885;-0.437646;0.599767;,
  -0.676000;-0.296215;-0.674745;,
  -0.188856;0.981323;-0.036591;,
  0.207285;-0.977918;-0.026621;,
  0.315338;0.947507;0.052847;,
  0.174680;0.984250;0.027194;,
  -0.128901;-0.991657;0.000376;,
  0.129749;0.984616;0.117028;,
  -0.054565;0.997742;0.039149;,
  -0.021348;-0.999001;-0.039263;,
  -0.162551;0.981481;0.101354;,
  -0.480188;-0.618669;0.621827;,
  0.967100;-0.251823;-0.036088;,
  0.989717;0.142879;0.006779;,
  -0.498567;0.602441;-0.623294;,
  0.993925;-0.109994;-0.003807;,
  -0.065577;0.994824;0.077617;,
  -0.937074;-0.251969;0.241669;,
  -0.476793;-0.877123;0.057651;,
  -0.032334;-0.996447;-0.077763;,
  -0.944184;0.220773;-0.244491;,
  -0.505428;0.860841;-0.059126;,
  0.526929;0.849254;0.033359;,
  -0.933544;0.206399;-0.293079;,
  -0.967911;-0.021963;-0.250331;,
  0.554888;-0.831319;-0.031736;,
  -0.927060;-0.237255;0.290292;,
  -0.968853;-0.010146;0.247429;,
  0.276163;0.960716;-0.027560;,
  -0.870842;-0.363204;0.331236;,
  0.307772;-0.951035;0.028435;,
  -0.881406;0.334150;-0.333866;,
  0.187863;-0.979384;-0.074254;,
  0.972896;-0.225540;-0.051038;,
  0.155077;0.985069;0.074769;,
  0.964727;0.257668;0.053942;,
  0.052344;0.997845;-0.039557;,
  0.311338;0.946219;-0.087963;,
  0.085274;-0.995564;0.039763;,
  0.342266;-0.935384;0.088943;,
  -0.030078;-0.996268;-0.080899;,
  -0.255494;-0.944715;-0.205516;,
  -0.063328;0.994720;0.080758;,
  -0.050817;0.998707;-0.001583;,
  0.557083;-0.830426;-0.007154;,
  0.211485;-0.977267;0.014959;,
  -0.999862;-0.016570;-0.001498;,
  0.999861;0.016580;0.001497;,
  -0.359286;-0.896080;-0.260679;,
  -0.670352;-0.694894;-0.260289;,
  0.896682;-0.359919;-0.257719;,
  -0.881911;-0.392894;-0.260514;,
  0.956137;-0.015557;-0.292507;,
  -0.964894;-0.015298;-0.262194;,
  0.900507;0.367562;-0.232346;,
  -0.485697;0.469268;-0.737486;,
  -0.896078;0.358385;-0.261922;,
  -0.485690;0.469266;-0.737492;,
  0.655948;0.711778;-0.251206;,
  -0.678428;0.689654;-0.253206;,
  0.323677;0.904242;-0.278529;,
  -0.352636;0.893030;-0.279543;,
  -0.015469;0.958827;-0.283568;,
  -0.016641;0.995498;0.093311;,
  0.221846;-0.971592;-0.082423;,
  0.363167;-0.930132;-0.054450;,
  0.331969;0.941657;0.055490;,
  -0.409164;0.912102;0.025583;,
  0.998390;0.049060;0.028462;,
  0.999549;-0.015939;-0.025469;,
  0.885378;0.427192;-0.183337;,
  0.898500;-0.397615;0.186012;,
  0.016519;-0.999374;0.031270;,
  0.016356;-0.995298;0.095468;,
  -0.308197;-0.946756;0.093103;,
  -0.358900;-0.933068;0.023991;,
  0.339128;-0.936025;0.094073;,
  0.389560;-0.920659;0.025112;,
  -0.016581;0.999854;0.004057;,
  -0.016584;0.999848;0.005359;,
  0.361149;0.932445;0.010886;,
  0.374968;0.927023;0.005123;,
  -0.391889;0.919961;0.009758;,
  -0.405503;0.914085;0.003954;,
  -0.715039;0.698715;0.022721;,
  -0.748179;0.663413;0.010583;,
  0.691416;0.722030;0.024828;,
  0.725742;0.687848;0.012791;,
  -0.925522;0.376481;0.040887;,
  -0.944036;0.329393;0.017226;,
  0.912407;0.406951;0.043640;,
  0.932544;0.360501;0.020038;,
  -0.998058;-0.011696;0.061188;,
  -0.995896;-0.087655;0.022520;,
  0.997709;0.021386;0.064177;,
  0.998183;-0.054600;0.025507;,
  -0.897592;-0.434689;0.073308;,
  -0.886829;-0.461677;0.019697;,
  0.911284;-0.404700;0.076018;,
  0.901580;-0.432033;0.022376;,
  -0.676984;-0.735573;0.025000;,
  -0.641481;-0.762196;0.086940;,
  0.666133;-0.740516;0.088899;,
  0.700916;-0.712730;0.027064;,
  0.396837;-0.898193;0.189131;,
  0.708434;-0.683588;0.175583;,
  -0.367411;-0.910863;0.187985;,
  -0.685908;-0.706704;0.173493;,
  0.916296;-0.369027;0.155630;,
  -0.904026;-0.399196;0.152903;,
  0.991175;0.019897;0.131059;,
  -0.991678;-0.012986;0.128087;,
  0.909906;0.401203;0.105390;,
  -0.923018;0.370813;0.102642;,
  0.692144;0.716760;0.084805;,
  -0.715768;0.693425;0.082696;,
  0.361007;0.929914;0.070249;,
  -0.391841;0.917433;0.069122;,
  0.016044;-0.983945;0.177751;,
  0.015586;-0.964003;0.265434;,
  -0.395963;-0.879364;0.264446;,
  0.424104;-0.865767;0.265676;,
  -0.016640;0.996238;0.085049;,
  0.318025;0.928687;0.190787;,
  -0.016531;0.978830;0.204006;,
  -0.349206;0.917625;0.189788;,
  -0.675199;0.710748;0.197343;,
  0.650681;0.732722;0.199329;,
  -0.892939;0.398777;0.208896;,
  0.878612;0.428122;0.211549;,
  -0.973867;0.029272;0.225225;,
  0.971681;0.061538;0.228141;,
  -0.902595;-0.356880;0.240746;,
  0.913204;-0.326772;0.243470;,
  -0.700184;-0.667170;0.254218;,
  0.721142;-0.643615;0.256349;,
  0.016621;-0.999077;-0.039608;,
  0.016621;-0.999077;-0.039610;,
  -0.016622;0.999077;0.039610;,
  -0.016622;0.999077;0.039610;,
  0.016623;-0.999077;-0.039609;,
  0.016620;-0.999077;-0.039607;,
  -0.016617;0.999077;0.039613;,
  -0.016617;0.999077;0.039613;,
  -0.314299;-0.948931;-0.027333;,
  0.400123;-0.916423;0.008397;,
  0.268731;-0.963213;-0.001857;,
  -0.366888;-0.929885;-0.026586;,
  -0.345661;0.937990;0.026344;,
  0.369551;0.929182;-0.007244;,
  0.236650;0.971591;0.002614;,
  -0.397587;0.917212;0.025441;,
  -0.971426;0.237078;-0.011236;,
  -0.929042;0.368653;-0.031221;,
  -0.937482;-0.345911;-0.038373;,
  -0.999888;-0.014959;-0.000370;,
  -0.963063;-0.269146;0.008337;,
  -0.916402;-0.399246;0.028456;,
  -0.948544;0.314644;0.035548;,
  -0.999831;-0.018194;-0.002626;,
  0.236422;0.970847;0.039503;,
  0.365590;0.929604;0.046704;,
  -0.343214;0.939205;0.009933;,
  -0.016621;0.999104;0.038929;,
  0.268590;-0.962475;-0.038747;,
  0.396341;-0.916972;-0.045562;,
  -0.311863;-0.950064;-0.010914;,
  0.016621;-0.999104;-0.038929;,
  0.994365;0.067995;0.081335;,
  0.990236;0.118840;0.072872;,
  0.953324;-0.296406;0.057592;,
  0.916478;0.393932;0.069903;,
  0.996311;-0.034995;-0.078353;,
  0.993844;-0.085950;-0.069899;,
  0.943144;0.327844;-0.054751;,
  0.929237;-0.363332;-0.067137;,
  -0.202178;0.155557;0.966916;,
  0.011007;-0.012859;0.999857;,
  -0.202174;0.155554;0.966917;,
  0.011047;-0.012912;0.999856;,
  -0.695395;0.717802;0.034429;,
  -0.367958;0.929421;0.027994;,
  0.695877;-0.718127;0.007033;,
  0.368175;-0.929705;-0.009802;,
  0.402342;-0.910654;-0.093971;,
  0.671706;0.740801;-0.004985;,
  0.337125;0.941397;0.010859;,
  -0.671114;-0.740457;-0.036476;,
  -0.336864;-0.941105;-0.029050;,
  -0.911072;0.410647;0.036287;,
  0.916575;-0.399801;0.006975;,
  0.902836;0.429963;-0.004249;,
  -0.896844;-0.440624;-0.038995;,
  -0.999189;0.017414;0.036303;,
  0.987581;0.153242;-0.034651;,
  -0.997949;-0.050525;-0.039294;,
  -0.929464;-0.367544;0.031742;,
  0.921347;0.388230;0.019938;,
  0.933765;-0.357475;-0.017159;,
  -0.941038;0.336532;-0.034543;,
  -0.719275;-0.694364;0.022405;,
  0.719207;0.694534;0.019058;,
  0.741890;-0.670310;-0.016869;,
  -0.741822;0.670145;-0.024593;,
  -0.400484;-0.916148;0.016903;,
  0.400460;0.916314;0.000850;,
  0.430612;-0.902537;0.000395;,
  -0.430579;0.902371;-0.018148;,
  0.016545;-0.999853;0.004575;,
  -0.016594;0.999852;-0.004575;,
  -0.016533;0.999723;0.016754;,
  0.016663;-0.999721;-0.016754;,
  0.454599;-0.874955;-0.166715;,
  0.749881;-0.640902;-0.164080;,
  0.454587;-0.874960;-0.166716;,
  0.749873;-0.640912;-0.164082;,
  -0.727718;-0.665411;-0.166296;,
  -0.424833;-0.889540;-0.168032;,
  -0.727726;-0.665403;-0.166295;,
  -0.424842;-0.889536;-0.168032;,
  0.935985;-0.312323;-0.162436;,
  0.935985;-0.312325;-0.162438;,
  -0.924626;-0.343172;-0.165225;,
  -0.924626;-0.343171;-0.165225;,
  0.982784;0.087577;-0.162683;,
  0.982786;0.087561;-0.162682;,
  -0.984656;0.054955;-0.165628;,
  -0.984656;0.054952;-0.165629;,
  0.876195;0.453543;-0.163036;,
  0.876191;0.453551;-0.163038;,
  -0.890251;0.424267;-0.165684;,
  -0.890250;0.424268;-0.165685;,
  0.683350;0.711047;-0.165663;,
  0.683346;0.711051;-0.165664;,
  -0.706046;0.688012;-0.167746;,
  -0.706043;0.688015;-0.167746;,
  0.358580;0.918257;-0.168001;,
  0.358581;0.918257;-0.167999;,
  -0.388317;0.905875;-0.169118;,
  -0.388315;0.905875;-0.169118;,
  -0.016081;0.985335;-0.169873;,
  -0.016080;0.985335;-0.169870;,
  0.016582;-0.985395;-0.169477;,
  0.016592;-0.985395;-0.169477;,
  0.922828;-0.384254;-0.027152;,
  0.929090;-0.369642;0.012492;,
  0.903344;-0.426845;-0.042100;,
  0.781618;-0.618804;-0.078459;,
  -0.909499;-0.414629;-0.029898;,
  -0.888570;-0.456549;-0.044785;,
  -0.916362;-0.400233;0.009726;,
  -0.760439;-0.644367;-0.080769;,
  -0.952488;-0.072561;0.295805;,
  -0.951747;-0.211761;0.222115;,
  -0.810720;-0.345175;0.472849;,
  -0.800589;-0.119985;0.587078;,
  0.953480;-0.040967;0.298660;,
  0.820296;-0.318143;0.475290;,
  0.957573;-0.180114;0.224974;,
  0.802363;-0.093413;0.589480;,
  -0.990364;-0.046834;0.130325;,
  -0.983668;-0.159157;0.084060;,
  0.990978;-0.013989;0.133293;,
  0.988146;-0.126472;0.087014;,
  -0.999915;-0.011461;0.006279;,
  -0.991319;-0.128998;-0.025411;,
  0.999722;0.021689;0.009275;,
  0.995122;-0.096070;-0.022435;,
  -0.992126;-0.022191;-0.123261;,
  -0.985912;-0.116233;-0.120280;,
  0.992681;0.010710;-0.120288;,
  0.989578;-0.083493;-0.117321;,
  -0.962139;-0.128199;-0.240529;,
  -0.953298;0.016065;-0.301604;,
  0.966575;-0.096228;-0.237640;,
  0.953141;0.047666;-0.298747;,
  -0.845474;-0.169969;-0.506246;,
  -0.820853;0.046154;-0.569271;,
  0.852157;-0.141835;-0.503698;,
  0.820575;0.073358;-0.566812;,
  0.712941;-0.314966;-0.626507;,
  0.841295;0.054854;-0.537786;,
  -0.700237;-0.338378;-0.628624;,
  -0.841042;0.026973;-0.540297;,
  -0.607523;-0.519782;0.600618;,
  -0.785754;-0.124459;0.605888;,
  0.622613;-0.499394;0.602460;,
  0.787624;-0.098378;0.608251;,
  -0.715186;0.664100;0.217899;,
  -0.313648;0.927171;0.204887;,
  -0.476840;0.865635;0.152641;,
  -0.495587;0.801601;0.334409;,
  0.692125;0.687430;0.220008;,
  0.447424;0.880958;0.154025;,
  0.282130;0.937047;0.205779;,
  0.467740;0.817571;0.335851;,
  -0.806903;0.579179;0.116013;,
  -0.563556;0.820830;0.092967;,
  0.786911;0.605601;0.118400;,
  0.535755;0.839056;0.094613;,
  -0.798056;0.601915;0.028358;,
  -0.547047;0.836140;0.040112;,
  0.777576;0.628038;0.030716;,
  0.518909;0.853812;0.041706;,
  -0.563552;0.825976;-0.013148;,
  -0.807926;0.586267;-0.059548;,
  0.535902;0.844202;-0.011500;,
  0.788224;0.612729;-0.057154;,
  -0.475609;0.877057;-0.067577;,
  -0.713707;0.683438;-0.153413;,
  0.446481;0.892341;-0.066192;,
  0.691117;0.706727;-0.151308;,
  -0.302715;0.946075;-0.115354;,
  -0.481721;0.837019;-0.259508;,
  0.271532;0.955595;-0.114494;,
  0.454482;0.852542;-0.258107;,
  -0.016171;0.988694;-0.149074;,
  -0.014891;0.931097;-0.364466;,
  -0.016442;0.969867;0.243080;,
  -0.015462;0.891912;0.451944;,
  0.712662;0.485232;0.506619;,
  -0.405662;0.616441;0.674862;,
  -0.729869;0.461315;0.504460;,
  -0.703752;0.544977;-0.455778;,
  0.361524;0.735693;-0.572761;,
  0.686664;0.568029;-0.453691;,
  0.891582;0.392055;-0.226659;,
  -0.903405;0.362297;-0.229349;,
  0.947429;0.306657;-0.091324;,
  -0.956795;0.275087;-0.094178;,
  0.943784;0.330164;0.016241;,
  -0.954253;0.298698;0.013398;,
  0.948817;0.290806;0.123202;,
  -0.958299;0.259192;0.120345;,
  0.898235;0.350930;0.264617;,
  -0.910163;0.320949;0.261908;,
  -0.669885;0.437646;-0.599767;,
  0.676000;0.296215;0.674745;,
  0.417763;-0.906376;-0.062907;,
  0.723545;-0.688047;-0.055441;,
  -0.387300;-0.919722;-0.064113;,
  -0.700175;-0.711647;-0.057574;,
  0.932814;-0.357402;-0.046058;,
  -0.920313;-0.388123;-0.048834;,
  0.997333;0.063929;-0.035227;,
  -0.998794;0.030835;-0.038218;,
  0.888968;0.457289;-0.024938;,
  -0.903559;0.427572;-0.027623;,
  0.647309;0.762014;-0.018026;,
  -0.672155;0.740140;-0.020003;,
  0.349520;0.936745;-0.018572;,
  -0.380321;0.924646;-0.019666;,
  -0.016548;0.999723;-0.016735;,
  0.016642;-0.997245;-0.072282;,
  -0.018245;0.999231;0.034702;,
  -0.019171;0.999167;0.036023;,
  -0.019927;0.999190;0.034956;,
  -0.018919;0.999257;0.033568;,
  0.014990;-0.999285;-0.034706;,
  0.014067;-0.999252;-0.036031;,
  0.013308;-0.999300;-0.034965;,
  0.014313;-0.999334;-0.033574;,
  0.673823;0.724556;-0.144850;,
  0.697038;-0.701824;0.146905;,
  -0.994714;0.102616;0.003859;,
  -0.967100;0.251823;0.036088;,
  0.498567;-0.602441;0.623294;,
  -0.990750;-0.135531;-0.006834;,
  -0.958109;-0.283739;-0.038973;,
  -0.046978;0.998280;0.035065;,
  -0.013756;-0.999287;-0.035156;,
  0.906771;0.308544;-0.287344;,
  0.915636;-0.278325;0.290079;,
  0.269296;-0.913784;-0.304104;,
  0.967911;0.021963;0.250331;,
  0.933544;-0.206399;0.293079;,
  0.237946;0.922193;0.304864;,
  0.968853;0.010146;-0.247429;,
  0.927060;0.237255;-0.290292;,
  0.485697;-0.469268;0.737486;,
  0.485690;-0.469266;0.737492;,
  0.254307;-0.962636;-0.093061;,
  -0.221981;-0.970531;-0.093774;,
  0.016641;-0.995498;-0.093311;,
  -0.667745;-0.739576;-0.084521;,
  0.692142;-0.717032;-0.082484;,
  -0.016629;0.998652;0.049173;,
  0.999861;0.016576;0.001499;,
  0.999485;0.032076;0.000513;,
  0.999207;0.039826;0.000020;,
  0.999862;0.016575;0.001498;,
  0.999996;0.001077;0.002483;,
  0.999973;-0.006675;0.002976;,
  0.999862;0.016575;0.001498;,
  0.999861;0.016575;0.001498;,
  -0.552315;0.832714;-0.039190;,
  -0.998390;-0.049060;-0.028462;,
  -0.999549;0.015939;0.025469;,
  0.999542;-0.029922;0.004452;,
  0.998009;0.063055;-0.001459;;
  1294;
  3;0,2,1;,
  3;3,0,1;,
  3;4,349,5;,
  3;349,350,5;,
  3;6,8,7;,
  3;9,6,7;,
  3;7,8,10;,
  3;11,7,10;,
  3;12,14,13;,
  3;15,12,13;,
  3;13,14,16;,
  3;17,13,16;,
  3;16,18,17;,
  3;18,19,17;,
  3;20,12,15;,
  3;21,20,15;,
  3;18,22,19;,
  3;22,23,19;,
  3;24,20,21;,
  3;25,24,21;,
  3;22,26,23;,
  3;26,27,23;,
  3;28,24,25;,
  3;29,28,25;,
  3;26,30,27;,
  3;30,31,27;,
  3;32,28,29;,
  3;33,32,29;,
  3;34,35,30;,
  3;35,31,30;,
  3;36,37,32;,
  3;33,36,32;,
  3;6,9,34;,
  3;9,35,34;,
  3;11,10,37;,
  3;36,11,37;,
  3;10,38,37;,
  3;38,39,37;,
  3;40,6,34;,
  3;41,40,34;,
  3;37,39,32;,
  3;39,42,32;,
  3;41,34,30;,
  3;43,41,30;,
  3;32,42,28;,
  3;42,44,28;,
  3;43,30,26;,
  3;45,43,26;,
  3;28,44,24;,
  3;44,46,24;,
  3;45,26,22;,
  3;47,45,22;,
  3;24,46,20;,
  3;46,48,20;,
  3;47,22,18;,
  3;49,47,18;,
  3;20,48,12;,
  3;48,50,12;,
  3;49,18,16;,
  3;51,49,16;,
  3;8,52,10;,
  3;52,38,10;,
  3;8,6,52;,
  3;6,40,52;,
  3;52,40,53;,
  3;40,54,53;,
  3;52,53,38;,
  3;53,55,38;,
  3;50,57,56;,
  3;57,58,56;,
  3;51,56,59;,
  3;56,58,59;,
  3;60,49,51;,
  3;59,60,51;,
  3;48,61,50;,
  3;61,57,50;,
  3;62,47,49;,
  3;60,62,49;,
  3;46,63,48;,
  3;63,61,48;,
  3;64,45,47;,
  3;62,64,47;,
  3;44,65,46;,
  3;65,63,46;,
  3;66,43,45;,
  3;64,66,45;,
  3;42,67,44;,
  3;67,65,44;,
  3;68,41,43;,
  3;66,68,43;,
  3;39,69,42;,
  3;69,67,42;,
  3;54,40,41;,
  3;68,54,41;,
  3;38,55,39;,
  3;55,69,39;,
  3;16,14,51;,
  3;14,56,51;,
  3;12,50,14;,
  3;50,56,14;,
  3;70,72,71;,
  3;73,70,71;,
  3;74,76,75;,
  3;77,74,75;,
  3;78,70,79;,
  3;70,73,79;,
  3;80,74,81;,
  3;74,77,81;,
  3;82,84,83;,
  3;85,82,83;,
  3;86,88,87;,
  3;89,86,87;,
  3;90,92,91;,
  3;351,90,91;,
  3;93,95,94;,
  3;352,93,94;,
  3;96,98,97;,
  3;353,96,97;,
  3;99,101,100;,
  3;354,99,100;,
  3;102,355,356;,
  3;103,102,356;,
  3;104,357,358;,
  3;105,104,358;,
  3;106,108,107;,
  3;109,106,107;,
  3;110,112,111;,
  3;113,110,111;,
  3;114,359,115;,
  3;359,360,115;,
  3;361,117,116;,
  3;362,361,116;,
  3;118,120,119;,
  3;121,118,119;,
  3;122,124,123;,
  3;124,125,123;,
  3;115,360,126;,
  3;360,127,126;,
  3;362,116,128;,
  3;129,362,128;,
  3;121,119,130;,
  3;131,121,130;,
  3;123,125,132;,
  3;125,133,132;,
  3;126,127,134;,
  3;127,135,134;,
  3;129,128,363;,
  3;364,129,363;,
  3;131,130,365;,
  3;366,131,365;,
  3;132,133,136;,
  3;133,137,136;,
  3;134,135,138;,
  3;135,139,138;,
  3;363,141,140;,
  3;364,363,140;,
  3;365,143,142;,
  3;366,365,142;,
  3;136,137,144;,
  3;137,145,144;,
  3;138,139,146;,
  3;139,147,146;,
  3;140,141,148;,
  3;149,140,148;,
  3;142,143,150;,
  3;151,142,150;,
  3;144,145,152;,
  3;145,153,152;,
  3;146,147,154;,
  3;147,155,154;,
  3;149,148,156;,
  3;157,149,156;,
  3;151,150,158;,
  3;159,151,158;,
  3;152,153,160;,
  3;153,161,160;,
  3;158,162,159;,
  3;162,163,159;,
  3;164,160,161;,
  3;165,164,161;,
  3;154,155,162;,
  3;155,163,162;,
  3;157,156,164;,
  3;165,157,164;,
  3;166,367,114;,
  3;367,359,114;,
  3;368,167,117;,
  3;361,368,117;,
  3;166,120,367;,
  3;120,118,367;,
  3;122,167,368;,
  3;124,122,368;,
  3;168,169,369;,
  3;169,370,369;,
  3;170,171,362;,
  3;171,361,362;,
  3;172,173,371;,
  3;372,172,371;,
  3;174,175,125;,
  3;124,174,125;,
  3;176,168,373;,
  3;168,369,373;,
  3;177,170,129;,
  3;170,362,129;,
  3;173,178,374;,
  3;371,173,374;,
  3;175,179,133;,
  3;125,175,133;,
  3;180,176,375;,
  3;176,373,375;,
  3;181,177,364;,
  3;177,129,364;,
  3;178,182,376;,
  3;374,178,376;,
  3;179,183,137;,
  3;133,179,137;,
  3;184,180,377;,
  3;180,375,377;,
  3;185,181,140;,
  3;181,364,140;,
  3;182,186,378;,
  3;376,182,378;,
  3;183,187,145;,
  3;137,183,145;,
  3;188,184,379;,
  3;184,377,379;,
  3;189,185,149;,
  3;185,140,149;,
  3;186,190,380;,
  3;378,186,380;,
  3;187,191,153;,
  3;145,187,153;,
  3;188,379,192;,
  3;379,381,192;,
  3;189,149,193;,
  3;149,157,193;,
  3;380,190,194;,
  3;382,380,194;,
  3;153,191,195;,
  3;161,153,195;,
  3;196,383,194;,
  3;383,382,194;,
  3;197,165,195;,
  3;165,161,195;,
  3;196,192,383;,
  3;192,381,383;,
  3;197,193,165;,
  3;193,157,165;,
  3;169,198,370;,
  3;198,384,370;,
  3;171,199,361;,
  3;199,368,361;,
  3;172,372,198;,
  3;372,384,198;,
  3;174,124,199;,
  3;124,368,199;,
  3;200,202,201;,
  3;203,200,201;,
  3;204,206,205;,
  3;206,385,205;,
  3;207,209,208;,
  3;210,207,208;,
  3;211,213,212;,
  3;213,214,212;,
  3;209,216,215;,
  3;208,209,215;,
  3;217,211,218;,
  3;211,212,218;,
  3;216,220,219;,
  3;215,216,219;,
  3;221,217,222;,
  3;217,218,222;,
  3;220,224,223;,
  3;219,220,223;,
  3;225,221,226;,
  3;221,222,226;,
  3;223,224,227;,
  3;228,223,227;,
  3;225,226,229;,
  3;226,230,229;,
  3;228,227,231;,
  3;232,228,231;,
  3;229,230,233;,
  3;230,234,233;,
  3;235,233,234;,
  3;236,235,234;,
  3;232,231,386;,
  3;387,232,386;,
  3;237,207,210;,
  3;238,237,210;,
  3;214,213,388;,
  3;389,214,388;,
  3;239,241,240;,
  3;241,242,240;,
  3;243,245,244;,
  3;246,243,244;,
  3;247,239,248;,
  3;239,240,248;,
  3;245,250,249;,
  3;244,245,249;,
  3;251,247,252;,
  3;247,248,252;,
  3;250,254,253;,
  3;249,250,253;,
  3;251,252,255;,
  3;252,256,255;,
  3;253,254,257;,
  3;258,253,257;,
  3;255,256,259;,
  3;256,260,259;,
  3;258,257,261;,
  3;262,258,261;,
  3;259,260,263;,
  3;260,264,263;,
  3;262,261,265;,
  3;266,262,265;,
  3;265,267,266;,
  3;267,268,266;,
  3;263,264,267;,
  3;264,268,267;,
  3;241,269,242;,
  3;269,270,242;,
  3;243,246,269;,
  3;246,270,269;,
  3;246,271,270;,
  3;271,272,270;,
  3;242,270,273;,
  3;270,272,273;,
  3;264,274,268;,
  3;274,275,268;,
  3;266,268,276;,
  3;268,275,276;,
  3;277,262,266;,
  3;276,277,266;,
  3;260,278,264;,
  3;278,274,264;,
  3;279,258,262;,
  3;277,279,262;,
  3;256,280,260;,
  3;280,278,260;,
  3;281,253,258;,
  3;279,281,258;,
  3;252,282,256;,
  3;282,280,256;,
  3;249,253,281;,
  3;283,249,281;,
  3;252,248,282;,
  3;248,284,282;,
  3;244,249,283;,
  3;285,244,283;,
  3;248,240,284;,
  3;240,286,284;,
  3;246,244,285;,
  3;271,246,285;,
  3;240,242,286;,
  3;242,273,286;,
  3;286,273,208;,
  3;273,210,208;,
  3;271,285,212;,
  3;214,271,212;,
  3;284,286,215;,
  3;286,208,215;,
  3;285,283,218;,
  3;212,285,218;,
  3;282,284,219;,
  3;284,215,219;,
  3;283,281,222;,
  3;218,283,222;,
  3;282,219,280;,
  3;219,223,280;,
  3;222,281,279;,
  3;226,222,279;,
  3;280,223,278;,
  3;223,228,278;,
  3;226,279,277;,
  3;230,226,277;,
  3;278,228,274;,
  3;228,232,274;,
  3;230,277,276;,
  3;234,230,276;,
  3;276,275,234;,
  3;275,236,234;,
  3;274,232,390;,
  3;232,387,390;,
  3;273,272,210;,
  3;272,238,210;,
  3;271,214,391;,
  3;214,389,391;,
  3;287,11,36;,
  3;288,287,36;,
  3;9,289,35;,
  3;289,290,35;,
  3;288,36,33;,
  3;291,288,33;,
  3;35,290,31;,
  3;290,292,31;,
  3;291,33,29;,
  3;293,291,29;,
  3;31,292,27;,
  3;292,294,27;,
  3;293,29,25;,
  3;295,293,25;,
  3;27,294,23;,
  3;294,296,23;,
  3;295,25,21;,
  3;297,295,21;,
  3;23,296,19;,
  3;296,298,19;,
  3;297,21,15;,
  3;299,297,15;,
  3;19,298,17;,
  3;298,300,17;,
  3;301,13,17;,
  3;300,301,17;,
  3;15,13,301;,
  3;299,15,301;,
  3;302,7,11;,
  3;287,302,11;,
  3;9,7,302;,
  3;289,9,302;,
  3;303,305,304;,
  3;306,303,304;,
  3;307,309,308;,
  3;310,307,308;,
  3;311,1,2;,
  3;312,311,2;,
  3;392,314,313;,
  3;315,312,393;,
  3;311,317,316;,
  3;318,394,395;,
  3;396,311,312;,
  3;315,396,312;,
  3;397,398,395;,
  3;319,1,316;,
  3;2,399,393;,
  3;320,400,313;,
  3;401,322,321;,
  3;315,402,403;,
  3;404,324,323;,
  3;318,394,405;,
  3;325,326,304;,
  3;326,306,304;,
  3;327,328,308;,
  3;328,310,308;,
  3;326,399,329;,
  3;399,321,329;,
  3;328,398,330;,
  3;398,323,330;,
  3;313,406,320;,
  3;407,329,408;,
  3;316,409,319;,
  3;410,330,411;,
  3;400,406,412;,
  3;413,414,329;,
  3;1,409,415;,
  3;416,417,330;,
  3;320,400,418;,
  3;329,408,419;,
  3;319,1,420;,
  3;330,411,421;,
  3;413,320,329;,
  3;416,319,330;,
  3;420,422,423;,
  3;418,424,425;,
  3;331,426,427;,
  3;332,428,429;,
  3;430,431,321;,
  3;432,433,323;,
  3;287,288,4;,
  3;290,289,5;,
  3;288,291,4;,
  3;292,290,5;,
  3;291,293,4;,
  3;294,292,5;,
  3;293,295,365;,
  3;296,294,434;,
  3;302,287,4;,
  3;289,302,5;,
  3;53,54,333;,
  3;55,53,333;,
  3;58,57,435;,
  3;59,58,435;,
  3;60,59,435;,
  3;57,61,435;,
  3;62,60,435;,
  3;61,63,436;,
  3;64,62,437;,
  3;63,65,436;,
  3;66,64,437;,
  3;65,67,436;,
  3;68,66,333;,
  3;67,69,436;,
  3;54,68,333;,
  3;69,55,333;,
  3;122,83,167;,
  3;83,122,123;,
  3;114,87,166;,
  3;87,114,115;,
  3;167,83,84;,
  3;166,87,88;,
  3;84,116,117;,
  3;116,84,102;,
  3;88,119,120;,
  3;119,88,104;,
  3;102,128,116;,
  3;128,102,363;,
  3;104,130,119;,
  3;130,104,365;,
  3;84,117,167;,
  3;88,120,166;,
  3;85,83,90;,
  3;89,87,93;,
  3;91,92,96;,
  3;94,95,99;,
  3;97,98,103;,
  3;100,101,105;,
  3;82,102,84;,
  3;86,104,88;,
  3;99,95,146;,
  3;96,92,152;,
  3;105,101,150;,
  3;103,98,148;,
  3;93,87,115;,
  3;90,83,123;,
  3;101,99,162;,
  3;98,96,164;,
  3;104,105,4;,
  3;102,103,363;,
  3;95,93,134;,
  3;92,90,136;,
  3;164,156,98;,
  3;154,162,99;,
  3;160,164,96;,
  3;162,158,101;,
  3;152,160,96;,
  3;158,150,101;,
  3;156,148,98;,
  3;146,154,99;,
  3;144,152,92;,
  3;150,143,105;,
  3;148,141,103;,
  3;138,146,95;,
  3;136,144,92;,
  3;143,4,105;,
  3;141,363,103;,
  3;134,138,95;,
  3;132,136,90;,
  3;126,134,93;,
  3;123,132,90;,
  3;115,126,93;,
  3;118,121,108;,
  3;438,439,112;,
  3;127,107,108;,
  3;440,111,112;,
  3;121,131,108;,
  3;439,441,112;,
  3;135,127,108;,
  3;442,440,112;,
  3;131,366,108;,
  3;441,443,112;,
  3;139,135,108;,
  3;444,442,112;,
  3;366,142,445;,
  3;443,446,447;,
  3;147,139,108;,
  3;448,444,112;,
  3;142,151,445;,
  3;446,449,447;,
  3;155,147,108;,
  3;450,448,112;,
  3;151,159,445;,
  3;449,451,447;,
  3;159,163,445;,
  3;451,452,447;,
  3;163,155,108;,
  3;452,450,112;,
  3;106,118,108;,
  3;110,438,112;,
  3;453,335,334;,
  3;335,385,336;,
  3;203,334,337;,
  3;336,385,206;,
  3;203,337,200;,
  3;243,269,338;,
  3;269,241,338;,
  3;263,267,338;,
  3;267,265,338;,
  3;265,261,338;,
  3;259,263,338;,
  3;261,257,338;,
  3;255,259,338;,
  3;257,254,338;,
  3;251,255,338;,
  3;254,250,338;,
  3;247,251,338;,
  3;250,245,338;,
  3;239,247,338;,
  3;245,243,338;,
  3;241,239,338;,
  3;339,341,340;,
  3;342,344,343;,
  3;341,345,340;,
  3;344,346,343;,
  3;297,299,365;,
  3;300,298,434;,
  3;301,300,434;,
  3;299,301,454;,
  3;434,454,301;,
  3;302,4,5;,
  3;296,434,298;,
  3;365,295,297;,
  3;408,75,2;,
  3;411,71,397;,
  3;72,328,397;,
  3;76,326,2;,
  3;71,72,397;,
  3;75,76,2;,
  3;399,455,312;,
  3;398,456,394;,
  3;455,430,312;,
  3;456,432,394;,
  3;457,331,392;,
  3;396,332,311;,
  3;2,326,399;,
  3;312,2,399;,
  3;397,328,398;,
  3;1,311,317;,
  3;393,399,321;,
  3;395,398,323;,
  3;403,315,458;,
  3;405,318,459;,
  3;427,426,314;,
  3;429,428,317;,
  3;327,308,324;,
  3;325,304,322;,
  3;308,309,324;,
  3;304,305,322;,
  3;399,326,325;,
  3;398,328,327;,
  3;322,399,325;,
  3;324,398,327;,
  3;344,342,347;,
  3;341,339,348;,
  3;314,406,313;,
  3;317,409,316;,
  3;418,425,460;,
  3;420,423,461;,
  3;397,400,349;,
  3;397,349,350;,
  3;434,0,454;,
  3;434,3,0;,
  3;462,463,464;,
  3;462,464,465;,
  3;466,463,462;,
  3;466,462,467;,
  3;468,469,470;,
  3;468,470,471;,
  3;472,469,468;,
  3;472,468,473;,
  3;473,474,472;,
  3;473,475,474;,
  3;471,470,476;,
  3;471,476,477;,
  3;475,478,474;,
  3;475,479,478;,
  3;477,476,480;,
  3;477,480,481;,
  3;479,482,478;,
  3;479,483,482;,
  3;481,480,484;,
  3;481,484,485;,
  3;483,486,482;,
  3;483,487,486;,
  3;485,484,488;,
  3;485,488,489;,
  3;486,490,491;,
  3;486,487,490;,
  3;488,492,493;,
  3;488,493,489;,
  3;491,465,464;,
  3;491,490,465;,
  3;492,466,467;,
  3;492,467,493;,
  3;492,494,466;,
  3;492,495,494;,
  3;491,464,496;,
  3;491,496,497;,
  3;488,495,492;,
  3;488,498,495;,
  3;486,491,497;,
  3;486,497,499;,
  3;484,498,488;,
  3;484,500,498;,
  3;482,486,499;,
  3;482,499,501;,
  3;480,500,484;,
  3;480,502,500;,
  3;478,482,501;,
  3;478,501,503;,
  3;476,502,480;,
  3;476,504,502;,
  3;474,478,503;,
  3;474,503,505;,
  3;470,504,476;,
  3;470,506,504;,
  3;472,474,505;,
  3;472,505,507;,
  3;466,508,463;,
  3;466,494,508;,
  3;508,464,463;,
  3;508,496,464;,
  3;509,496,508;,
  3;509,510,496;,
  3;494,509,508;,
  3;494,511,509;,
  3;512,513,506;,
  3;512,514,513;,
  3;515,512,507;,
  3;515,514,512;,
  3;507,505,516;,
  3;507,516,515;,
  3;506,517,504;,
  3;506,513,517;,
  3;505,503,518;,
  3;505,518,516;,
  3;504,519,502;,
  3;504,517,519;,
  3;503,501,520;,
  3;503,520,518;,
  3;502,521,500;,
  3;502,519,521;,
  3;501,499,522;,
  3;501,522,520;,
  3;500,523,498;,
  3;500,521,523;,
  3;499,497,524;,
  3;499,524,522;,
  3;498,525,495;,
  3;498,523,525;,
  3;497,496,510;,
  3;497,510,524;,
  3;495,511,494;,
  3;495,525,511;,
  3;507,469,472;,
  3;507,512,469;,
  3;469,506,470;,
  3;469,512,506;,
  3;422,420,526;,
  3;422,526,527;,
  3;424,418,528;,
  3;424,528,529;,
  3;530,526,531;,
  3;530,527,526;,
  3;532,528,533;,
  3;532,529,528;,
  3;534,535,536;,
  3;534,536,537;,
  3;538,539,540;,
  3;538,540,541;,
  3;542,543,544;,
  3;542,544,545;,
  3;546,547,548;,
  3;546,548,549;,
  3;550,551,552;,
  3;550,552,553;,
  3;554,555,556;,
  3;554,556,557;,
  3;558,559,560;,
  3;558,560,561;,
  3;562,563,564;,
  3;562,564,565;,
  3;369,566,384;,
  3;567,567,567;,
  3;362,568,368;,
  3;569,569,569;,
  3;570,370,571;,
  3;570,369,370;,
  3;572,573,574;,
  3;572,574,111;,
  3;575,576,372;,
  3;575,372,371;,
  3;577,438,578;,
  3;577,439,438;,
  3;579,369,570;,
  3;579,373,369;,
  3;580,572,111;,
  3;580,111,440;,
  3;581,575,371;,
  3;581,371,374;,
  3;582,439,577;,
  3;582,441,439;,
  3;583,373,579;,
  3;583,375,373;,
  3;434,580,440;,
  3;434,440,442;,
  3;584,581,374;,
  3;584,374,376;,
  3;585,441,582;,
  3;585,443,441;,
  3;586,375,583;,
  3;586,377,375;,
  3;444,587,5;,
  3;444,5,442;,
  3;378,588,584;,
  3;378,584,376;,
  3;589,443,585;,
  3;589,446,443;,
  3;590,377,586;,
  3;590,379,377;,
  3;591,587,444;,
  3;591,444,448;,
  3;592,588,378;,
  3;592,378,380;,
  3;593,446,589;,
  3;593,449,446;,
  3;594,379,590;,
  3;594,381,379;,
  3;595,591,448;,
  3;595,448,450;,
  3;596,592,380;,
  3;596,380,382;,
  3;597,449,593;,
  3;597,451,449;,
  3;382,598,596;,
  3;382,383,598;,
  3;451,597,599;,
  3;451,599,452;,
  3;598,381,594;,
  3;598,383,381;,
  3;599,595,450;,
  3;599,450,452;,
  3;571,384,600;,
  3;571,370,384;,
  3;573,601,110;,
  3;573,110,574;,
  3;384,576,600;,
  3;384,372,576;,
  3;110,601,578;,
  3;110,578,438;,
  3;107,602,603;,
  3;107,359,602;,
  3;111,604,605;,
  3;111,574,604;,
  3;121,606,607;,
  3;121,607,118;,
  3;439,608,609;,
  3;439,609,438;,
  3;127,603,610;,
  3;127,107,603;,
  3;440,605,611;,
  3;440,111,605;,
  3;131,612,606;,
  3;131,606,121;,
  3;441,613,608;,
  3;441,608,439;,
  3;135,610,614;,
  3;135,127,610;,
  3;442,611,615;,
  3;442,440,611;,
  3;366,616,612;,
  3;366,612,131;,
  3;443,617,613;,
  3;443,613,441;,
  3;139,614,618;,
  3;139,135,614;,
  3;444,615,619;,
  3;444,442,615;,
  3;142,620,616;,
  3;142,616,366;,
  3;446,621,617;,
  3;446,617,443;,
  3;147,618,622;,
  3;147,139,618;,
  3;448,619,623;,
  3;448,444,619;,
  3;151,624,620;,
  3;151,620,142;,
  3;449,625,621;,
  3;449,621,446;,
  3;626,147,622;,
  3;626,155,147;,
  3;627,448,623;,
  3;627,450,448;,
  3;628,624,151;,
  3;628,151,159;,
  3;629,625,449;,
  3;629,449,451;,
  3;628,163,630;,
  3;628,159,163;,
  3;629,452,631;,
  3;629,451,452;,
  3;163,626,630;,
  3;163,155,626;,
  3;452,627,631;,
  3;452,450,627;,
  3;359,632,602;,
  3;359,106,632;,
  3;574,633,604;,
  3;574,110,633;,
  3;632,118,607;,
  3;632,106,118;,
  3;633,438,609;,
  3;633,110,438;,
  3;634,635,636;,
  3;634,636,637;,
  3;638,639,640;,
  3;638,641,639;,
  3;642,643,644;,
  3;642,644,645;,
  3;646,647,648;,
  3;646,649,647;,
  3;650,651,643;,
  3;650,643,642;,
  3;652,648,653;,
  3;652,646,648;,
  3;654,655,651;,
  3;654,651,650;,
  3;656,653,657;,
  3;656,652,653;,
  3;658,659,655;,
  3;658,655,654;,
  3;660,657,661;,
  3;660,656,657;,
  3;662,659,658;,
  3;662,658,663;,
  3;664,660,661;,
  3;664,665,660;,
  3;666,662,663;,
  3;666,663,667;,
  3;668,665,664;,
  3;668,669,665;,
  3;669,668,670;,
  3;669,670,671;,
  3;672,666,667;,
  3;672,667,673;,
  3;645,644,674;,
  3;645,674,675;,
  3;676,647,649;,
  3;676,649,677;,
  3;678,679,680;,
  3;678,681,679;,
  3;682,683,684;,
  3;682,684,685;,
  3;686,680,687;,
  3;686,678,680;,
  3;688,689,683;,
  3;688,683,682;,
  3;690,687,691;,
  3;690,686,687;,
  3;692,693,689;,
  3;692,689,688;,
  3;694,690,691;,
  3;694,695,690;,
  3;696,693,692;,
  3;696,692,697;,
  3;698,695,694;,
  3;698,699,695;,
  3;700,696,697;,
  3;700,697,701;,
  3;702,699,698;,
  3;702,703,699;,
  3;704,700,701;,
  3;704,701,705;,
  3;705,706,704;,
  3;705,707,706;,
  3;706,703,702;,
  3;706,707,703;,
  3;681,708,679;,
  3;681,709,708;,
  3;708,685,684;,
  3;708,709,685;,
  3;709,710,685;,
  3;709,711,710;,
  3;712,709,681;,
  3;712,711,709;,
  3;707,713,703;,
  3;707,714,713;,
  3;715,707,705;,
  3;715,714,707;,
  3;705,701,716;,
  3;705,716,715;,
  3;703,717,699;,
  3;703,713,717;,
  3;701,697,718;,
  3;701,718,716;,
  3;699,719,695;,
  3;699,717,719;,
  3;697,692,720;,
  3;697,720,718;,
  3;695,721,690;,
  3;695,719,721;,
  3;720,692,688;,
  3;720,688,722;,
  3;721,686,690;,
  3;721,723,686;,
  3;722,688,682;,
  3;722,682,724;,
  3;723,678,686;,
  3;723,725,678;,
  3;724,682,685;,
  3;724,685,710;,
  3;725,681,678;,
  3;725,712,681;,
  3;642,712,725;,
  3;642,645,712;,
  3;646,724,710;,
  3;646,710,649;,
  3;650,725,723;,
  3;650,642,725;,
  3;652,722,724;,
  3;652,724,646;,
  3;654,723,721;,
  3;654,650,723;,
  3;656,720,722;,
  3;656,722,652;,
  3;719,654,721;,
  3;719,658,654;,
  3;718,720,656;,
  3;718,656,660;,
  3;717,658,719;,
  3;717,663,658;,
  3;716,718,660;,
  3;716,660,665;,
  3;713,663,717;,
  3;713,667,663;,
  3;715,716,665;,
  3;715,665,669;,
  3;669,714,715;,
  3;669,671,714;,
  3;726,667,713;,
  3;726,673,667;,
  3;645,711,712;,
  3;645,675,711;,
  3;727,649,710;,
  3;727,677,649;,
  3;493,467,728;,
  3;493,728,729;,
  3;490,730,465;,
  3;490,731,730;,
  3;489,493,729;,
  3;489,729,732;,
  3;487,731,490;,
  3;487,733,731;,
  3;485,489,732;,
  3;485,732,734;,
  3;483,733,487;,
  3;483,735,733;,
  3;481,485,734;,
  3;481,734,736;,
  3;479,735,483;,
  3;479,737,735;,
  3;477,481,736;,
  3;477,736,738;,
  3;475,737,479;,
  3;475,739,737;,
  3;471,477,738;,
  3;471,738,740;,
  3;473,739,475;,
  3;473,741,739;,
  3;473,468,742;,
  3;473,742,741;,
  3;742,468,471;,
  3;742,471,740;,
  3;467,462,743;,
  3;467,743,728;,
  3;743,462,465;,
  3;743,465,730;,
  3;744,745,746;,
  3;744,746,747;,
  3;748,749,750;,
  3;748,750,751;,
  3;400,397,394;,
  3;400,394,392;,
  3;393,399,312;,
  3;313,392,457;,
  3;395,398,394;,
  3;316,311,396;,
  3;392,394,433;,
  3;392,433,457;,
  3;316,317,1;,
  3;395,397,752;,
  3;313,314,400;,
  3;393,2,753;,
  3;427,426,392;,
  3;754,755,457;,
  3;429,428,756;,
  3;757,758,757;,
  3;744,406,759;,
  3;744,747,406;,
  3;748,409,760;,
  3;748,751,409;,
  3;412,314,406;,
  3;412,403,314;,
  3;415,317,409;,
  3;415,405,317;,
  3;408,326,393;,
  3;761,425,460;,
  3;411,328,395;,
  3;762,423,461;,
  3;763,326,2;,
  3;425,764,765;,
  3;766,328,397;,
  3;423,767,768;,
  3;76,2,408;,
  3;418,761,412;,
  3;72,397,411;,
  3;420,762,415;,
  3;425,753,765;,
  3;423,752,768;,
  3;330,71,72;,
  3;329,75,76;,
  3;321,322,430;,
  3;323,324,432;,
  3;427,457,331;,
  3;429,396,332;,
  3;454,729,728;,
  3;363,730,731;,
  3;454,732,729;,
  3;363,731,733;,
  3;584,734,732;,
  3;363,733,735;,
  3;584,736,734;,
  3;363,735,737;,
  3;454,728,743;,
  3;434,743,730;,
  3;435,510,509;,
  3;435,509,511;,
  3;333,513,514;,
  3;333,514,515;,
  3;333,515,516;,
  3;333,517,513;,
  3;436,516,518;,
  3;333,519,517;,
  3;436,518,520;,
  3;437,521,519;,
  3;436,520,522;,
  3;437,523,521;,
  3;436,522,524;,
  3;435,525,523;,
  3;435,524,510;,
  3;435,511,525;,
  3;601,534,578;,
  3;577,578,534;,
  3;600,538,571;,
  3;570,571,538;,
  3;535,534,601;,
  3;539,538,600;,
  3;573,572,535;,
  3;560,535,572;,
  3;576,575,539;,
  3;564,539,575;,
  3;572,580,560;,
  3;434,560,580;,
  3;575,581,564;,
  3;584,564,581;,
  3;601,573,535;,
  3;600,576,539;,
  3;544,534,537;,
  3;548,538,541;,
  3;552,543,542;,
  3;556,547,546;,
  3;561,551,550;,
  3;565,555,554;,
  3;535,560,536;,
  3;539,564,540;,
  3;590,547,556;,
  3;593,543,552;,
  3;592,555,565;,
  3;591,551,561;,
  3;570,538,548;,
  3;577,534,544;,
  3;598,556,555;,
  3;599,552,551;,
  3;584,565,564;,
  3;5,561,560;,
  3;583,548,547;,
  3;585,544,543;,
  3;551,595,599;,
  3;556,598,594;,
  3;552,599,597;,
  3;555,596,598;,
  3;552,597,593;,
  3;555,592,596;,
  3;551,591,595;,
  3;556,594,590;,
  3;543,593,589;,
  3;565,588,592;,
  3;561,587,591;,
  3;547,590,586;,
  3;543,589,585;,
  3;565,584,588;,
  3;561,5,587;,
  3;547,586,583;,
  3;544,585,582;,
  3;548,583,579;,
  3;544,582,577;,
  3;548,579,570;,
  3;566,371,372;,
  3;568,125,124;,
  3;566,369,373;,
  3;568,362,129;,
  3;566,374,371;,
  3;568,133,125;,
  3;566,373,375;,
  3;568,129,364;,
  3;566,376,374;,
  3;568,137,133;,
  3;566,375,377;,
  3;568,364,140;,
  3;769,378,376;,
  3;770,145,137;,
  3;566,377,379;,
  3;568,140,149;,
  3;769,380,378;,
  3;770,153,145;,
  3;566,379,381;,
  3;568,149,157;,
  3;769,382,380;,
  3;770,161,153;,
  3;769,383,382;,
  3;770,165,161;,
  3;566,381,383;,
  3;568,157,165;,
  3;566,372,384;,
  3;568,124,368;,
  3;771,772,773;,
  3;774,641,772;,
  3;775,771,637;,
  3;639,641,774;,
  3;636,775,637;,
  3;776,708,684;,
  3;776,679,708;,
  3;776,706,702;,
  3;776,704,706;,
  3;776,700,704;,
  3;776,702,698;,
  3;776,696,700;,
  3;776,698,694;,
  3;776,693,696;,
  3;776,694,691;,
  3;776,689,693;,
  3;776,691,687;,
  3;776,683,689;,
  3;776,687,680;,
  3;776,684,683;,
  3;776,680,679;,
  3;777,778,779;,
  3;780,781,782;,
  3;777,783,778;,
  3;780,784,781;,
  3;584,740,738;,
  3;785,739,741;,
  3;5,741,742;,
  3;4,742,740;,
  3;742,4,5;,
  3;434,454,743;,
  3;739,363,737;,
  3;738,736,584;,
  3;400,424,320;,
  3;1,422,319;,
  3;1,409,420;,
  3;400,406,418;,
  3;1,420,422;,
  3;400,418,424;,
  3;392,426,314;,
  3;311,428,317;,
  3;392,331,426;,
  3;311,332,428;,
  3;312,430,315;,
  3;394,432,433;,
  3;314,406,400;,
  3;314,400,392;,
  3;317,409,1;,
  3;398,394,397;,
  3;427,314,313;,
  3;429,317,316;,
  3;786,786,754;,
  3;787,757,757;,
  3;399,322,321;,
  3;398,324,323;,
  3;428,748,760;,
  3;426,744,759;,
  3;428,749,748;,
  3;426,745,744;,
  3;759,406,314;,
  3;760,409,317;,
  3;759,314,426;,
  3;760,317,428;,
  3;788,782,781;,
  3;789,779,778;,
  3;393,326,399;,
  3;395,328,398;,
  3;326,329,76;,
  3;328,330,72;;
 }
 MeshTextureCoords {
  381;
  -1.086750;0.751440;,
  -0.827240;0.727770;,
  -0.888100;0.991590;,
  -1.098850;0.803910;,
  -0.750380;0.873040;,
  -0.758530;0.908360;,
  0.511340;1.353320;,
  0.519270;1.322710;,
  0.322510;1.257460;,
  0.313140;1.291780;,
  0.525720;1.291000;,
  0.329320;1.221630;,
  0.513060;1.280280;,
  0.505450;1.310360;,
  0.306030;1.243630;,
  0.314730;1.209820;,
  0.498960;1.341380;,
  0.298880;1.278560;,
  0.494220;1.369590;,
  0.293440;1.310910;,
  0.520720;1.254720;,
  0.323550;1.180400;,
  0.492360;1.389320;,
  0.291300;1.333490;,
  0.527030;1.239010;,
  0.330800;1.162260;,
  0.493380;1.398370;,
  0.292490;1.343780;,
  0.531160;1.234620;,
  0.335550;1.157110;,
  0.497560;1.394030;,
  0.297300;1.338680;,
  0.532230;1.243710;,
  0.336790;1.167460;,
  0.503820;1.378270;,
  0.304490;1.320500;,
  0.334600;1.189990;,
  0.530310;1.263400;,
  0.661500;1.340520;,
  0.665380;1.317230;,
  0.649380;1.393090;,
  0.643030;1.414140;,
  0.667000;1.300630;,
  0.637750;1.427430;,
  0.666090;1.292950;,
  0.634230;1.431100;,
  0.662610;1.296660;,
  0.633360;1.423460;,
  0.657290;1.309910;,
  0.634940;1.406820;,
  0.650820;1.331470;,
  0.638930;1.383020;,
  0.656060;1.367270;,
  0.775360;1.405390;,
  0.771380;1.420750;,
  0.778590;1.389480;,
  0.772240;1.384100;,
  0.644410;1.356850;,
  0.768430;1.399200;,
  0.765170;1.414760;,
  0.762790;1.428910;,
  0.776090;1.371280;,
  0.761860;1.438810;,
  0.779250;1.363400;,
  0.762370;1.443350;,
  0.781320;1.361200;,
  0.764470;1.441170;,
  0.781860;1.365760;,
  0.767610;1.433260;,
  0.780900;1.375640;,
  -1.194490;1.147910;,
  -1.078500;1.064380;,
  -1.334530;0.978220;,
  -1.467200;1.227090;,
  -1.021770;0.399160;,
  -0.958250;0.543100;,
  -1.214280;0.456940;,
  -1.221290;0.161050;,
  -1.168390;1.167520;,
  -1.389580;1.287120;,
  -0.991040;0.398680;,
  -1.129150;0.158150;,
  0.271200;1.350510;,
  -0.415980;1.116030;,
  -0.432160;1.186170;,
  0.244550;1.466040;,
  0.319300;1.142010;,
  -0.369870;0.916110;,
  -0.353690;0.845970;,
  0.345950;1.026480;,
  -0.448000;1.232930;,
  -0.453970;1.227530;,
  0.052550;1.394650;,
  -0.346200;0.791650;,
  -0.352180;0.786250;,
  0.153950;0.955080;,
  -0.446390;1.172460;,
  -0.430530;1.103720;,
  0.079200;1.279110;,
  -0.368230;0.833660;,
  -0.384090;0.902390;,
  0.127300;1.070610;,
  -0.408500;1.061720;,
  -0.414480;1.056310;,
  -0.385700;0.962870;,
  -0.391670;0.957460;,
  0.000000;0.000000;,
  0.000000;0.000000;,
  0.000000;0.000000;,
  0.000000;0.000000;,
  0.000000;0.000000;,
  0.000000;0.000000;,
  0.000000;0.000000;,
  0.000000;0.000000;,
  -0.712910;0.752580;,
  -1.053760;0.642220;,
  -0.707630;0.720880;,
  -1.049030;0.613810;,
  -1.104450;0.861940;,
  -0.763590;0.972310;,
  -0.758310;0.940600;,
  -1.099720;0.833530;,
  -1.068260;0.705070;,
  -0.729090;0.822720;,
  -0.737730;0.851390;,
  -1.076010;0.730750;,
  -0.779770;1.042450;,
  -1.118950;0.924790;,
  -0.788410;1.071110;,
  -1.126690;0.950480;,
  -0.705420;0.698270;,
  -1.047060;0.593550;,
  -0.756110;0.917990;,
  -1.097740;0.813270;,
  -0.744920;0.869480;,
  -1.082450;0.746970;,
  -0.795600;1.089210;,
  -1.133140;0.966690;,
  -0.706660;0.687820;,
  -1.048170;0.584180;,
  -0.800400;1.094200;,
  -1.137430;0.971170;,
  -0.711400;0.692860;,
  -1.052410;0.588700;,
  -0.762080;0.912580;,
  -1.103100;0.808430;,
  -0.750890;0.864080;,
  -1.087800;0.742130;,
  -0.801580;1.083800;,
  -1.138490;0.961850;,
  -0.718640;0.710910;,
  -1.058910;0.604880;,
  -0.769330;0.930630;,
  -1.109590;0.824600;,
  -0.748750;0.841410;,
  -1.085880;0.721820;,
  -0.799430;1.061140;,
  -1.136570;0.941540;,
  -0.727450;0.740270;,
  -1.066800;0.631190;,
  -0.778140;0.959990;,
  -1.117480;0.850910;,
  -0.743310;0.809010;,
  -1.081010;0.692780;,
  -0.793990;1.028730;,
  -1.131690;0.912500;,
  -0.736020;0.774100;,
  -1.074470;0.661500;,
  -0.786700;0.993820;,
  -1.125160;0.881220;,
  -0.720150;0.788280;,
  -1.060250;0.674210;,
  -1.110940;0.893930;,
  -0.770830;1.008010;,
  0.000000;0.000000;,
  0.000000;0.000000;,
  0.000000;0.000000;,
  0.000000;0.000000;,
  0.000000;0.000000;,
  0.000000;0.000000;,
  0.000000;0.000000;,
  0.000000;0.000000;,
  0.000000;0.000000;,
  0.000000;0.000000;,
  0.000000;0.000000;,
  0.000000;0.000000;,
  0.000000;0.000000;,
  0.000000;0.000000;,
  0.000000;0.000000;,
  0.000000;0.000000;,
  0.000000;0.000000;,
  0.000000;0.000000;,
  0.000000;0.000000;,
  0.000000;0.000000;,
  0.000000;0.000000;,
  0.000000;0.000000;,
  0.000000;0.000000;,
  0.000000;0.000000;,
  0.000000;0.000000;,
  0.000000;0.000000;,
  0.000000;0.000000;,
  0.000000;0.000000;,
  0.000000;0.000000;,
  0.000000;0.000000;,
  0.000000;0.000000;,
  0.000000;0.000000;,
  0.000000;0.000000;,
  0.000000;0.000000;,
  0.000000;0.000000;,
  0.000000;0.000000;,
  0.000000;0.000000;,
  0.000000;0.000000;,
  0.000000;0.000000;,
  0.000000;0.000000;,
  0.000000;0.000000;,
  0.000000;0.000000;,
  0.000000;0.000000;,
  0.000000;0.000000;,
  0.000000;0.000000;,
  0.000000;0.000000;,
  0.000000;0.000000;,
  0.000000;0.000000;,
  0.000000;0.000000;,
  0.000000;0.000000;,
  0.000000;0.000000;,
  0.000000;0.000000;,
  0.000000;0.000000;,
  0.000000;0.000000;,
  0.000000;0.000000;,
  0.000000;0.000000;,
  0.000000;0.000000;,
  0.000000;0.000000;,
  0.171020;1.138860;,
  0.274810;1.164050;,
  0.159380;1.117690;,
  -1.015010;0.805390;,
  0.242270;1.305120;,
  0.142090;1.264250;,
  0.123750;1.272150;,
  0.000000;0.000000;,
  0.000000;0.000000;,
  0.000000;0.000000;,
  0.000000;0.000000;,
  0.000000;0.000000;,
  0.000000;0.000000;,
  0.000000;0.000000;,
  0.000000;0.000000;,
  0.000000;0.000000;,
  0.000000;0.000000;,
  0.000000;0.000000;,
  0.000000;0.000000;,
  0.000000;0.000000;,
  0.000000;0.000000;,
  0.000000;0.000000;,
  0.000000;0.000000;,
  0.000000;0.000000;,
  0.000000;0.000000;,
  0.000000;0.000000;,
  0.000000;0.000000;,
  0.000000;0.000000;,
  0.000000;0.000000;,
  0.000000;0.000000;,
  0.000000;0.000000;,
  0.000000;0.000000;,
  0.000000;0.000000;,
  0.000000;0.000000;,
  0.000000;0.000000;,
  0.000000;0.000000;,
  0.000000;0.000000;,
  0.000000;0.000000;,
  0.000000;0.000000;,
  0.000000;0.000000;,
  0.000000;0.000000;,
  0.000000;0.000000;,
  0.000000;0.000000;,
  0.000000;0.000000;,
  0.000000;0.000000;,
  0.000000;0.000000;,
  0.000000;0.000000;,
  0.000000;0.000000;,
  0.000000;0.000000;,
  0.000000;0.000000;,
  0.000000;0.000000;,
  0.000000;0.000000;,
  0.000000;0.000000;,
  0.000000;0.000000;,
  0.000000;0.000000;,
  0.000000;0.000000;,
  0.000000;0.000000;,
  0.000000;0.000000;,
  0.000000;0.000000;,
  0.000000;0.000000;,
  0.000000;0.000000;,
  0.000000;0.000000;,
  0.000000;0.000000;,
  0.000000;0.000000;,
  0.000000;0.000000;,
  0.000000;0.000000;,
  0.000000;0.000000;,
  0.000000;0.000000;,
  0.000000;0.000000;,
  0.000000;0.000000;,
  0.000000;0.000000;,
  0.000000;0.000000;,
  0.000000;0.000000;,
  0.000000;0.000000;,
  0.000000;0.000000;,
  0.000000;0.000000;,
  0.000000;0.000000;,
  0.000000;0.000000;,
  0.000000;0.000000;,
  0.000000;0.000000;,
  0.000000;0.000000;,
  0.000000;0.000000;,
  0.000000;0.000000;,
  0.000000;0.000000;,
  0.000000;0.000000;,
  0.000000;0.000000;,
  0.000000;0.000000;,
  -0.060740;1.091280;,
  -0.055460;1.059630;,
  -0.076920;1.161420;,
  -0.085570;1.190140;,
  -0.053270;1.037110;,
  -0.092760;1.208330;,
  -0.054510;1.026760;,
  -0.097570;1.213430;,
  -0.059260;1.031910;,
  -0.098760;1.203130;,
  -0.066510;1.050050;,
  -0.096620;1.180560;,
  -0.075910;1.078220;,
  -0.092220;1.148920;,
  -0.084030;1.113280;,
  -0.067550;1.127100;,
  -0.664970;-0.006450;,
  -0.516500;0.000660;,
  -0.604480;0.325520;,
  -0.706220;0.291310;,
  -1.062740;1.717930;,
  -0.932610;1.804520;,
  -0.868850;1.471600;,
  -0.970590;1.437390;,
  -0.402190;1.189650;,
  -0.326960;0.863540;,
  -0.553790;0.693670;,
  -0.561550;0.727330;,
  0.092220;0.969510;,
  -0.667900;1.188370;,
  -0.660140;1.154710;,
  0.003120;1.355780;,
  -1.195190;0.958510;,
  -1.103510;0.561060;,
  -0.133580;0.736080;,
  -0.211020;0.856610;,
  -0.289990;1.414150;,
  -0.303500;1.257510;,
  -0.668040;0.599850;,
  -0.769220;0.564670;,
  -0.805810;1.197090;,
  -0.907490;1.164080;,
  -1.047090;0.573030;,
  -1.140500;0.977960;,
  -0.018970;0.813430;,
  -0.158920;1.420110;,
  0.880350;1.438450;,
  0.064530;1.188720;,
  0.071670;1.157760;,
  0.092730;1.233300;,
  0.115190;1.135940;,
  0.000000;0.000000;,
  -1.263420;0.986320;,
  -1.129900;1.030470;,
  -1.263390;0.965960;,
  -1.158590;0.531890;,
  -1.025070;0.576030;,
  -1.158560;0.511530;,
  -0.956050;1.070200;,
  -0.851220;0.615770;,
  -0.957730;0.599780;,
  -1.062230;1.052800;;
 }
}
