{
	"PLAYER": {
		"LIFE": 3,
		"POS": {
			"X": 0,
			"Y": 300,
			"Z": -300
		},
		"MOVE": {
			"X": 0,
			"Y": 0,
			"Z": 0
		},
		"ROT": {
			"X": 0,
			"Y": 3.14,
			"Z": 0
		},
		"TYPE": 0
	},
	
	"INDEX": 1
}