xof 0302txt 0064
template Header {
 <3D82AB43-62DA-11cf-AB39-0020AF71E433>
 WORD major;
 WORD minor;
 DWORD flags;
}

template Vector {
 <3D82AB5E-62DA-11cf-AB39-0020AF71E433>
 FLOAT x;
 FLOAT y;
 FLOAT z;
}

template Coords2d {
 <F6F23F44-7686-11cf-8F52-0040333594A3>
 FLOAT u;
 FLOAT v;
}

template Matrix4x4 {
 <F6F23F45-7686-11cf-8F52-0040333594A3>
 array FLOAT matrix[16];
}

template ColorRGBA {
 <35FF44E0-6C7C-11cf-8F52-0040333594A3>
 FLOAT red;
 FLOAT green;
 FLOAT blue;
 FLOAT alpha;
}

template ColorRGB {
 <D3E16E81-7835-11cf-8F52-0040333594A3>
 FLOAT red;
 FLOAT green;
 FLOAT blue;
}

template IndexedColor {
 <1630B820-7842-11cf-8F52-0040333594A3>
 DWORD index;
 ColorRGBA indexColor;
}

template Boolean {
 <4885AE61-78E8-11cf-8F52-0040333594A3>
 WORD truefalse;
}

template Boolean2d {
 <4885AE63-78E8-11cf-8F52-0040333594A3>
 Boolean u;
 Boolean v;
}

template MaterialWrap {
 <4885AE60-78E8-11cf-8F52-0040333594A3>
 Boolean u;
 Boolean v;
}

template TextureFilename {
 <A42790E1-7810-11cf-8F52-0040333594A3>
 STRING filename;
}

template Material {
 <3D82AB4D-62DA-11cf-AB39-0020AF71E433>
 ColorRGBA faceColor;
 FLOAT power;
 ColorRGB specularColor;
 ColorRGB emissiveColor;
 [...]
}

template MeshFace {
 <3D82AB5F-62DA-11cf-AB39-0020AF71E433>
 DWORD nFaceVertexIndices;
 array DWORD faceVertexIndices[nFaceVertexIndices];
}

template MeshFaceWraps {
 <4885AE62-78E8-11cf-8F52-0040333594A3>
 DWORD nFaceWrapValues;
 Boolean2d faceWrapValues;
}

template MeshTextureCoords {
 <F6F23F40-7686-11cf-8F52-0040333594A3>
 DWORD nTextureCoords;
 array Coords2d textureCoords[nTextureCoords];
}

template MeshMaterialList {
 <F6F23F42-7686-11cf-8F52-0040333594A3>
 DWORD nMaterials;
 DWORD nFaceIndexes;
 array DWORD faceIndexes[nFaceIndexes];
 [Material]
}

template MeshNormals {
 <F6F23F43-7686-11cf-8F52-0040333594A3>
 DWORD nNormals;
 array Vector normals[nNormals];
 DWORD nFaceNormals;
 array MeshFace faceNormals[nFaceNormals];
}

template MeshVertexColors {
 <1630B821-7842-11cf-8F52-0040333594A3>
 DWORD nVertexColors;
 array IndexedColor vertexColors[nVertexColors];
}

template Mesh {
 <3D82AB44-62DA-11cf-AB39-0020AF71E433>
 DWORD nVertices;
 array Vector vertices[nVertices];
 DWORD nFaces;
 array MeshFace faces[nFaces];
 [...]
}

Header{
1;
0;
1;
}

Mesh {
 108;
 -9.25508;5.65715;-8.11008;,
 -1.14500;7.31261;-9.76555;,
 -1.14500;4.10097;-10.08320;,
 -9.57274;4.10097;-8.42774;,
 6.96508;5.65715;-8.11008;,
 7.28274;4.10097;-8.42774;,
 -1.14500;0.27349;-9.76555;,
 -9.25508;-0.19438;-8.11008;,
 6.96508;-0.18936;-8.11008;,
 6.96508;5.65715;-8.11008;,
 8.62055;7.31261;0.00000;,
 8.93820;4.10097;0.00000;,
 7.28274;4.10097;-8.42774;,
 6.96508;5.65715;8.11008;,
 7.28274;4.10097;8.42774;,
 8.62055;0.01042;0.00000;,
 6.96508;-0.18936;-8.11008;,
 6.96508;0.05924;9.28278;,
 6.96508;5.65715;8.11008;,
 -1.14500;7.31261;9.76555;,
 -1.14500;4.10097;10.08320;,
 7.28274;4.10097;8.42774;,
 -9.25508;5.65715;8.11008;,
 -9.57274;4.10097;8.42774;,
 -1.14500;-0.15091;15.16548;,
 6.96508;0.05924;9.28278;,
 -9.42448;0.18668;9.16249;,
 -9.25508;5.65715;8.11008;,
 -10.91055;7.31261;0.00000;,
 -11.22820;4.10097;0.00000;,
 -9.57274;4.10097;8.42774;,
 -9.25508;5.65715;-8.11008;,
 -9.57274;4.10097;-8.42774;,
 -10.91055;0.15161;0.00000;,
 -9.42448;0.18668;9.16249;,
 -9.25508;-0.19438;-8.11008;,
 -1.14500;8.96808;0.00000;,
 -10.91055;7.31261;0.00000;,
 8.62055;7.31261;0.00000;,
 -1.14500;7.31261;-9.76555;,
 -9.25508;5.65715;-8.11008;,
 6.96508;5.65715;-8.11008;,
 -9.25508;-0.19438;-8.11008;,
 -1.14500;0.27349;-9.76555;,
 -1.14500;-0.43274;0.00000;,
 -10.91055;0.15161;0.00000;,
 6.96508;-0.18936;-8.11008;,
 8.62055;0.01042;0.00000;,
 -1.54777;9.53979;-7.37683;,
 -0.74223;9.53979;-7.37683;,
 -0.12145;5.29961;-7.37683;,
 -2.16855;5.29961;-7.37683;,
 -0.74223;9.53979;-7.37683;,
 -0.74623;9.56906;7.37683;,
 -0.12145;5.29961;7.37683;,
 -0.12145;5.29961;-7.37683;,
 -0.74623;9.56906;7.37683;,
 -1.54377;9.56906;7.37683;,
 -2.16855;5.29961;7.37683;,
 -0.12145;5.29961;7.37683;,
 -1.54377;9.56906;7.37683;,
 -1.54777;9.53979;-7.37683;,
 -2.16855;5.29961;-7.37683;,
 -2.16855;5.29961;7.37683;,
 -0.74223;9.53979;-7.37683;,
 -1.54777;9.53979;-7.37683;,
 -2.16855;5.29961;-7.37683;,
 -0.12145;5.29961;-7.37683;,
 7.38883;8.92668;-10.00000;,
 10.94983;8.92668;-10.00000;,
 10.49595;1.58743;-10.00000;,
 7.84271;1.58743;-10.00000;,
 10.94983;8.92668;-10.00000;,
 9.48793;5.79519;10.00000;,
 9.48793;1.58743;10.00000;,
 10.49595;1.58743;-10.00000;,
 9.48793;5.79519;10.00000;,
 8.85072;5.79519;10.00000;,
 8.85072;1.58743;10.00000;,
 9.48793;1.58743;10.00000;,
 8.85072;5.79519;10.00000;,
 7.38883;8.92668;-10.00000;,
 7.84271;1.58743;-10.00000;,
 8.85072;1.58743;10.00000;,
 10.94983;8.92668;-10.00000;,
 7.38883;8.92668;-10.00000;,
 7.84271;1.58743;-10.00000;,
 10.49595;1.58743;-10.00000;,
 -13.45027;8.43606;-10.00000;,
 -9.88926;8.43606;-10.00000;,
 -10.34315;1.09681;-10.00000;,
 -12.99639;1.09681;-10.00000;,
 -9.88926;8.43606;-10.00000;,
 -11.35116;5.30457;10.00000;,
 -11.35116;1.09681;10.00000;,
 -10.34315;1.09681;-10.00000;,
 -11.35116;5.30457;10.00000;,
 -11.98837;5.30457;10.00000;,
 -11.98837;1.09681;10.00000;,
 -11.35116;1.09681;10.00000;,
 -11.98837;5.30457;10.00000;,
 -13.45027;8.43606;-10.00000;,
 -12.99639;1.09681;-10.00000;,
 -11.98837;1.09681;10.00000;,
 -9.88926;8.43606;-10.00000;,
 -13.45027;8.43606;-10.00000;,
 -12.99639;1.09681;-10.00000;,
 -10.34315;1.09681;-10.00000;;
 
 42;
 4;0,1,2,3;,
 4;1,4,5,2;,
 4;3,2,6,7;,
 4;2,5,8,6;,
 4;9,10,11,12;,
 4;10,13,14,11;,
 4;12,11,15,16;,
 4;11,14,17,15;,
 4;18,19,20,21;,
 4;19,22,23,20;,
 4;21,20,24,25;,
 4;20,23,26,24;,
 4;27,28,29,30;,
 4;28,31,32,29;,
 4;30,29,33,34;,
 4;29,32,35,33;,
 4;27,19,36,37;,
 4;19,13,38,36;,
 4;37,36,39,40;,
 4;36,38,41,39;,
 4;42,43,44,45;,
 4;43,46,47,44;,
 4;45,44,24,34;,
 4;44,47,17,24;,
 4;48,49,50,51;,
 4;52,53,54,55;,
 4;56,57,58,59;,
 4;60,61,62,63;,
 4;60,53,64,65;,
 4;66,67,54,63;,
 4;68,69,70,71;,
 4;72,73,74,75;,
 4;76,77,78,79;,
 4;80,81,82,83;,
 4;80,73,84,85;,
 4;86,87,74,83;,
 4;88,89,90,91;,
 4;92,93,94,95;,
 4;96,97,98,99;,
 4;100,101,102,103;,
 4;100,93,104,105;,
 4;106,107,94,103;;
 
 MeshMaterialList {
  3;
  42;
  1,
  1,
  1,
  1,
  1,
  1,
  1,
  1,
  1,
  1,
  1,
  1,
  1,
  1,
  1,
  1,
  1,
  1,
  1,
  1,
  1,
  1,
  1,
  1,
  2,
  2,
  2,
  2,
  2,
  2,
  2,
  2,
  2,
  2,
  2,
  2,
  2,
  2,
  2,
  2,
  2,
  2;;
  Material {
   0.800000;0.800000;0.800000;1.000000;;
   5.000000;
   0.000000;0.000000;0.000000;;
   0.000000;0.000000;0.000000;;
  }
  Material {
   0.784000;0.800000;0.339200;1.000000;;
   80.000000;
   0.260000;0.260000;0.260000;;
   0.000000;0.000000;0.000000;;
  }
  Material {
   0.800000;0.800000;0.800000;1.000000;;
   73.000000;
   0.710000;0.710000;0.710000;;
   0.480000;0.480000;0.480000;;
  }
 }
 MeshNormals {
  72;
  -0.203159;0.164967;-0.965149;,
  0.000000;0.168480;-0.985705;,
  0.203159;0.164967;-0.965149;,
  -0.199779;0.040850;-0.978989;,
  0.000006;0.041678;-0.999131;,
  0.199791;0.040824;-0.978988;,
  -0.193280;-0.083904;-0.977549;,
  0.000011;-0.085543;-0.996334;,
  0.193302;-0.083955;-0.977541;,
  0.985705;0.168480;0.000000;,
  0.965149;0.164967;0.203159;,
  0.998797;0.048953;-0.002795;,
  0.979371;0.053784;0.194783;,
  0.997464;-0.070951;-0.005542;,
  0.981219;-0.058077;0.183946;,
  0.000000;0.168480;0.985705;,
  -0.203159;0.164967;0.965149;,
  0.001000;0.334118;0.942531;,
  -0.261983;0.320897;0.910159;,
  0.002001;0.494719;0.869050;,
  -0.312738;0.466944;0.827138;,
  -0.985705;0.168480;0.000000;,
  -0.998616;0.052404;-0.004530;,
  -0.997910;-0.063986;-0.008983;,
  0.000000;1.000000;0.000000;,
  -0.005380;-0.999976;-0.004335;,
  0.965149;0.164967;-0.203159;,
  0.978780;0.042182;-0.200525;,
  0.977466;-0.081247;-0.194829;,
  0.203159;0.164967;0.965149;,
  0.264093;0.323807;0.908517;,
  0.316537;0.472237;0.822677;,
  -0.965149;0.164967;0.203159;,
  -0.979718;0.061305;0.190775;,
  -0.965149;0.164967;-0.203159;,
  -0.978901;0.041456;-0.200088;,
  -0.983400;-0.043038;0.176272;,
  -0.977525;-0.082696;-0.193924;,
  -0.196116;0.960769;0.196116;,
  0.000000;0.979796;0.200000;,
  -0.200000;0.979796;0.000000;,
  0.196116;0.960769;0.196116;,
  0.200000;0.979796;0.000000;,
  0.000000;0.979796;-0.200000;,
  -0.196116;0.960769;-0.196116;,
  0.196116;0.960769;-0.196116;,
  -0.008486;-0.999746;-0.020897;,
  -0.003450;-0.999690;-0.024655;,
  -0.032730;-0.999461;-0.002434;,
  0.001587;-0.999595;-0.028411;,
  0.021975;-0.999739;-0.006233;,
  -0.007310;-0.999845;0.016011;,
  -0.056944;-0.998249;0.016030;,
  0.042342;-0.998976;0.015952;,
  0.000000;0.000000;-1.000000;,
  0.989457;0.144828;-0.000010;,
  0.000000;0.000000;1.000000;,
  -0.989457;0.144828;-0.000009;,
  0.000000;0.999998;-0.001984;,
  0.000000;-1.000000;-0.000000;,
  0.000000;0.000000;-1.000000;,
  0.997911;-0.030816;0.056779;,
  0.000000;0.000000;1.000000;,
  -0.997911;-0.030816;0.056779;,
  0.000000;0.987963;0.154690;,
  0.000000;-1.000000;-0.000000;,
  0.000000;0.000000;-1.000000;,
  0.997911;-0.030817;0.056779;,
  0.000000;0.000000;1.000000;,
  -0.997911;-0.030816;0.056779;,
  0.000000;0.987963;0.154690;,
  0.000000;-1.000000;-0.000000;;
  42;
  4;0,1,4,3;,
  4;1,2,5,4;,
  4;3,4,7,6;,
  4;4,5,8,7;,
  4;26,9,11,27;,
  4;9,10,12,11;,
  4;27,11,13,28;,
  4;11,12,14,13;,
  4;29,15,17,30;,
  4;15,16,18,17;,
  4;30,17,19,31;,
  4;17,18,20,19;,
  4;32,21,22,33;,
  4;21,34,35,22;,
  4;33,22,23,36;,
  4;22,35,37,23;,
  4;38,39,24,40;,
  4;39,41,42,24;,
  4;40,24,43,44;,
  4;24,42,45,43;,
  4;46,47,25,48;,
  4;47,49,50,25;,
  4;48,25,51,52;,
  4;25,50,53,51;,
  4;54,54,54,54;,
  4;55,55,55,55;,
  4;56,56,56,56;,
  4;57,57,57,57;,
  4;58,58,58,58;,
  4;59,59,59,59;,
  4;60,60,60,60;,
  4;61,61,61,61;,
  4;62,62,62,62;,
  4;63,63,63,63;,
  4;64,64,64,64;,
  4;65,65,65,65;,
  4;66,66,66,66;,
  4;67,67,67,67;,
  4;68,68,68,68;,
  4;69,69,69,69;,
  4;70,70,70,70;,
  4;71,71,71,71;;
 }
 MeshTextureCoords {
  108;
  0.000000;0.000000;,
  0.500000;0.000000;,
  0.500000;0.500000;,
  0.000000;0.500000;,
  1.000000;0.000000;,
  1.000000;0.500000;,
  0.500000;1.000000;,
  0.000000;1.000000;,
  1.000000;1.000000;,
  0.000000;0.000000;,
  0.500000;0.000000;,
  0.500000;0.500000;,
  0.000000;0.500000;,
  1.000000;0.000000;,
  1.000000;0.500000;,
  0.500000;1.000000;,
  0.000000;1.000000;,
  1.000000;1.000000;,
  0.000000;0.000000;,
  0.500000;0.000000;,
  0.500000;0.500000;,
  0.000000;0.500000;,
  1.000000;0.000000;,
  1.000000;0.500000;,
  0.500000;1.000000;,
  0.000000;1.000000;,
  1.000000;1.000000;,
  0.000000;0.000000;,
  0.500000;0.000000;,
  0.500000;0.500000;,
  0.000000;0.500000;,
  1.000000;0.000000;,
  1.000000;0.500000;,
  0.500000;1.000000;,
  0.000000;1.000000;,
  1.000000;1.000000;,
  0.500000;0.500000;,
  0.000000;0.500000;,
  1.000000;0.500000;,
  0.500000;1.000000;,
  0.000000;1.000000;,
  1.000000;1.000000;,
  0.000000;0.000000;,
  0.500000;0.000000;,
  0.500000;0.500000;,
  0.000000;0.500000;,
  1.000000;0.000000;,
  1.000000;0.500000;,
  0.000000;0.000000;,
  1.000000;0.000000;,
  1.000000;1.000000;,
  0.000000;1.000000;,
  0.000000;0.000000;,
  1.000000;0.000000;,
  1.000000;1.000000;,
  0.000000;1.000000;,
  0.000000;0.000000;,
  1.000000;0.000000;,
  1.000000;1.000000;,
  0.000000;1.000000;,
  0.000000;0.000000;,
  1.000000;0.000000;,
  1.000000;1.000000;,
  0.000000;1.000000;,
  1.000000;1.000000;,
  0.000000;1.000000;,
  0.000000;0.000000;,
  1.000000;0.000000;,
  0.000000;0.000000;,
  1.000000;0.000000;,
  1.000000;1.000000;,
  0.000000;1.000000;,
  0.000000;0.000000;,
  1.000000;0.000000;,
  1.000000;1.000000;,
  0.000000;1.000000;,
  0.000000;0.000000;,
  1.000000;0.000000;,
  1.000000;1.000000;,
  0.000000;1.000000;,
  0.000000;0.000000;,
  1.000000;0.000000;,
  1.000000;1.000000;,
  0.000000;1.000000;,
  1.000000;1.000000;,
  0.000000;1.000000;,
  0.000000;0.000000;,
  1.000000;0.000000;,
  0.000000;0.000000;,
  1.000000;0.000000;,
  1.000000;1.000000;,
  0.000000;1.000000;,
  0.000000;0.000000;,
  1.000000;0.000000;,
  1.000000;1.000000;,
  0.000000;1.000000;,
  0.000000;0.000000;,
  1.000000;0.000000;,
  1.000000;1.000000;,
  0.000000;1.000000;,
  0.000000;0.000000;,
  1.000000;0.000000;,
  1.000000;1.000000;,
  0.000000;1.000000;,
  1.000000;1.000000;,
  0.000000;1.000000;,
  0.000000;0.000000;,
  1.000000;0.000000;;
 }
}
