xof 0302txt 0064
template Header {
 <3D82AB43-62DA-11cf-AB39-0020AF71E433>
 WORD major;
 WORD minor;
 DWORD flags;
}

template Vector {
 <3D82AB5E-62DA-11cf-AB39-0020AF71E433>
 FLOAT x;
 FLOAT y;
 FLOAT z;
}

template Coords2d {
 <F6F23F44-7686-11cf-8F52-0040333594A3>
 FLOAT u;
 FLOAT v;
}

template Matrix4x4 {
 <F6F23F45-7686-11cf-8F52-0040333594A3>
 array FLOAT matrix[16];
}

template ColorRGBA {
 <35FF44E0-6C7C-11cf-8F52-0040333594A3>
 FLOAT red;
 FLOAT green;
 FLOAT blue;
 FLOAT alpha;
}

template ColorRGB {
 <D3E16E81-7835-11cf-8F52-0040333594A3>
 FLOAT red;
 FLOAT green;
 FLOAT blue;
}

template IndexedColor {
 <1630B820-7842-11cf-8F52-0040333594A3>
 DWORD index;
 ColorRGBA indexColor;
}

template Boolean {
 <4885AE61-78E8-11cf-8F52-0040333594A3>
 WORD truefalse;
}

template Boolean2d {
 <4885AE63-78E8-11cf-8F52-0040333594A3>
 Boolean u;
 Boolean v;
}

template MaterialWrap {
 <4885AE60-78E8-11cf-8F52-0040333594A3>
 Boolean u;
 Boolean v;
}

template TextureFilename {
 <A42790E1-7810-11cf-8F52-0040333594A3>
 STRING filename;
}

template Material {
 <3D82AB4D-62DA-11cf-AB39-0020AF71E433>
 ColorRGBA faceColor;
 FLOAT power;
 ColorRGB specularColor;
 ColorRGB emissiveColor;
 [...]
}

template MeshFace {
 <3D82AB5F-62DA-11cf-AB39-0020AF71E433>
 DWORD nFaceVertexIndices;
 array DWORD faceVertexIndices[nFaceVertexIndices];
}

template MeshFaceWraps {
 <4885AE62-78E8-11cf-8F52-0040333594A3>
 DWORD nFaceWrapValues;
 Boolean2d faceWrapValues;
}

template MeshTextureCoords {
 <F6F23F40-7686-11cf-8F52-0040333594A3>
 DWORD nTextureCoords;
 array Coords2d textureCoords[nTextureCoords];
}

template MeshMaterialList {
 <F6F23F42-7686-11cf-8F52-0040333594A3>
 DWORD nMaterials;
 DWORD nFaceIndexes;
 array DWORD faceIndexes[nFaceIndexes];
 [Material]
}

template MeshNormals {
 <F6F23F43-7686-11cf-8F52-0040333594A3>
 DWORD nNormals;
 array Vector normals[nNormals];
 DWORD nFaceNormals;
 array MeshFace faceNormals[nFaceNormals];
}

template MeshVertexColors {
 <1630B821-7842-11cf-8F52-0040333594A3>
 DWORD nVertexColors;
 array IndexedColor vertexColors[nVertexColors];
}

template Mesh {
 <3D82AB44-62DA-11cf-AB39-0020AF71E433>
 DWORD nVertices;
 array Vector vertices[nVertices];
 DWORD nFaces;
 array MeshFace faces[nFaces];
 [...]
}

Header{
1;
0;
1;
}

Mesh {
 644;
 -8.23134;41.39130;-7.07568;,
 -0.23902;39.95190;-7.35708;,
 -0.23902;41.39130;1.34786;,
 -7.23024;42.06324;0.30560;,
 8.26588;41.05978;-6.83904;,
 7.23024;42.06324;0.30560;,
 -8.23134;50.52440;-7.07568;,
 -7.23024;50.52440;0.30560;,
 -0.23902;51.68890;1.34786;,
 -0.20994;51.55018;-9.48052;,
 -0.23902;47.72314;-14.34622;,
 -7.23024;47.20428;-14.15488;,
 7.23024;50.52440;0.30560;,
 8.23134;50.52440;-7.07568;,
 7.23024;47.20428;-14.15488;,
 -0.23902;38.95982;-17.04020;,
 -0.23902;39.95190;-7.35708;,
 -7.23024;41.69432;-14.15488;,
 -10.13368;42.74012;-13.42122;,
 -7.23024;47.20428;-14.15488;,
 -0.23902;47.72314;-14.34622;,
 7.23024;47.20428;-14.15488;,
 9.14438;42.40860;-13.91824;,
 7.26478;41.36278;-13.91824;,
 -10.13368;42.74012;-13.42122;,
 -7.23024;41.69432;-14.15488;,
 -8.23134;41.39130;-7.07568;,
 -11.51076;45.18040;-7.07568;,
 -8.23134;50.52440;-7.07568;,
 -7.23024;47.20428;-14.15488;,
 9.14438;42.40860;-13.91824;,
 7.23024;47.20428;-14.15488;,
 8.23134;50.52440;-7.07568;,
 10.52146;44.84888;-6.83904;,
 8.26588;41.05978;-6.83904;,
 7.26478;41.36278;-13.91824;,
 -9.66472;45.57356;3.77228;,
 8.67542;45.24204;4.00892;,
 -9.66472;45.57356;3.77228;,
 -7.23024;42.06324;0.30560;,
 -0.23902;41.39130;1.34786;,
 -0.23902;45.18040;4.81452;,
 -0.23902;51.68890;1.34786;,
 -7.23024;50.52440;0.30560;,
 8.67542;45.24204;4.00892;,
 7.23024;50.52440;0.30560;,
 7.23024;42.06324;0.30560;,
 -8.23134;41.39130;-7.07568;,
 -7.23024;41.69432;-14.15488;,
 -0.23902;39.95190;-7.35708;,
 -0.23902;39.95190;-7.35708;,
 7.26478;41.36278;-13.91824;,
 0.02958;72.93354;-10.76764;,
 0.02958;69.89392;3.56810;,
 10.74412;68.77716;0.00244;,
 10.74412;70.97246;-10.76764;,
 8.66282;70.97246;-20.43244;,
 0.02958;70.97246;-20.43244;,
 -8.29994;70.97246;-20.43244;,
 -10.38124;70.97246;-10.76764;,
 -10.38124;68.77716;0.00244;,
 12.32718;44.34242;-10.76764;,
 9.14114;47.63796;-1.96052;,
 -0.03280;47.70054;1.19574;,
 -0.03280;43.25312;-10.76764;,
 -0.03280;44.34242;-26.15294;,
 9.50586;47.07354;-22.90732;,
 -11.96430;44.34242;-10.76764;,
 -9.14298;47.07354;-22.90732;,
 -8.77826;47.63796;-1.96052;,
 0.02738;64.65572;-28.53886;,
 0.02958;70.97246;-20.43244;,
 8.66282;70.97246;-20.43244;,
 13.53444;64.13310;-25.27670;,
 -13.17154;64.13310;-25.27670;,
 -8.29994;70.97246;-20.43244;,
 13.53444;64.13310;-25.27670;,
 8.66282;70.97246;-20.43244;,
 10.74412;70.97246;-10.76764;,
 15.84510;64.13310;-10.76764;,
 -13.17154;64.13310;-25.27670;,
 -15.48218;64.13310;-10.76764;,
 -10.38124;70.97246;-10.76764;,
 -8.29994;70.97246;-20.43244;,
 13.07630;64.13310;3.37072;,
 -12.71340;64.13310;3.37072;,
 13.07630;64.13310;3.37072;,
 10.74412;68.77716;0.00244;,
 0.02958;69.89392;3.56810;,
 -0.03280;57.37970;8.64578;,
 -12.71340;64.13310;3.37072;,
 -10.38124;68.77716;0.00244;,
 -0.03280;59.01378;-30.71620;,
 14.35804;59.26600;-24.80758;,
 15.08304;54.97822;-26.15294;,
 -0.03280;54.97822;-35.36768;,
 -14.72012;54.97822;-26.15294;,
 -13.99512;59.26600;-24.80758;,
 14.35804;59.26600;-24.80758;,
 17.40204;58.26760;-10.76764;,
 -13.99512;59.26600;-24.80758;,
 -17.03912;58.26886;-10.76764;,
 15.08304;59.55520;5.24776;,
 -14.72012;59.55520;5.24776;,
 -9.14298;47.07354;-22.90732;,
 -0.99878;48.83866;-31.06266;,
 -9.14298;47.07354;-22.90732;,
 -14.72012;49.65294;-10.76764;,
 -17.03912;58.26886;-10.76764;,
 -14.72012;54.97822;-26.15294;,
 9.50586;47.07354;-22.90732;,
 -11.96430;44.34242;-10.76764;,
 -13.44060;52.64694;2.76698;,
 -14.72012;55.99440;4.17132;,
 9.50586;47.07354;-22.90732;,
 15.08304;54.97822;-26.15294;,
 17.40204;58.26760;-10.76764;,
 15.08304;49.65294;-10.76764;,
 -13.44060;52.64694;2.76698;,
 -8.77826;47.63796;-1.96052;,
 -0.03280;47.70054;1.19574;,
 -0.03280;50.35382;5.30468;,
 -0.03280;57.37970;8.64578;,
 -14.72012;55.99440;4.17132;,
 15.08304;55.99440;4.17132;,
 13.80350;52.64694;2.76698;,
 12.32718;44.34242;-10.76764;,
 9.14114;47.63796;-1.96052;,
 13.80350;52.64694;2.76698;,
 15.08304;55.99440;4.17132;,
 -9.14298;47.07354;-22.90732;,
 -0.99878;48.83866;-31.06266;,
 -0.03280;44.34242;-26.15294;,
 -9.14298;47.07354;-22.90732;,
 -11.96430;44.34242;-10.76764;,
 -0.99878;48.83866;-31.06266;,
 9.50586;47.07354;-22.90732;,
 9.50586;47.07354;-22.90732;,
 15.08304;49.65294;-10.76764;,
 14.35804;59.26600;-24.80758;,
 17.40204;58.26760;-10.76764;,
 -13.99512;59.26600;-24.80758;,
 -14.72012;54.97822;-26.15294;,
 15.08304;59.55520;5.24776;,
 -17.03912;58.26886;-10.76764;,
 -14.72012;55.99440;4.17132;,
 15.08304;59.55520;5.24776;,
 13.07630;64.13310;3.37072;,
 -0.03280;57.37970;8.64578;,
 -14.72012;59.55520;5.24776;,
 -14.72012;55.99440;4.17132;,
 -0.03280;57.37970;8.64578;,
 -11.73208;76.82510;-11.36896;,
 -9.97506;81.28964;-11.93174;,
 -7.21868;84.67828;-12.46502;,
 -5.89446;73.99756;-10.80588;,
 -4.26766;81.88734;-12.90596;,
 -3.17428;77.85302;-13.54492;,
 -12.43040;76.39412;-8.42208;,
 -6.53948;78.59782;-7.05386;,
 -6.93224;87.16306;-10.54926;,
 -11.33330;81.77938;-8.43622;,
 -0.70770;76.51100;-10.23042;,
 -2.63494;81.99484;-9.79684;,
 -6.89154;86.30348;-11.27504;,
 -7.21868;84.67828;-12.46502;,
 -9.97506;81.28964;-11.93174;,
 -11.33330;81.77938;-8.43622;,
 -6.93224;87.16306;-10.54926;,
 -2.63494;81.99484;-9.79684;,
 -3.09556;82.30174;-11.21922;,
 -4.26766;81.88734;-12.90596;,
 -11.33330;81.77938;-8.43622;,
 -9.97506;81.28964;-11.93174;,
 -11.73208;76.82510;-11.36896;,
 -13.16884;76.54912;-10.47110;,
 -3.09556;82.30174;-11.21922;,
 -0.70770;76.51100;-10.23042;,
 -1.40474;75.57080;-12.13686;,
 -3.17428;77.85302;-13.54492;,
 -4.26766;81.88734;-12.90596;,
 -12.44210;65.78998;-11.13290;,
 -11.58060;70.73860;-12.26428;,
 -7.73978;71.04598;-14.20480;,
 -7.42316;68.82196;-14.89900;,
 -2.62774;68.52012;-13.77674;,
 -1.83592;67.95244;-11.74160;,
 -7.44032;67.58518;-7.87384;,
 -3.44904;71.73364;-14.54460;,
 -12.49728;73.53400;-9.02816;,
 -12.44210;65.78998;-11.13290;,
 -7.44032;67.58518;-7.87384;,
 -6.83366;71.06388;-6.48202;,
 -12.49728;73.53400;-9.02816;,
 -12.43040;76.39412;-8.42208;,
 -12.98690;73.90656;-10.88962;,
 -1.83592;67.95244;-11.74160;,
 -0.85596;73.70696;-10.12000;,
 -11.68410;72.53032;-12.02742;,
 -11.58060;70.73860;-12.26428;,
 -12.44210;65.78998;-11.13290;,
 -0.85596;73.70696;-10.12000;,
 -2.62774;68.52012;-13.77674;,
 -1.40474;75.57080;-12.13686;,
 -11.68410;72.53032;-12.02742;,
 -6.48802;71.52806;-11.56976;,
 -7.73978;71.04598;-14.20480;,
 -11.58060;70.73860;-12.26428;,
 -3.44904;71.73364;-14.54460;,
 -3.26130;73.05454;-14.31458;,
 -3.26130;73.05454;-14.31458;,
 -3.44904;71.73364;-14.54460;,
 -6.89154;86.30348;-11.27504;,
 -11.33330;81.77938;-8.43622;,
 -11.33330;81.77938;-8.43622;,
 -13.16884;76.54912;-10.47110;,
 -12.44210;65.78998;-11.13290;,
 -7.42316;68.82196;-14.89900;,
 -12.49728;73.53400;-9.02816;,
 -12.98690;73.90656;-10.88962;,
 -0.85596;73.70696;-10.12000;,
 -1.40474;75.57080;-12.13686;,
 -3.26130;73.05454;-14.31458;,
 12.09496;76.82510;-11.36896;,
 6.25734;73.99756;-10.80588;,
 7.58156;84.67828;-12.46502;,
 10.33794;81.28964;-11.93174;,
 3.53716;77.85302;-13.54492;,
 4.63054;81.88734;-12.90596;,
 12.79328;76.39412;-8.42208;,
 11.69616;81.77938;-8.43622;,
 7.29512;87.16306;-10.54926;,
 6.90236;78.59782;-7.05386;,
 2.99782;81.99484;-9.79684;,
 1.07058;76.51100;-10.23042;,
 7.25442;86.30348;-11.27504;,
 11.69616;81.77938;-8.43622;,
 10.33794;81.28964;-11.93174;,
 7.58156;84.67828;-12.46502;,
 3.45844;82.30174;-11.21922;,
 2.99782;81.99484;-9.79684;,
 7.29512;87.16306;-10.54926;,
 4.63054;81.88734;-12.90596;,
 11.69616;81.77938;-8.43622;,
 13.53172;76.54912;-10.47110;,
 12.09496;76.82510;-11.36896;,
 10.33794;81.28964;-11.93174;,
 3.45844;82.30174;-11.21922;,
 1.76762;75.57080;-12.13686;,
 1.07058;76.51100;-10.23042;,
 4.63054;81.88734;-12.90596;,
 3.53716;77.85302;-13.54492;,
 12.80500;65.78998;-11.13290;,
 7.78604;68.82196;-14.89900;,
 8.10266;71.04598;-14.20480;,
 11.94348;70.73860;-12.26428;,
 2.99062;68.52012;-13.77674;,
 7.80320;67.58518;-7.87384;,
 2.19880;67.95244;-11.74160;,
 3.81192;71.73364;-14.54460;,
 12.86018;73.53400;-9.02816;,
 7.19654;71.06388;-6.48202;,
 7.80320;67.58518;-7.87384;,
 12.80500;65.78998;-11.13290;,
 12.86018;73.53400;-9.02816;,
 13.34980;73.90656;-10.88962;,
 12.79328;76.39412;-8.42208;,
 1.21884;73.70696;-10.12000;,
 2.19880;67.95244;-11.74160;,
 12.04698;72.53032;-12.02742;,
 12.80500;65.78998;-11.13290;,
 11.94348;70.73860;-12.26428;,
 1.21884;73.70696;-10.12000;,
 1.76762;75.57080;-12.13686;,
 2.99062;68.52012;-13.77674;,
 12.04698;72.53032;-12.02742;,
 6.85090;71.52806;-11.56976;,
 11.94348;70.73860;-12.26428;,
 8.10266;71.04598;-14.20480;,
 3.62418;73.05454;-14.31458;,
 3.81192;71.73364;-14.54460;,
 3.62418;73.05454;-14.31458;,
 3.81192;71.73364;-14.54460;,
 7.25442;86.30348;-11.27504;,
 11.69616;81.77938;-8.43622;,
 11.69616;81.77938;-8.43622;,
 13.53172;76.54912;-10.47110;,
 12.80500;65.78998;-11.13290;,
 7.78604;68.82196;-14.89900;,
 12.86018;73.53400;-9.02816;,
 13.34980;73.90656;-10.88962;,
 1.21884;73.70696;-10.12000;,
 1.76762;75.57080;-12.13686;,
 3.62418;73.05454;-14.31458;,
 -9.42682;36.08646;-20.79496;,
 -7.54404;32.55308;-21.11608;,
 -7.57544;31.81420;-18.92468;,
 -9.43496;35.54342;-17.14274;,
 8.90124;36.41478;-18.21604;,
 8.90124;35.54342;-17.14274;,
 7.93832;31.81420;-18.92468;,
 7.93832;35.92678;-21.94284;,
 -9.50222;39.54916;-17.93122;,
 -9.43022;38.99754;-15.49224;,
 9.79310;41.03764;-18.36248;,
 9.79310;38.99754;-15.49224;,
 -10.20996;42.15066;-19.99080;,
 -10.13796;40.39812;-14.18252;,
 -9.75404;43.92334;-13.13850;,
 -7.29288;45.50934;-14.52010;,
 10.00644;43.33964;-15.44288;,
 7.84968;46.05166;-16.53784;,
 9.65168;43.92334;-13.13850;,
 10.50082;41.73844;-14.18252;,
 -4.71658;39.94480;-22.24736;,
 -4.16876;38.27738;-21.47616;,
 -9.42682;36.08646;-20.79496;,
 -9.50222;39.54916;-17.93122;,
 -10.20996;42.15066;-19.99080;,
 -4.40444;42.16128;-20.71542;,
 -7.29288;45.50934;-14.52010;,
 -6.08758;45.74884;-16.53294;,
 -6.08758;45.74884;-16.53294;,
 -7.29288;45.50934;-14.52010;,
 -6.08758;45.36156;-13.13360;,
 -3.80100;28.13264;-25.10656;,
 -3.80100;27.48682;-20.73932;,
 -6.59488;29.83002;-20.73932;,
 -5.26726;29.54278;-22.07860;,
 -6.08758;45.36156;-13.13360;,
 -9.75404;43.92334;-13.13850;,
 -10.13796;40.39812;-14.18252;,
 -5.88326;41.73844;-14.18252;,
 -9.43022;38.99754;-15.49224;,
 -5.46732;38.99754;-15.49224;,
 -4.37728;31.81420;-18.92468;,
 -4.94318;35.54342;-17.14274;,
 -9.43496;35.54342;-17.14274;,
 -7.57544;31.81420;-18.92468;,
 0.85098;39.37634;-21.46242;,
 0.14916;35.53230;-26.02932;,
 -1.16346;42.72778;-22.72524;,
 0.02734;45.74884;-16.53294;,
 0.02734;45.74884;-16.53294;,
 0.02734;45.36156;-13.13360;,
 0.00628;25.51956;-24.53180;,
 0.00628;24.87374;-20.73932;,
 0.02734;45.36156;-13.13360;,
 -0.08532;41.73844;-14.18252;,
 -0.06702;38.99754;-15.49224;,
 -0.01908;31.81420;-18.92468;,
 -0.04396;35.54342;-17.14274;,
 5.07810;41.32890;-22.63052;,
 9.79310;41.03764;-18.36248;,
 8.90124;36.41478;-18.21604;,
 5.33406;38.59570;-21.29374;,
 7.93832;35.92678;-21.94284;,
 5.72030;35.12604;-24.74678;,
 -0.01908;32.47540;-24.66960;,
 5.07810;41.32890;-22.63052;,
 4.51732;45.70036;-16.53784;,
 7.84968;46.05166;-16.53784;,
 10.00644;43.33964;-15.44288;,
 4.51732;45.70036;-16.53784;,
 6.07734;45.31308;-13.13850;,
 7.84968;46.05166;-16.53784;,
 5.07552;29.91110;-24.92716;,
 3.85236;27.48682;-20.73932;,
 6.07734;45.31308;-13.13850;,
 5.77172;41.73844;-14.18252;,
 10.50082;41.73844;-14.18252;,
 9.65168;43.92334;-13.13850;,
 5.38834;38.99754;-15.49224;,
 9.79310;38.99754;-15.49224;,
 4.38354;31.81420;-18.92468;,
 7.93832;31.81420;-18.92468;,
 8.90124;35.54342;-17.14274;,
 4.90518;35.54342;-17.14274;,
 -4.16876;38.27738;-21.47616;,
 -7.54404;32.55308;-21.11608;,
 0.14916;35.53230;-26.02932;,
 -0.01908;32.47540;-24.66960;,
 -4.16876;38.27738;-21.47616;,
 5.07810;41.32890;-22.63052;,
 0.85098;39.37634;-21.46242;,
 10.00644;43.33964;-15.44288;,
 -5.67950;34.36438;-24.74272;,
 -0.00452;28.48128;-25.66760;,
 0.00628;25.51956;-24.53180;,
 -3.80100;28.13264;-25.10656;,
 -5.26726;29.54278;-22.07860;,
 -6.99904;31.36030;-23.99342;,
 -7.54404;32.55308;-21.11608;,
 5.35006;31.91110;-23.67910;,
 5.07552;29.91110;-24.92716;,
 -6.99904;31.36030;-23.99342;,
 -5.26726;29.54278;-22.07860;,
 -7.01240;30.67486;-19.96666;,
 7.37528;32.32570;-22.47842;,
 6.95776;30.47584;-21.49282;,
 -7.01240;30.67486;-19.96666;,
 -6.59488;29.83002;-20.73932;,
 -3.80100;27.48682;-20.73932;,
 -4.04638;29.32938;-19.96666;,
 7.37528;32.32570;-22.47842;,
 7.37528;30.67486;-19.96666;,
 0.00628;24.87374;-20.73932;,
 -0.00452;27.82894;-19.96666;,
 7.37528;30.67486;-19.96666;,
 4.07854;29.32938;-19.96666;,
 3.85236;27.48682;-20.73932;,
 6.95776;30.47584;-21.49282;,
 -9.51980;70.41934;-10.38452;,
 -11.28312;71.95276;-12.44306;,
 -9.65060;71.01718;-13.46210;,
 -7.00032;70.41934;-13.85888;,
 -4.61900;70.41934;-14.30752;,
 -4.61900;70.41934;-10.38452;,
 -8.18504;74.43916;-11.56142;,
 -7.05174;71.79404;-10.38634;,
 -6.56434;74.68092;-12.05422;,
 -7.63144;77.14220;-12.01134;,
 -8.43426;73.52354;-13.99936;,
 -7.63144;77.14220;-12.01134;,
 -6.53004;75.78538;-14.45980;,
 -6.95132;73.35106;-13.48456;,
 -4.61900;72.61634;-10.63734;,
 -4.61900;79.18890;-12.63972;,
 -4.61900;79.18890;-12.63972;,
 -4.61900;72.61634;-13.21280;,
 -6.99078;72.57028;-15.82274;,
 -4.61900;72.61634;-13.21280;,
 -4.61900;70.41934;-14.30752;,
 -7.00032;70.41934;-13.85888;,
 -9.65060;71.01718;-13.46210;,
 -9.48688;73.90652;-13.36018;,
 -4.61900;72.61634;-13.21280;,
 -4.61900;72.61634;-10.63734;,
 -4.61900;70.41934;-14.30752;,
 -9.48688;73.90652;-13.36018;,
 -9.65060;71.01718;-13.46210;,
 -10.37460;77.79860;-12.83820;,
 -8.18504;74.43916;-11.56142;,
 -8.43426;73.52354;-13.99936;,
 -4.61900;72.61634;-10.63734;,
 -7.05174;71.79404;-10.38634;,
 -9.51980;70.41934;-10.38452;,
 -4.61900;70.41934;-10.38452;,
 -10.37460;77.79860;-12.83820;,
 -11.28312;71.95276;-12.44306;,
 5.07552;29.91110;-24.92716;,
 6.95776;30.47584;-21.49282;,
 7.37528;32.32570;-22.47842;,
 7.37528;30.67486;-19.96666;,
 -6.56434;74.68092;-12.05422;,
 -4.61900;79.18890;-12.63972;,
 -6.53004;75.78538;-14.45980;,
 -6.56434;74.68092;-12.05422;,
 -6.53004;75.78538;-14.45980;,
 -7.63144;77.14220;-12.01134;,
 -8.18504;74.43916;-11.56142;,
 -7.63144;77.14220;-12.01134;,
 -4.61900;72.61634;-10.63734;,
 -4.61900;72.61634;-13.21280;,
 -6.99078;72.57028;-15.82274;,
 -6.95132;73.35106;-13.48456;,
 -10.37460;77.79860;-12.83820;,
 -7.05174;71.79404;-10.38634;,
 9.88268;70.41934;-10.38452;,
 7.36320;70.41934;-13.85888;,
 10.01348;71.01718;-13.46210;,
 11.64600;71.95276;-12.44306;,
 4.98188;70.41934;-10.38452;,
 4.98188;70.41934;-14.30752;,
 8.54792;74.43916;-11.56142;,
 7.99432;78.82316;-13.42824;,
 6.92722;74.68092;-12.05422;,
 7.41462;71.79404;-10.38634;,
 8.79714;74.12990;-13.19202;,
 7.31420;73.35106;-13.48456;,
 6.89292;75.78538;-13.11652;,
 7.99432;78.82316;-13.42824;,
 4.98188;79.18890;-12.63972;,
 4.98188;72.61634;-10.63734;,
 4.98188;72.61634;-13.21280;,
 4.98188;79.18890;-12.63972;,
 7.35366;74.59426;-15.82274;,
 8.48402;72.96432;-13.36018;,
 8.48402;72.96432;-13.36018;,
 8.79714;74.12990;-13.19202;,
 8.54792;74.43916;-11.56142;,
 10.73748;78.44390;-12.49000;,
 6.92722;74.68092;-12.05422;,
 6.89292;75.78538;-13.11652;,
 4.98188;79.18890;-12.63972;,
 6.92722;74.68092;-12.05422;,
 7.99432;78.82316;-13.42824;,
 6.89292;75.78538;-13.11652;,
 8.54792;74.43916;-11.56142;,
 7.99432;78.82316;-13.42824;,
 4.98188;72.61634;-10.63734;,
 4.98188;72.61634;-13.21280;,
 7.35366;74.59426;-15.82274;,
 7.31420;73.35106;-13.48456;,
 10.73748;78.44390;-12.49000;,
 7.41462;71.79404;-10.38634;,
 7.35660;71.90806;-15.21812;,
 9.90018;72.30562;-15.13354;,
 10.01348;71.01718;-13.46210;,
 7.36320;70.41934;-13.85888;,
 4.98188;70.41934;-14.30752;,
 4.98188;71.93994;-13.54984;,
 4.98188;72.61634;-13.21280;,
 9.90018;72.30562;-15.13354;,
 11.01718;75.99882;-12.71654;,
 10.01348;71.01718;-13.46210;,
 4.98188;71.93994;-13.54984;,
 4.98188;70.41934;-14.30752;,
 4.98188;71.93994;-10.55950;,
 4.98188;72.61634;-10.63734;,
 4.98188;72.61634;-13.21280;,
 11.01718;75.99882;-12.71654;,
 10.73748;78.44390;-12.49000;,
 7.41462;71.79404;-10.38634;,
 8.17446;71.37080;-10.38578;,
 9.88268;70.41934;-10.38452;,
 11.64600;71.95276;-12.44306;,
 4.98188;71.93994;-10.55950;,
 4.98188;70.41934;-10.38452;,
 4.98188;72.61634;-10.63734;,
 -11.51728;65.57486;-24.63150;,
 -3.71796;65.77380;-26.79778;,
 -3.91608;64.15562;-28.02896;,
 -11.71538;63.95672;-25.86266;,
 -3.71796;65.77380;-26.79778;,
 -3.44620;65.32834;-25.82214;,
 -3.64432;63.71018;-27.05332;,
 -3.91608;64.15562;-28.02896;,
 -3.44620;65.32834;-25.82214;,
 -11.24552;65.12942;-23.65584;,
 -11.44364;63.51126;-24.88704;,
 -3.64432;63.71018;-27.05332;,
 -11.24552;65.12942;-23.65584;,
 -11.51728;65.57486;-24.63150;,
 -11.71538;63.95672;-25.86266;,
 -11.44364;63.51126;-24.88704;,
 -3.71796;65.77380;-26.79778;,
 -11.51728;65.57486;-24.63150;,
 -11.71538;63.95672;-25.86266;,
 -3.91608;64.15562;-28.02896;,
 -5.79554;64.21306;-27.34826;,
 -5.13538;62.97794;-24.48328;,
 -5.60642;58.06344;-27.88302;,
 -6.26658;58.19292;-29.24176;,
 -8.06030;62.97794;-23.65988;,
 -8.72048;64.21306;-26.52490;,
 -9.19152;58.19292;-28.41838;,
 -8.53136;58.06344;-27.05962;,
 11.88016;65.57486;-24.63150;,
 12.07826;63.95672;-25.86266;,
 4.27896;64.15562;-28.02896;,
 4.08084;65.77380;-26.79778;,
 4.08084;65.77380;-26.79778;,
 4.27896;64.15562;-28.02896;,
 4.00720;63.71018;-27.05332;,
 3.80908;65.32834;-25.82214;,
 3.80908;65.32834;-25.82214;,
 4.00720;63.71018;-27.05332;,
 11.80652;63.51126;-24.88704;,
 11.60840;65.12942;-23.65584;,
 11.60840;65.12942;-23.65584;,
 11.80652;63.51126;-24.88704;,
 12.07826;63.95672;-25.86266;,
 11.88016;65.57486;-24.63150;,
 11.88016;65.57486;-24.63150;,
 4.08084;65.77380;-26.79778;,
 12.07826;63.95672;-25.86266;,
 4.27896;64.15562;-28.02896;,
 6.15842;64.21306;-27.34826;,
 6.62946;58.19292;-29.24176;,
 5.96930;58.06344;-27.88302;,
 5.49826;62.97794;-24.48328;,
 8.42318;62.97794;-23.65988;,
 8.89424;58.06344;-27.05962;,
 9.55440;58.19292;-28.41838;,
 9.08336;64.21306;-26.52490;,
 8.04928;57.41858;-29.17522;,
 9.55440;58.19292;-28.41838;,
 7.38912;57.28910;-27.81648;,
 6.62946;58.19292;-29.24176;,
 8.04928;57.41858;-29.17522;,
 6.62946;58.19292;-29.24176;,
 6.15842;64.21306;-27.34826;,
 7.57824;64.21306;-26.94860;,
 9.08336;64.21306;-26.52490;,
 9.55440;58.19292;-28.41838;,
 7.38912;57.28910;-27.81648;,
 8.89424;58.06344;-27.05962;,
 8.42318;62.97794;-23.65988;,
 6.91808;62.97794;-24.08360;,
 5.49826;62.97794;-24.48328;,
 5.96930;58.06344;-27.88302;,
 7.57824;64.21306;-26.94860;,
 6.15842;64.21306;-27.34826;,
 6.91808;62.97794;-24.08360;,
 9.08336;64.21306;-26.52490;,
 -7.78316;57.41858;-29.14800;,
 -6.26658;58.19292;-29.24176;,
 -7.12298;58.06344;-27.45610;,
 -9.19152;58.19292;-28.41838;,
 -7.78316;57.41858;-29.14800;,
 -9.19152;58.19292;-28.41838;,
 -8.72048;64.21306;-26.52490;,
 -7.31212;64.21306;-26.92136;,
 -5.79554;64.21306;-27.34826;,
 -6.26658;58.19292;-29.24176;,
 -7.12298;58.06344;-27.45610;,
 -5.60642;58.06344;-27.88302;,
 -5.13538;62.97794;-24.48328;,
 -6.65194;62.97794;-24.05636;,
 -8.06030;62.97794;-23.65988;,
 -8.53136;58.06344;-27.05962;,
 -7.31212;64.21306;-26.92136;,
 -8.72048;64.21306;-26.52490;,
 -6.65194;62.97794;-24.05636;,
 -5.79554;64.21306;-27.34826;,
 0.18144;56.21080;-34.85636;,
 1.81016;55.61646;-34.85636;,
 0.18144;55.61646;-35.65452;,
 0.18144;56.21080;-34.85636;,
 0.18144;55.61646;-34.05816;,
 0.18144;56.21080;-34.85636;,
 -1.44728;55.61646;-34.85636;,
 0.18144;56.21080;-34.85636;,
 0.18144;55.61646;-35.65452;,
 1.81016;54.42792;-34.85636;,
 0.18144;54.42792;-35.65452;,
 0.18144;54.42792;-34.05816;,
 -1.44728;54.42792;-34.85636;,
 0.18144;54.42792;-35.65452;,
 0.18144;53.83358;-34.85636;,
 0.18144;53.83358;-34.85636;,
 0.18144;53.83358;-34.85636;,
 0.18144;53.83358;-34.85636;;
 
 294;
 4;0,1,2,3;,
 4;1,4,5,2;,
 4;6,7,8,9;,
 4;6,9,10,11;,
 4;9,8,12,13;,
 4;9,13,14,10;,
 4;15,16,17,18;,
 4;15,18,19,20;,
 4;15,20,21,22;,
 4;15,22,23,16;,
 4;24,25,26,27;,
 4;24,27,28,29;,
 4;30,31,32,33;,
 4;30,33,34,35;,
 4;27,26,3,36;,
 4;27,36,7,28;,
 4;33,32,12,37;,
 4;33,37,5,34;,
 4;38,39,40,41;,
 4;38,41,42,43;,
 4;44,45,42,41;,
 4;44,41,40,46;,
 3;47,48,49;,
 3;50,51,4;,
 4;52,53,54,55;,
 4;52,55,56,57;,
 4;52,57,58,59;,
 4;52,59,60,53;,
 4;61,62,63,64;,
 4;61,64,65,66;,
 4;67,68,65,64;,
 4;67,64,63,69;,
 4;70,71,72,73;,
 4;70,74,75,71;,
 4;76,77,78,79;,
 4;80,81,82,83;,
 4;79,78,54,84;,
 4;81,85,60,82;,
 4;86,87,88,89;,
 4;90,89,88,91;,
 4;92,70,73,93;,
 4;92,93,94,95;,
 4;92,95,96,97;,
 4;92,97,74,70;,
 4;98,76,79,99;,
 4;100,101,81,80;,
 4;99,79,84,102;,
 4;101,103,85,81;,
 4;104,96,95,105;,
 4;106,107,108,109;,
 4;105,95,94,110;,
 4;107,111,69,112;,
 4;107,112,113,108;,
 4;114,115,116,117;,
 4;118,119,120,121;,
 4;118,121,122,123;,
 4;117,116,124,125;,
 4;117,125,62,126;,
 4;121,120,127,128;,
 4;121,128,129,122;,
 3;130,131,132;,
 3;133,134,107;,
 3;135,136,132;,
 3;137,138,126;,
 3;139,140,115;,
 3;141,142,108;,
 3;140,143,124;,
 3;144,145,103;,
 3;146,147,89;,
 3;146,148,129;,
 3;149,150,122;,
 3;149,151,90;,
 4;152,153,154,155;,
 4;155,154,156,157;,
 4;158,159,160,161;,
 4;159,162,163,160;,
 4;164,165,166,167;,
 4;164,168,169,170;,
 4;164,170,171,165;,
 4;172,173,174,175;,
 4;176,169,177,178;,
 4;176,178,179,180;,
 4;181,182,183,184;,
 4;185,186,187,184;,
 4;185,184,183,188;,
 4;189,190,191,192;,
 4;189,192,159,158;,
 4;193,194,175,195;,
 4;192,191,196,197;,
 4;192,197,162,159;,
 4;195,175,174,198;,
 4;195,198,199,200;,
 4;201,186,202,203;,
 4;204,152,155,205;,
 4;204,205,206,207;,
 4;203,202,208,209;,
 4;205,155,157,210;,
 4;205,210,211,206;,
 3;212,213,168;,
 3;214,215,194;,
 3;216,217,187;,
 3;218,219,200;,
 3;220,221,177;,
 3;221,222,179;,
 4;223,224,225,226;,
 4;224,227,228,225;,
 4;229,230,231,232;,
 4;232,231,233,234;,
 4;235,236,237,238;,
 4;235,239,240,241;,
 4;235,238,242,239;,
 4;243,244,245,246;,
 4;247,248,249,240;,
 4;247,250,251,248;,
 4;252,253,254,255;,
 4;256,253,257,258;,
 4;256,259,254,253;,
 4;260,261,262,263;,
 4;260,229,232,261;,
 4;264,265,244,266;,
 4;261,267,268,262;,
 4;261,232,234,267;,
 4;265,269,245,244;,
 4;265,270,271,269;,
 4;272,273,274,258;,
 4;275,276,224,223;,
 4;275,277,278,276;,
 4;273,279,280,274;,
 4;276,281,227,224;,
 4;276,278,282,281;,
 3;283,241,284;,
 3;285,266,286;,
 3;287,257,288;,
 3;289,270,290;,
 3;291,249,292;,
 3;292,251,293;,
 4;294,295,296,297;,
 4;298,299,300,301;,
 4;302,294,297,303;,
 4;304,305,299,298;,
 4;306,302,303,307;,
 4;306,307,308,309;,
 4;310,311,312,313;,
 4;310,313,305,304;,
 4;314,315,316,317;,
 4;314,317,318,319;,
 4;319,318,320,321;,
 4;322,323,308,324;,
 4;325,326,327,328;,
 4;329,330,331,332;,
 4;332,331,333,334;,
 4;335,336,337,338;,
 4;334,333,337,336;,
 4;339,340,315,314;,
 4;339,314,319,341;,
 4;341,319,321,342;,
 4;343,322,324,344;,
 4;345,346,326,325;,
 4;347,329,332,348;,
 4;348,332,334,349;,
 4;350,351,336,335;,
 4;349,334,336,351;,
 4;352,353,354,355;,
 4;352,355,340,339;,
 4;355,354,356,357;,
 4;355,357,358,340;,
 4;359,341,342,360;,
 4;359,360,361,362;,
 4;363,343,344,364;,
 4;363,364,312,365;,
 4;366,367,346,345;,
 4;368,347,348,369;,
 4;368,369,370,371;,
 4;369,348,349,372;,
 4;369,372,373,370;,
 4;374,375,376,377;,
 4;374,377,351,350;,
 4;372,349,351,377;,
 4;372,377,376,373;,
 3;378,379,316;,
 3;380,381,382;,
 3;383,384,341;,
 3;383,385,353;,
 4;386,382,358,387;,
 4;386,387,388,389;,
 4;386,389,390,391;,
 4;386,391,392,382;,
 4;387,358,357,393;,
 4;387,393,394,388;,
 4;395,396,327,397;,
 4;395,397,296,295;,
 4;393,357,356,398;,
 4;393,398,399,394;,
 4;400,401,402,403;,
 4;400,403,335,338;,
 4;404,301,300,405;,
 4;403,402,406,407;,
 4;403,407,350,335;,
 4;408,375,374,409;,
 4;408,409,410,411;,
 4;407,406,410,409;,
 4;407,409,374,350;,
 4;412,413,414,415;,
 4;412,415,416,417;,
 4;418,419,420,421;,
 4;422,423,424,425;,
 4;419,426,427,420;,
 4;425,424,428,429;,
 4;430,431,432,433;,
 4;430,433,434,435;,
 4;430,435,422,425;,
 4;436,437,417,438;,
 4;439,440,413,441;,
 4;439,441,442,443;,
 4;444,445,446,447;,
 4;448,449,446,445;,
 3;450,451,367;,
 3;452,453,399;,
 3;454,455,456;,
 3;457,458,459;,
 3;460,461,443;,
 3;462,463,427;,
 3;464,465,429;,
 3;466,467,418;,
 4;468,469,470,471;,
 4;468,472,473,469;,
 4;474,475,476,477;,
 4;478,479,480,481;,
 4;477,476,482,483;,
 4;479,484,485,480;,
 4;486,479,478,487;,
 4;488,489,490,491;,
 3;492,493,494;,
 3;495,496,497;,
 3;498,489,499;,
 3;500,482,501;,
 3;502,484,503;,
 3;504,474,505;,
 4;506,486,487,507;,
 4;506,507,508,509;,
 4;506,509,510,511;,
 4;506,511,512,486;,
 4;513,488,491,514;,
 4;513,514,471,515;,
 4;516,517,472,518;,
 4;516,518,519,520;,
 4;521,522,523,524;,
 4;521,524,525,526;,
 4;527,528,525,524;,
 4;527,524,523,529;,
 4;530,531,532,533;,
 4;534,535,536,537;,
 4;538,539,540,541;,
 4;542,543,544,545;,
 4;542,535,546,547;,
 4;548,549,536,545;,
 4;550,551,552,553;,
 4;554,555,556,557;,
 4;558,559,560,561;,
 4;562,563,564,565;,
 4;566,567,568,569;,
 4;570,571,572,573;,
 4;570,574,575,565;,
 4;576,571,564,577;,
 4;578,579,580,581;,
 4;582,583,584,585;,
 4;586,587,583,588;,
 4;586,588,580,589;,
 4;590,591,592,593;,
 4;590,593,594,595;,
 4;596,597,598,599;,
 4;596,599,600,601;,
 4;602,603,581,604;,
 4;602,604,582,605;,
 4;606,607,552,608;,
 4;606,608,557,609;,
 4;610,611,612,613;,
 4;610,613,614,615;,
 4;616,617,618,619;,
 4;616,619,620,621;,
 4;622,623,554,624;,
 4;622,624,551,625;,
 3;626,627,628;,
 3;629,630,627;,
 3;631,632,630;,
 3;633,634,632;,
 4;628,627,635,636;,
 4;627,630,637,635;,
 4;630,632,638,637;,
 4;632,634,639,638;,
 3;636,635,640;,
 3;635,637,641;,
 3;637,638,642;,
 3;638,639,643;;
 
 MeshMaterialList {
  5;
  294;
  0,
  0,
  0,
  0,
  0,
  0,
  0,
  0,
  0,
  0,
  0,
  0,
  0,
  0,
  0,
  0,
  0,
  0,
  0,
  0,
  0,
  0,
  0,
  0,
  0,
  0,
  0,
  0,
  0,
  0,
  0,
  0,
  0,
  0,
  0,
  0,
  0,
  0,
  0,
  0,
  0,
  0,
  0,
  0,
  0,
  0,
  0,
  0,
  0,
  0,
  0,
  0,
  0,
  0,
  0,
  0,
  0,
  0,
  0,
  0,
  0,
  0,
  0,
  0,
  0,
  0,
  0,
  0,
  0,
  0,
  0,
  0,
  3,
  3,
  1,
  1,
  1,
  1,
  1,
  1,
  1,
  1,
  1,
  0,
  1,
  1,
  1,
  1,
  1,
  1,
  1,
  1,
  1,
  3,
  3,
  1,
  3,
  3,
  1,
  1,
  0,
  1,
  1,
  1,
  3,
  3,
  1,
  1,
  1,
  1,
  1,
  1,
  1,
  1,
  1,
  0,
  1,
  1,
  1,
  1,
  1,
  1,
  1,
  1,
  1,
  3,
  3,
  1,
  3,
  3,
  1,
  1,
  0,
  1,
  1,
  1,
  2,
  2,
  2,
  2,
  2,
  2,
  2,
  2,
  2,
  2,
  2,
  2,
  2,
  2,
  2,
  2,
  2,
  2,
  2,
  2,
  2,
  2,
  2,
  2,
  2,
  2,
  2,
  2,
  2,
  2,
  2,
  2,
  2,
  2,
  2,
  2,
  2,
  2,
  2,
  2,
  2,
  2,
  2,
  2,
  2,
  2,
  2,
  2,
  2,
  2,
  2,
  2,
  2,
  2,
  2,
  2,
  2,
  2,
  2,
  2,
  2,
  2,
  2,
  2,
  2,
  2,
  2,
  2,
  2,
  2,
  2,
  2,
  2,
  2,
  2,
  2,
  2,
  2,
  2,
  2,
  2,
  2,
  2,
  2,
  2,
  2,
  2,
  2,
  2,
  2,
  2,
  2,
  2,
  2,
  2,
  2,
  2,
  2,
  2,
  2,
  2,
  2,
  2,
  2,
  2,
  2,
  2,
  2,
  2,
  2,
  2,
  2,
  2,
  2,
  4,
  4,
  4,
  4,
  4,
  4,
  4,
  4,
  4,
  4,
  4,
  4,
  4,
  4,
  4,
  4,
  4,
  4,
  4,
  4,
  4,
  4,
  4,
  4,
  4,
  4,
  4,
  4,
  4,
  4,
  4,
  4,
  4,
  4,
  4,
  4,
  4,
  4,
  4,
  4,
  4,
  4,
  4,
  4;;
  Material {
   0.702400;0.380000;0.181600;1.000000;;
   5.000000;
   0.000000;0.000000;0.000000;;
   0.000000;0.000000;0.000000;;
  }
  Material {
   0.367200;0.160000;0.000000;1.000000;;
   5.000000;
   0.000000;0.000000;0.000000;;
   0.000000;0.000000;0.000000;;
  }
  Material {
   0.800000;0.800000;0.800000;1.000000;;
   5.000000;
   0.000000;0.000000;0.000000;;
   0.000000;0.000000;0.000000;;
  }
  Material {
   0.800000;0.680800;0.796800;1.000000;;
   5.000000;
   0.000000;0.000000;0.000000;;
   0.000000;0.000000;0.000000;;
  }
  Material {
   0.179200;0.106400;0.106400;1.000000;;
   5.000000;
   0.000000;0.000000;0.000000;;
   0.000000;0.000000;0.000000;;
  }
 }
 MeshNormals {
  417;
  -0.437438;0.564096;-0.700317;,
  -0.361973;-0.931884;0.023841;,
  0.475170;0.532524;-0.700451;,
  0.413622;-0.904822;-0.101067;,
  0.151425;0.864115;0.479975;,
  0.395891;-0.835261;0.381587;,
  -0.448161;0.808369;0.381696;,
  -0.375155;-0.853101;0.362599;,
  -0.007404;0.559704;-0.828659;,
  -0.003501;-0.999760;0.021639;,
  -0.003422;0.874765;0.484535;,
  -0.015088;-0.895479;0.444849;,
  -0.430677;-0.900606;0.058532;,
  -0.557321;0.801617;-0.216340;,
  0.482103;-0.874008;0.060725;,
  -0.004279;0.960095;-0.279641;,
  0.624677;0.753677;-0.204328;,
  0.030804;-0.999266;-0.022769;,
  -0.448518;-0.891056;0.069642;,
  0.170752;0.184064;-0.967969;,
  -0.665018;-0.742814;0.077319;,
  0.997647;0.068142;0.007540;,
  -0.482073;-0.740854;0.467697;,
  0.980469;-0.092038;0.173810;,
  -0.013189;-0.716338;0.697629;,
  -0.009380;0.183805;-0.982918;,
  -0.560094;0.370234;-0.741095;,
  0.543195;-0.831262;-0.118077;,
  -0.851384;0.511151;-0.117771;,
  0.892539;0.344969;-0.290466;,
  0.696375;-0.715935;-0.049992;,
  -0.849459;0.513658;0.120729;,
  0.921269;0.364932;0.134495;,
  -0.135398;0.529461;0.837459;,
  -0.002004;0.532251;0.846584;,
  0.131426;0.525523;0.840567;,
  0.112561;-0.720323;0.684445;,
  -0.361711;0.864341;-0.349398;,
  -0.615800;-0.674921;-0.406537;,
  0.360224;0.864783;-0.349841;,
  0.603678;-0.671724;-0.429372;,
  0.462341;0.771608;0.436878;,
  0.358383;-0.820864;0.444683;,
  -0.465800;0.770505;0.435146;,
  -0.362190;-0.819928;0.443323;,
  -0.001235;0.907420;-0.420224;,
  -0.004920;-0.905589;-0.424129;,
  -0.003091;0.825067;0.565026;,
  -0.003012;-0.882638;0.470044;,
  -0.005031;0.572910;-0.819603;,
  0.737885;0.418626;-0.529413;,
  -0.741254;0.416777;-0.526155;,
  0.973690;-0.185338;0.132577;,
  -0.973695;-0.185325;0.132565;,
  -0.003067;0.246202;0.969214;,
  -0.001905;0.999150;0.041184;,
  0.509866;0.859996;0.021051;,
  -0.511522;0.859018;0.020829;,
  0.999752;-0.008875;-0.020437;,
  -0.999752;-0.008858;-0.020442;,
  0.531201;-0.844095;0.073001;,
  -0.533987;-0.842342;0.072920;,
  -0.003191;-0.994097;0.108452;,
  -0.002655;0.486537;-0.873656;,
  0.641893;0.507973;-0.574401;,
  -0.643690;0.508249;-0.572142;,
  0.896593;0.442764;-0.008988;,
  -0.896588;0.442775;-0.008986;,
  0.614615;0.537471;0.577386;,
  -0.616551;0.537331;0.575448;,
  -0.004641;0.380799;-0.924646;,
  0.743261;0.319476;-0.587791;,
  -0.746139;0.319106;-0.584336;,
  0.977287;0.152796;0.146846;,
  -0.977284;0.152811;0.146852;,
  -0.017945;-0.683450;-0.729776;,
  -0.880522;-0.474000;0.002020;,
  -0.590014;-0.608191;0.531025;,
  0.880516;-0.474013;0.002023;,
  -0.003676;-0.652631;0.757667;,
  0.587069;-0.609097;0.533246;,
  -0.724566;-0.521612;-0.450472;,
  -0.030690;-0.623210;-0.781452;,
  0.701286;-0.548447;-0.455417;,
  -0.003215;-0.444080;0.895981;,
  -0.243359;-0.357431;0.901676;,
  0.236803;-0.357534;0.903379;,
  0.207840;0.078765;0.974987;,
  -0.213472;0.079664;0.973696;,
  0.013651;-0.145107;-0.989322;,
  -0.445081;0.292561;-0.846352;,
  -0.499003;-0.125354;-0.857486;,
  0.432608;0.039026;-0.900737;,
  0.405630;0.244849;0.880632;,
  -0.059205;-0.977372;-0.203072;,
  -0.133277;0.219140;0.966548;,
  -0.598302;0.039532;-0.800295;,
  0.141560;0.241167;0.960104;,
  -0.251663;-0.140238;-0.957601;,
  0.187249;-0.964679;-0.185292;,
  -0.280540;0.436402;-0.854898;,
  -0.140799;0.059989;-0.988219;,
  -0.299226;0.048594;-0.952944;,
  -0.682414;0.081997;0.726352;,
  -0.642191;0.058241;-0.764329;,
  0.108090;0.120629;0.986795;,
  0.452333;0.137085;0.881251;,
  -0.755379;0.461561;-0.465149;,
  0.747995;0.453161;-0.484921;,
  -0.658507;0.254805;-0.708127;,
  0.856030;0.099918;-0.507177;,
  -0.243600;0.059301;-0.968061;,
  -0.763578;-0.120525;0.634368;,
  -0.130964;-0.097310;0.986600;,
  -0.962026;-0.074330;0.262641;,
  0.540544;-0.165586;0.824859;,
  -0.308564;0.293841;-0.904680;,
  -0.318043;0.532739;-0.784243;,
  0.723483;0.059326;-0.687789;,
  -0.757139;0.513543;-0.403751;,
  -0.745969;0.455178;-0.486151;,
  -0.857948;0.408370;-0.311703;,
  0.634008;0.593414;-0.495877;,
  0.726225;0.606259;-0.324109;,
  0.819591;0.464395;-0.335571;,
  0.655404;0.429327;-0.621388;,
  0.517589;0.557917;-0.648715;,
  -0.727100;0.392116;-0.563534;,
  0.934782;0.125541;-0.332297;,
  0.738244;0.194691;-0.645826;,
  -0.788173;-0.171521;0.591070;,
  -0.477982;-0.242506;0.844230;,
  -0.946326;0.056408;0.318254;,
  0.565834;-0.351723;0.745736;,
  -0.620209;0.063297;-0.781879;,
  0.939925;-0.065565;-0.335026;,
  0.932531;-0.068614;-0.354510;,
  -0.653845;0.497157;-0.570369;,
  -0.511592;0.717282;-0.473053;,
  -0.748729;0.406590;-0.523535;,
  0.422241;-0.892930;-0.156169;,
  -0.013651;-0.145107;-0.989322;,
  0.445078;0.292561;-0.846353;,
  0.499003;-0.125354;-0.857486;,
  -0.432608;0.039026;-0.900737;,
  -0.405630;0.244849;0.880632;,
  0.059205;-0.977372;-0.203072;,
  0.133278;0.219141;0.966548;,
  0.598299;0.039533;-0.800297;,
  -0.141560;0.241167;0.960104;,
  0.251663;-0.140238;-0.957601;,
  -0.187248;-0.964679;-0.185292;,
  0.280540;0.436402;-0.854898;,
  0.140798;0.059990;-0.988219;,
  0.299226;0.048594;-0.952944;,
  0.682414;0.082001;0.726352;,
  0.642191;0.058241;-0.764329;,
  -0.108090;0.120630;0.986795;,
  -0.452333;0.137085;0.881251;,
  0.755381;0.461560;-0.465147;,
  -0.747995;0.453161;-0.484921;,
  0.658506;0.254807;-0.708127;,
  -0.856030;0.099918;-0.507177;,
  0.243600;0.059302;-0.968061;,
  0.763578;-0.120523;0.634368;,
  0.130963;-0.097309;0.986600;,
  0.962027;-0.074327;0.262641;,
  -0.540544;-0.165586;0.824859;,
  0.308562;0.293841;-0.904681;,
  0.318043;0.532739;-0.784243;,
  -0.723482;0.059326;-0.687789;,
  0.857949;0.408371;-0.311701;,
  0.745970;0.455179;-0.486149;,
  0.757140;0.513543;-0.403748;,
  -0.634008;0.593414;-0.495877;,
  -0.819591;0.464395;-0.335571;,
  -0.726225;0.606259;-0.324109;,
  -0.517589;0.557917;-0.648715;,
  -0.655404;0.429327;-0.621388;,
  0.727101;0.392117;-0.563532;,
  -0.934782;0.125541;-0.332297;,
  -0.738244;0.194691;-0.645826;,
  0.477981;-0.242506;0.844230;,
  0.788173;-0.171521;0.591070;,
  0.946325;0.056413;0.318254;,
  -0.565834;-0.351723;0.745736;,
  0.620205;0.063299;-0.781882;,
  -0.939925;-0.065565;-0.335026;,
  -0.932531;-0.068614;-0.354510;,
  0.653845;0.497157;-0.570369;,
  0.511592;0.717283;-0.473053;,
  0.748731;0.406589;-0.523534;,
  -0.422239;-0.892931;-0.156169;,
  -0.517594;0.849115;-0.105356;,
  -0.717193;-0.599796;-0.354794;,
  0.540274;0.827501;-0.152796;,
  0.816500;-0.428102;-0.387371;,
  0.562730;0.811022;0.159933;,
  -0.587763;0.802118;0.105554;,
  -0.721719;-0.651102;-0.234923;,
  -0.978154;-0.127371;-0.164290;,
  0.903145;0.033541;-0.428024;,
  -0.918908;-0.380631;-0.103574;,
  0.964019;-0.191341;-0.184542;,
  -0.922381;-0.147807;-0.356884;,
  0.900675;0.030109;-0.433450;,
  -0.971297;-0.231810;-0.053346;,
  0.969854;-0.180049;-0.164213;,
  -0.846236;-0.114814;-0.520290;,
  0.886337;0.063276;-0.458696;,
  -0.980790;-0.192320;-0.032615;,
  0.982803;-0.102985;-0.153275;,
  -0.908458;0.016379;-0.417655;,
  0.778805;0.494999;-0.385277;,
  -0.994729;0.066048;-0.078433;,
  0.967482;0.240473;-0.078427;,
  -0.328336;0.092662;-0.940005;,
  -0.433097;0.178563;-0.883483;,
  -0.327117;0.335475;-0.883431;,
  -0.185897;0.968519;-0.165567;,
  -0.660469;-0.672525;-0.333904;,
  -0.089318;0.978554;0.185617;,
  -0.629860;-0.750740;-0.199162;,
  0.049562;-0.383164;0.922350;,
  -0.035026;-0.434559;0.899962;,
  0.024588;-0.456742;0.889259;,
  0.000000;-0.431142;0.902284;,
  -0.076279;0.046737;-0.995991;,
  0.085345;0.203051;-0.975442;,
  -0.119246;0.668581;-0.734017;,
  0.190733;0.187295;-0.963609;,
  -0.019907;0.975913;-0.217248;,
  -0.554736;-0.821703;-0.130662;,
  0.004726;0.993665;0.112282;,
  -0.000184;-0.356074;0.934458;,
  -0.000147;-0.376660;0.926352;,
  0.000000;-0.431146;0.902282;,
  0.000000;-0.431142;0.902284;,
  0.324229;0.345036;-0.880810;,
  0.423739;0.233873;-0.875071;,
  0.469969;0.177478;-0.864657;,
  0.167263;0.959595;-0.226277;,
  0.704789;-0.596187;-0.384491;,
  0.065449;0.979234;0.191877;,
  0.616005;-0.787742;0.001165;,
  -0.013430;-0.374467;0.927143;,
  0.032412;-0.434036;0.900312;,
  0.000000;-0.431146;0.902282;,
  0.000000;-0.431142;0.902284;,
  0.012298;0.129505;-0.991503;,
  0.081347;0.078101;-0.993621;,
  -0.906023;-0.284064;-0.313736;,
  0.454104;-0.075769;-0.887721;,
  -0.860341;-0.486807;-0.151104;,
  0.859322;-0.227107;-0.458245;,
  -0.162342;-0.448957;0.878683;,
  0.884820;-0.465729;0.013815;,
  -0.000711;-0.324912;0.945744;,
  0.214246;-0.510442;0.832795;,
  0.238586;0.289862;0.926853;,
  -0.542100;-0.458469;-0.704225;,
  -0.643213;0.462320;0.610358;,
  0.000000;-1.000000;-0.000000;,
  -0.404297;-0.900908;-0.157824;,
  0.006319;0.353781;0.935307;,
  0.026900;-0.064387;-0.997562;,
  -0.207351;-0.974912;-0.080943;,
  0.241849;0.386373;0.890070;,
  -0.282337;0.042603;-0.958369;,
  -0.022451;0.334783;0.942028;,
  -0.099633;0.233199;0.967312;,
  0.320845;-0.109276;-0.940807;,
  -0.115952;-0.209842;-0.970835;,
  -0.509073;-0.146166;-0.848222;,
  -0.485021;0.035758;-0.873771;,
  -0.580464;0.417191;0.699295;,
  0.514276;-0.692821;-0.505489;,
  0.569119;0.435908;0.697200;,
  0.660690;-0.641389;-0.390012;,
  0.320158;0.462944;0.826548;,
  -0.059524;0.077589;-0.995207;,
  0.207351;-0.974912;-0.080943;,
  0.214569;-0.931740;-0.292952;,
  -0.515071;0.494184;0.700345;,
  -0.264657;0.214084;-0.940279;,
  -0.095884;0.337450;0.936447;,
  0.080007;0.198867;0.976755;,
  -0.386795;0.111984;-0.915341;,
  0.435045;0.707487;-0.556954;,
  0.230707;0.645169;-0.728376;,
  -0.368882;0.370448;-0.852463;,
  0.530554;0.557242;-0.638744;,
  0.168758;0.511497;-0.842551;,
  -0.420697;0.005671;-0.907183;,
  -0.222490;0.376482;-0.899310;,
  -1.000000;0.000000;0.000000;,
  0.187912;0.154838;0.969904;,
  -0.324336;0.821790;-0.468473;,
  0.049321;-0.280156;0.958687;,
  0.098522;-0.281540;0.954478;,
  0.099255;-0.409382;0.906948;,
  0.049211;-0.481756;0.874923;,
  -0.046386;-0.490747;0.870067;,
  -0.000367;-0.278625;0.960400;,
  0.591546;-0.782596;-0.193953;,
  -0.026822;-0.316219;0.948307;,
  -0.026458;-0.392356;0.919433;,
  -0.052851;-0.352582;0.934287;,
  0.041462;-0.489886;0.870800;,
  -0.135714;0.017711;-0.990590;,
  -0.770905;-0.222965;-0.596651;,
  -0.073484;-0.390021;-0.917869;,
  -0.006813;-0.036157;-0.999323;,
  -0.128225;-0.174695;-0.976238;,
  -0.882268;-0.034146;-0.469507;,
  0.114834;0.103628;-0.987965;,
  -0.217513;-0.564802;0.796045;,
  -0.338817;-0.572819;0.746379;,
  -0.253640;-0.456492;0.852808;,
  -0.001133;-0.329085;0.944300;,
  0.082668;-0.545613;0.833950;,
  0.521560;-0.736550;0.430662;,
  0.158079;-0.324270;0.932663;,
  0.333216;-0.164384;-0.928410;,
  0.307401;-0.053804;-0.950058;,
  0.234661;0.912408;-0.335329;,
  0.329766;0.817703;-0.471823;,
  1.000000;0.000000;0.000000;,
  0.492295;0.670636;-0.554881;,
  -0.188360;0.225039;0.955969;,
  0.031931;0.057828;0.997816;,
  -0.079964;0.450780;0.889046;,
  -0.393915;0.374644;0.839329;,
  -0.895497;0.409178;0.175095;,
  0.901827;0.387667;0.190846;,
  -0.978629;0.204309;0.023308;,
  0.318295;0.897557;-0.305090;,
  0.004367;0.050570;-0.998711;,
  -0.123127;0.104233;-0.986902;,
  0.322836;0.830575;-0.453786;,
  -0.506546;0.355649;-0.785446;,
  0.823161;0.406686;0.396248;,
  -0.851989;0.348955;0.390314;,
  0.977964;0.173159;0.116630;,
  -0.218845;0.863076;0.455200;,
  -0.752268;0.508452;0.419011;,
  -0.236559;-0.273067;-0.932456;,
  0.536402;-0.530108;-0.656703;,
  -0.190845;-0.100418;-0.976470;,
  -0.621568;0.111369;-0.775403;,
  0.793535;-0.261930;-0.549268;,
  0.407748;0.276642;0.870179;,
  0.386058;0.171534;0.906386;,
  0.212573;0.227572;0.950276;,
  0.424206;0.378201;0.822808;,
  -0.044358;0.022467;0.998763;,
  -0.016859;0.057890;0.998181;,
  -0.226988;0.607154;-0.761473;,
  0.968537;0.064332;-0.240409;,
  0.226986;-0.607161;0.761468;,
  -0.945652;-0.056920;0.320161;,
  0.945651;0.056922;-0.320161;,
  0.226988;0.607154;-0.761473;,
  -0.968537;0.064332;-0.240409;,
  -0.226986;-0.607161;0.761468;,
  0.945652;-0.056920;0.320161;,
  -0.945651;0.056922;-0.320161;,
  -0.021105;-0.994248;-0.105001;,
  0.255947;0.312626;-0.914744;,
  -0.227006;-0.558092;0.798123;,
  0.025448;-0.990043;0.138444;,
  0.136885;-0.847926;0.512137;,
  -0.257186;0.312602;-0.914404;,
  0.222842;-0.568965;0.791593;,
  -0.000000;0.802062;-0.597241;,
  -0.000000;0.463609;-0.886040;,
  0.398282;0.425251;-0.812732;,
  -0.000000;0.463622;0.886033;,
  -0.398296;0.425260;0.812720;,
  -0.000000;-0.463609;-0.886040;,
  0.398282;-0.425251;-0.812732;,
  -0.000000;-0.463622;0.886033;,
  -0.398296;-0.425260;0.812720;,
  -0.000000;-0.802062;-0.597241;,
  -0.968540;-0.064332;0.240400;,
  0.086052;0.915137;0.393852;,
  -0.086057;-0.915134;-0.393859;,
  0.968540;-0.064332;0.240400;,
  -0.086052;0.915137;0.393852;,
  0.086057;-0.915134;-0.393859;,
  0.409238;-0.905460;0.112547;,
  0.132945;-0.839227;0.527279;,
  -0.446375;-0.844014;-0.297306;,
  0.237165;0.312944;-0.919684;,
  0.274633;0.312189;-0.909458;,
  -0.176948;-0.560899;0.808753;,
  -0.276469;-0.553819;0.785397;,
  -0.105053;0.921791;0.373183;,
  -0.105049;0.921790;0.373185;,
  -0.105056;0.921791;0.373181;,
  0.225336;-0.973560;0.037477;,
  0.247932;-0.853331;0.458646;,
  0.025639;-0.830021;0.557142;,
  -0.175723;-0.956607;0.232430;,
  -0.275762;0.312160;-0.909127;,
  -0.238515;0.312927;-0.919341;,
  0.222838;-0.568965;0.791594;,
  0.222847;-0.568965;0.791592;,
  0.105053;0.921791;0.373183;,
  0.105055;0.921791;0.373181;,
  0.105050;0.921790;0.373185;,
  -0.000000;0.802076;0.597222;,
  0.398296;0.425260;0.812720;,
  -0.398282;0.425251;-0.812732;,
  0.398296;-0.425260;0.812720;,
  -0.398282;-0.425251;-0.812732;,
  -0.000000;-0.802076;0.597222;;
  294;
  4;12,9,11,7;,
  4;9,14,5,11;,
  4;13,6,10,15;,
  4;13,15,8,0;,
  4;15,10,4,16;,
  4;15,16,2,8;,
  4;17,9,1,18;,
  4;25,26,0,8;,
  4;25,8,2,19;,
  4;17,27,3,9;,
  4;18,1,12,20;,
  4;26,28,13,0;,
  4;29,2,16,21;,
  4;27,30,14,3;,
  4;20,12,7,22;,
  4;28,31,6,13;,
  4;21,16,32,23;,
  4;21,23,5,14;,
  4;22,7,11,24;,
  4;33,34,10,6;,
  4;35,4,10,34;,
  4;36,24,11,5;,
  3;12,1,9;,
  3;9,3,14;,
  4;55,47,41,56;,
  4;55,56,39,45;,
  4;55,45,37,57;,
  4;55,57,43,47;,
  4;60,42,48,62;,
  4;60,62,46,40;,
  4;61,38,46,62;,
  4;61,62,48,44;,
  4;63,45,39,64;,
  4;63,65,37,45;,
  4;64,39,56,66;,
  4;65,67,57,37;,
  4;66,56,41,68;,
  4;67,69,43,57;,
  4;68,41,47,54;,
  4;69,54,47,43;,
  4;70,63,64,71;,
  4;70,71,50,49;,
  4;70,49,51,72;,
  4;70,72,65,63;,
  4;71,64,66,58;,
  4;72,59,67,65;,
  4;58,66,68,73;,
  4;59,74,69,67;,
  4;38,81,82,75;,
  4;38,76,59,81;,
  4;75,82,83,40;,
  4;76,61,44,77;,
  4;76,77,53,59;,
  4;40,83,58,78;,
  4;77,44,48,79;,
  4;77,79,84,85;,
  4;78,58,52,80;,
  4;78,80,42,60;,
  4;79,48,42,80;,
  4;79,80,86,84;,
  3;38,75,46;,
  3;38,61,76;,
  3;75,40,46;,
  3;40,78,60;,
  3;71,58,50;,
  3;72,51,59;,
  3;58,73,52;,
  3;59,53,74;,
  3;87,68,54;,
  3;87,54,86;,
  3;88,85,54;,
  3;88,54,69;,
  4;101,89,98,102;,
  4;102,98,91,104;,
  4;103,105,97,95;,
  4;105,106,93,97;,
  4;107,119,120,121;,
  4;122,123,124,108;,
  4;122,108,125,126;,
  4;121,120,127,109;,
  4;108,124,128,110;,
  4;108,110,129,125;,
  4;96,90,100,111;,
  4;94,94,99,99;,
  4;92,111,100,92;,
  4;112,130,131,113;,
  4;112,113,105,103;,
  4;112,103,132,114;,
  4;133,133,133,115;,
  4;113,115,106,105;,
  4;134,109,101,116;,
  4;134,116,90,96;,
  4;135,136,136,110;,
  4;116,101,102,117;,
  4;116,117,100,90;,
  4;110,92,92,118;,
  4;117,102,104,137;,
  4;117,137,138,100;,
  3;107,121,139;,
  3;121,132,103;,
  3;140,99,99;,
  3;112,114,130;,
  3;135,110,128;,
  3;110,118,129;,
  4;153,154,150,141;,
  4;154,156,143,150;,
  4;155,147,149,157;,
  4;157,149,145,158;,
  4;159,171,172,173;,
  4;174,160,175,176;,
  4;174,177,178,160;,
  4;171,161,179,172;,
  4;160,162,180,175;,
  4;160,178,181,162;,
  4;148,163,152,142;,
  4;146,151,151,146;,
  4;144,144,152,163;,
  4;164,165,182,183;,
  4;164,155,157,165;,
  4;164,166,184,155;,
  4;185,167,185,185;,
  4;165,157,158,167;,
  4;186,168,153,161;,
  4;186,148,142,168;,
  4;187,162,188,188;,
  4;168,169,154,153;,
  4;168,142,152,169;,
  4;162,170,144,144;,
  4;169,189,156,154;,
  4;169,152,190,189;,
  3;159,191,171;,
  3;171,155,184;,
  3;192,151,151;,
  3;164,183,166;,
  3;187,180,162;,
  3;162,181,170;,
  4;204,200,202,206;,
  4;205,207,203,201;,
  4;208,204,206,210;,
  4;209,211,207,205;,
  4;212,208,210,214;,
  4;212,214,198,193;,
  4;213,195,197,215;,
  4;213,215,211,209;,
  4;216,217,204,208;,
  4;216,208,212,218;,
  4;297,297,193,219;,
  4;219,193,198,221;,
  4;220,222,199,194;,
  4;298,299,300,223;,
  4;223,300,301,225;,
  4;224,226,237,302;,
  4;225,301,237,226;,
  4;227,228,217,216;,
  4;227,216,218,229;,
  4;229,218,219,231;,
  4;231,219,221,233;,
  4;232,232,222,220;,
  4;303,298,223,234;,
  4;234,223,225,236;,
  4;235,237,226,224;,
  4;236,225,226,237;,
  4;238,209,205,239;,
  4;238,239,228,227;,
  4;239,205,201,240;,
  4;239,240,230,228;,
  4;238,229,231,241;,
  4;238,241,195,213;,
  4;241,231,233,243;,
  4;241,243,197,195;,
  4;242,244,304,304;,
  4;305,303,234,245;,
  4;305,245,306,307;,
  4;245,234,236,247;,
  4;245,247,236,306;,
  4;246,308,248,248;,
  4;246,248,237,235;,
  4;247,236,237,248;,
  4;247,248,248,236;,
  3;217,309,309;,
  3;310,310,217;,
  3;238,227,311;,
  3;238,213,209;,
  4;249,217,230,250;,
  4;249,250,312,313;,
  4;314,220,194,251;,
  4;314,251,200,217;,
  4;250,230,240,252;,
  4;250,252,315,312;,
  4;251,194,199,253;,
  4;251,253,202,200;,
  4;252,240,201,254;,
  4;252,254,196,242;,
  4;316,317,318,255;,
  4;316,255,224,302;,
  4;254,201,203,256;,
  4;255,318,319,257;,
  4;255,257,235,224;,
  4;320,308,246,258;,
  4;256,258,244,321;,
  4;257,319,322,258;,
  4;257,258,246,235;,
  4;266,263,260,266;,
  4;266,266,262,262;,
  4;267,269,264,259;,
  4;268,268,265,265;,
  4;269,270,261,264;,
  4;265,265,323,271;,
  4;272,271,324,272;,
  4;272,272,260,273;,
  4;325,326,326,325;,
  4;327,327,327,327;,
  4;273,260,274,274;,
  4;326,328,328,326;,
  4;270,269,329,330;,
  4;331,332,329,269;,
  3;242,196,244;,
  3;254,256,196;,
  3;333,261,333;,
  3;334,334,334;,
  3;335,335,335;,
  3;327,327,327;,
  3;325,325,336;,
  3;331,269,267;,
  4;281,282,276,278;,
  4;281,262,262,282;,
  4;283,275,279,285;,
  4;284,280,280,337;,
  4;285,279,277,286;,
  4;280,287,338,280;,
  4;288,339,339,289;,
  4;340,284,340,290;,
  3;279,341,277;,
  3;342,275,342;,
  3;343,343,343;,
  3;295,295,295;,
  3;344,344,344;,
  3;345,283,285;,
  4;291,288,289,292;,
  4;346,347,276,282;,
  4;346,348,348,293;,
  4;346,293,287,349;,
  4;292,289,290,294;,
  4;347,350,278,276;,
  4;295,295,295,295;,
  4;295,295,295,295;,
  4;351,352,285,296;,
  4;351,296,353,354;,
  4;355,356,353,296;,
  4;355,296,285,286;,
  4;357,357,357,357;,
  4;358,358,358,358;,
  4;359,359,359,359;,
  4;384,384,384,384;,
  4;385,385,385,385;,
  4;386,386,386,386;,
  4;361,361,361,361;,
  4;360,360,360,360;,
  4;362,362,362,362;,
  4;363,363,363,363;,
  4;364,364,364,364;,
  4;387,387,387,387;,
  4;388,388,388,388;,
  4;389,389,389,389;,
  4;366,366,366,366;,
  4;365,365,365,365;,
  4;367,390,391,367;,
  4;367,367,392,392;,
  4;368,393,393,368;,
  4;368,368,394,394;,
  4;369,391,395,369;,
  4;369,369,396,396;,
  4;397,398,398,397;,
  4;397,397,399,399;,
  4;370,400,401,371;,
  4;370,371,402,403;,
  4;372,404,404,372;,
  4;372,372,405,405;,
  4;371,401,406,373;,
  4;371,373,407,402;,
  4;408,409,409,408;,
  4;408,408,410,410;,
  3;374,376,375;,
  3;411,377,412;,
  3;411,378,377;,
  3;374,375,413;,
  4;375,376,380,379;,
  4;412,377,381,414;,
  4;377,378,382,381;,
  4;413,375,379,415;,
  3;379,380,383;,
  3;414,381,416;,
  3;381,382,416;,
  3;415,379,383;;
 }
 MeshTextureCoords {
  644;
  0.000000;0.490870;,
  0.485480;0.490870;,
  0.485480;1.000000;,
  0.000000;1.000000;,
  1.000000;0.490870;,
  1.000000;1.000000;,
  0.000000;0.509130;,
  0.000000;0.000000;,
  0.485480;0.000000;,
  0.485480;0.509130;,
  0.485480;1.000000;,
  0.000000;1.000000;,
  1.000000;0.000000;,
  1.000000;0.509130;,
  1.000000;1.000000;,
  0.485480;0.585120;,
  0.485480;1.000000;,
  0.000000;1.000000;,
  0.000000;0.585120;,
  0.000000;0.000000;,
  0.485480;0.000000;,
  1.000000;0.000000;,
  1.000000;0.585120;,
  1.000000;1.000000;,
  1.000000;0.585120;,
  1.000000;1.000000;,
  0.509130;1.000000;,
  0.509130;0.585120;,
  0.509130;0.000000;,
  1.000000;0.000000;,
  0.000000;0.585120;,
  0.000000;0.000000;,
  0.490870;0.000000;,
  0.490870;0.585120;,
  0.490870;1.000000;,
  0.000000;1.000000;,
  0.000000;0.585120;,
  1.000000;0.585120;,
  1.000000;0.585120;,
  1.000000;1.000000;,
  0.514520;1.000000;,
  0.514520;0.585120;,
  0.514520;0.000000;,
  1.000000;0.000000;,
  0.000000;0.585120;,
  0.000000;0.000000;,
  0.000000;1.000000;,
  0.242740;0.490870;,
  0.242740;0.245440;,
  0.485480;0.000000;,
  0.485480;0.245440;,
  0.742740;0.000000;,
  0.492810;0.483770;,
  0.492810;0.000000;,
  1.000000;0.000000;,
  1.000000;0.483770;,
  1.000000;1.000000;,
  0.492810;1.000000;,
  0.000000;1.000000;,
  0.000000;0.483770;,
  0.000000;0.000000;,
  1.000000;0.516230;,
  1.000000;1.000000;,
  0.492810;1.000000;,
  0.492810;0.516230;,
  0.492810;0.000000;,
  1.000000;0.000000;,
  0.000000;0.516230;,
  0.000000;0.000000;,
  0.000000;1.000000;,
  0.492810;0.251990;,
  0.492810;0.000000;,
  1.000000;0.000000;,
  1.000000;0.251990;,
  0.000000;0.251990;,
  0.000000;0.000000;,
  0.000000;0.251990;,
  0.000000;0.000000;,
  0.516230;0.000000;,
  0.516230;0.251990;,
  1.000000;0.251990;,
  0.483770;0.251990;,
  0.483770;0.000000;,
  1.000000;0.000000;,
  1.000000;0.251990;,
  0.000000;0.251990;,
  0.000000;0.251990;,
  0.000000;0.000000;,
  0.507190;0.000000;,
  0.507190;0.251990;,
  1.000000;0.251990;,
  1.000000;0.000000;,
  0.492810;0.350470;,
  1.000000;0.350470;,
  1.000000;0.482400;,
  0.492810;0.482400;,
  0.000000;0.482400;,
  0.000000;0.350470;,
  0.000000;0.350470;,
  0.516230;0.350470;,
  1.000000;0.350470;,
  0.483770;0.350470;,
  1.000000;0.350470;,
  0.000000;0.350470;,
  0.000000;0.741560;,
  0.492810;0.741560;,
  1.000000;0.741560;,
  0.483770;0.741560;,
  0.483770;0.482400;,
  1.000000;0.482400;,
  1.000000;0.741560;,
  0.483770;1.000000;,
  0.000000;0.741560;,
  0.000000;0.482400;,
  0.000000;0.741560;,
  0.000000;0.482400;,
  0.516230;0.482400;,
  0.516230;0.741560;,
  1.000000;0.741560;,
  1.000000;1.000000;,
  0.507190;1.000000;,
  0.507190;0.741560;,
  0.507190;0.482400;,
  1.000000;0.482400;,
  1.000000;0.482400;,
  1.000000;0.741560;,
  0.516230;1.000000;,
  0.000000;1.000000;,
  0.000000;0.741560;,
  0.000000;0.482400;,
  0.000000;0.870780;,
  0.246410;0.870780;,
  0.492810;1.000000;,
  1.000000;0.870780;,
  0.741880;1.000000;,
  0.746410;0.741560;,
  1.000000;0.870780;,
  0.000000;0.870780;,
  0.258120;0.870780;,
  0.258120;0.350470;,
  0.516230;0.416430;,
  0.741880;0.350470;,
  0.741880;0.416430;,
  0.758120;0.416430;,
  0.483770;0.416430;,
  0.241880;0.482400;,
  0.253590;0.350470;,
  0.253590;0.301230;,
  0.507190;0.416430;,
  0.753590;0.350470;,
  0.753590;0.416430;,
  0.507190;0.301230;,
  0.000000;0.397140;,
  0.000000;0.000000;,
  0.494470;0.000000;,
  0.494470;0.397140;,
  1.000000;0.000000;,
  1.000000;0.397140;,
  1.000000;0.397140;,
  0.505530;0.397140;,
  0.505530;0.000000;,
  1.000000;0.000000;,
  0.000000;0.397140;,
  0.000000;0.000000;,
  0.494470;0.797460;,
  0.494470;1.000000;,
  0.000000;1.000000;,
  0.000000;0.797460;,
  0.494470;0.000000;,
  1.000000;0.000000;,
  1.000000;0.797460;,
  1.000000;1.000000;,
  0.797460;0.000000;,
  1.000000;0.000000;,
  1.000000;0.397140;,
  0.797460;0.397140;,
  0.202540;0.000000;,
  1.000000;0.397140;,
  0.202540;0.397140;,
  0.000000;0.397140;,
  0.000000;0.000000;,
  0.000000;0.202540;,
  0.000000;0.000000;,
  0.494470;0.000000;,
  0.494470;0.202540;,
  1.000000;0.202540;,
  1.000000;1.000000;,
  0.494470;1.000000;,
  1.000000;0.000000;,
  1.000000;0.588090;,
  1.000000;1.000000;,
  0.505530;1.000000;,
  0.505530;0.588090;,
  0.000000;0.588090;,
  0.000000;0.397140;,
  0.797460;0.588090;,
  0.000000;1.000000;,
  0.000000;0.588090;,
  1.000000;0.588090;,
  1.000000;1.000000;,
  0.797460;1.000000;,
  1.000000;0.588090;,
  0.202540;1.000000;,
  0.202540;0.588090;,
  0.000000;0.588090;,
  0.494470;0.588090;,
  0.494470;1.000000;,
  0.000000;1.000000;,
  0.000000;1.000000;,
  0.000000;0.588090;,
  1.000000;0.588090;,
  1.000000;1.000000;,
  0.247240;0.797460;,
  0.000000;0.398730;,
  0.398730;0.000000;,
  0.398730;0.198570;,
  0.000000;0.601270;,
  0.247240;0.601270;,
  0.000000;0.794040;,
  0.398730;0.794040;,
  0.601270;0.588090;,
  0.202540;0.492610;,
  0.101270;0.492610;,
  0.000000;0.397140;,
  0.494470;0.397140;,
  0.494470;0.000000;,
  0.000000;0.000000;,
  1.000000;0.397140;,
  1.000000;0.000000;,
  1.000000;0.397140;,
  1.000000;0.000000;,
  0.505530;0.000000;,
  0.505530;0.397140;,
  0.000000;0.000000;,
  0.000000;0.397140;,
  0.494470;0.797460;,
  0.000000;0.797460;,
  0.000000;1.000000;,
  0.494470;1.000000;,
  1.000000;0.797460;,
  1.000000;0.000000;,
  0.494470;0.000000;,
  1.000000;1.000000;,
  0.797460;0.000000;,
  0.797460;0.397140;,
  1.000000;0.397140;,
  1.000000;0.000000;,
  0.202540;0.000000;,
  0.202540;0.397140;,
  1.000000;0.397140;,
  0.000000;0.000000;,
  0.000000;0.397140;,
  0.000000;0.202540;,
  0.494470;0.202540;,
  0.494470;0.000000;,
  0.000000;0.000000;,
  1.000000;0.202540;,
  0.494470;1.000000;,
  1.000000;1.000000;,
  1.000000;0.000000;,
  1.000000;0.588090;,
  0.505530;0.588090;,
  0.505530;1.000000;,
  1.000000;1.000000;,
  0.000000;0.588090;,
  0.797460;0.588090;,
  0.000000;0.397140;,
  0.000000;0.588090;,
  0.000000;1.000000;,
  1.000000;0.588090;,
  0.797460;1.000000;,
  1.000000;1.000000;,
  1.000000;0.588090;,
  0.202540;0.588090;,
  0.202540;1.000000;,
  0.000000;0.588090;,
  0.494470;0.588090;,
  0.000000;1.000000;,
  0.494470;1.000000;,
  0.000000;0.588090;,
  0.000000;1.000000;,
  1.000000;0.588090;,
  1.000000;1.000000;,
  0.247240;0.797460;,
  0.000000;0.398730;,
  0.398730;0.000000;,
  0.398730;0.198570;,
  0.000000;0.601270;,
  0.247240;0.601270;,
  0.000000;0.794040;,
  0.398730;0.794040;,
  0.601270;0.588090;,
  0.202540;0.492610;,
  0.101270;0.492610;,
  1.000000;0.526820;,
  1.000000;0.761260;,
  0.000000;0.761260;,
  0.000000;0.526820;,
  0.000000;0.526820;,
  1.000000;0.526820;,
  1.000000;0.761260;,
  0.000000;0.761260;,
  1.000000;0.309670;,
  0.000000;0.309670;,
  0.000000;0.309670;,
  1.000000;0.309670;,
  1.000000;0.137360;,
  0.000000;0.137360;,
  0.000000;0.000000;,
  1.000000;0.000000;,
  0.000000;0.137360;,
  0.000000;0.000000;,
  1.000000;0.000000;,
  1.000000;0.137360;,
  0.206150;0.309670;,
  0.206150;0.526820;,
  0.000000;0.526820;,
  0.000000;0.309670;,
  0.000000;0.137360;,
  0.206150;0.137360;,
  0.000000;0.000000;,
  0.206150;0.000000;,
  0.206150;1.000000;,
  0.000000;1.000000;,
  0.206150;0.000000;,
  0.206150;0.000000;,
  0.206150;1.000000;,
  0.000000;1.000000;,
  0.000000;0.000000;,
  0.793850;0.000000;,
  1.000000;0.000000;,
  1.000000;0.137360;,
  0.793850;0.137360;,
  1.000000;0.309670;,
  0.793850;0.309670;,
  0.793850;0.761260;,
  0.793850;0.526820;,
  1.000000;0.526820;,
  1.000000;0.761260;,
  0.487080;0.309670;,
  0.487080;0.526820;,
  0.487080;0.137360;,
  0.487080;0.000000;,
  0.487080;1.000000;,
  0.487080;0.000000;,
  0.487080;0.000000;,
  0.487080;1.000000;,
  0.512920;0.000000;,
  0.512920;0.137360;,
  0.512920;0.309670;,
  0.512920;0.761260;,
  0.512920;0.526820;,
  0.770860;0.309670;,
  1.000000;0.309670;,
  1.000000;0.526820;,
  0.770860;0.526820;,
  1.000000;0.761260;,
  0.770860;0.761260;,
  0.487080;0.761260;,
  0.770860;0.137360;,
  0.770860;0.000000;,
  1.000000;0.000000;,
  1.000000;0.137360;,
  0.770860;1.000000;,
  0.770860;0.000000;,
  1.000000;1.000000;,
  0.770860;0.000000;,
  0.770860;1.000000;,
  0.229140;0.000000;,
  0.229140;0.137360;,
  0.000000;0.137360;,
  0.000000;0.000000;,
  0.229140;0.309670;,
  0.000000;0.309670;,
  0.229140;0.761260;,
  0.000000;0.761260;,
  0.000000;0.526820;,
  0.229140;0.526820;,
  0.206150;0.644040;,
  0.103080;0.761260;,
  0.346610;0.526820;,
  0.346610;0.644040;,
  0.206150;0.761260;,
  0.770860;0.223510;,
  0.628970;0.223510;,
  0.885430;0.137360;,
  0.206150;0.898350;,
  0.487080;0.898350;,
  0.487080;1.000000;,
  0.206150;1.000000;,
  0.000000;1.000000;,
  0.000000;0.898350;,
  0.000000;0.761260;,
  0.770860;0.898350;,
  0.770860;1.000000;,
  1.000000;0.898350;,
  1.000000;1.000000;,
  0.000000;0.898350;,
  1.000000;0.898350;,
  1.000000;1.000000;,
  1.000000;0.898350;,
  1.000000;1.000000;,
  0.793850;1.000000;,
  0.793850;0.898350;,
  0.000000;0.898350;,
  1.000000;0.898350;,
  0.512920;1.000000;,
  0.512920;0.898350;,
  0.000000;0.898350;,
  0.229140;0.898350;,
  0.229140;1.000000;,
  0.000000;1.000000;,
  0.534680;1.000000;,
  0.000000;1.000000;,
  0.000000;0.000000;,
  0.534680;0.000000;,
  1.000000;0.000000;,
  1.000000;1.000000;,
  1.000000;0.693890;,
  0.465320;0.693890;,
  0.465320;0.000000;,
  1.000000;0.000000;,
  0.000000;0.693890;,
  0.000000;0.000000;,
  0.534680;0.000000;,
  0.534680;0.693890;,
  0.000000;0.693890;,
  0.000000;0.000000;,
  1.000000;0.000000;,
  1.000000;0.693890;,
  0.534680;0.776570;,
  1.000000;0.776570;,
  1.000000;1.000000;,
  0.534680;1.000000;,
  0.000000;1.000000;,
  0.000000;0.776570;,
  0.000000;0.776570;,
  1.000000;0.776570;,
  0.000000;1.000000;,
  1.000000;0.776570;,
  1.000000;1.000000;,
  0.000000;0.776570;,
  0.000000;0.693890;,
  1.000000;0.693890;,
  0.000000;0.776570;,
  0.465320;0.776570;,
  0.465320;1.000000;,
  0.000000;1.000000;,
  1.000000;0.776570;,
  1.000000;1.000000;,
  0.885430;0.000000;,
  1.000000;0.500000;,
  0.000000;0.949170;,
  0.500000;0.949170;,
  0.767340;0.000000;,
  1.000000;0.500000;,
  0.534680;1.000000;,
  0.267340;0.000000;,
  0.267340;0.500000;,
  0.000000;1.000000;,
  0.000000;0.346950;,
  0.500000;0.000000;,
  1.000000;0.346950;,
  0.500000;0.346950;,
  0.767340;0.776570;,
  0.767340;0.735230;,
  0.732660;0.776570;,
  0.465320;0.735230;,
  0.534680;1.000000;,
  0.534680;0.000000;,
  0.000000;0.000000;,
  0.000000;1.000000;,
  1.000000;1.000000;,
  1.000000;0.000000;,
  1.000000;0.693890;,
  1.000000;0.000000;,
  0.465320;0.000000;,
  0.465320;0.693890;,
  0.000000;0.693890;,
  0.534680;0.693890;,
  0.534680;0.000000;,
  0.000000;0.000000;,
  0.000000;0.000000;,
  0.000000;0.693890;,
  1.000000;0.693890;,
  1.000000;0.000000;,
  0.534680;0.776570;,
  0.000000;0.776570;,
  1.000000;0.776570;,
  1.000000;0.693890;,
  0.000000;0.693890;,
  0.000000;0.776570;,
  0.767340;0.000000;,
  0.534680;1.000000;,
  1.000000;0.500000;,
  0.267340;0.000000;,
  0.000000;1.000000;,
  0.267340;0.500000;,
  0.000000;0.346950;,
  0.500000;0.000000;,
  1.000000;0.346950;,
  0.500000;0.346950;,
  0.767340;0.776570;,
  0.767340;0.735230;,
  0.732660;0.776570;,
  0.465320;0.735230;,
  0.534680;0.845360;,
  0.000000;0.845360;,
  0.000000;1.000000;,
  0.534680;1.000000;,
  1.000000;1.000000;,
  1.000000;0.845360;,
  1.000000;0.776570;,
  1.000000;0.845360;,
  0.000000;0.845360;,
  1.000000;1.000000;,
  0.000000;0.845360;,
  0.000000;1.000000;,
  1.000000;0.845360;,
  1.000000;0.776570;,
  0.000000;0.776570;,
  1.000000;0.845360;,
  1.000000;0.776570;,
  0.465320;0.776570;,
  0.465320;0.845360;,
  0.465320;1.000000;,
  1.000000;1.000000;,
  0.000000;0.845360;,
  0.000000;1.000000;,
  0.000000;0.776570;,
  0.000000;0.000000;,
  1.000000;0.000000;,
  1.000000;1.000000;,
  0.000000;1.000000;,
  0.000000;0.000000;,
  1.000000;0.000000;,
  1.000000;1.000000;,
  0.000000;1.000000;,
  0.000000;0.000000;,
  1.000000;0.000000;,
  1.000000;1.000000;,
  0.000000;1.000000;,
  0.000000;0.000000;,
  1.000000;0.000000;,
  1.000000;1.000000;,
  0.000000;1.000000;,
  1.000000;1.000000;,
  0.000000;1.000000;,
  0.000000;0.000000;,
  1.000000;0.000000;,
  0.000000;0.000000;,
  1.000000;0.000000;,
  1.000000;1.000000;,
  0.000000;1.000000;,
  0.000000;0.000000;,
  1.000000;0.000000;,
  1.000000;1.000000;,
  0.000000;1.000000;,
  0.000000;0.000000;,
  0.000000;1.000000;,
  1.000000;1.000000;,
  1.000000;0.000000;,
  0.000000;0.000000;,
  0.000000;1.000000;,
  1.000000;1.000000;,
  1.000000;0.000000;,
  0.000000;0.000000;,
  0.000000;1.000000;,
  1.000000;1.000000;,
  1.000000;0.000000;,
  0.000000;0.000000;,
  0.000000;1.000000;,
  1.000000;1.000000;,
  1.000000;0.000000;,
  0.000000;1.000000;,
  1.000000;1.000000;,
  0.000000;0.000000;,
  1.000000;0.000000;,
  0.000000;0.000000;,
  0.000000;1.000000;,
  1.000000;1.000000;,
  1.000000;0.000000;,
  0.000000;0.000000;,
  0.000000;1.000000;,
  1.000000;1.000000;,
  1.000000;0.000000;,
  0.514580;0.000000;,
  0.000000;0.000000;,
  0.514580;1.000000;,
  1.000000;0.000000;,
  0.514580;1.000000;,
  1.000000;1.000000;,
  1.000000;0.000000;,
  0.514580;0.000000;,
  0.000000;0.000000;,
  0.000000;1.000000;,
  0.485420;1.000000;,
  1.000000;1.000000;,
  1.000000;0.000000;,
  0.485420;0.000000;,
  0.000000;0.000000;,
  0.000000;1.000000;,
  0.514580;1.000000;,
  1.000000;1.000000;,
  0.514580;0.000000;,
  0.000000;1.000000;,
  0.481500;0.000000;,
  1.000000;0.000000;,
  0.481500;1.000000;,
  0.000000;0.000000;,
  0.481500;1.000000;,
  0.000000;1.000000;,
  0.000000;0.000000;,
  0.481500;0.000000;,
  1.000000;0.000000;,
  1.000000;1.000000;,
  0.518500;1.000000;,
  0.000000;1.000000;,
  0.000000;0.000000;,
  0.518500;0.000000;,
  1.000000;0.000000;,
  1.000000;1.000000;,
  0.481500;1.000000;,
  0.000000;1.000000;,
  0.481500;0.000000;,
  1.000000;1.000000;,
  0.125000;0.000000;,
  0.250000;0.333330;,
  0.000000;0.333330;,
  0.375000;0.000000;,
  0.500000;0.333330;,
  0.625000;0.000000;,
  0.750000;0.333330;,
  0.875000;0.000000;,
  1.000000;0.333330;,
  0.250000;0.666670;,
  0.000000;0.666670;,
  0.500000;0.666670;,
  0.750000;0.666670;,
  1.000000;0.666670;,
  0.125000;1.000000;,
  0.375000;1.000000;,
  0.625000;1.000000;,
  0.875000;1.000000;;
 }
}
