xof 0302txt 0064
template Header {
 <3D82AB43-62DA-11cf-AB39-0020AF71E433>
 WORD major;
 WORD minor;
 DWORD flags;
}

template Vector {
 <3D82AB5E-62DA-11cf-AB39-0020AF71E433>
 FLOAT x;
 FLOAT y;
 FLOAT z;
}

template Coords2d {
 <F6F23F44-7686-11cf-8F52-0040333594A3>
 FLOAT u;
 FLOAT v;
}

template Matrix4x4 {
 <F6F23F45-7686-11cf-8F52-0040333594A3>
 array FLOAT matrix[16];
}

template ColorRGBA {
 <35FF44E0-6C7C-11cf-8F52-0040333594A3>
 FLOAT red;
 FLOAT green;
 FLOAT blue;
 FLOAT alpha;
}

template ColorRGB {
 <D3E16E81-7835-11cf-8F52-0040333594A3>
 FLOAT red;
 FLOAT green;
 FLOAT blue;
}

template IndexedColor {
 <1630B820-7842-11cf-8F52-0040333594A3>
 DWORD index;
 ColorRGBA indexColor;
}

template Boolean {
 <4885AE61-78E8-11cf-8F52-0040333594A3>
 WORD truefalse;
}

template Boolean2d {
 <4885AE63-78E8-11cf-8F52-0040333594A3>
 Boolean u;
 Boolean v;
}

template MaterialWrap {
 <4885AE60-78E8-11cf-8F52-0040333594A3>
 Boolean u;
 Boolean v;
}

template TextureFilename {
 <A42790E1-7810-11cf-8F52-0040333594A3>
 STRING filename;
}

template Material {
 <3D82AB4D-62DA-11cf-AB39-0020AF71E433>
 ColorRGBA faceColor;
 FLOAT power;
 ColorRGB specularColor;
 ColorRGB emissiveColor;
 [...]
}

template MeshFace {
 <3D82AB5F-62DA-11cf-AB39-0020AF71E433>
 DWORD nFaceVertexIndices;
 array DWORD faceVertexIndices[nFaceVertexIndices];
}

template MeshFaceWraps {
 <4885AE62-78E8-11cf-8F52-0040333594A3>
 DWORD nFaceWrapValues;
 Boolean2d faceWrapValues;
}

template MeshTextureCoords {
 <F6F23F40-7686-11cf-8F52-0040333594A3>
 DWORD nTextureCoords;
 array Coords2d textureCoords[nTextureCoords];
}

template MeshMaterialList {
 <F6F23F42-7686-11cf-8F52-0040333594A3>
 DWORD nMaterials;
 DWORD nFaceIndexes;
 array DWORD faceIndexes[nFaceIndexes];
 [Material]
}

template MeshNormals {
 <F6F23F43-7686-11cf-8F52-0040333594A3>
 DWORD nNormals;
 array Vector normals[nNormals];
 DWORD nFaceNormals;
 array MeshFace faceNormals[nFaceNormals];
}

template MeshVertexColors {
 <1630B821-7842-11cf-8F52-0040333594A3>
 DWORD nVertexColors;
 array IndexedColor vertexColors[nVertexColors];
}

template Mesh {
 <3D82AB44-62DA-11cf-AB39-0020AF71E433>
 DWORD nVertices;
 array Vector vertices[nVertices];
 DWORD nFaces;
 array MeshFace faces[nFaces];
 [...]
}

Header{
1;
0;
1;
}

Mesh {
 191;
 0.56375;19.58945;0.00000;,
 3.26973;18.82825;-2.70598;,
 0.56375;18.82825;-3.82683;,
 0.56375;19.58945;0.00000;,
 4.39059;18.82825;0.00000;,
 0.56375;19.58945;0.00000;,
 3.26973;18.82825;2.70598;,
 0.56375;19.58945;0.00000;,
 0.56375;18.82825;3.82683;,
 0.56375;19.58945;0.00000;,
 -2.14223;18.82825;2.70598;,
 0.56375;19.58945;0.00000;,
 -3.26308;18.82825;-0.00000;,
 0.56375;19.58945;0.00000;,
 -2.14223;18.82825;-2.70598;,
 0.56375;19.58945;0.00000;,
 0.56375;18.82825;-3.82683;,
 5.56375;16.66052;-5.00000;,
 0.56375;16.66052;-7.07107;,
 7.63482;16.66052;0.00000;,
 5.56375;16.66052;5.00000;,
 0.56375;16.66052;7.07107;,
 -4.43625;16.66052;5.00000;,
 -6.50731;16.66052;-0.00000;,
 -4.43625;16.66052;-5.00000;,
 0.56375;16.66052;-7.07107;,
 7.09657;13.41628;-6.53281;,
 0.56375;13.41628;-9.23879;,
 9.80255;13.41628;0.00000;,
 7.09657;13.41628;6.53281;,
 0.56375;13.41628;9.23879;,
 -5.96906;13.41628;6.53281;,
 -6.91205;13.41628;-0.00000;,
 -5.96906;13.41628;-6.53281;,
 0.56375;13.41628;-9.23879;,
 7.63482;9.58945;-7.07107;,
 0.56375;9.58945;-10.00000;,
 10.56375;9.58945;0.00000;,
 7.63482;9.58945;7.07107;,
 0.56375;9.58945;10.00000;,
 -6.50731;9.02487;5.87295;,
 -10.72415;9.58945;-0.00000;,
 -6.50731;9.58945;-6.00652;,
 0.56375;9.58945;-10.00000;,
 7.09657;5.76261;-6.53281;,
 0.56375;5.76261;-9.23879;,
 9.80255;5.76261;0.00000;,
 7.09657;5.76261;6.53281;,
 0.56375;5.76261;9.23879;,
 -5.96906;5.76261;6.53281;,
 -8.67504;5.76261;-0.00000;,
 -5.96906;5.76261;-6.53281;,
 0.56375;5.76261;-9.23879;,
 5.56375;2.51838;-5.00000;,
 0.56375;2.51838;-7.07107;,
 7.63482;2.51838;0.00000;,
 5.56375;2.51838;5.00000;,
 0.56375;2.51838;7.07107;,
 -4.43625;2.51838;5.00000;,
 -6.50731;2.51838;-0.00000;,
 -4.43625;2.51838;-5.00000;,
 0.56375;2.51838;-7.07107;,
 3.26973;0.35065;-2.70598;,
 0.56375;0.35065;-3.82683;,
 4.39059;0.35065;0.00000;,
 3.26973;0.35065;2.70598;,
 0.56375;0.35065;3.82683;,
 -2.14223;0.35065;2.70598;,
 -3.26308;0.35065;-0.00000;,
 -2.14223;0.35065;-2.70598;,
 0.56375;0.35065;-3.82683;,
 0.56375;-0.41055;-0.00000;,
 0.56375;-0.41055;-0.00000;,
 0.56375;-0.41055;-0.00000;,
 0.56375;-0.41055;-0.00000;,
 0.56375;-0.41055;-0.00000;,
 0.56375;-0.41055;-0.00000;,
 0.56375;-0.41055;-0.00000;,
 0.56375;-0.41055;-0.00000;,
 0.56375;16.81040;-7.05456;,
 0.56375;24.65780;-6.28994;,
 1.94790;17.18052;-6.09039;,
 0.56375;24.65780;-6.28994;,
 2.52123;18.07405;-3.76267;,
 0.56375;24.65780;-6.28994;,
 1.94790;18.96756;-1.43495;,
 0.56375;24.65780;-6.28994;,
 0.56375;19.33768;-0.47078;,
 0.56375;24.65780;-6.28994;,
 -0.82041;18.96756;-1.43495;,
 0.56375;24.65780;-6.28994;,
 -1.39373;18.07405;-3.76267;,
 0.56375;24.65780;-6.28994;,
 -0.82040;17.18052;-6.09039;,
 0.56375;24.65780;-6.28994;,
 0.56375;16.81040;-7.05456;,
 0.56375;18.07405;-3.76267;,
 0.56375;16.81040;-7.05456;,
 1.94790;17.18052;-6.09039;,
 2.52123;18.07405;-3.76267;,
 1.94790;18.96756;-1.43495;,
 0.56375;19.33768;-0.47078;,
 -0.82041;18.96756;-1.43495;,
 -1.39373;18.07405;-3.76267;,
 -0.82040;17.18052;-6.09039;,
 0.56375;19.81899;0.54160;,
 0.56375;24.04780;7.19616;,
 1.94790;19.28707;1.42684;,
 0.56375;24.04780;7.19616;,
 2.52123;18.00292;3.56406;,
 0.56375;24.04780;7.19616;,
 1.94790;16.71880;5.70121;,
 0.56375;24.04780;7.19616;,
 0.56375;16.18686;6.58648;,
 0.56375;24.04780;7.19616;,
 -0.82041;16.71880;5.70121;,
 0.56375;24.04780;7.19616;,
 -1.39373;18.00292;3.56406;,
 0.56375;24.04780;7.19616;,
 -0.82040;19.28707;1.42684;,
 0.56375;24.04780;7.19616;,
 0.56375;19.81899;0.54160;,
 0.56375;18.00292;3.56406;,
 0.56375;19.81899;0.54160;,
 1.94790;19.28707;1.42684;,
 2.52123;18.00292;3.56406;,
 1.94790;16.71880;5.70121;,
 0.56375;16.18686;6.58648;,
 -0.82041;16.71880;5.70121;,
 -1.39373;18.00292;3.56406;,
 -0.82040;19.28707;1.42684;,
 -6.59328;15.69885;-4.37572;,
 -4.76801;15.69885;-4.37572;,
 -4.76801;12.86789;-4.37572;,
 -6.59328;12.86789;-4.37572;,
 -4.76801;15.69885;-4.37572;,
 -4.76801;15.69885;-2.49504;,
 -4.76801;12.86789;-2.49504;,
 -4.76801;12.86789;-4.37572;,
 -4.76801;15.69885;-2.49504;,
 -6.59328;15.69885;-2.49504;,
 -6.59328;12.86789;-2.49504;,
 -4.76801;12.86789;-2.49504;,
 -6.59328;15.69885;-2.49504;,
 -6.59328;15.69885;-4.37572;,
 -6.59328;12.86789;-4.37572;,
 -6.59328;12.86789;-2.49504;,
 -4.76801;15.69885;-4.37572;,
 -6.59328;15.69885;-4.37572;,
 -6.59328;12.86789;-4.37572;,
 -4.76801;12.86789;-4.37572;,
 -6.59382;15.69885;2.51465;,
 -4.76855;15.69885;2.51465;,
 -4.76855;12.86789;2.51465;,
 -6.59382;12.86789;2.51465;,
 -4.76855;15.69885;2.51465;,
 -4.76855;15.69885;4.39534;,
 -4.76855;12.86789;4.39534;,
 -4.76855;12.86789;2.51465;,
 -4.76855;15.69885;4.39534;,
 -6.59382;15.69885;4.39534;,
 -6.59382;12.86789;4.39534;,
 -4.76855;12.86789;4.39534;,
 -6.59382;15.69885;4.39534;,
 -6.59382;15.69885;2.51465;,
 -6.59382;12.86789;2.51465;,
 -6.59382;12.86789;4.39534;,
 -4.76855;15.69885;2.51465;,
 -6.59382;15.69885;2.51465;,
 -6.59382;12.86789;2.51465;,
 -4.76855;12.86789;2.51465;,
 -11.26251;10.75729;-0.90485;,
 -9.43725;10.75729;-0.90485;,
 -9.43725;7.92633;-0.90485;,
 -11.26251;7.92633;-0.90485;,
 -9.43725;10.75729;-0.90485;,
 -9.43725;10.75729;0.97584;,
 -9.43725;7.92633;0.97584;,
 -9.43725;7.92633;-0.90485;,
 -9.43725;10.75729;0.97584;,
 -11.26251;10.75729;0.97584;,
 -11.26251;7.92633;0.97584;,
 -9.43725;7.92633;0.97584;,
 -11.26251;10.75729;0.97584;,
 -11.26251;10.75729;-0.90485;,
 -11.26251;7.92633;-0.90485;,
 -11.26251;7.92633;0.97584;,
 -9.43725;10.75729;-0.90485;,
 -11.26251;10.75729;-0.90485;,
 -11.26251;7.92633;-0.90485;,
 -9.43725;7.92633;-0.90485;;
 
 114;
 3;0,1,2;,
 3;3,4,1;,
 3;5,6,4;,
 3;7,8,6;,
 3;9,10,8;,
 3;11,12,10;,
 3;13,14,12;,
 3;15,16,14;,
 4;2,1,17,18;,
 4;1,4,19,17;,
 4;4,6,20,19;,
 4;6,8,21,20;,
 4;8,10,22,21;,
 4;10,12,23,22;,
 4;12,14,24,23;,
 4;14,16,25,24;,
 4;18,17,26,27;,
 4;17,19,28,26;,
 4;19,20,29,28;,
 4;20,21,30,29;,
 4;21,22,31,30;,
 4;22,23,32,31;,
 4;23,24,33,32;,
 4;24,25,34,33;,
 4;27,26,35,36;,
 4;26,28,37,35;,
 4;28,29,38,37;,
 4;29,30,39,38;,
 4;30,31,40,39;,
 4;31,32,41,40;,
 4;32,33,42,41;,
 4;33,34,43,42;,
 4;36,35,44,45;,
 4;35,37,46,44;,
 4;37,38,47,46;,
 4;38,39,48,47;,
 4;39,40,49,48;,
 4;40,41,50,49;,
 4;41,42,51,50;,
 4;42,43,52,51;,
 4;45,44,53,54;,
 4;44,46,55,53;,
 4;46,47,56,55;,
 4;47,48,57,56;,
 4;48,49,58,57;,
 4;49,50,59,58;,
 4;50,51,60,59;,
 4;51,52,61,60;,
 4;54,53,62,63;,
 4;53,55,64,62;,
 4;55,56,65,64;,
 4;56,57,66,65;,
 4;57,58,67,66;,
 4;58,59,68,67;,
 4;59,60,69,68;,
 4;60,61,70,69;,
 3;63,62,71;,
 3;62,64,72;,
 3;64,65,73;,
 3;65,66,74;,
 3;66,67,75;,
 3;67,68,76;,
 3;68,69,77;,
 3;69,70,78;,
 3;79,80,81;,
 3;81,82,83;,
 3;83,84,85;,
 3;85,86,87;,
 3;87,88,89;,
 3;89,90,91;,
 3;91,92,93;,
 3;93,94,95;,
 3;96,97,98;,
 3;96,98,99;,
 3;96,99,100;,
 3;96,100,101;,
 3;96,101,102;,
 3;96,102,103;,
 3;96,103,104;,
 3;96,104,97;,
 3;105,106,107;,
 3;107,108,109;,
 3;109,110,111;,
 3;111,112,113;,
 3;113,114,115;,
 3;115,116,117;,
 3;117,118,119;,
 3;119,120,121;,
 3;122,123,124;,
 3;122,124,125;,
 3;122,125,126;,
 3;122,126,127;,
 3;122,127,128;,
 3;122,128,129;,
 3;122,129,130;,
 3;122,130,123;,
 4;131,132,133,134;,
 4;135,136,137,138;,
 4;139,140,141,142;,
 4;143,144,145,146;,
 4;143,136,147,148;,
 4;149,150,137,146;,
 4;151,152,153,154;,
 4;155,156,157,158;,
 4;159,160,161,162;,
 4;163,164,165,166;,
 4;163,156,167,168;,
 4;169,170,157,166;,
 4;171,172,173,174;,
 4;175,176,177,178;,
 4;179,180,181,182;,
 4;183,184,185,186;,
 4;183,176,187,188;,
 4;189,190,177,186;;
 
 MeshMaterialList {
  5;
  114;
  3,
  3,
  3,
  3,
  3,
  3,
  3,
  3,
  3,
  3,
  3,
  3,
  3,
  3,
  3,
  3,
  3,
  3,
  3,
  3,
  3,
  3,
  3,
  3,
  3,
  3,
  3,
  3,
  3,
  3,
  3,
  3,
  3,
  3,
  3,
  3,
  3,
  4,
  4,
  3,
  3,
  3,
  3,
  3,
  3,
  4,
  4,
  3,
  3,
  3,
  3,
  3,
  3,
  4,
  4,
  3,
  3,
  3,
  3,
  3,
  3,
  3,
  3,
  3,
  3,
  3,
  3,
  3,
  3,
  3,
  3,
  3,
  3,
  3,
  3,
  3,
  3,
  3,
  3,
  3,
  3,
  3,
  3,
  3,
  3,
  3,
  3,
  3,
  3,
  3,
  3,
  3,
  3,
  3,
  3,
  3,
  1,
  1,
  1,
  1,
  1,
  1,
  1,
  1,
  1,
  1,
  1,
  1,
  1,
  1,
  1,
  1,
  1,
  1;;
  Material {
   0.683922;0.636863;0.580392;1.000000;;
   5.000000;
   0.000000;0.000000;0.000000;;
   0.000000;0.000000;0.000000;;
  }
  Material {
   0.241569;0.172549;0.065882;1.000000;;
   5.000000;
   0.000000;0.000000;0.000000;;
   0.000000;0.000000;0.000000;;
  }
  Material {
   0.800000;0.781176;0.727843;1.000000;;
   5.000000;
   0.000000;0.000000;0.000000;;
   0.000000;0.000000;0.000000;;
  }
  Material {
   0.592941;0.592941;0.592941;1.000000;;
   5.000000;
   0.000000;0.000000;0.000000;;
   0.000000;0.000000;0.000000;;
  }
  Material {
   0.800000;0.800000;0.800000;1.000000;;
   5.000000;
   0.000000;0.000000;0.000000;;
   0.000000;0.000000;0.000000;;
  }
 }
 MeshNormals {
  118;
  -0.000000;1.000000;-0.000000;,
  -0.000000;0.924735;-0.380611;,
  0.269132;0.924735;-0.269132;,
  0.380611;0.924735;0.000000;,
  0.269132;0.924735;0.269132;,
  -0.000000;0.924735;0.380611;,
  -0.269132;0.924735;0.269132;,
  -0.380611;0.924735;-0.000000;,
  -0.269132;0.924735;-0.269132;,
  -0.000000;0.709230;-0.704977;,
  0.498494;0.709230;-0.498494;,
  0.704977;0.709230;0.000000;,
  0.498494;0.709230;0.498494;,
  -0.000000;0.709230;0.704977;,
  -0.550861;0.670762;0.496618;,
  -0.795679;0.605718;0.000000;,
  -0.550861;0.670762;-0.496618;,
  -0.016890;0.358411;-0.933411;,
  0.652733;0.384551;-0.652733;,
  0.923104;0.384551;0.000000;,
  0.652733;0.384551;0.652733;,
  -0.018152;0.356357;0.934173;,
  -0.697708;0.346715;0.626891;,
  -0.931980;0.362416;0.008256;,
  -0.699312;0.355209;-0.620314;,
  -0.033832;0.000000;-0.999428;,
  0.707107;0.000000;-0.707107;,
  1.000000;0.000000;0.000000;,
  0.707107;0.000000;0.707107;,
  -0.037780;0.002910;0.999282;,
  -0.709051;0.039838;0.704031;,
  -0.996382;0.084763;0.006187;,
  -0.709082;0.042696;-0.703833;,
  -0.016890;-0.358411;-0.933411;,
  0.652733;-0.384551;-0.652733;,
  0.923104;-0.384551;0.000000;,
  0.652733;-0.384551;0.652733;,
  -0.019598;-0.353985;0.935046;,
  -0.653215;-0.362911;0.664535;,
  -0.905243;-0.424885;-0.002814;,
  -0.648176;-0.367164;-0.667127;,
  -0.000000;-0.709230;-0.704977;,
  0.498494;-0.709230;-0.498494;,
  0.704977;-0.709230;0.000000;,
  0.498494;-0.709230;0.498494;,
  -0.000000;-0.709230;0.704977;,
  -0.498494;-0.709230;0.498494;,
  -0.704977;-0.709230;0.000000;,
  -0.498494;-0.709230;-0.498494;,
  -0.000000;-0.924735;-0.380611;,
  0.269132;-0.924735;-0.269132;,
  0.380611;-0.924735;0.000000;,
  0.269132;-0.924735;0.269133;,
  -0.000000;-0.924735;0.380611;,
  -0.269132;-0.924735;0.269132;,
  -0.380611;-0.924735;-0.000000;,
  -0.269132;-0.924735;-0.269133;,
  -0.000000;-1.000000;-0.000000;,
  0.555104;0.080663;-0.827861;,
  0.792739;0.130858;-0.595350;,
  0.963569;0.249695;-0.095848;,
  0.792738;0.495614;0.354871;,
  0.555104;0.613891;0.561246;,
  -0.792738;0.495615;0.354871;,
  -0.963569;0.249696;-0.095849;,
  -0.792737;0.130859;-0.595351;,
  0.902435;0.210452;-0.375927;,
  -0.000000;-0.933581;0.358366;,
  -0.555102;0.613892;0.561247;,
  -0.902434;0.407942;0.138549;,
  -0.555101;0.080664;-0.827862;,
  -0.000000;-0.933579;0.358371;,
  -0.000000;-0.933579;0.358371;,
  0.000000;-0.933582;0.358365;,
  -0.000005;-0.933583;0.358362;,
  -0.000000;-0.933582;0.358364;,
  0.000005;-0.933583;0.358362;,
  0.000000;-0.933582;0.358365;,
  0.000000;-0.933579;0.358371;,
  0.555104;0.702024;-0.446119;,
  0.792739;0.549706;-0.263416;,
  0.963569;0.229257;0.137754;,
  0.792740;0.025488;0.609027;,
  0.555110;-0.064318;0.829286;,
  -0.792739;0.025489;0.609028;,
  -0.963569;0.229258;0.137754;,
  -0.792737;0.549708;-0.263417;,
  0.902435;0.425802;-0.065605;,
  -0.000000;-0.857169;-0.515036;,
  -0.555109;-0.064318;0.829287;,
  -0.902435;0.141976;0.406760;,
  -0.555101;0.702026;-0.446119;,
  -0.000000;-0.857168;-0.515036;,
  -0.000006;-0.857170;-0.515033;,
  0.000000;-0.857170;-0.515033;,
  0.000005;-0.857167;-0.515038;,
  0.000000;-0.857166;-0.515040;,
  -0.000005;-0.857167;-0.515038;,
  0.000000;-0.857170;-0.515033;,
  0.000006;-0.857170;-0.515033;,
  0.000000;0.000000;-1.000000;,
  1.000000;0.000000;0.000000;,
  0.000000;0.000000;1.000000;,
  -1.000000;0.000000;0.000000;,
  0.000000;1.000000;0.000000;,
  0.000000;-1.000000;-0.000000;,
  0.000000;0.000000;-1.000000;,
  1.000000;0.000000;0.000000;,
  0.000000;0.000000;1.000000;,
  -1.000000;0.000000;0.000000;,
  0.000000;1.000000;0.000000;,
  0.000000;-1.000000;-0.000000;,
  0.000000;0.000000;-1.000000;,
  1.000000;0.000000;0.000000;,
  0.000000;0.000000;1.000000;,
  -1.000000;0.000000;0.000000;,
  0.000000;1.000000;0.000000;,
  0.000000;-1.000000;-0.000000;;
  114;
  3;0,2,1;,
  3;0,3,2;,
  3;0,4,3;,
  3;0,5,4;,
  3;0,6,5;,
  3;0,7,6;,
  3;0,8,7;,
  3;0,1,8;,
  4;1,2,10,9;,
  4;2,3,11,10;,
  4;3,4,12,11;,
  4;4,5,13,12;,
  4;5,6,14,13;,
  4;6,7,15,14;,
  4;7,8,16,15;,
  4;8,1,9,16;,
  4;9,10,18,17;,
  4;10,11,19,18;,
  4;11,12,20,19;,
  4;12,13,21,20;,
  4;13,14,22,21;,
  4;14,15,23,22;,
  4;15,16,24,23;,
  4;16,9,17,24;,
  4;17,18,26,25;,
  4;18,19,27,26;,
  4;19,20,28,27;,
  4;20,21,29,28;,
  4;21,22,30,29;,
  4;22,23,31,30;,
  4;23,24,32,31;,
  4;24,17,25,32;,
  4;25,26,34,33;,
  4;26,27,35,34;,
  4;27,28,36,35;,
  4;28,29,37,36;,
  4;29,30,38,37;,
  4;30,31,39,38;,
  4;31,32,40,39;,
  4;32,25,33,40;,
  4;33,34,42,41;,
  4;34,35,43,42;,
  4;35,36,44,43;,
  4;36,37,45,44;,
  4;37,38,46,45;,
  4;38,39,47,46;,
  4;39,40,48,47;,
  4;40,33,41,48;,
  4;41,42,50,49;,
  4;42,43,51,50;,
  4;43,44,52,51;,
  4;44,45,53,52;,
  4;45,46,54,53;,
  4;46,47,55,54;,
  4;47,48,56,55;,
  4;48,41,49,56;,
  3;49,50,57;,
  3;50,51,57;,
  3;51,52,57;,
  3;52,53,57;,
  3;53,54,57;,
  3;54,55,57;,
  3;55,56,57;,
  3;56,49,57;,
  3;58,66,59;,
  3;59,66,60;,
  3;60,66,61;,
  3;61,62,62;,
  3;68,69,63;,
  3;63,69,64;,
  3;64,69,65;,
  3;65,70,70;,
  3;67,71,72;,
  3;67,72,73;,
  3;67,73,74;,
  3;67,74,75;,
  3;67,75,76;,
  3;67,76,77;,
  3;67,77,78;,
  3;67,78,71;,
  3;79,87,80;,
  3;80,87,81;,
  3;81,87,82;,
  3;82,83,83;,
  3;89,90,84;,
  3;84,90,85;,
  3;85,90,86;,
  3;86,91,91;,
  3;88,92,93;,
  3;88,93,94;,
  3;88,94,95;,
  3;88,95,96;,
  3;88,96,97;,
  3;88,97,98;,
  3;88,98,99;,
  3;88,99,92;,
  4;100,100,100,100;,
  4;101,101,101,101;,
  4;102,102,102,102;,
  4;103,103,103,103;,
  4;104,104,104,104;,
  4;105,105,105,105;,
  4;106,106,106,106;,
  4;107,107,107,107;,
  4;108,108,108,108;,
  4;109,109,109,109;,
  4;110,110,110,110;,
  4;111,111,111,111;,
  4;112,112,112,112;,
  4;113,113,113,113;,
  4;114,114,114,114;,
  4;115,115,115,115;,
  4;116,116,116,116;,
  4;117,117,117,117;;
 }
 MeshTextureCoords {
  191;
  0.062500;0.000000;,
  0.125000;0.125000;,
  0.000000;0.125000;,
  0.187500;0.000000;,
  0.250000;0.125000;,
  0.312500;0.000000;,
  0.375000;0.125000;,
  0.437500;0.000000;,
  0.500000;0.125000;,
  0.562500;0.000000;,
  0.625000;0.125000;,
  0.687500;0.000000;,
  0.750000;0.125000;,
  0.812500;0.000000;,
  0.875000;0.125000;,
  0.937500;0.000000;,
  1.000000;0.125000;,
  0.125000;0.250000;,
  0.000000;0.250000;,
  0.250000;0.250000;,
  0.375000;0.250000;,
  0.500000;0.250000;,
  0.625000;0.250000;,
  0.750000;0.250000;,
  0.875000;0.250000;,
  1.000000;0.250000;,
  0.125000;0.375000;,
  0.000000;0.375000;,
  0.250000;0.375000;,
  0.375000;0.375000;,
  0.500000;0.375000;,
  0.625000;0.375000;,
  0.750000;0.375000;,
  0.875000;0.375000;,
  1.000000;0.375000;,
  0.125000;0.500000;,
  0.000000;0.500000;,
  0.250000;0.500000;,
  0.375000;0.500000;,
  0.500000;0.500000;,
  0.625000;0.500000;,
  0.750000;0.500000;,
  0.875000;0.500000;,
  1.000000;0.500000;,
  0.125000;0.625000;,
  0.000000;0.625000;,
  0.250000;0.625000;,
  0.375000;0.625000;,
  0.500000;0.625000;,
  0.625000;0.625000;,
  0.750000;0.625000;,
  0.875000;0.625000;,
  1.000000;0.625000;,
  0.125000;0.750000;,
  0.000000;0.750000;,
  0.250000;0.750000;,
  0.375000;0.750000;,
  0.500000;0.750000;,
  0.625000;0.750000;,
  0.750000;0.750000;,
  0.875000;0.750000;,
  1.000000;0.750000;,
  0.125000;0.875000;,
  0.000000;0.875000;,
  0.250000;0.875000;,
  0.375000;0.875000;,
  0.500000;0.875000;,
  0.625000;0.875000;,
  0.750000;0.875000;,
  0.875000;0.875000;,
  1.000000;0.875000;,
  0.062500;1.000000;,
  0.187500;1.000000;,
  0.312500;1.000000;,
  0.437500;1.000000;,
  0.562500;1.000000;,
  0.687500;1.000000;,
  0.812500;1.000000;,
  0.937500;1.000000;,
  0.000000;1.000000;,
  0.062500;0.000000;,
  0.125000;1.000000;,
  0.125000;0.000000;,
  0.250000;1.000000;,
  0.187500;0.000000;,
  0.375000;1.000000;,
  0.250000;0.000000;,
  0.500000;1.000000;,
  0.312500;0.000000;,
  0.625000;1.000000;,
  0.375000;0.000000;,
  0.750000;1.000000;,
  0.437500;0.000000;,
  0.875000;1.000000;,
  0.500000;0.000000;,
  1.000000;1.000000;,
  0.000000;0.000000;,
  0.000000;0.000000;,
  0.000000;0.000000;,
  0.000000;0.000000;,
  0.000000;0.000000;,
  0.000000;0.000000;,
  0.000000;0.000000;,
  0.000000;0.000000;,
  0.000000;0.000000;,
  0.000000;1.000000;,
  0.062500;0.000000;,
  0.125000;1.000000;,
  0.125000;0.000000;,
  0.250000;1.000000;,
  0.187500;0.000000;,
  0.375000;1.000000;,
  0.250000;0.000000;,
  0.500000;1.000000;,
  0.312500;0.000000;,
  0.625000;1.000000;,
  0.375000;0.000000;,
  0.750000;1.000000;,
  0.437500;0.000000;,
  0.875000;1.000000;,
  0.500000;0.000000;,
  1.000000;1.000000;,
  0.000000;0.000000;,
  0.000000;0.000000;,
  0.000000;0.000000;,
  0.000000;0.000000;,
  0.000000;0.000000;,
  0.000000;0.000000;,
  0.000000;0.000000;,
  0.000000;0.000000;,
  0.000000;0.000000;,
  0.000000;0.000000;,
  1.000000;0.000000;,
  1.000000;1.000000;,
  0.000000;1.000000;,
  0.000000;0.000000;,
  1.000000;0.000000;,
  1.000000;1.000000;,
  0.000000;1.000000;,
  0.000000;0.000000;,
  1.000000;0.000000;,
  1.000000;1.000000;,
  0.000000;1.000000;,
  0.000000;0.000000;,
  1.000000;0.000000;,
  1.000000;1.000000;,
  0.000000;1.000000;,
  1.000000;1.000000;,
  0.000000;1.000000;,
  0.000000;0.000000;,
  1.000000;0.000000;,
  0.000000;0.000000;,
  1.000000;0.000000;,
  1.000000;1.000000;,
  0.000000;1.000000;,
  0.000000;0.000000;,
  1.000000;0.000000;,
  1.000000;1.000000;,
  0.000000;1.000000;,
  0.000000;0.000000;,
  1.000000;0.000000;,
  1.000000;1.000000;,
  0.000000;1.000000;,
  0.000000;0.000000;,
  1.000000;0.000000;,
  1.000000;1.000000;,
  0.000000;1.000000;,
  1.000000;1.000000;,
  0.000000;1.000000;,
  0.000000;0.000000;,
  1.000000;0.000000;,
  0.000000;0.000000;,
  1.000000;0.000000;,
  1.000000;1.000000;,
  0.000000;1.000000;,
  0.000000;0.000000;,
  1.000000;0.000000;,
  1.000000;1.000000;,
  0.000000;1.000000;,
  0.000000;0.000000;,
  1.000000;0.000000;,
  1.000000;1.000000;,
  0.000000;1.000000;,
  0.000000;0.000000;,
  1.000000;0.000000;,
  1.000000;1.000000;,
  0.000000;1.000000;,
  1.000000;1.000000;,
  0.000000;1.000000;,
  0.000000;0.000000;,
  1.000000;0.000000;;
 }
}
