xof 0302txt 0064
template Header {
 <3D82AB43-62DA-11cf-AB39-0020AF71E433>
 WORD major;
 WORD minor;
 DWORD flags;
}

template Vector {
 <3D82AB5E-62DA-11cf-AB39-0020AF71E433>
 FLOAT x;
 FLOAT y;
 FLOAT z;
}

template Coords2d {
 <F6F23F44-7686-11cf-8F52-0040333594A3>
 FLOAT u;
 FLOAT v;
}

template Matrix4x4 {
 <F6F23F45-7686-11cf-8F52-0040333594A3>
 array FLOAT matrix[16];
}

template ColorRGBA {
 <35FF44E0-6C7C-11cf-8F52-0040333594A3>
 FLOAT red;
 FLOAT green;
 FLOAT blue;
 FLOAT alpha;
}

template ColorRGB {
 <D3E16E81-7835-11cf-8F52-0040333594A3>
 FLOAT red;
 FLOAT green;
 FLOAT blue;
}

template IndexedColor {
 <1630B820-7842-11cf-8F52-0040333594A3>
 DWORD index;
 ColorRGBA indexColor;
}

template Boolean {
 <4885AE61-78E8-11cf-8F52-0040333594A3>
 WORD truefalse;
}

template Boolean2d {
 <4885AE63-78E8-11cf-8F52-0040333594A3>
 Boolean u;
 Boolean v;
}

template MaterialWrap {
 <4885AE60-78E8-11cf-8F52-0040333594A3>
 Boolean u;
 Boolean v;
}

template TextureFilename {
 <A42790E1-7810-11cf-8F52-0040333594A3>
 STRING filename;
}

template Material {
 <3D82AB4D-62DA-11cf-AB39-0020AF71E433>
 ColorRGBA faceColor;
 FLOAT power;
 ColorRGB specularColor;
 ColorRGB emissiveColor;
 [...]
}

template MeshFace {
 <3D82AB5F-62DA-11cf-AB39-0020AF71E433>
 DWORD nFaceVertexIndices;
 array DWORD faceVertexIndices[nFaceVertexIndices];
}

template MeshFaceWraps {
 <4885AE62-78E8-11cf-8F52-0040333594A3>
 DWORD nFaceWrapValues;
 Boolean2d faceWrapValues;
}

template MeshTextureCoords {
 <F6F23F40-7686-11cf-8F52-0040333594A3>
 DWORD nTextureCoords;
 array Coords2d textureCoords[nTextureCoords];
}

template MeshMaterialList {
 <F6F23F42-7686-11cf-8F52-0040333594A3>
 DWORD nMaterials;
 DWORD nFaceIndexes;
 array DWORD faceIndexes[nFaceIndexes];
 [Material]
}

template MeshNormals {
 <F6F23F43-7686-11cf-8F52-0040333594A3>
 DWORD nNormals;
 array Vector normals[nNormals];
 DWORD nFaceNormals;
 array MeshFace faceNormals[nFaceNormals];
}

template MeshVertexColors {
 <1630B821-7842-11cf-8F52-0040333594A3>
 DWORD nVertexColors;
 array IndexedColor vertexColors[nVertexColors];
}

template Mesh {
 <3D82AB44-62DA-11cf-AB39-0020AF71E433>
 DWORD nVertices;
 array Vector vertices[nVertices];
 DWORD nFaces;
 array MeshFace faces[nFaces];
 [...]
}

Header{
1;
0;
1;
}

Mesh {
 435;
 -0.73300;17.12231;0.00000;,
 1.52824;16.48939;-1.95673;,
 -0.73300;16.48939;-2.76723;,
 -0.73300;17.12231;0.00000;,
 2.46488;16.48939;0.00000;,
 -0.73300;17.12231;0.00000;,
 1.52824;16.48939;1.95673;,
 -0.73300;17.12231;0.00000;,
 -0.73300;16.48939;2.76723;,
 -0.73300;17.12231;0.00000;,
 -2.99424;16.48939;1.95673;,
 -0.73300;17.12231;0.00000;,
 -3.93087;16.48939;0.00000;,
 -0.73300;17.12231;0.00000;,
 -2.99424;16.48939;-1.95673;,
 -0.73300;17.12231;0.00000;,
 -0.73300;16.48939;-2.76723;,
 3.44522;14.68693;-3.61556;,
 -0.73300;14.68693;-5.11318;,
 5.17590;14.68693;0.00000;,
 3.44522;14.68693;3.61556;,
 -0.73300;14.68693;5.11318;,
 -4.91122;14.68693;3.61556;,
 -6.64190;14.68693;0.00000;,
 -4.91122;14.68693;-3.61556;,
 -0.73300;14.68693;-5.11318;,
 4.72611;11.98939;-4.72396;,
 -0.73300;11.98939;-6.68069;,
 6.98735;11.98939;0.00000;,
 4.72611;11.98939;4.72396;,
 -0.73300;11.98939;6.68069;,
 -6.19211;11.98939;4.72396;,
 -8.45335;11.98939;0.00000;,
 -6.19211;11.98939;-4.72396;,
 -0.73300;11.98939;-6.68069;,
 5.17590;8.80743;-5.11318;,
 -0.73300;8.80743;-7.23112;,
 7.62345;8.80743;0.00000;,
 5.17590;8.80743;5.11318;,
 -0.73300;8.80743;7.23112;,
 -6.64190;8.80743;5.11318;,
 -9.08945;8.80743;0.00000;,
 -6.64190;8.80743;-5.11318;,
 -0.73300;8.80743;-7.23112;,
 4.72611;5.62548;-4.72396;,
 -0.73300;5.62548;-6.68069;,
 6.98735;5.62548;0.00000;,
 4.72611;5.62548;4.72396;,
 -0.73300;5.62548;6.68069;,
 -6.19211;5.62548;4.72396;,
 -8.45335;5.62548;0.00000;,
 -6.19211;5.62548;-4.72396;,
 -0.73300;5.62548;-6.68069;,
 3.44522;2.92793;-3.61556;,
 -0.73300;2.92793;-5.11318;,
 5.17590;2.92793;0.00000;,
 3.44522;2.92793;3.61556;,
 -0.73300;2.92793;5.11318;,
 -4.91122;2.92793;3.61556;,
 -6.64190;2.92793;0.00000;,
 -4.91122;2.92793;-3.61556;,
 -0.73300;2.92793;-5.11318;,
 1.52824;1.12549;-1.95673;,
 -0.73300;1.12549;-2.76723;,
 2.46488;1.12549;0.00000;,
 1.52824;1.12549;1.95673;,
 -0.73300;1.12549;2.76723;,
 -2.99424;1.12549;1.95673;,
 -3.93088;1.12549;0.00000;,
 -2.99424;1.12549;-1.95673;,
 -0.73300;1.12549;-2.76723;,
 -0.73300;0.49256;0.00000;,
 -0.73300;0.49256;0.00000;,
 -0.73300;0.49256;0.00000;,
 -0.73300;0.49256;0.00000;,
 -0.73300;0.49256;0.00000;,
 -0.73300;0.49256;0.00000;,
 -0.73300;0.49256;0.00000;,
 -0.73300;0.49256;0.00000;,
 -0.72699;12.87647;-4.12556;,
 0.55362;12.51621;-5.23371;,
 -0.72699;12.51621;-5.69272;,
 -0.72699;12.87647;-4.12556;,
 1.08406;12.51621;-4.12556;,
 -0.72699;12.87647;-4.12556;,
 0.55362;12.51621;-3.01741;,
 -0.72699;12.87647;-4.12556;,
 -0.72699;12.51621;-2.55840;,
 -0.72699;12.87647;-4.12556;,
 -2.00759;12.51621;-3.01741;,
 -0.72699;12.87647;-4.12556;,
 -2.53803;12.51621;-4.12556;,
 -0.72699;12.87647;-4.12556;,
 -2.00759;12.51621;-5.23371;,
 -0.72699;12.87647;-4.12556;,
 -0.72699;12.51621;-5.69272;,
 1.63927;11.49036;-6.17316;,
 -0.72699;11.49036;-7.02131;,
 2.61940;11.49036;-4.12556;,
 1.63927;11.49036;-2.07796;,
 -0.72699;11.49036;-1.22982;,
 -3.09324;11.49036;-2.07796;,
 -4.07337;11.49036;-4.12556;,
 -3.09324;11.49036;-6.17316;,
 -0.72699;11.49036;-7.02131;,
 2.36467;9.95504;-6.80088;,
 -0.72699;9.95504;-7.90903;,
 3.64528;9.95504;-4.12556;,
 2.36467;9.95504;-1.45025;,
 -0.72699;9.95504;-0.34209;,
 -3.81864;9.95504;-1.45025;,
 -5.09925;9.95504;-4.12556;,
 -3.81864;9.95504;-6.80088;,
 -0.72699;9.95504;-7.90903;,
 2.61940;8.14397;-7.02131;,
 -0.72699;8.14397;-8.22075;,
 4.00552;8.14397;-4.12556;,
 2.61940;8.14397;-1.22982;,
 -0.72699;8.14397;-0.03037;,
 -4.07337;8.14397;-1.22982;,
 -5.45949;8.14397;-4.12556;,
 -4.07337;8.14397;-7.02131;,
 -0.72699;8.14397;-8.22075;,
 2.36467;6.33289;-6.80088;,
 -0.72699;6.33289;-7.90903;,
 3.64528;6.33289;-4.12556;,
 2.36467;6.33289;-1.45025;,
 -0.72699;6.33289;-0.34209;,
 -3.81864;6.33289;-1.45025;,
 -5.09925;6.33289;-4.12556;,
 -3.81864;6.33289;-6.80088;,
 -0.72699;6.33289;-7.90903;,
 1.63927;4.79757;-6.17316;,
 -0.72699;4.79757;-7.02131;,
 2.61940;4.79757;-4.12556;,
 1.63927;4.79757;-2.07796;,
 -0.72699;4.79757;-1.22982;,
 -3.09324;4.79757;-2.07796;,
 -4.07337;4.79757;-4.12556;,
 -3.09324;4.79757;-6.17316;,
 -0.72699;4.79757;-7.02131;,
 0.55362;3.77171;-5.23371;,
 -0.72699;3.77171;-5.69272;,
 1.08406;3.77171;-4.12556;,
 0.55362;3.77171;-3.01741;,
 -0.72699;3.77171;-2.55840;,
 -2.00759;3.77171;-3.01741;,
 -2.53803;3.77171;-4.12556;,
 -2.00759;3.77171;-5.23371;,
 -0.72699;3.77171;-5.69272;,
 -0.72699;3.41146;-4.12556;,
 -0.72699;3.41146;-4.12556;,
 -0.72699;3.41146;-4.12556;,
 -0.72699;3.41146;-4.12556;,
 -0.72699;3.41146;-4.12556;,
 -0.72699;3.41146;-4.12556;,
 -0.72699;3.41146;-4.12556;,
 -0.72699;3.41146;-4.12556;,
 4.42513;20.35392;-1.28110;,
 7.60733;18.83609;-1.28110;,
 5.08290;13.54352;-1.28110;,
 1.90070;15.06136;-1.28110;,
 7.60733;18.83609;-1.28110;,
 7.60733;18.83609;1.28110;,
 5.08290;13.54352;1.28110;,
 5.08290;13.54352;-1.28110;,
 7.60733;18.83609;1.28110;,
 4.42513;20.35392;1.28110;,
 1.90070;15.06136;1.28110;,
 5.08290;13.54352;1.28110;,
 4.42513;20.35392;1.28110;,
 4.42513;20.35392;-1.28110;,
 1.90070;15.06136;-1.28110;,
 1.90070;15.06136;1.28110;,
 7.60733;18.83609;-1.28110;,
 4.42513;20.35392;-1.28110;,
 1.90070;15.06136;-1.28110;,
 5.08290;13.54352;-1.28110;,
 -8.06381;19.10589;-0.99323;,
 -4.84740;20.46303;-0.34786;,
 -2.47894;15.17329;-1.51376;,
 -5.69536;13.81616;-2.15914;,
 -4.84740;20.46303;-0.34786;,
 -4.97986;20.08128;2.15914;,
 -2.61141;14.79156;0.99323;,
 -2.47894;15.17329;-1.51376;,
 -4.97986;20.08128;2.15914;,
 -8.19628;18.72414;1.51376;,
 -5.82782;13.43441;0.34786;,
 -2.61141;14.79156;0.99323;,
 -8.19628;18.72414;1.51376;,
 -8.06381;19.10589;-0.99323;,
 -5.69536;13.81616;-2.15914;,
 -5.82782;13.43441;0.34786;,
 -4.84740;20.46303;-0.34786;,
 -8.06381;19.10589;-0.99323;,
 -5.69536;13.81616;-2.15914;,
 -2.47894;15.17329;-1.51376;,
 1.78011;14.76479;-4.44010;,
 2.20543;14.64514;-4.99688;,
 1.78011;14.64514;-5.22750;,
 1.78011;14.76479;-4.44010;,
 2.38160;14.64514;-4.44010;,
 1.78011;14.76479;-4.44010;,
 2.20543;14.64514;-3.88332;,
 1.78011;14.76479;-4.44010;,
 1.78011;14.64514;-3.65269;,
 1.78011;14.76479;-4.44010;,
 1.35479;14.64514;-3.88332;,
 1.78011;14.76479;-4.44010;,
 1.17861;14.64514;-4.44010;,
 1.78011;14.76479;-4.44010;,
 1.35479;14.64514;-4.99688;,
 1.78011;14.76479;-4.44010;,
 1.78011;14.64514;-5.22750;,
 2.56600;14.30443;-5.46889;,
 1.78011;14.30443;-5.89503;,
 2.89152;14.30443;-4.44010;,
 2.56600;14.30443;-3.41130;,
 1.78011;14.30443;-2.98517;,
 0.99422;14.30443;-3.41130;,
 0.66869;14.30443;-4.44010;,
 0.99422;14.30443;-5.46889;,
 1.78011;14.30443;-5.89503;,
 2.80692;13.79450;-5.78428;,
 1.78011;13.79450;-6.34106;,
 3.23224;13.79450;-4.44010;,
 2.80692;13.79450;-3.09592;,
 1.78011;13.79450;-2.53914;,
 0.75329;13.79450;-3.09592;,
 0.32797;13.79450;-4.44010;,
 0.75329;13.79450;-5.78428;,
 1.78011;13.79450;-6.34106;,
 2.89152;13.19300;-5.89503;,
 1.78011;13.19300;-6.49769;,
 3.35188;13.19300;-4.44010;,
 2.89152;13.19300;-2.98517;,
 1.78011;13.19300;-2.38251;,
 0.66869;13.19300;-2.98517;,
 0.20833;13.19300;-4.44010;,
 0.66869;13.19300;-5.89503;,
 1.78011;13.19300;-6.49769;,
 2.80692;12.59149;-5.78428;,
 1.78011;12.59149;-6.34106;,
 3.23224;12.59149;-4.44010;,
 2.80692;12.59149;-3.09592;,
 1.78011;12.59149;-2.53914;,
 0.75329;12.59149;-3.09592;,
 0.32797;12.59149;-4.44010;,
 0.75329;12.59149;-5.78428;,
 1.78011;12.59149;-6.34106;,
 2.56600;12.08159;-5.46889;,
 1.78011;12.08159;-5.89503;,
 2.89152;12.08159;-4.44010;,
 2.56600;12.08159;-3.41130;,
 1.78011;12.08159;-2.98517;,
 0.99422;12.08159;-3.41130;,
 0.66869;12.08159;-4.44010;,
 0.99422;12.08159;-5.46889;,
 1.78011;12.08159;-5.89503;,
 2.20543;11.74085;-4.99688;,
 1.78011;11.74085;-5.22750;,
 2.38160;11.74085;-4.44010;,
 2.20543;11.74085;-3.88332;,
 1.78011;11.74085;-3.65269;,
 1.35479;11.74085;-3.88332;,
 1.17861;11.74085;-4.44010;,
 1.35479;11.74085;-4.99688;,
 1.78011;11.74085;-5.22750;,
 1.78011;11.62121;-4.44010;,
 1.78011;11.62121;-4.44010;,
 1.78011;11.62121;-4.44010;,
 1.78011;11.62121;-4.44010;,
 1.78011;11.62121;-4.44010;,
 1.78011;11.62121;-4.44010;,
 1.78011;11.62121;-4.44010;,
 1.78011;11.62121;-4.44010;,
 -2.92523;14.76479;-4.44010;,
 -2.49991;14.64514;-4.99688;,
 -2.92523;14.64514;-5.22750;,
 -2.92523;14.76479;-4.44010;,
 -2.32374;14.64514;-4.44010;,
 -2.92523;14.76479;-4.44010;,
 -2.49991;14.64514;-3.88332;,
 -2.92523;14.76479;-4.44010;,
 -2.92523;14.64514;-3.65269;,
 -2.92523;14.76479;-4.44010;,
 -3.35055;14.64514;-3.88332;,
 -2.92523;14.76479;-4.44010;,
 -3.52672;14.64514;-4.44010;,
 -2.92523;14.76479;-4.44010;,
 -3.35055;14.64514;-4.99688;,
 -2.92523;14.76479;-4.44010;,
 -2.92523;14.64514;-5.22750;,
 -2.13934;14.30443;-5.46889;,
 -2.92523;14.30443;-5.89503;,
 -1.81382;14.30443;-4.44010;,
 -2.13934;14.30443;-3.41130;,
 -2.92523;14.30443;-2.98517;,
 -3.71112;14.30443;-3.41130;,
 -4.03664;14.30443;-4.44010;,
 -3.71112;14.30443;-5.46889;,
 -2.92523;14.30443;-5.89503;,
 -1.89842;13.79450;-5.78428;,
 -2.92523;13.79450;-6.34106;,
 -1.47310;13.79450;-4.44010;,
 -1.89842;13.79450;-3.09592;,
 -2.92523;13.79450;-2.53914;,
 -3.95204;13.79450;-3.09592;,
 -4.37736;13.79450;-4.44010;,
 -3.95204;13.79450;-5.78428;,
 -2.92523;13.79450;-6.34106;,
 -1.81382;13.19300;-5.89503;,
 -2.92523;13.19300;-6.49769;,
 -1.35345;13.19300;-4.44010;,
 -1.81382;13.19300;-2.98517;,
 -2.92523;13.19300;-2.38251;,
 -4.03664;13.19300;-2.98517;,
 -4.49701;13.19300;-4.44010;,
 -4.03664;13.19300;-5.89503;,
 -2.92523;13.19300;-6.49769;,
 -1.89842;12.59149;-5.78428;,
 -2.92523;12.59149;-6.34106;,
 -1.47310;12.59149;-4.44010;,
 -1.89842;12.59149;-3.09592;,
 -2.92523;12.59149;-2.53914;,
 -3.95204;12.59149;-3.09592;,
 -4.37736;12.59149;-4.44010;,
 -3.95204;12.59149;-5.78428;,
 -2.92523;12.59149;-6.34106;,
 -2.13934;12.08159;-5.46889;,
 -2.92523;12.08159;-5.89503;,
 -1.81382;12.08159;-4.44010;,
 -2.13934;12.08159;-3.41130;,
 -2.92523;12.08159;-2.98517;,
 -3.71112;12.08159;-3.41130;,
 -4.03664;12.08159;-4.44010;,
 -3.71112;12.08159;-5.46889;,
 -2.92523;12.08159;-5.89503;,
 -2.49991;11.74085;-4.99688;,
 -2.92523;11.74085;-5.22750;,
 -2.32374;11.74085;-4.44010;,
 -2.49991;11.74085;-3.88332;,
 -2.92523;11.74085;-3.65269;,
 -3.35055;11.74085;-3.88332;,
 -3.52672;11.74085;-4.44010;,
 -3.35055;11.74085;-4.99688;,
 -2.92523;11.74085;-5.22750;,
 -2.92523;11.62121;-4.44010;,
 -2.92523;11.62121;-4.44010;,
 -2.92523;11.62121;-4.44010;,
 -2.92523;11.62121;-4.44010;,
 -2.92523;11.62121;-4.44010;,
 -2.92523;11.62121;-4.44010;,
 -2.92523;11.62121;-4.44010;,
 -2.92523;11.62121;-4.44010;,
 -0.79200;11.04287;-7.09694;,
 -0.36668;10.92321;-7.65371;,
 -0.79200;10.92321;-7.88434;,
 -0.79200;11.04287;-7.09694;,
 -0.19051;10.92321;-7.09694;,
 -0.79200;11.04287;-7.09694;,
 -0.36668;10.92321;-6.54016;,
 -0.79200;11.04287;-7.09694;,
 -0.79200;10.92321;-6.30953;,
 -0.79200;11.04287;-7.09694;,
 -1.21732;10.92321;-6.54016;,
 -0.79200;11.04287;-7.09694;,
 -1.39349;10.92321;-7.09694;,
 -0.79200;11.04287;-7.09694;,
 -1.21732;10.92321;-7.65371;,
 -0.79200;11.04287;-7.09694;,
 -0.79200;10.92321;-7.88434;,
 -0.00611;10.58250;-8.12573;,
 -0.79200;10.58250;-8.55187;,
 0.31941;10.58250;-7.09694;,
 -0.00611;10.58250;-6.06814;,
 -0.79200;10.58250;-5.64200;,
 -1.57789;10.58250;-6.06814;,
 -1.90341;10.58250;-7.09694;,
 -1.57789;10.58250;-8.12573;,
 -0.79200;10.58250;-8.55187;,
 0.23481;10.07257;-8.44112;,
 -0.79200;10.07257;-8.99790;,
 0.66013;10.07257;-7.09694;,
 0.23481;10.07257;-5.75275;,
 -0.79200;10.07257;-5.19597;,
 -1.81881;10.07257;-5.75275;,
 -2.24413;10.07257;-7.09694;,
 -1.81881;10.07257;-8.44112;,
 -0.79200;10.07257;-8.99790;,
 0.31941;9.47108;-8.55187;,
 -0.79200;9.47108;-9.15452;,
 0.77978;9.47108;-7.09694;,
 0.31941;9.47108;-5.64200;,
 -0.79200;9.47108;-5.03935;,
 -1.90341;9.47108;-5.64200;,
 -2.36378;9.47108;-7.09694;,
 -1.90341;9.47108;-8.55187;,
 -0.79200;9.47108;-9.15452;,
 0.23481;8.86956;-8.44112;,
 -0.79200;8.86956;-8.99790;,
 0.66013;8.86956;-7.09694;,
 0.23481;8.86956;-5.75275;,
 -0.79200;8.86956;-5.19597;,
 -1.81881;8.86956;-5.75275;,
 -2.24413;8.86956;-7.09694;,
 -1.81881;8.86956;-8.44112;,
 -0.79200;8.86956;-8.99790;,
 -0.00611;8.35966;-8.12573;,
 -0.79200;8.35966;-8.55187;,
 0.31941;8.35966;-7.09694;,
 -0.00611;8.35966;-6.06814;,
 -0.79200;8.35966;-5.64200;,
 -1.57789;8.35966;-6.06814;,
 -1.90341;8.35966;-7.09694;,
 -1.57789;8.35966;-8.12573;,
 -0.79200;8.35966;-8.55187;,
 -0.36668;8.01894;-7.65371;,
 -0.79200;8.01894;-7.88434;,
 -0.19051;8.01894;-7.09694;,
 -0.36668;8.01894;-6.54016;,
 -0.79200;8.01894;-6.30953;,
 -1.21732;8.01894;-6.54016;,
 -1.39349;8.01894;-7.09694;,
 -1.21732;8.01894;-7.65371;,
 -0.79200;8.01894;-7.88434;,
 -0.79200;7.89929;-7.09694;,
 -0.79200;7.89929;-7.09694;,
 -0.79200;7.89929;-7.09694;,
 -0.79200;7.89929;-7.09694;,
 -0.79200;7.89929;-7.09694;,
 -0.79200;7.89929;-7.09694;,
 -0.79200;7.89929;-7.09694;,
 -0.79200;7.89929;-7.09694;;
 
 332;
 3;0,1,2;,
 3;3,4,1;,
 3;5,6,4;,
 3;7,8,6;,
 3;9,10,8;,
 3;11,12,10;,
 3;13,14,12;,
 3;15,16,14;,
 4;2,1,17,18;,
 4;1,4,19,17;,
 4;4,6,20,19;,
 4;6,8,21,20;,
 4;8,10,22,21;,
 4;10,12,23,22;,
 4;12,14,24,23;,
 4;14,16,25,24;,
 4;18,17,26,27;,
 4;17,19,28,26;,
 4;19,20,29,28;,
 4;20,21,30,29;,
 4;21,22,31,30;,
 4;22,23,32,31;,
 4;23,24,33,32;,
 4;24,25,34,33;,
 4;27,26,35,36;,
 4;26,28,37,35;,
 4;28,29,38,37;,
 4;29,30,39,38;,
 4;30,31,40,39;,
 4;31,32,41,40;,
 4;32,33,42,41;,
 4;33,34,43,42;,
 4;36,35,44,45;,
 4;35,37,46,44;,
 4;37,38,47,46;,
 4;38,39,48,47;,
 4;39,40,49,48;,
 4;40,41,50,49;,
 4;41,42,51,50;,
 4;42,43,52,51;,
 4;45,44,53,54;,
 4;44,46,55,53;,
 4;46,47,56,55;,
 4;47,48,57,56;,
 4;48,49,58,57;,
 4;49,50,59,58;,
 4;50,51,60,59;,
 4;51,52,61,60;,
 4;54,53,62,63;,
 4;53,55,64,62;,
 4;55,56,65,64;,
 4;56,57,66,65;,
 4;57,58,67,66;,
 4;58,59,68,67;,
 4;59,60,69,68;,
 4;60,61,70,69;,
 3;63,62,71;,
 3;62,64,72;,
 3;64,65,73;,
 3;65,66,74;,
 3;66,67,75;,
 3;67,68,76;,
 3;68,69,77;,
 3;69,70,78;,
 3;79,80,81;,
 3;82,83,80;,
 3;84,85,83;,
 3;86,87,85;,
 3;88,89,87;,
 3;90,91,89;,
 3;92,93,91;,
 3;94,95,93;,
 4;81,80,96,97;,
 4;80,83,98,96;,
 4;83,85,99,98;,
 4;85,87,100,99;,
 4;87,89,101,100;,
 4;89,91,102,101;,
 4;91,93,103,102;,
 4;93,95,104,103;,
 4;97,96,105,106;,
 4;96,98,107,105;,
 4;98,99,108,107;,
 4;99,100,109,108;,
 4;100,101,110,109;,
 4;101,102,111,110;,
 4;102,103,112,111;,
 4;103,104,113,112;,
 4;106,105,114,115;,
 4;105,107,116,114;,
 4;107,108,117,116;,
 4;108,109,118,117;,
 4;109,110,119,118;,
 4;110,111,120,119;,
 4;111,112,121,120;,
 4;112,113,122,121;,
 4;115,114,123,124;,
 4;114,116,125,123;,
 4;116,117,126,125;,
 4;117,118,127,126;,
 4;118,119,128,127;,
 4;119,120,129,128;,
 4;120,121,130,129;,
 4;121,122,131,130;,
 4;124,123,132,133;,
 4;123,125,134,132;,
 4;125,126,135,134;,
 4;126,127,136,135;,
 4;127,128,137,136;,
 4;128,129,138,137;,
 4;129,130,139,138;,
 4;130,131,140,139;,
 4;133,132,141,142;,
 4;132,134,143,141;,
 4;134,135,144,143;,
 4;135,136,145,144;,
 4;136,137,146,145;,
 4;137,138,147,146;,
 4;138,139,148,147;,
 4;139,140,149,148;,
 3;142,141,150;,
 3;141,143,151;,
 3;143,144,152;,
 3;144,145,153;,
 3;145,146,154;,
 3;146,147,155;,
 3;147,148,156;,
 3;148,149,157;,
 4;158,159,160,161;,
 4;162,163,164,165;,
 4;166,167,168,169;,
 4;170,171,172,173;,
 4;170,163,174,175;,
 4;176,177,164,173;,
 4;178,179,180,181;,
 4;182,183,184,185;,
 4;186,187,188,189;,
 4;190,191,192,193;,
 4;190,183,194,195;,
 4;196,197,184,193;,
 3;198,199,200;,
 3;201,202,199;,
 3;203,204,202;,
 3;205,206,204;,
 3;207,208,206;,
 3;209,210,208;,
 3;211,212,210;,
 3;213,214,212;,
 4;200,199,215,216;,
 4;199,202,217,215;,
 4;202,204,218,217;,
 4;204,206,219,218;,
 4;206,208,220,219;,
 4;208,210,221,220;,
 4;210,212,222,221;,
 4;212,214,223,222;,
 4;216,215,224,225;,
 4;215,217,226,224;,
 4;217,218,227,226;,
 4;218,219,228,227;,
 4;219,220,229,228;,
 4;220,221,230,229;,
 4;221,222,231,230;,
 4;222,223,232,231;,
 4;225,224,233,234;,
 4;224,226,235,233;,
 4;226,227,236,235;,
 4;227,228,237,236;,
 4;228,229,238,237;,
 4;229,230,239,238;,
 4;230,231,240,239;,
 4;231,232,241,240;,
 4;234,233,242,243;,
 4;233,235,244,242;,
 4;235,236,245,244;,
 4;236,237,246,245;,
 4;237,238,247,246;,
 4;238,239,248,247;,
 4;239,240,249,248;,
 4;240,241,250,249;,
 4;243,242,251,252;,
 4;242,244,253,251;,
 4;244,245,254,253;,
 4;245,246,255,254;,
 4;246,247,256,255;,
 4;247,248,257,256;,
 4;248,249,258,257;,
 4;249,250,259,258;,
 4;252,251,260,261;,
 4;251,253,262,260;,
 4;253,254,263,262;,
 4;254,255,264,263;,
 4;255,256,265,264;,
 4;256,257,266,265;,
 4;257,258,267,266;,
 4;258,259,268,267;,
 3;261,260,269;,
 3;260,262,270;,
 3;262,263,271;,
 3;263,264,272;,
 3;264,265,273;,
 3;265,266,274;,
 3;266,267,275;,
 3;267,268,276;,
 3;277,278,279;,
 3;280,281,278;,
 3;282,283,281;,
 3;284,285,283;,
 3;286,287,285;,
 3;288,289,287;,
 3;290,291,289;,
 3;292,293,291;,
 4;279,278,294,295;,
 4;278,281,296,294;,
 4;281,283,297,296;,
 4;283,285,298,297;,
 4;285,287,299,298;,
 4;287,289,300,299;,
 4;289,291,301,300;,
 4;291,293,302,301;,
 4;295,294,303,304;,
 4;294,296,305,303;,
 4;296,297,306,305;,
 4;297,298,307,306;,
 4;298,299,308,307;,
 4;299,300,309,308;,
 4;300,301,310,309;,
 4;301,302,311,310;,
 4;304,303,312,313;,
 4;303,305,314,312;,
 4;305,306,315,314;,
 4;306,307,316,315;,
 4;307,308,317,316;,
 4;308,309,318,317;,
 4;309,310,319,318;,
 4;310,311,320,319;,
 4;313,312,321,322;,
 4;312,314,323,321;,
 4;314,315,324,323;,
 4;315,316,325,324;,
 4;316,317,326,325;,
 4;317,318,327,326;,
 4;318,319,328,327;,
 4;319,320,329,328;,
 4;322,321,330,331;,
 4;321,323,332,330;,
 4;323,324,333,332;,
 4;324,325,334,333;,
 4;325,326,335,334;,
 4;326,327,336,335;,
 4;327,328,337,336;,
 4;328,329,338,337;,
 4;331,330,339,340;,
 4;330,332,341,339;,
 4;332,333,342,341;,
 4;333,334,343,342;,
 4;334,335,344,343;,
 4;335,336,345,344;,
 4;336,337,346,345;,
 4;337,338,347,346;,
 3;340,339,348;,
 3;339,341,349;,
 3;341,342,350;,
 3;342,343,351;,
 3;343,344,352;,
 3;344,345,353;,
 3;345,346,354;,
 3;346,347,355;,
 3;356,357,358;,
 3;359,360,357;,
 3;361,362,360;,
 3;363,364,362;,
 3;365,366,364;,
 3;367,368,366;,
 3;369,370,368;,
 3;371,372,370;,
 4;358,357,373,374;,
 4;357,360,375,373;,
 4;360,362,376,375;,
 4;362,364,377,376;,
 4;364,366,378,377;,
 4;366,368,379,378;,
 4;368,370,380,379;,
 4;370,372,381,380;,
 4;374,373,382,383;,
 4;373,375,384,382;,
 4;375,376,385,384;,
 4;376,377,386,385;,
 4;377,378,387,386;,
 4;378,379,388,387;,
 4;379,380,389,388;,
 4;380,381,390,389;,
 4;383,382,391,392;,
 4;382,384,393,391;,
 4;384,385,394,393;,
 4;385,386,395,394;,
 4;386,387,396,395;,
 4;387,388,397,396;,
 4;388,389,398,397;,
 4;389,390,399,398;,
 4;392,391,400,401;,
 4;391,393,402,400;,
 4;393,394,403,402;,
 4;394,395,404,403;,
 4;395,396,405,404;,
 4;396,397,406,405;,
 4;397,398,407,406;,
 4;398,399,408,407;,
 4;401,400,409,410;,
 4;400,402,411,409;,
 4;402,403,412,411;,
 4;403,404,413,412;,
 4;404,405,414,413;,
 4;405,406,415,414;,
 4;406,407,416,415;,
 4;407,408,417,416;,
 4;410,409,418,419;,
 4;409,411,420,418;,
 4;411,412,421,420;,
 4;412,413,422,421;,
 4;413,414,423,422;,
 4;414,415,424,423;,
 4;415,416,425,424;,
 4;416,417,426,425;,
 3;419,418,427;,
 3;418,420,428;,
 3;420,421,429;,
 3;421,422,430;,
 3;422,423,431;,
 3;423,424,432;,
 3;424,425,433;,
 3;425,426,434;;
 
 MeshMaterialList {
  9;
  332;
  0,
  0,
  0,
  0,
  0,
  0,
  0,
  0,
  0,
  0,
  0,
  0,
  0,
  0,
  0,
  0,
  0,
  0,
  0,
  0,
  0,
  0,
  0,
  0,
  0,
  0,
  0,
  0,
  0,
  0,
  0,
  0,
  0,
  0,
  0,
  0,
  0,
  0,
  0,
  0,
  0,
  0,
  0,
  0,
  0,
  0,
  0,
  0,
  0,
  0,
  0,
  0,
  0,
  0,
  0,
  0,
  0,
  0,
  0,
  0,
  0,
  0,
  0,
  0,
  2,
  2,
  2,
  2,
  2,
  2,
  2,
  2,
  2,
  2,
  2,
  2,
  2,
  2,
  2,
  2,
  2,
  2,
  2,
  2,
  2,
  2,
  2,
  2,
  2,
  2,
  2,
  2,
  2,
  2,
  2,
  2,
  2,
  2,
  2,
  2,
  2,
  2,
  2,
  2,
  2,
  2,
  2,
  2,
  2,
  2,
  2,
  2,
  2,
  2,
  2,
  2,
  2,
  2,
  2,
  2,
  2,
  2,
  2,
  2,
  2,
  2,
  2,
  2,
  0,
  0,
  0,
  0,
  0,
  0,
  0,
  0,
  0,
  0,
  0,
  0,
  3,
  3,
  3,
  3,
  3,
  3,
  3,
  3,
  3,
  3,
  3,
  3,
  3,
  3,
  3,
  3,
  3,
  3,
  3,
  3,
  3,
  3,
  3,
  3,
  3,
  3,
  3,
  3,
  3,
  3,
  3,
  3,
  3,
  3,
  3,
  3,
  3,
  3,
  3,
  3,
  3,
  3,
  3,
  3,
  3,
  3,
  3,
  3,
  3,
  3,
  3,
  3,
  3,
  3,
  3,
  3,
  3,
  3,
  3,
  3,
  3,
  3,
  3,
  3,
  3,
  3,
  3,
  3,
  3,
  3,
  3,
  3,
  3,
  3,
  3,
  3,
  3,
  3,
  3,
  3,
  3,
  3,
  3,
  3,
  3,
  3,
  3,
  3,
  3,
  3,
  3,
  3,
  3,
  3,
  3,
  3,
  3,
  3,
  3,
  3,
  3,
  3,
  3,
  3,
  3,
  3,
  3,
  3,
  3,
  3,
  3,
  3,
  3,
  3,
  3,
  3,
  3,
  3,
  3,
  3,
  3,
  3,
  3,
  3,
  3,
  3,
  3,
  3,
  3,
  3,
  3,
  3,
  3,
  3,
  3,
  3,
  3,
  3,
  3,
  3,
  3,
  3,
  3,
  3,
  3,
  3,
  3,
  3,
  3,
  3,
  3,
  3,
  3,
  3,
  3,
  3,
  3,
  3,
  3,
  3,
  3,
  3,
  3,
  3,
  3,
  3,
  3,
  3,
  3,
  3,
  3,
  3,
  3,
  3,
  3,
  3,
  3,
  3,
  3,
  3,
  3,
  3,
  3,
  3,
  3,
  3,
  3,
  3,
  3,
  3,
  3,
  3;;
  Material {
   0.229020;0.141176;0.050196;1.000000;;
   5.000000;
   0.000000;0.000000;0.000000;;
   0.000000;0.000000;0.000000;;
  }
  Material {
   0.800000;0.238431;0.065882;1.000000;;
   5.000000;
   0.000000;0.000000;0.000000;;
   0.000000;0.000000;0.000000;;
  }
  Material {
   0.800000;0.530400;0.100000;1.000000;;
   5.000000;
   0.000000;0.000000;0.000000;;
   0.000000;0.000000;0.000000;;
  }
  Material {
   0.536471;0.090980;0.059608;1.000000;;
   5.000000;
   0.000000;0.000000;0.000000;;
   0.000000;0.000000;0.000000;;
  }
  Material {
   0.640000;0.392000;0.000000;1.000000;;
   5.000000;
   0.000000;0.000000;0.000000;;
   0.000000;0.000000;0.000000;;
  }
  Material {
   0.241569;0.432941;0.800000;1.000000;;
   5.000000;
   0.000000;0.000000;0.000000;;
   0.000000;0.000000;0.000000;;
  }
  Material {
   0.800000;0.800000;0.800000;1.000000;;
   5.000000;
   0.000000;0.000000;0.000000;;
   0.000000;0.000000;0.000000;;
  }
  Material {
   0.800000;0.800000;0.800000;1.000000;;
   5.000000;
   0.000000;0.000000;0.000000;;
   0.000000;0.000000;0.000000;;
  }
  Material {
   1.000000;1.000000;1.000000;1.000000;;
   0.000000;
   0.000000;0.000000;0.000000;;
   0.000000;0.000000;0.000000;;
  }
 }
 MeshNormals {
  302;
  -0.000000;1.000000;0.000000;,
  0.000000;0.905689;-0.423942;,
  0.265071;0.915512;-0.302615;,
  0.378463;0.925616;0.000000;,
  0.265071;0.915512;0.302615;,
  0.000000;0.905689;0.423942;,
  -0.265071;0.915512;0.302614;,
  -0.378463;0.925616;0.000000;,
  -0.265071;0.915512;-0.302614;,
  0.000000;0.661829;-0.749655;,
  0.483110;0.685709;-0.544434;,
  0.702698;0.711488;0.000000;,
  0.483110;0.685709;0.544434;,
  0.000000;0.661829;0.749655;,
  -0.483110;0.685709;0.544434;,
  -0.702698;0.711488;0.000000;,
  -0.483110;0.685709;-0.544434;,
  0.000000;0.342902;-0.939371;,
  0.622322;0.363392;-0.693298;,
  0.922244;0.386608;0.000000;,
  0.622322;0.363392;0.693298;,
  0.000000;0.342902;0.939371;,
  -0.622322;0.363392;0.693298;,
  -0.922244;0.386608;0.000000;,
  -0.622322;0.363392;-0.693298;,
  0.000000;-0.000000;-1.000000;,
  0.669594;-0.000001;-0.742727;,
  1.000000;-0.000001;-0.000000;,
  0.669594;-0.000001;0.742727;,
  0.000000;-0.000000;1.000000;,
  -0.669594;-0.000001;0.742727;,
  -1.000000;-0.000001;0.000000;,
  -0.669594;-0.000001;-0.742727;,
  0.000000;-0.342901;-0.939371;,
  0.622322;-0.363392;-0.693298;,
  0.922244;-0.386607;-0.000000;,
  0.622322;-0.363392;0.693298;,
  0.000000;-0.342901;0.939371;,
  -0.622322;-0.363392;0.693298;,
  -0.922245;-0.386607;0.000000;,
  -0.622322;-0.363392;-0.693298;,
  0.000000;-0.661831;-0.749653;,
  0.483109;-0.685710;-0.544433;,
  0.702697;-0.711490;-0.000000;,
  0.483109;-0.685710;0.544433;,
  0.000000;-0.661831;0.749653;,
  -0.483109;-0.685710;0.544433;,
  -0.702697;-0.711490;0.000000;,
  -0.483109;-0.685710;-0.544433;,
  0.000000;-0.905690;-0.423941;,
  0.265070;-0.915512;-0.302615;,
  0.378463;-0.925616;-0.000000;,
  0.265070;-0.915512;0.302615;,
  0.000000;-0.905690;0.423941;,
  -0.265070;-0.915512;0.302615;,
  -0.378463;-0.925616;0.000000;,
  -0.265070;-0.915512;-0.302615;,
  -0.000000;-1.000000;-0.000000;,
  -0.000000;1.000000;0.000000;,
  -0.000000;0.904956;-0.425505;,
  0.266086;0.914841;-0.303751;,
  0.379940;0.925011;0.000000;,
  0.266086;0.914841;0.303752;,
  -0.000000;0.904956;0.425506;,
  -0.266086;0.914840;0.303752;,
  -0.379940;0.925011;0.000000;,
  -0.266086;0.914841;-0.303751;,
  -0.000001;0.660117;-0.751162;,
  0.484172;0.684040;-0.545588;,
  0.704329;0.709874;0.000000;,
  0.484172;0.684040;0.545589;,
  -0.000001;0.660117;0.751163;,
  -0.484172;0.684040;0.545588;,
  -0.704328;0.709874;0.000000;,
  -0.484173;0.684040;-0.545588;,
  -0.000000;0.341480;-0.939889;,
  0.622718;0.361919;-0.693713;,
  0.922884;0.385078;0.000001;,
  0.622718;0.361919;0.693712;,
  -0.000001;0.341480;0.939889;,
  -0.622719;0.361919;0.693712;,
  -0.922884;0.385078;0.000001;,
  -0.622718;0.361919;-0.693712;,
  -0.000000;0.000000;-1.000000;,
  0.669597;0.000000;-0.742724;,
  1.000000;0.000000;0.000001;,
  0.669598;0.000000;0.742724;,
  -0.000000;0.000000;1.000000;,
  -0.669598;0.000000;0.742723;,
  -1.000000;0.000000;0.000001;,
  -0.669598;-0.000000;-0.742724;,
  -0.000000;-0.341479;-0.939889;,
  0.622718;-0.361918;-0.693713;,
  0.922884;-0.385077;0.000001;,
  0.622718;-0.361918;0.693713;,
  -0.000001;-0.341480;0.939889;,
  -0.622719;-0.361918;0.693712;,
  -0.922884;-0.385077;0.000001;,
  -0.622719;-0.361918;-0.693712;,
  -0.000001;-0.660116;-0.751164;,
  0.484173;-0.684039;-0.545589;,
  0.704330;-0.709872;0.000000;,
  0.484173;-0.684038;0.545590;,
  -0.000001;-0.660115;0.751164;,
  -0.484174;-0.684038;0.545589;,
  -0.704330;-0.709872;0.000000;,
  -0.484174;-0.684039;-0.545589;,
  -0.000000;-0.904956;-0.425506;,
  0.266086;-0.914841;-0.303751;,
  0.379940;-0.925011;0.000000;,
  0.266086;-0.914840;0.303752;,
  -0.000000;-0.904955;0.425506;,
  -0.266087;-0.914840;0.303752;,
  -0.379941;-0.925011;0.000000;,
  -0.266087;-0.914840;-0.303751;,
  -0.000000;-1.000000;0.000000;,
  0.000000;0.000000;-1.000000;,
  0.902585;-0.430512;-0.000000;,
  0.000000;0.000000;1.000000;,
  -0.902585;0.430512;0.000000;,
  0.430510;0.902586;0.000000;,
  -0.430513;-0.902584;0.000000;,
  0.087277;0.251531;-0.963906;,
  0.916028;0.386508;0.107255;,
  -0.087276;-0.251532;0.963906;,
  0.000001;1.000000;-0.000000;,
  -0.000000;0.952563;-0.304342;,
  0.273237;0.938205;-0.212400;,
  0.381458;0.924386;-0.000000;,
  0.273238;0.938205;0.212399;,
  -0.000000;0.952563;0.304342;,
  -0.273236;0.938205;0.212401;,
  -0.381455;0.924388;-0.000000;,
  -0.273235;0.938205;-0.212402;,
  0.000001;0.791542;-0.611114;,
  0.519850;0.747503;-0.413515;,
  0.705823;0.708388;-0.000000;,
  0.519852;0.747501;0.413516;,
  0.000001;0.791540;0.611118;,
  -0.519848;0.747503;0.413518;,
  -0.705819;0.708392;-0.000001;,
  -0.519847;0.747505;-0.413517;,
  0.000002;0.472353;-0.881410;,
  0.702447;0.423172;-0.572271;,
  0.923406;0.383824;-0.000000;,
  0.702447;0.423170;0.572272;,
  0.000002;0.472349;0.881411;,
  -0.702444;0.423173;0.572273;,
  -0.923405;0.383828;-0.000000;,
  -0.702444;0.423174;-0.572272;,
  0.000002;0.000000;-1.000000;,
  0.772138;0.000000;-0.635455;,
  1.000000;0.000000;-0.000000;,
  0.772138;0.000000;0.635455;,
  0.000002;0.000000;1.000000;,
  -0.772136;-0.000000;0.635457;,
  -1.000000;0.000000;-0.000000;,
  -0.772136;0.000000;-0.635457;,
  0.000002;-0.472364;-0.881404;,
  0.702443;-0.423182;-0.572268;,
  0.923402;-0.383834;-0.000000;,
  0.702443;-0.423181;0.572269;,
  0.000001;-0.472361;0.881405;,
  -0.702441;-0.423183;0.572270;,
  -0.923401;-0.383838;-0.000000;,
  -0.702441;-0.423185;-0.572269;,
  0.000001;-0.791539;-0.611118;,
  0.519854;-0.747499;-0.413518;,
  0.705828;-0.708384;-0.000001;,
  0.519854;-0.747499;0.413518;,
  0.000001;-0.791538;0.611120;,
  -0.519851;-0.747500;0.413520;,
  -0.705824;-0.708388;-0.000001;,
  -0.519851;-0.747501;-0.413519;,
  -0.000000;-0.952558;-0.304356;,
  0.273248;-0.938199;-0.212409;,
  0.381473;-0.924380;-0.000000;,
  0.273249;-0.938199;0.212408;,
  0.000000;-0.952559;0.304355;,
  -0.273247;-0.938200;0.212410;,
  -0.381470;-0.924381;-0.000000;,
  -0.273247;-0.938199;-0.212411;,
  0.000001;-1.000000;-0.000000;,
  -0.916028;-0.386508;-0.107256;,
  -0.405869;0.906465;0.116586;,
  0.405868;-0.906466;-0.116583;,
  -0.000000;1.000000;-0.000000;,
  -0.000000;0.952563;-0.304342;,
  0.273237;0.938205;-0.212400;,
  0.381458;0.924386;-0.000000;,
  0.273238;0.938205;0.212399;,
  -0.000000;0.952563;0.304342;,
  -0.273238;0.938205;0.212399;,
  -0.381458;0.924386;-0.000000;,
  -0.273237;0.938205;-0.212400;,
  -0.000000;0.791542;-0.611115;,
  0.519851;0.747503;-0.413515;,
  0.705823;0.708388;-0.000000;,
  0.519852;0.747501;0.413516;,
  0.000000;0.791540;0.611118;,
  -0.519851;0.747502;0.413516;,
  -0.705823;0.708388;-0.000000;,
  -0.519850;0.747503;-0.413515;,
  0.000000;0.472352;-0.881410;,
  0.702446;0.423173;-0.572271;,
  0.923405;0.383827;-0.000000;,
  0.702446;0.423171;0.572273;,
  0.000000;0.472349;0.881411;,
  -0.702446;0.423172;0.572272;,
  -0.923405;0.383828;-0.000000;,
  -0.702445;0.423174;-0.572271;,
  0.000000;0.000000;-1.000000;,
  0.772136;0.000000;-0.635457;,
  1.000000;0.000000;-0.000000;,
  0.772136;0.000000;0.635457;,
  0.000000;-0.000000;1.000000;,
  -0.772136;0.000000;0.635457;,
  -1.000000;0.000000;-0.000000;,
  -0.772136;0.000000;-0.635457;,
  0.000000;-0.472363;-0.881404;,
  0.702442;-0.423184;-0.572268;,
  0.923400;-0.383838;-0.000000;,
  0.702442;-0.423183;0.572269;,
  0.000000;-0.472361;0.881405;,
  -0.702442;-0.423183;0.572269;,
  -0.923400;-0.383838;-0.000000;,
  -0.702442;-0.423184;-0.572268;,
  0.000000;-0.791539;-0.611118;,
  0.519854;-0.747499;-0.413518;,
  0.705827;-0.708384;-0.000001;,
  0.519854;-0.747499;0.413518;,
  -0.000000;-0.791538;0.611121;,
  -0.519854;-0.747499;0.413518;,
  -0.705827;-0.708384;-0.000001;,
  -0.519854;-0.747499;-0.413518;,
  -0.000000;-0.952558;-0.304356;,
  0.273248;-0.938199;-0.212409;,
  0.381473;-0.924380;-0.000000;,
  0.273249;-0.938199;0.212408;,
  -0.000000;-0.952559;0.304355;,
  -0.273249;-0.938199;0.212408;,
  -0.381473;-0.924380;-0.000000;,
  -0.273248;-0.938199;-0.212409;,
  -0.000000;-1.000000;-0.000000;,
  0.000000;1.000000;-0.000001;,
  -0.000000;0.952561;-0.304348;,
  0.273244;0.938201;-0.212404;,
  0.381466;0.924383;-0.000001;,
  0.273245;0.938202;0.212403;,
  -0.000000;0.952561;0.304347;,
  -0.273245;0.938202;0.212403;,
  -0.381467;0.924383;-0.000001;,
  -0.273245;0.938201;-0.212405;,
  -0.000000;0.791545;-0.611111;,
  0.519849;0.747505;-0.413513;,
  0.705821;0.708391;-0.000001;,
  0.519850;0.747505;0.413512;,
  -0.000000;0.791544;0.611112;,
  -0.519850;0.747505;0.413512;,
  -0.705821;0.708391;-0.000001;,
  -0.519849;0.747505;-0.413513;,
  0.000000;0.472352;-0.881410;,
  0.702444;0.423176;-0.572271;,
  0.923403;0.383832;-0.000001;,
  0.702445;0.423176;0.572271;,
  -0.000000;0.472352;0.881410;,
  -0.702445;0.423176;0.572271;,
  -0.923403;0.383832;-0.000001;,
  -0.702444;0.423175;-0.572271;,
  0.000000;0.000004;-1.000000;,
  0.772135;0.000003;-0.635458;,
  1.000000;0.000003;-0.000001;,
  0.772136;0.000003;0.635458;,
  -0.000000;0.000004;1.000000;,
  -0.772136;0.000003;0.635458;,
  -1.000000;0.000003;-0.000001;,
  -0.772135;0.000003;-0.635458;,
  0.000000;-0.472357;-0.881407;,
  0.702443;-0.423180;-0.572270;,
  0.923401;-0.383836;-0.000001;,
  0.702443;-0.423181;0.572269;,
  -0.000000;-0.472358;0.881407;,
  -0.702443;-0.423181;0.572269;,
  -0.923401;-0.383836;-0.000001;,
  -0.702442;-0.423180;-0.572270;,
  -0.000000;-0.791545;-0.611111;,
  0.519849;-0.747505;-0.413513;,
  0.705821;-0.708390;-0.000001;,
  0.519850;-0.747505;0.413512;,
  -0.000000;-0.791546;0.611110;,
  -0.519850;-0.747505;0.413512;,
  -0.705821;-0.708390;-0.000001;,
  -0.519849;-0.747505;-0.413513;,
  -0.000000;-0.952561;-0.304347;,
  0.273243;-0.938202;-0.212404;,
  0.381465;-0.924383;-0.000001;,
  0.273243;-0.938202;0.212402;,
  -0.000000;-0.952562;0.304346;,
  -0.273243;-0.938202;0.212402;,
  -0.381465;-0.924383;-0.000001;,
  -0.273243;-0.938202;-0.212404;,
  -0.000000;-1.000000;-0.000001;;
  332;
  3;0,2,1;,
  3;0,3,2;,
  3;0,4,3;,
  3;0,5,4;,
  3;0,6,5;,
  3;0,7,6;,
  3;0,8,7;,
  3;0,1,8;,
  4;1,2,10,9;,
  4;2,3,11,10;,
  4;3,4,12,11;,
  4;4,5,13,12;,
  4;5,6,14,13;,
  4;6,7,15,14;,
  4;7,8,16,15;,
  4;8,1,9,16;,
  4;9,10,18,17;,
  4;10,11,19,18;,
  4;11,12,20,19;,
  4;12,13,21,20;,
  4;13,14,22,21;,
  4;14,15,23,22;,
  4;15,16,24,23;,
  4;16,9,17,24;,
  4;17,18,26,25;,
  4;18,19,27,26;,
  4;19,20,28,27;,
  4;20,21,29,28;,
  4;21,22,30,29;,
  4;22,23,31,30;,
  4;23,24,32,31;,
  4;24,17,25,32;,
  4;25,26,34,33;,
  4;26,27,35,34;,
  4;27,28,36,35;,
  4;28,29,37,36;,
  4;29,30,38,37;,
  4;30,31,39,38;,
  4;31,32,40,39;,
  4;32,25,33,40;,
  4;33,34,42,41;,
  4;34,35,43,42;,
  4;35,36,44,43;,
  4;36,37,45,44;,
  4;37,38,46,45;,
  4;38,39,47,46;,
  4;39,40,48,47;,
  4;40,33,41,48;,
  4;41,42,50,49;,
  4;42,43,51,50;,
  4;43,44,52,51;,
  4;44,45,53,52;,
  4;45,46,54,53;,
  4;46,47,55,54;,
  4;47,48,56,55;,
  4;48,41,49,56;,
  3;49,50,57;,
  3;50,51,57;,
  3;51,52,57;,
  3;52,53,57;,
  3;53,54,57;,
  3;54,55,57;,
  3;55,56,57;,
  3;56,49,57;,
  3;58,60,59;,
  3;58,61,60;,
  3;58,62,61;,
  3;58,63,62;,
  3;58,64,63;,
  3;58,65,64;,
  3;58,66,65;,
  3;58,59,66;,
  4;59,60,68,67;,
  4;60,61,69,68;,
  4;61,62,70,69;,
  4;62,63,71,70;,
  4;63,64,72,71;,
  4;64,65,73,72;,
  4;65,66,74,73;,
  4;66,59,67,74;,
  4;67,68,76,75;,
  4;68,69,77,76;,
  4;69,70,78,77;,
  4;70,71,79,78;,
  4;71,72,80,79;,
  4;72,73,81,80;,
  4;73,74,82,81;,
  4;74,67,75,82;,
  4;75,76,84,83;,
  4;76,77,85,84;,
  4;77,78,86,85;,
  4;78,79,87,86;,
  4;79,80,88,87;,
  4;80,81,89,88;,
  4;81,82,90,89;,
  4;82,75,83,90;,
  4;83,84,92,91;,
  4;84,85,93,92;,
  4;85,86,94,93;,
  4;86,87,95,94;,
  4;87,88,96,95;,
  4;88,89,97,96;,
  4;89,90,98,97;,
  4;90,83,91,98;,
  4;91,92,100,99;,
  4;92,93,101,100;,
  4;93,94,102,101;,
  4;94,95,103,102;,
  4;95,96,104,103;,
  4;96,97,105,104;,
  4;97,98,106,105;,
  4;98,91,99,106;,
  4;99,100,108,107;,
  4;100,101,109,108;,
  4;101,102,110,109;,
  4;102,103,111,110;,
  4;103,104,112,111;,
  4;104,105,113,112;,
  4;105,106,114,113;,
  4;106,99,107,114;,
  3;107,108,115;,
  3;108,109,115;,
  3;109,110,115;,
  3;110,111,115;,
  3;111,112,115;,
  3;112,113,115;,
  3;113,114,115;,
  3;114,107,115;,
  4;116,116,116,116;,
  4;117,117,117,117;,
  4;118,118,118,118;,
  4;119,119,119,119;,
  4;120,120,120,120;,
  4;121,121,121,121;,
  4;122,122,122,122;,
  4;123,123,123,123;,
  4;124,124,124,124;,
  4;183,183,183,183;,
  4;184,184,184,184;,
  4;185,185,185,185;,
  3;125,127,126;,
  3;125,128,127;,
  3;125,129,128;,
  3;125,130,129;,
  3;125,131,130;,
  3;125,132,131;,
  3;125,133,132;,
  3;125,126,133;,
  4;126,127,135,134;,
  4;127,128,136,135;,
  4;128,129,137,136;,
  4;129,130,138,137;,
  4;130,131,139,138;,
  4;131,132,140,139;,
  4;132,133,141,140;,
  4;133,126,134,141;,
  4;134,135,143,142;,
  4;135,136,144,143;,
  4;136,137,145,144;,
  4;137,138,146,145;,
  4;138,139,147,146;,
  4;139,140,148,147;,
  4;140,141,149,148;,
  4;141,134,142,149;,
  4;142,143,151,150;,
  4;143,144,152,151;,
  4;144,145,153,152;,
  4;145,146,154,153;,
  4;146,147,155,154;,
  4;147,148,156,155;,
  4;148,149,157,156;,
  4;149,142,150,157;,
  4;150,151,159,158;,
  4;151,152,160,159;,
  4;152,153,161,160;,
  4;153,154,162,161;,
  4;154,155,163,162;,
  4;155,156,164,163;,
  4;156,157,165,164;,
  4;157,150,158,165;,
  4;158,159,167,166;,
  4;159,160,168,167;,
  4;160,161,169,168;,
  4;161,162,170,169;,
  4;162,163,171,170;,
  4;163,164,172,171;,
  4;164,165,173,172;,
  4;165,158,166,173;,
  4;166,167,175,174;,
  4;167,168,176,175;,
  4;168,169,177,176;,
  4;169,170,178,177;,
  4;170,171,179,178;,
  4;171,172,180,179;,
  4;172,173,181,180;,
  4;173,166,174,181;,
  3;174,175,182;,
  3;175,176,182;,
  3;176,177,182;,
  3;177,178,182;,
  3;178,179,182;,
  3;179,180,182;,
  3;180,181,182;,
  3;181,174,182;,
  3;186,188,187;,
  3;186,189,188;,
  3;186,190,189;,
  3;186,191,190;,
  3;186,192,191;,
  3;186,193,192;,
  3;186,194,193;,
  3;186,187,194;,
  4;187,188,196,195;,
  4;188,189,197,196;,
  4;189,190,198,197;,
  4;190,191,199,198;,
  4;191,192,200,199;,
  4;192,193,201,200;,
  4;193,194,202,201;,
  4;194,187,195,202;,
  4;195,196,204,203;,
  4;196,197,205,204;,
  4;197,198,206,205;,
  4;198,199,207,206;,
  4;199,200,208,207;,
  4;200,201,209,208;,
  4;201,202,210,209;,
  4;202,195,203,210;,
  4;203,204,212,211;,
  4;204,205,213,212;,
  4;205,206,214,213;,
  4;206,207,215,214;,
  4;207,208,216,215;,
  4;208,209,217,216;,
  4;209,210,218,217;,
  4;210,203,211,218;,
  4;211,212,220,219;,
  4;212,213,221,220;,
  4;213,214,222,221;,
  4;214,215,223,222;,
  4;215,216,224,223;,
  4;216,217,225,224;,
  4;217,218,226,225;,
  4;218,211,219,226;,
  4;219,220,228,227;,
  4;220,221,229,228;,
  4;221,222,230,229;,
  4;222,223,231,230;,
  4;223,224,232,231;,
  4;224,225,233,232;,
  4;225,226,234,233;,
  4;226,219,227,234;,
  4;227,228,236,235;,
  4;228,229,237,236;,
  4;229,230,238,237;,
  4;230,231,239,238;,
  4;231,232,240,239;,
  4;232,233,241,240;,
  4;233,234,242,241;,
  4;234,227,235,242;,
  3;235,236,243;,
  3;236,237,243;,
  3;237,238,243;,
  3;238,239,243;,
  3;239,240,243;,
  3;240,241,243;,
  3;241,242,243;,
  3;242,235,243;,
  3;244,246,245;,
  3;244,247,246;,
  3;244,248,247;,
  3;244,249,248;,
  3;244,250,249;,
  3;244,251,250;,
  3;244,252,251;,
  3;244,245,252;,
  4;245,246,254,253;,
  4;246,247,255,254;,
  4;247,248,256,255;,
  4;248,249,257,256;,
  4;249,250,258,257;,
  4;250,251,259,258;,
  4;251,252,260,259;,
  4;252,245,253,260;,
  4;253,254,262,261;,
  4;254,255,263,262;,
  4;255,256,264,263;,
  4;256,257,265,264;,
  4;257,258,266,265;,
  4;258,259,267,266;,
  4;259,260,268,267;,
  4;260,253,261,268;,
  4;261,262,270,269;,
  4;262,263,271,270;,
  4;263,264,272,271;,
  4;264,265,273,272;,
  4;265,266,274,273;,
  4;266,267,275,274;,
  4;267,268,276,275;,
  4;268,261,269,276;,
  4;269,270,278,277;,
  4;270,271,279,278;,
  4;271,272,280,279;,
  4;272,273,281,280;,
  4;273,274,282,281;,
  4;274,275,283,282;,
  4;275,276,284,283;,
  4;276,269,277,284;,
  4;277,278,286,285;,
  4;278,279,287,286;,
  4;279,280,288,287;,
  4;280,281,289,288;,
  4;281,282,290,289;,
  4;282,283,291,290;,
  4;283,284,292,291;,
  4;284,277,285,292;,
  4;285,286,294,293;,
  4;286,287,295,294;,
  4;287,288,296,295;,
  4;288,289,297,296;,
  4;289,290,298,297;,
  4;290,291,299,298;,
  4;291,292,300,299;,
  4;292,285,293,300;,
  3;293,294,301;,
  3;294,295,301;,
  3;295,296,301;,
  3;296,297,301;,
  3;297,298,301;,
  3;298,299,301;,
  3;299,300,301;,
  3;300,293,301;;
 }
 MeshTextureCoords {
  435;
  0.062500;0.000000;,
  0.125000;0.125000;,
  0.000000;0.125000;,
  0.187500;0.000000;,
  0.250000;0.125000;,
  0.312500;0.000000;,
  0.375000;0.125000;,
  0.437500;0.000000;,
  0.500000;0.125000;,
  0.562500;0.000000;,
  0.625000;0.125000;,
  0.687500;0.000000;,
  0.750000;0.125000;,
  0.812500;0.000000;,
  0.875000;0.125000;,
  0.937500;0.000000;,
  1.000000;0.125000;,
  0.125000;0.250000;,
  0.000000;0.250000;,
  0.250000;0.250000;,
  0.375000;0.250000;,
  0.500000;0.250000;,
  0.625000;0.250000;,
  0.750000;0.250000;,
  0.875000;0.250000;,
  1.000000;0.250000;,
  0.125000;0.375000;,
  0.000000;0.375000;,
  0.250000;0.375000;,
  0.375000;0.375000;,
  0.500000;0.375000;,
  0.625000;0.375000;,
  0.750000;0.375000;,
  0.875000;0.375000;,
  1.000000;0.375000;,
  0.125000;0.500000;,
  0.000000;0.500000;,
  0.250000;0.500000;,
  0.375000;0.500000;,
  0.500000;0.500000;,
  0.625000;0.500000;,
  0.750000;0.500000;,
  0.875000;0.500000;,
  1.000000;0.500000;,
  0.125000;0.625000;,
  0.000000;0.625000;,
  0.250000;0.625000;,
  0.375000;0.625000;,
  0.500000;0.625000;,
  0.625000;0.625000;,
  0.750000;0.625000;,
  0.875000;0.625000;,
  1.000000;0.625000;,
  0.125000;0.750000;,
  0.000000;0.750000;,
  0.250000;0.750000;,
  0.375000;0.750000;,
  0.500000;0.750000;,
  0.625000;0.750000;,
  0.750000;0.750000;,
  0.875000;0.750000;,
  1.000000;0.750000;,
  0.125000;0.875000;,
  0.000000;0.875000;,
  0.250000;0.875000;,
  0.375000;0.875000;,
  0.500000;0.875000;,
  0.625000;0.875000;,
  0.750000;0.875000;,
  0.875000;0.875000;,
  1.000000;0.875000;,
  0.062500;1.000000;,
  0.187500;1.000000;,
  0.312500;1.000000;,
  0.437500;1.000000;,
  0.562500;1.000000;,
  0.687500;1.000000;,
  0.812500;1.000000;,
  0.937500;1.000000;,
  0.062500;0.000000;,
  0.125000;0.125000;,
  0.000000;0.125000;,
  0.187500;0.000000;,
  0.250000;0.125000;,
  0.312500;0.000000;,
  0.375000;0.125000;,
  0.437500;0.000000;,
  0.500000;0.125000;,
  0.562500;0.000000;,
  0.625000;0.125000;,
  0.687500;0.000000;,
  0.750000;0.125000;,
  0.812500;0.000000;,
  0.875000;0.125000;,
  0.937500;0.000000;,
  1.000000;0.125000;,
  0.125000;0.250000;,
  0.000000;0.250000;,
  0.250000;0.250000;,
  0.375000;0.250000;,
  0.500000;0.250000;,
  0.625000;0.250000;,
  0.750000;0.250000;,
  0.875000;0.250000;,
  1.000000;0.250000;,
  0.125000;0.375000;,
  0.000000;0.375000;,
  0.250000;0.375000;,
  0.375000;0.375000;,
  0.500000;0.375000;,
  0.625000;0.375000;,
  0.750000;0.375000;,
  0.875000;0.375000;,
  1.000000;0.375000;,
  0.125000;0.500000;,
  0.000000;0.500000;,
  0.250000;0.500000;,
  0.375000;0.500000;,
  0.500000;0.500000;,
  0.625000;0.500000;,
  0.750000;0.500000;,
  0.875000;0.500000;,
  1.000000;0.500000;,
  0.125000;0.625000;,
  0.000000;0.625000;,
  0.250000;0.625000;,
  0.375000;0.625000;,
  0.500000;0.625000;,
  0.625000;0.625000;,
  0.750000;0.625000;,
  0.875000;0.625000;,
  1.000000;0.625000;,
  0.125000;0.750000;,
  0.000000;0.750000;,
  0.250000;0.750000;,
  0.375000;0.750000;,
  0.500000;0.750000;,
  0.625000;0.750000;,
  0.750000;0.750000;,
  0.875000;0.750000;,
  1.000000;0.750000;,
  0.125000;0.875000;,
  0.000000;0.875000;,
  0.250000;0.875000;,
  0.375000;0.875000;,
  0.500000;0.875000;,
  0.625000;0.875000;,
  0.750000;0.875000;,
  0.875000;0.875000;,
  1.000000;0.875000;,
  0.062500;1.000000;,
  0.187500;1.000000;,
  0.312500;1.000000;,
  0.437500;1.000000;,
  0.562500;1.000000;,
  0.687500;1.000000;,
  0.812500;1.000000;,
  0.937500;1.000000;,
  0.000000;0.000000;,
  1.000000;0.000000;,
  1.000000;1.000000;,
  0.000000;1.000000;,
  0.000000;0.000000;,
  1.000000;0.000000;,
  1.000000;1.000000;,
  0.000000;1.000000;,
  0.000000;0.000000;,
  1.000000;0.000000;,
  1.000000;1.000000;,
  0.000000;1.000000;,
  0.000000;0.000000;,
  1.000000;0.000000;,
  1.000000;1.000000;,
  0.000000;1.000000;,
  1.000000;1.000000;,
  0.000000;1.000000;,
  0.000000;0.000000;,
  1.000000;0.000000;,
  0.000000;0.000000;,
  1.000000;0.000000;,
  1.000000;1.000000;,
  0.000000;1.000000;,
  0.000000;0.000000;,
  1.000000;0.000000;,
  1.000000;1.000000;,
  0.000000;1.000000;,
  0.000000;0.000000;,
  1.000000;0.000000;,
  1.000000;1.000000;,
  0.000000;1.000000;,
  0.000000;0.000000;,
  1.000000;0.000000;,
  1.000000;1.000000;,
  0.000000;1.000000;,
  1.000000;1.000000;,
  0.000000;1.000000;,
  0.000000;0.000000;,
  1.000000;0.000000;,
  0.062500;0.000000;,
  0.125000;0.125000;,
  0.000000;0.125000;,
  0.187500;0.000000;,
  0.250000;0.125000;,
  0.312500;0.000000;,
  0.375000;0.125000;,
  0.437500;0.000000;,
  0.500000;0.125000;,
  0.562500;0.000000;,
  0.625000;0.125000;,
  0.687500;0.000000;,
  0.750000;0.125000;,
  0.812500;0.000000;,
  0.875000;0.125000;,
  0.937500;0.000000;,
  1.000000;0.125000;,
  0.125000;0.250000;,
  0.000000;0.250000;,
  0.250000;0.250000;,
  0.375000;0.250000;,
  0.500000;0.250000;,
  0.625000;0.250000;,
  0.750000;0.250000;,
  0.875000;0.250000;,
  1.000000;0.250000;,
  0.125000;0.375000;,
  0.000000;0.375000;,
  0.250000;0.375000;,
  0.375000;0.375000;,
  0.500000;0.375000;,
  0.625000;0.375000;,
  0.750000;0.375000;,
  0.875000;0.375000;,
  1.000000;0.375000;,
  0.125000;0.500000;,
  0.000000;0.500000;,
  0.250000;0.500000;,
  0.375000;0.500000;,
  0.500000;0.500000;,
  0.625000;0.500000;,
  0.750000;0.500000;,
  0.875000;0.500000;,
  1.000000;0.500000;,
  0.125000;0.625000;,
  0.000000;0.625000;,
  0.250000;0.625000;,
  0.375000;0.625000;,
  0.500000;0.625000;,
  0.625000;0.625000;,
  0.750000;0.625000;,
  0.875000;0.625000;,
  1.000000;0.625000;,
  0.125000;0.750000;,
  0.000000;0.750000;,
  0.250000;0.750000;,
  0.375000;0.750000;,
  0.500000;0.750000;,
  0.625000;0.750000;,
  0.750000;0.750000;,
  0.875000;0.750000;,
  1.000000;0.750000;,
  0.125000;0.875000;,
  0.000000;0.875000;,
  0.250000;0.875000;,
  0.375000;0.875000;,
  0.500000;0.875000;,
  0.625000;0.875000;,
  0.750000;0.875000;,
  0.875000;0.875000;,
  1.000000;0.875000;,
  0.062500;1.000000;,
  0.187500;1.000000;,
  0.312500;1.000000;,
  0.437500;1.000000;,
  0.562500;1.000000;,
  0.687500;1.000000;,
  0.812500;1.000000;,
  0.937500;1.000000;,
  0.062500;0.000000;,
  0.125000;0.125000;,
  0.000000;0.125000;,
  0.187500;0.000000;,
  0.250000;0.125000;,
  0.312500;0.000000;,
  0.375000;0.125000;,
  0.437500;0.000000;,
  0.500000;0.125000;,
  0.562500;0.000000;,
  0.625000;0.125000;,
  0.687500;0.000000;,
  0.750000;0.125000;,
  0.812500;0.000000;,
  0.875000;0.125000;,
  0.937500;0.000000;,
  1.000000;0.125000;,
  0.125000;0.250000;,
  0.000000;0.250000;,
  0.250000;0.250000;,
  0.375000;0.250000;,
  0.500000;0.250000;,
  0.625000;0.250000;,
  0.750000;0.250000;,
  0.875000;0.250000;,
  1.000000;0.250000;,
  0.125000;0.375000;,
  0.000000;0.375000;,
  0.250000;0.375000;,
  0.375000;0.375000;,
  0.500000;0.375000;,
  0.625000;0.375000;,
  0.750000;0.375000;,
  0.875000;0.375000;,
  1.000000;0.375000;,
  0.125000;0.500000;,
  0.000000;0.500000;,
  0.250000;0.500000;,
  0.375000;0.500000;,
  0.500000;0.500000;,
  0.625000;0.500000;,
  0.750000;0.500000;,
  0.875000;0.500000;,
  1.000000;0.500000;,
  0.125000;0.625000;,
  0.000000;0.625000;,
  0.250000;0.625000;,
  0.375000;0.625000;,
  0.500000;0.625000;,
  0.625000;0.625000;,
  0.750000;0.625000;,
  0.875000;0.625000;,
  1.000000;0.625000;,
  0.125000;0.750000;,
  0.000000;0.750000;,
  0.250000;0.750000;,
  0.375000;0.750000;,
  0.500000;0.750000;,
  0.625000;0.750000;,
  0.750000;0.750000;,
  0.875000;0.750000;,
  1.000000;0.750000;,
  0.125000;0.875000;,
  0.000000;0.875000;,
  0.250000;0.875000;,
  0.375000;0.875000;,
  0.500000;0.875000;,
  0.625000;0.875000;,
  0.750000;0.875000;,
  0.875000;0.875000;,
  1.000000;0.875000;,
  0.062500;1.000000;,
  0.187500;1.000000;,
  0.312500;1.000000;,
  0.437500;1.000000;,
  0.562500;1.000000;,
  0.687500;1.000000;,
  0.812500;1.000000;,
  0.937500;1.000000;,
  0.062500;0.000000;,
  0.125000;0.125000;,
  0.000000;0.125000;,
  0.187500;0.000000;,
  0.250000;0.125000;,
  0.312500;0.000000;,
  0.375000;0.125000;,
  0.437500;0.000000;,
  0.500000;0.125000;,
  0.562500;0.000000;,
  0.625000;0.125000;,
  0.687500;0.000000;,
  0.750000;0.125000;,
  0.812500;0.000000;,
  0.875000;0.125000;,
  0.937500;0.000000;,
  1.000000;0.125000;,
  0.125000;0.250000;,
  0.000000;0.250000;,
  0.250000;0.250000;,
  0.375000;0.250000;,
  0.500000;0.250000;,
  0.625000;0.250000;,
  0.750000;0.250000;,
  0.875000;0.250000;,
  1.000000;0.250000;,
  0.125000;0.375000;,
  0.000000;0.375000;,
  0.250000;0.375000;,
  0.375000;0.375000;,
  0.500000;0.375000;,
  0.625000;0.375000;,
  0.750000;0.375000;,
  0.875000;0.375000;,
  1.000000;0.375000;,
  0.125000;0.500000;,
  0.000000;0.500000;,
  0.250000;0.500000;,
  0.375000;0.500000;,
  0.500000;0.500000;,
  0.625000;0.500000;,
  0.750000;0.500000;,
  0.875000;0.500000;,
  1.000000;0.500000;,
  0.125000;0.625000;,
  0.000000;0.625000;,
  0.250000;0.625000;,
  0.375000;0.625000;,
  0.500000;0.625000;,
  0.625000;0.625000;,
  0.750000;0.625000;,
  0.875000;0.625000;,
  1.000000;0.625000;,
  0.125000;0.750000;,
  0.000000;0.750000;,
  0.250000;0.750000;,
  0.375000;0.750000;,
  0.500000;0.750000;,
  0.625000;0.750000;,
  0.750000;0.750000;,
  0.875000;0.750000;,
  1.000000;0.750000;,
  0.125000;0.875000;,
  0.000000;0.875000;,
  0.250000;0.875000;,
  0.375000;0.875000;,
  0.500000;0.875000;,
  0.625000;0.875000;,
  0.750000;0.875000;,
  0.875000;0.875000;,
  1.000000;0.875000;,
  0.062500;1.000000;,
  0.187500;1.000000;,
  0.312500;1.000000;,
  0.437500;1.000000;,
  0.562500;1.000000;,
  0.687500;1.000000;,
  0.812500;1.000000;,
  0.937500;1.000000;;
 }
}
