xof 0302txt 0064
template Header {
 <3D82AB43-62DA-11cf-AB39-0020AF71E433>
 WORD major;
 WORD minor;
 DWORD flags;
}

template Vector {
 <3D82AB5E-62DA-11cf-AB39-0020AF71E433>
 FLOAT x;
 FLOAT y;
 FLOAT z;
}

template Coords2d {
 <F6F23F44-7686-11cf-8F52-0040333594A3>
 FLOAT u;
 FLOAT v;
}

template Matrix4x4 {
 <F6F23F45-7686-11cf-8F52-0040333594A3>
 array FLOAT matrix[16];
}

template ColorRGBA {
 <35FF44E0-6C7C-11cf-8F52-0040333594A3>
 FLOAT red;
 FLOAT green;
 FLOAT blue;
 FLOAT alpha;
}

template ColorRGB {
 <D3E16E81-7835-11cf-8F52-0040333594A3>
 FLOAT red;
 FLOAT green;
 FLOAT blue;
}

template IndexedColor {
 <1630B820-7842-11cf-8F52-0040333594A3>
 DWORD index;
 ColorRGBA indexColor;
}

template Boolean {
 <4885AE61-78E8-11cf-8F52-0040333594A3>
 WORD truefalse;
}

template Boolean2d {
 <4885AE63-78E8-11cf-8F52-0040333594A3>
 Boolean u;
 Boolean v;
}

template MaterialWrap {
 <4885AE60-78E8-11cf-8F52-0040333594A3>
 Boolean u;
 Boolean v;
}

template TextureFilename {
 <A42790E1-7810-11cf-8F52-0040333594A3>
 STRING filename;
}

template Material {
 <3D82AB4D-62DA-11cf-AB39-0020AF71E433>
 ColorRGBA faceColor;
 FLOAT power;
 ColorRGB specularColor;
 ColorRGB emissiveColor;
 [...]
}

template MeshFace {
 <3D82AB5F-62DA-11cf-AB39-0020AF71E433>
 DWORD nFaceVertexIndices;
 array DWORD faceVertexIndices[nFaceVertexIndices];
}

template MeshFaceWraps {
 <4885AE62-78E8-11cf-8F52-0040333594A3>
 DWORD nFaceWrapValues;
 Boolean2d faceWrapValues;
}

template MeshTextureCoords {
 <F6F23F40-7686-11cf-8F52-0040333594A3>
 DWORD nTextureCoords;
 array Coords2d textureCoords[nTextureCoords];
}

template MeshMaterialList {
 <F6F23F42-7686-11cf-8F52-0040333594A3>
 DWORD nMaterials;
 DWORD nFaceIndexes;
 array DWORD faceIndexes[nFaceIndexes];
 [Material]
}

template MeshNormals {
 <F6F23F43-7686-11cf-8F52-0040333594A3>
 DWORD nNormals;
 array Vector normals[nNormals];
 DWORD nFaceNormals;
 array MeshFace faceNormals[nFaceNormals];
}

template MeshVertexColors {
 <1630B821-7842-11cf-8F52-0040333594A3>
 DWORD nVertexColors;
 array IndexedColor vertexColors[nVertexColors];
}

template Mesh {
 <3D82AB44-62DA-11cf-AB39-0020AF71E433>
 DWORD nVertices;
 array Vector vertices[nVertices];
 DWORD nFaces;
 array MeshFace faces[nFaces];
 [...]
}

Header{
1;
0;
1;
}

Mesh {
 447;
 -0.73300;25.62910;0.00000;,
 2.11136;24.74503;-2.76051;,
 -0.73300;24.74503;-3.90395;,
 -0.73300;25.62910;0.00000;,
 3.28954;24.74503;0.00000;,
 -0.73300;25.62910;0.00000;,
 2.11136;24.74503;2.76051;,
 -0.73300;25.62910;0.00000;,
 -0.73300;24.74503;3.90395;,
 -0.73300;25.62910;0.00000;,
 -3.57736;24.74503;2.76051;,
 -0.73300;25.62910;0.00000;,
 -4.75554;24.74503;0.00000;,
 -0.73300;25.62910;0.00000;,
 -3.57736;24.74503;-2.76051;,
 -0.73300;25.62910;0.00000;,
 -0.73300;24.74503;-3.90395;,
 4.52270;22.22743;-5.10075;,
 -0.73300;22.22743;-7.21355;,
 6.69968;22.22743;0.00000;,
 4.52270;22.22743;5.10075;,
 -0.73300;22.22743;7.21355;,
 -5.98870;22.22743;5.10075;,
 -8.16568;22.22743;0.00000;,
 -5.98870;22.22743;-5.10075;,
 -0.73300;22.22743;-7.21355;,
 6.13390;18.45959;-6.66445;,
 -0.73300;18.45959;-9.42496;,
 8.97827;18.45959;0.00000;,
 6.13390;18.45959;6.66445;,
 -0.73300;18.45959;9.42496;,
 -7.59990;18.45959;6.66445;,
 -10.44427;18.45959;0.00000;,
 -7.59990;18.45959;-6.66445;,
 -0.73300;18.45959;-9.42496;,
 6.69968;14.01510;-7.21355;,
 -0.73300;14.01510;-10.20150;,
 9.77840;14.01510;0.00000;,
 6.89321;14.01510;7.18491;,
 -0.53947;14.01510;10.17286;,
 -7.97215;14.01510;7.18491;,
 -11.24440;14.01510;0.00000;,
 -8.16568;14.01510;-7.21355;,
 -0.73300;14.01510;-10.20150;,
 6.13390;9.57061;-6.66445;,
 -0.73300;9.57061;-9.42496;,
 8.97827;9.57061;0.00000;,
 6.32743;9.57061;6.63581;,
 -0.53947;9.57061;9.39632;,
 -7.40638;9.57061;6.63581;,
 -10.44427;9.57061;0.00000;,
 -7.59990;9.57061;-6.66445;,
 -0.73300;9.57061;-9.42496;,
 4.52270;5.80276;-5.10075;,
 -0.73300;5.80276;-7.21355;,
 6.69968;5.80276;0.00000;,
 4.52270;5.80276;5.10075;,
 -0.53947;5.80276;7.18491;,
 -5.79517;5.80276;5.07211;,
 -8.16568;5.80276;0.00000;,
 -5.98870;5.80276;-5.10075;,
 -0.73300;5.80276;-7.21355;,
 2.11136;3.28516;-2.76051;,
 -0.73300;3.28516;-3.90395;,
 3.28954;3.28516;0.00000;,
 2.11136;3.28516;2.76051;,
 -0.73300;3.28516;3.90395;,
 -3.57736;3.28516;2.76051;,
 -4.75554;3.28516;0.00000;,
 -3.57736;3.28516;-2.76051;,
 -0.73300;3.28516;-3.90395;,
 -0.73300;2.40110;0.00000;,
 -0.73300;2.40110;0.00000;,
 -0.73300;2.40110;0.00000;,
 -0.73300;2.40110;0.00000;,
 -0.73300;2.40110;0.00000;,
 -0.73300;2.40110;0.00000;,
 -0.73300;2.40110;0.00000;,
 -0.73300;2.40110;0.00000;,
 3.75818;23.47228;-2.10954;,
 5.57454;27.28038;0.00000;,
 5.10454;22.83010;-1.49167;,
 5.57454;27.28038;0.00000;,
 5.66222;22.56410;0.00000;,
 5.57454;27.28038;0.00000;,
 5.10454;22.83010;1.49167;,
 5.57454;27.28038;0.00000;,
 3.75818;23.47228;2.10954;,
 5.57454;27.28038;0.00000;,
 2.41182;24.11446;1.49167;,
 5.57454;27.28038;0.00000;,
 1.85414;24.38046;0.00000;,
 5.57454;27.28038;0.00000;,
 2.41182;24.11446;-1.49167;,
 5.57454;27.28038;0.00000;,
 3.75818;23.47228;-2.10954;,
 3.75818;23.47228;0.00000;,
 3.75818;23.47228;-2.10954;,
 5.10454;22.83010;-1.49167;,
 5.66222;22.56410;0.00000;,
 5.10454;22.83010;1.49167;,
 3.75818;23.47228;2.10954;,
 2.41182;24.11446;1.49167;,
 1.85414;24.38046;0.00000;,
 2.41182;24.11446;-1.49167;,
 -6.32461;23.30031;-2.10954;,
 -8.17414;27.09240;0.00000;,
 -4.98390;23.95420;-1.49167;,
 -8.17414;27.09240;0.00000;,
 -4.42857;24.22507;0.00000;,
 -8.17414;27.09240;0.00000;,
 -4.98390;23.95420;1.49167;,
 -8.17414;27.09240;0.00000;,
 -6.32461;22.86384;2.10954;,
 -8.17414;27.09240;0.00000;,
 -7.66531;22.13027;1.49167;,
 -8.17414;27.09240;0.00000;,
 -8.22065;21.93475;0.00000;,
 -8.17414;27.09240;0.00000;,
 -7.66531;22.64640;-1.49167;,
 -8.17414;27.09240;0.00000;,
 -6.32461;23.30031;-2.10954;,
 -6.32461;23.30031;0.00000;,
 -6.32461;23.30031;-2.10954;,
 -4.98390;23.95420;-1.49167;,
 -4.42857;24.22507;0.00000;,
 -4.98390;23.95420;1.49167;,
 -6.32461;22.86384;2.10954;,
 -7.66531;22.13027;1.49167;,
 -8.22065;21.93475;0.00000;,
 -7.66531;22.64640;-1.49167;,
 -0.73300;20.69431;7.60127;,
 0.42603;20.36827;6.44225;,
 -0.73300;20.36827;5.96216;,
 -0.73300;20.69431;7.60127;,
 0.90611;20.36827;7.60127;,
 -0.73300;20.69431;7.60127;,
 0.42603;20.36827;8.76030;,
 -0.73300;20.69431;7.60127;,
 -0.73300;20.36827;9.24039;,
 -0.73300;20.69431;7.60127;,
 -1.89203;20.36827;8.76030;,
 -0.73300;20.69431;7.60127;,
 -2.37211;20.36827;7.60127;,
 -0.73300;20.69431;7.60127;,
 -1.89203;20.36827;6.44225;,
 -0.73300;20.69431;7.60127;,
 -0.73300;20.36827;5.96216;,
 1.40861;19.43979;5.45967;,
 -0.73300;19.43979;4.57259;,
 2.29569;19.43979;7.60127;,
 1.40861;19.43979;9.74288;,
 -0.73300;19.43979;10.62997;,
 -2.87461;19.43979;9.74288;,
 -3.76169;19.43979;7.60127;,
 -2.87461;19.43979;5.45967;,
 -0.73300;19.43979;4.57259;,
 2.06514;18.05021;4.80314;,
 -0.73300;18.05021;3.64411;,
 3.22417;18.05021;7.60127;,
 2.06514;18.05021;10.39942;,
 -0.73300;18.05021;11.55845;,
 -3.53114;18.05021;10.39942;,
 -4.69017;18.05021;7.60127;,
 -3.53114;18.05021;4.80314;,
 -0.73300;18.05021;3.64411;,
 2.29569;16.41110;4.57259;,
 -0.73300;16.41110;3.31807;,
 3.55021;16.41110;7.60127;,
 2.29569;16.41110;10.62997;,
 -0.73300;16.41110;11.88449;,
 -3.76169;16.41110;10.62997;,
 -5.01621;16.41110;7.60127;,
 -3.76169;16.41110;4.57259;,
 -0.73300;16.41110;3.31807;,
 2.06514;14.77198;4.80314;,
 -0.73300;14.77198;3.64411;,
 3.22417;14.77198;7.60127;,
 2.06514;14.77198;10.39942;,
 -0.73300;14.77198;11.55845;,
 -3.53114;14.77198;10.39942;,
 -4.69017;14.77198;7.60127;,
 -3.53114;14.77198;4.80314;,
 -0.73300;14.77198;3.64411;,
 1.40861;13.38241;5.45967;,
 -0.73300;13.38241;4.57259;,
 2.29569;13.38241;7.60127;,
 1.40861;13.38241;9.74288;,
 -0.68460;14.09288;10.78109;,
 -2.87461;13.38241;9.74288;,
 -3.76169;13.38241;7.60127;,
 -2.87461;13.38241;5.45967;,
 -0.73300;13.38241;4.57259;,
 0.42603;12.45393;6.44225;,
 -0.73300;13.26467;5.96216;,
 0.90611;12.45393;7.60127;,
 0.42603;12.45393;8.76030;,
 -0.68460;13.16440;9.39151;,
 -1.89203;12.45393;8.76030;,
 -2.37211;12.45393;7.60127;,
 -1.89203;12.45393;6.44225;,
 -0.73300;13.26467;5.96216;,
 -0.68460;12.83836;7.75240;,
 -0.68460;12.83836;7.75240;,
 -0.68460;12.83836;7.75240;,
 -0.68460;12.83836;7.75240;,
 -0.68460;12.83836;7.75240;,
 -0.68460;12.83836;7.75240;,
 -0.68460;12.83836;7.75240;,
 -0.68460;12.83836;7.75240;,
 -0.73300;19.77655;10.77975;,
 -0.44619;19.69587;10.49294;,
 -0.73300;19.69587;10.37414;,
 -0.73300;19.77655;10.77975;,
 -0.32739;19.69587;10.77975;,
 -0.73300;19.77655;10.77975;,
 -0.44619;19.69587;11.06656;,
 -0.73300;19.77655;10.77975;,
 -0.73300;19.69587;11.18536;,
 -0.73300;19.77655;10.77975;,
 -1.01981;19.69587;11.06656;,
 -0.73300;19.77655;10.77975;,
 -1.13861;19.69587;10.77975;,
 -0.73300;19.77655;10.77975;,
 -1.01981;19.69587;10.49294;,
 -0.73300;19.77655;10.77975;,
 -0.73300;19.69587;10.37414;,
 -0.20304;19.46611;10.24979;,
 -0.73300;19.46611;10.03028;,
 0.01647;19.46611;10.77975;,
 -0.20304;19.46611;11.30971;,
 -0.73300;19.46611;11.52923;,
 -1.26296;19.46611;11.30971;,
 -1.48248;19.46611;10.77975;,
 -1.26296;19.46611;10.24979;,
 -0.73300;19.46611;10.03028;,
 -0.04058;19.12225;10.08733;,
 -0.73300;19.12225;9.80051;,
 0.24624;19.12225;10.77975;,
 -0.04058;19.12225;11.47218;,
 -0.73300;19.12225;11.75898;,
 -1.42543;19.12225;11.47218;,
 -1.71224;19.12225;10.77975;,
 -1.42543;19.12225;10.08733;,
 -0.73300;19.12225;9.80051;,
 0.01647;18.71664;10.03028;,
 -0.73300;18.71664;9.71984;,
 0.32692;18.71664;10.77975;,
 0.01647;18.71664;11.52923;,
 -0.73300;18.71664;11.83966;,
 -1.48248;18.71664;11.52923;,
 -1.79292;18.71664;10.77975;,
 -1.48248;18.71664;10.03028;,
 -0.73300;18.71664;9.71984;,
 -0.04058;18.31102;10.08733;,
 -0.73300;18.31102;9.80051;,
 0.24624;18.31102;10.77975;,
 -0.04058;18.31102;11.47218;,
 -0.73300;18.31102;11.75898;,
 -1.42543;18.31102;11.47218;,
 -1.71224;18.31102;10.77975;,
 -1.42543;18.31102;10.08733;,
 -0.73300;18.31102;9.80051;,
 -0.20304;17.96716;10.24979;,
 -0.73300;17.96716;10.03028;,
 0.01647;17.96716;10.77975;,
 -0.20304;17.96716;11.30971;,
 -0.73300;17.96716;11.52923;,
 -1.26296;17.96716;11.30971;,
 -1.48248;17.96716;10.77975;,
 -1.26296;17.96716;10.24979;,
 -0.73300;17.96716;10.03028;,
 -0.44619;17.73740;10.49294;,
 -0.73300;17.73740;10.37414;,
 -0.32739;17.73740;10.77975;,
 -0.44619;17.73740;11.06656;,
 -0.73300;17.73740;11.18536;,
 -1.01981;17.73740;11.06656;,
 -1.13861;17.73740;10.77975;,
 -1.01981;17.73740;10.49294;,
 -0.73300;17.73740;10.37414;,
 -0.73300;17.65672;10.77975;,
 -0.73300;17.65672;10.77975;,
 -0.73300;17.65672;10.77975;,
 -0.73300;17.65672;10.77975;,
 -0.73300;17.65672;10.77975;,
 -0.73300;17.65672;10.77975;,
 -0.73300;17.65672;10.77975;,
 -0.73300;17.65672;10.77975;,
 2.42000;22.04298;6.31622;,
 2.70681;21.96229;6.02941;,
 2.42000;21.96229;5.91061;,
 2.42000;22.04298;6.31622;,
 2.82561;21.96229;6.31622;,
 2.42000;22.04298;6.31622;,
 2.70681;21.96229;6.60303;,
 2.42000;22.04298;6.31622;,
 2.42000;21.96229;6.72183;,
 2.42000;22.04298;6.31622;,
 2.13319;21.96229;6.60303;,
 2.42000;22.04298;6.31622;,
 2.01439;21.96229;6.31622;,
 2.42000;22.04298;6.31622;,
 2.13319;21.96229;6.02941;,
 2.42000;22.04298;6.31622;,
 2.42000;21.96229;5.91061;,
 2.94996;21.73253;5.78626;,
 2.42000;21.73253;5.56675;,
 3.16948;21.73253;6.31622;,
 2.94996;21.73253;6.84618;,
 2.42000;21.73253;7.06569;,
 1.89004;21.73253;6.84618;,
 1.67053;21.73253;6.31622;,
 1.89004;21.73253;5.78626;,
 2.42000;21.73253;5.56675;,
 3.11243;21.38868;5.62380;,
 2.42000;21.38868;5.33699;,
 3.39924;21.38868;6.31622;,
 3.11243;21.38868;7.00864;,
 2.42000;21.38868;7.29545;,
 1.72758;21.38868;7.00864;,
 1.44077;21.38868;6.31622;,
 1.72758;21.38868;5.62380;,
 2.42000;21.38868;5.33699;,
 3.16948;20.98306;5.56675;,
 2.42000;20.98306;5.25631;,
 3.47992;20.98306;6.31622;,
 3.16948;20.98306;7.06569;,
 2.42000;20.98306;7.37613;,
 1.67053;20.98306;7.06569;,
 1.36008;20.98306;6.31622;,
 1.67053;20.98306;5.56675;,
 2.42000;20.98306;5.25631;,
 3.11243;20.57744;5.62380;,
 2.42000;20.57744;5.33699;,
 3.39924;20.57744;6.31622;,
 3.11243;20.57744;7.00864;,
 2.42000;20.57744;7.29545;,
 1.72758;20.57744;7.00864;,
 1.44077;20.57744;6.31622;,
 1.72758;20.57744;5.62380;,
 2.42000;20.57744;5.33699;,
 2.94996;20.23359;5.78626;,
 2.42000;20.23359;5.56675;,
 3.16948;20.23359;6.31622;,
 2.94996;20.23359;6.84618;,
 2.42000;20.23359;7.06569;,
 1.89004;20.23359;6.84618;,
 1.67053;20.23359;6.31622;,
 1.89004;20.23359;5.78626;,
 2.42000;20.23359;5.56675;,
 2.70681;20.00383;6.02941;,
 2.42000;20.00383;5.91061;,
 2.82561;20.00383;6.31622;,
 2.70681;20.00383;6.60303;,
 2.42000;20.00383;6.72183;,
 2.13319;20.00383;6.60303;,
 2.01439;20.00383;6.31622;,
 2.13319;20.00383;6.02941;,
 2.42000;20.00383;5.91061;,
 2.42000;19.92314;6.31622;,
 2.42000;19.92314;6.31622;,
 2.42000;19.92314;6.31622;,
 2.42000;19.92314;6.31622;,
 2.42000;19.92314;6.31622;,
 2.42000;19.92314;6.31622;,
 2.42000;19.92314;6.31622;,
 2.42000;19.92314;6.31622;,
 -4.18905;22.04298;6.31622;,
 -3.90224;21.96229;6.02941;,
 -4.18905;21.96229;5.91061;,
 -4.18905;22.04298;6.31622;,
 -3.78344;21.96229;6.31622;,
 -4.18905;22.04298;6.31622;,
 -3.90224;21.96229;6.60303;,
 -4.18905;22.04298;6.31622;,
 -4.18905;21.96229;6.72183;,
 -4.18905;22.04298;6.31622;,
 -4.47587;21.96229;6.60303;,
 -4.18905;22.04298;6.31622;,
 -4.59467;21.96229;6.31622;,
 -4.18905;22.04298;6.31622;,
 -4.47587;21.96229;6.02941;,
 -4.18905;22.04298;6.31622;,
 -4.18905;21.96229;5.91061;,
 -3.65910;21.73253;5.78626;,
 -4.18905;21.73253;5.56675;,
 -3.43958;21.73253;6.31622;,
 -3.65910;21.73253;6.84618;,
 -4.18905;21.73253;7.06569;,
 -4.71901;21.73253;6.84618;,
 -4.93853;21.73253;6.31622;,
 -4.71901;21.73253;5.78626;,
 -4.18905;21.73253;5.56675;,
 -3.49663;21.38868;5.62380;,
 -4.18905;21.38868;5.33699;,
 -3.20982;21.38868;6.31622;,
 -3.49663;21.38868;7.00864;,
 -4.18905;21.38868;7.29545;,
 -4.88148;21.38868;7.00864;,
 -5.16829;21.38868;6.31622;,
 -4.88148;21.38868;5.62380;,
 -4.18905;21.38868;5.33699;,
 -3.43958;20.98306;5.56675;,
 -4.18905;20.98306;5.25631;,
 -3.12914;20.98306;6.31622;,
 -3.43958;20.98306;7.06569;,
 -4.18905;20.98306;7.37613;,
 -4.93853;20.98306;7.06569;,
 -5.24897;20.98306;6.31622;,
 -4.93853;20.98306;5.56675;,
 -4.18905;20.98306;5.25631;,
 -3.49663;20.57744;5.62380;,
 -4.18905;20.57744;5.33699;,
 -3.20982;20.57744;6.31622;,
 -3.49663;20.57744;7.00864;,
 -4.18905;20.57744;7.29545;,
 -4.88148;20.57744;7.00864;,
 -5.16829;20.57744;6.31622;,
 -4.88148;20.57744;5.62380;,
 -4.18905;20.57744;5.33699;,
 -3.65910;20.23359;5.78626;,
 -4.18905;20.23359;5.56675;,
 -3.43958;20.23359;6.31622;,
 -3.65910;20.23359;6.84618;,
 -4.18905;20.23359;7.06569;,
 -4.71901;20.23359;6.84618;,
 -4.93853;20.23359;6.31622;,
 -4.71901;20.23359;5.78626;,
 -4.18905;20.23359;5.56675;,
 -3.90224;20.00383;6.02941;,
 -4.18905;20.00383;5.91061;,
 -3.78344;20.00383;6.31622;,
 -3.90224;20.00383;6.60303;,
 -4.18905;20.00383;6.72183;,
 -4.47587;20.00383;6.60303;,
 -4.59467;20.00383;6.31622;,
 -4.47587;20.00383;6.02941;,
 -4.18905;20.00383;5.91061;,
 -4.18905;19.92314;6.31622;,
 -4.18905;19.92314;6.31622;,
 -4.18905;19.92314;6.31622;,
 -4.18905;19.92314;6.31622;,
 -4.18905;19.92314;6.31622;,
 -4.18905;19.92314;6.31622;,
 -4.18905;19.92314;6.31622;,
 -4.18905;19.92314;6.31622;;
 
 352;
 3;0,1,2;,
 3;3,4,1;,
 3;5,6,4;,
 3;7,8,6;,
 3;9,10,8;,
 3;11,12,10;,
 3;13,14,12;,
 3;15,16,14;,
 4;2,1,17,18;,
 4;1,4,19,17;,
 4;4,6,20,19;,
 4;6,8,21,20;,
 4;8,10,22,21;,
 4;10,12,23,22;,
 4;12,14,24,23;,
 4;14,16,25,24;,
 4;18,17,26,27;,
 4;17,19,28,26;,
 4;19,20,29,28;,
 4;20,21,30,29;,
 4;21,22,31,30;,
 4;22,23,32,31;,
 4;23,24,33,32;,
 4;24,25,34,33;,
 4;27,26,35,36;,
 4;26,28,37,35;,
 4;28,29,38,37;,
 4;29,30,39,38;,
 4;30,31,40,39;,
 4;31,32,41,40;,
 4;32,33,42,41;,
 4;33,34,43,42;,
 4;36,35,44,45;,
 4;35,37,46,44;,
 4;37,38,47,46;,
 4;38,39,48,47;,
 4;39,40,49,48;,
 4;40,41,50,49;,
 4;41,42,51,50;,
 4;42,43,52,51;,
 4;45,44,53,54;,
 4;44,46,55,53;,
 4;46,47,56,55;,
 4;47,48,57,56;,
 4;48,49,58,57;,
 4;49,50,59,58;,
 4;50,51,60,59;,
 4;51,52,61,60;,
 4;54,53,62,63;,
 4;53,55,64,62;,
 4;55,56,65,64;,
 4;56,57,66,65;,
 4;57,58,67,66;,
 4;58,59,68,67;,
 4;59,60,69,68;,
 4;60,61,70,69;,
 3;63,62,71;,
 3;62,64,72;,
 3;64,65,73;,
 3;65,66,74;,
 3;66,67,75;,
 3;67,68,76;,
 3;68,69,77;,
 3;69,70,78;,
 3;79,80,81;,
 3;81,82,83;,
 3;83,84,85;,
 3;85,86,87;,
 3;87,88,89;,
 3;89,90,91;,
 3;91,92,93;,
 3;93,94,95;,
 3;96,97,98;,
 3;96,98,99;,
 3;96,99,100;,
 3;96,100,101;,
 3;96,101,102;,
 3;96,102,103;,
 3;96,103,104;,
 3;96,104,97;,
 3;105,106,107;,
 3;107,108,109;,
 3;109,110,111;,
 3;111,112,113;,
 3;113,114,115;,
 3;115,116,117;,
 3;117,118,119;,
 3;119,120,121;,
 3;122,123,124;,
 3;122,124,125;,
 3;122,125,126;,
 3;122,126,127;,
 3;122,127,128;,
 3;122,128,129;,
 3;122,129,130;,
 3;122,130,123;,
 3;131,132,133;,
 3;134,135,132;,
 3;136,137,135;,
 3;138,139,137;,
 3;140,141,139;,
 3;142,143,141;,
 3;144,145,143;,
 3;146,147,145;,
 4;133,132,148,149;,
 4;132,135,150,148;,
 4;135,137,151,150;,
 4;137,139,152,151;,
 4;139,141,153,152;,
 4;141,143,154,153;,
 4;143,145,155,154;,
 4;145,147,156,155;,
 4;149,148,157,158;,
 4;148,150,159,157;,
 4;150,151,160,159;,
 4;151,152,161,160;,
 4;152,153,162,161;,
 4;153,154,163,162;,
 4;154,155,164,163;,
 4;155,156,165,164;,
 4;158,157,166,167;,
 4;157,159,168,166;,
 4;159,160,169,168;,
 4;160,161,170,169;,
 4;161,162,171,170;,
 4;162,163,172,171;,
 4;163,164,173,172;,
 4;164,165,174,173;,
 4;167,166,175,176;,
 4;166,168,177,175;,
 4;168,169,178,177;,
 4;169,170,179,178;,
 4;170,171,180,179;,
 4;171,172,181,180;,
 4;172,173,182,181;,
 4;173,174,183,182;,
 4;176,175,184,185;,
 4;175,177,186,184;,
 4;177,178,187,186;,
 4;178,179,188,187;,
 4;179,180,189,188;,
 4;180,181,190,189;,
 4;181,182,191,190;,
 4;182,183,192,191;,
 4;185,184,193,194;,
 4;184,186,195,193;,
 4;186,187,196,195;,
 4;187,188,197,196;,
 4;188,189,198,197;,
 4;189,190,199,198;,
 4;190,191,200,199;,
 4;191,192,201,200;,
 3;194,193,202;,
 3;193,195,203;,
 3;195,196,204;,
 3;196,197,205;,
 3;197,198,206;,
 3;198,199,207;,
 3;199,200,208;,
 3;200,201,209;,
 3;210,211,212;,
 3;213,214,211;,
 3;215,216,214;,
 3;217,218,216;,
 3;219,220,218;,
 3;221,222,220;,
 3;223,224,222;,
 3;225,226,224;,
 4;212,211,227,228;,
 4;211,214,229,227;,
 4;214,216,230,229;,
 4;216,218,231,230;,
 4;218,220,232,231;,
 4;220,222,233,232;,
 4;222,224,234,233;,
 4;224,226,235,234;,
 4;228,227,236,237;,
 4;227,229,238,236;,
 4;229,230,239,238;,
 4;230,231,240,239;,
 4;231,232,241,240;,
 4;232,233,242,241;,
 4;233,234,243,242;,
 4;234,235,244,243;,
 4;237,236,245,246;,
 4;236,238,247,245;,
 4;238,239,248,247;,
 4;239,240,249,248;,
 4;240,241,250,249;,
 4;241,242,251,250;,
 4;242,243,252,251;,
 4;243,244,253,252;,
 4;246,245,254,255;,
 4;245,247,256,254;,
 4;247,248,257,256;,
 4;248,249,258,257;,
 4;249,250,259,258;,
 4;250,251,260,259;,
 4;251,252,261,260;,
 4;252,253,262,261;,
 4;255,254,263,264;,
 4;254,256,265,263;,
 4;256,257,266,265;,
 4;257,258,267,266;,
 4;258,259,268,267;,
 4;259,260,269,268;,
 4;260,261,270,269;,
 4;261,262,271,270;,
 4;264,263,272,273;,
 4;263,265,274,272;,
 4;265,266,275,274;,
 4;266,267,276,275;,
 4;267,268,277,276;,
 4;268,269,278,277;,
 4;269,270,279,278;,
 4;270,271,280,279;,
 3;273,272,281;,
 3;272,274,282;,
 3;274,275,283;,
 3;275,276,284;,
 3;276,277,285;,
 3;277,278,286;,
 3;278,279,287;,
 3;279,280,288;,
 3;289,290,291;,
 3;292,293,290;,
 3;294,295,293;,
 3;296,297,295;,
 3;298,299,297;,
 3;300,301,299;,
 3;302,303,301;,
 3;304,305,303;,
 4;291,290,306,307;,
 4;290,293,308,306;,
 4;293,295,309,308;,
 4;295,297,310,309;,
 4;297,299,311,310;,
 4;299,301,312,311;,
 4;301,303,313,312;,
 4;303,305,314,313;,
 4;307,306,315,316;,
 4;306,308,317,315;,
 4;308,309,318,317;,
 4;309,310,319,318;,
 4;310,311,320,319;,
 4;311,312,321,320;,
 4;312,313,322,321;,
 4;313,314,323,322;,
 4;316,315,324,325;,
 4;315,317,326,324;,
 4;317,318,327,326;,
 4;318,319,328,327;,
 4;319,320,329,328;,
 4;320,321,330,329;,
 4;321,322,331,330;,
 4;322,323,332,331;,
 4;325,324,333,334;,
 4;324,326,335,333;,
 4;326,327,336,335;,
 4;327,328,337,336;,
 4;328,329,338,337;,
 4;329,330,339,338;,
 4;330,331,340,339;,
 4;331,332,341,340;,
 4;334,333,342,343;,
 4;333,335,344,342;,
 4;335,336,345,344;,
 4;336,337,346,345;,
 4;337,338,347,346;,
 4;338,339,348,347;,
 4;339,340,349,348;,
 4;340,341,350,349;,
 4;343,342,351,352;,
 4;342,344,353,351;,
 4;344,345,354,353;,
 4;345,346,355,354;,
 4;346,347,356,355;,
 4;347,348,357,356;,
 4;348,349,358,357;,
 4;349,350,359,358;,
 3;352,351,360;,
 3;351,353,361;,
 3;353,354,362;,
 3;354,355,363;,
 3;355,356,364;,
 3;356,357,365;,
 3;357,358,366;,
 3;358,359,367;,
 3;368,369,370;,
 3;371,372,369;,
 3;373,374,372;,
 3;375,376,374;,
 3;377,378,376;,
 3;379,380,378;,
 3;381,382,380;,
 3;383,384,382;,
 4;370,369,385,386;,
 4;369,372,387,385;,
 4;372,374,388,387;,
 4;374,376,389,388;,
 4;376,378,390,389;,
 4;378,380,391,390;,
 4;380,382,392,391;,
 4;382,384,393,392;,
 4;386,385,394,395;,
 4;385,387,396,394;,
 4;387,388,397,396;,
 4;388,389,398,397;,
 4;389,390,399,398;,
 4;390,391,400,399;,
 4;391,392,401,400;,
 4;392,393,402,401;,
 4;395,394,403,404;,
 4;394,396,405,403;,
 4;396,397,406,405;,
 4;397,398,407,406;,
 4;398,399,408,407;,
 4;399,400,409,408;,
 4;400,401,410,409;,
 4;401,402,411,410;,
 4;404,403,412,413;,
 4;403,405,414,412;,
 4;405,406,415,414;,
 4;406,407,416,415;,
 4;407,408,417,416;,
 4;408,409,418,417;,
 4;409,410,419,418;,
 4;410,411,420,419;,
 4;413,412,421,422;,
 4;412,414,423,421;,
 4;414,415,424,423;,
 4;415,416,425,424;,
 4;416,417,426,425;,
 4;417,418,427,426;,
 4;418,419,428,427;,
 4;419,420,429,428;,
 4;422,421,430,431;,
 4;421,423,432,430;,
 4;423,424,433,432;,
 4;424,425,434,433;,
 4;425,426,435,434;,
 4;426,427,436,435;,
 4;427,428,437,436;,
 4;428,429,438,437;,
 3;431,430,439;,
 3;430,432,440;,
 3;432,433,441;,
 3;433,434,442;,
 3;434,435,443;,
 3;435,436,444;,
 3;436,437,445;,
 3;437,438,446;;
 
 MeshMaterialList {
  5;
  352;
  0,
  0,
  0,
  0,
  0,
  0,
  0,
  0,
  0,
  0,
  0,
  0,
  0,
  0,
  0,
  0,
  0,
  0,
  0,
  0,
  0,
  0,
  0,
  0,
  0,
  0,
  0,
  0,
  0,
  0,
  0,
  0,
  0,
  0,
  0,
  1,
  1,
  0,
  0,
  0,
  0,
  0,
  0,
  1,
  1,
  0,
  0,
  0,
  0,
  0,
  0,
  0,
  0,
  0,
  0,
  0,
  0,
  0,
  0,
  0,
  0,
  0,
  0,
  0,
  0,
  0,
  0,
  0,
  0,
  0,
  0,
  0,
  0,
  0,
  0,
  0,
  0,
  0,
  0,
  0,
  0,
  0,
  0,
  0,
  0,
  0,
  0,
  0,
  0,
  0,
  0,
  0,
  0,
  0,
  0,
  0,
  4,
  4,
  4,
  4,
  4,
  4,
  4,
  4,
  4,
  4,
  4,
  4,
  4,
  4,
  4,
  4,
  4,
  4,
  4,
  4,
  4,
  4,
  4,
  4,
  4,
  4,
  4,
  4,
  4,
  4,
  4,
  4,
  4,
  4,
  4,
  4,
  4,
  4,
  4,
  4,
  4,
  4,
  4,
  4,
  4,
  4,
  4,
  4,
  4,
  4,
  4,
  4,
  4,
  4,
  4,
  4,
  4,
  4,
  4,
  4,
  4,
  4,
  4,
  4,
  2,
  2,
  2,
  2,
  2,
  2,
  2,
  2,
  2,
  2,
  2,
  2,
  2,
  2,
  2,
  2,
  2,
  2,
  2,
  2,
  2,
  2,
  2,
  2,
  2,
  2,
  2,
  2,
  2,
  2,
  2,
  2,
  2,
  2,
  2,
  2,
  2,
  2,
  2,
  2,
  2,
  2,
  2,
  2,
  2,
  2,
  2,
  2,
  2,
  2,
  2,
  2,
  2,
  2,
  2,
  2,
  2,
  2,
  2,
  2,
  2,
  2,
  2,
  2,
  2,
  2,
  2,
  2,
  2,
  2,
  2,
  2,
  2,
  2,
  2,
  2,
  2,
  2,
  2,
  2,
  2,
  2,
  2,
  2,
  2,
  2,
  2,
  2,
  2,
  2,
  2,
  2,
  2,
  2,
  2,
  2,
  2,
  2,
  2,
  2,
  2,
  2,
  2,
  2,
  2,
  2,
  2,
  2,
  2,
  2,
  2,
  2,
  2,
  2,
  2,
  2,
  2,
  2,
  2,
  2,
  2,
  2,
  2,
  2,
  2,
  2,
  2,
  2,
  2,
  2,
  2,
  2,
  2,
  2,
  2,
  2,
  2,
  2,
  2,
  2,
  2,
  2,
  2,
  2,
  2,
  2,
  2,
  2,
  2,
  2,
  2,
  2,
  2,
  2,
  2,
  2,
  2,
  2,
  2,
  2,
  2,
  2,
  2,
  2,
  2,
  2,
  2,
  2,
  2,
  2,
  2,
  2,
  2,
  2,
  2,
  2,
  2,
  2,
  2,
  2,
  2,
  2,
  2,
  2,
  2,
  2,
  2,
  2,
  2,
  2,
  2,
  2;;
  Material {
   0.373600;0.254400;0.112800;1.000000;;
   5.000000;
   0.000000;0.000000;0.000000;;
   0.000000;0.000000;0.000000;;
  }
  Material {
   0.564800;0.336000;0.109600;1.000000;;
   5.000000;
   0.000000;0.000000;0.000000;;
   0.000000;0.000000;0.000000;;
  }
  Material {
   0.000000;0.000000;0.000000;1.000000;;
   5.000000;
   0.000000;0.000000;0.000000;;
   0.000000;0.000000;0.000000;;
  }
  Material {
   0.800000;0.800000;0.800000;1.000000;;
   5.000000;
   0.000000;0.000000;0.000000;;
   0.000000;0.000000;0.000000;;
  }
  Material {
   1.000000;1.000000;1.000000;1.000000;;
   0.000000;
   0.000000;0.000000;0.000000;;
   0.000000;0.000000;0.000000;;
  }
 }
 MeshNormals {
  325;
  0.000000;1.000000;-0.000000;,
  -0.000000;0.907372;-0.420329;,
  0.289832;0.909553;-0.297842;,
  0.410748;0.911749;0.000000;,
  0.289832;0.909553;0.297842;,
  -0.000000;0.907372;0.420329;,
  -0.289832;0.909553;0.297842;,
  -0.410748;0.911749;0.000000;,
  -0.289832;0.909553;-0.297842;,
  -0.000000;0.665658;-0.746257;,
  0.517909;0.670848;-0.530786;,
  0.736788;0.676123;0.000000;,
  0.517909;0.670848;0.530786;,
  -0.000000;0.665658;0.746257;,
  -0.517909;0.670848;0.530786;,
  -0.736788;0.676123;0.000000;,
  -0.517909;0.670848;-0.530786;,
  0.000000;0.346008;-0.938232;,
  0.654881;0.350363;-0.669610;,
  0.933273;0.359156;-0.003019;,
  0.654664;0.357906;0.665821;,
  -0.000495;0.343098;0.939299;,
  -0.655494;0.339565;0.674554;,
  -0.936641;0.350276;0.003318;,
  -0.654881;0.350363;-0.669610;,
  0.000000;0.000000;-1.000000;,
  0.699504;0.000000;-0.714629;,
  0.999949;0.005114;-0.008663;,
  0.705274;0.007840;0.708892;,
  -0.000498;-0.003174;0.999995;,
  -0.692818;-0.011187;0.721026;,
  -0.999940;-0.005401;0.009577;,
  -0.699504;0.000000;-0.714629;,
  0.000000;-0.346008;-0.938232;,
  0.654881;-0.350362;-0.669610;,
  0.933554;-0.358320;-0.009116;,
  0.659022;-0.356979;0.662009;,
  0.000729;-0.347107;0.937825;,
  -0.646140;-0.348666;0.678922;,
  -0.934142;-0.356676;0.012723;,
  -0.654881;-0.350362;-0.669610;,
  0.000000;-0.665658;-0.746257;,
  0.517910;-0.670847;-0.530786;,
  0.734071;-0.679064;-0.003465;,
  0.517160;-0.676120;0.524793;,
  -0.000206;-0.664525;0.747266;,
  -0.516790;-0.662468;0.542278;,
  -0.738135;-0.674571;0.010528;,
  -0.517910;-0.670847;-0.530786;,
  0.000000;-0.907372;-0.420328;,
  0.289832;-0.909554;-0.297841;,
  0.410747;-0.911749;-0.000000;,
  0.290002;-0.909901;0.296612;,
  -0.000902;-0.906309;0.422614;,
  -0.294033;-0.905657;0.305499;,
  -0.413900;-0.910313;0.004047;,
  -0.289832;-0.909554;-0.297841;,
  -0.000000;-1.000000;-0.000000;,
  0.192530;0.403647;-0.894428;,
  0.763375;0.131369;-0.632456;,
  0.999827;0.018588;0.000000;,
  0.763375;0.131369;0.632456;,
  0.192530;0.403647;0.894428;,
  -0.378317;0.675926;0.632456;,
  -0.614769;0.788707;0.000000;,
  -0.378317;0.675926;-0.632456;,
  -0.430511;-0.902585;0.000000;,
  -0.430511;-0.902585;0.000000;,
  -0.430510;-0.902586;0.000000;,
  -0.430510;-0.902586;0.000000;,
  -0.430510;-0.902586;-0.000000;,
  -0.430511;-0.902585;0.000000;,
  -0.430511;-0.902585;0.000000;,
  -0.430511;-0.902585;-0.000000;,
  -0.196044;0.401953;-0.894428;,
  0.372403;0.679202;-0.632456;,
  0.607861;0.794044;0.000000;,
  0.331587;0.658304;0.675786;,
  -0.242418;0.346118;0.906331;,
  -0.765056;0.112172;0.634118;,
  -0.999958;0.009017;0.001373;,
  -0.765238;0.124337;-0.631626;,
  0.505461;-0.859375;-0.077356;,
  0.042663;0.559740;0.827569;,
  -0.496084;0.224621;-0.838717;,
  0.438368;-0.898795;-0.000000;,
  0.438367;-0.898796;0.000005;,
  0.438371;-0.898794;-0.000000;,
  0.510314;-0.855928;-0.083463;,
  0.554014;-0.815241;-0.168676;,
  0.557146;-0.818334;-0.141128;,
  0.578755;-0.803584;-0.138907;,
  0.510919;-0.855497;-0.084182;,
  0.000000;1.000000;-0.000000;,
  0.000000;0.924736;-0.380610;,
  0.269132;0.924736;-0.269132;,
  0.380610;0.924736;-0.000000;,
  0.269132;0.924736;0.269130;,
  -0.000000;0.924736;0.380609;,
  -0.269132;0.924736;0.269130;,
  -0.380610;0.924736;-0.000001;,
  -0.269132;0.924736;-0.269132;,
  0.000000;0.709229;-0.704978;,
  0.498494;0.709230;-0.498495;,
  0.704977;0.709230;-0.000001;,
  0.498495;0.709231;0.498493;,
  -0.000000;0.709231;0.704976;,
  -0.498495;0.709231;0.498493;,
  -0.704977;0.709230;-0.000001;,
  -0.498494;0.709230;-0.498495;,
  0.000000;0.384549;-0.923104;,
  0.652733;0.384549;-0.652734;,
  0.923104;0.384550;-0.000001;,
  0.652734;0.384550;0.652732;,
  -0.000000;0.384551;0.923104;,
  -0.652734;0.384550;0.652732;,
  -0.923104;0.384550;-0.000001;,
  -0.652733;0.384549;-0.652734;,
  0.000000;0.000000;-1.000000;,
  0.707106;0.000001;-0.707107;,
  1.000000;0.000000;-0.000001;,
  0.707107;0.000000;0.707106;,
  0.000000;0.000000;1.000000;,
  -0.707107;0.000000;0.707106;,
  -1.000000;0.000000;-0.000001;,
  -0.707106;0.000000;-0.707107;,
  0.000000;-0.384550;-0.923104;,
  0.652733;-0.384550;-0.652734;,
  0.923104;-0.384551;-0.000001;,
  0.639958;-0.413718;0.647527;,
  0.001964;-0.437589;0.899173;,
  -0.638714;-0.416735;0.646821;,
  -0.923104;-0.384551;-0.000001;,
  -0.652733;-0.384550;-0.652734;,
  0.000000;-0.752415;-0.658689;,
  0.437394;-0.753889;-0.490243;,
  0.704976;-0.709231;-0.000001;,
  0.422635;-0.739545;0.523882;,
  0.001500;-0.711331;0.702856;,
  -0.420848;-0.741865;0.522038;,
  -0.704976;-0.709231;-0.000001;,
  -0.437394;-0.753889;-0.490243;,
  -0.003023;-0.935627;-0.352976;,
  -0.069854;-0.974398;-0.213702;,
  0.170348;-0.985382;-0.001980;,
  -0.052628;-0.963350;0.263035;,
  -0.008460;-0.897516;0.440900;,
  0.039838;-0.963729;0.263894;,
  -0.176816;-0.984242;-0.001773;,
  0.063325;-0.972963;-0.222108;,
  -0.009063;-0.999921;-0.008703;,
  0.000000;1.000000;-0.000000;,
  -0.000000;0.924736;-0.380609;,
  0.269130;0.924737;-0.269130;,
  0.380609;0.924736;0.000000;,
  0.269130;0.924737;0.269129;,
  0.000000;0.924737;0.380605;,
  -0.269128;0.924738;0.269129;,
  -0.380605;0.924738;0.000000;,
  -0.269128;0.924737;-0.269131;,
  0.000001;0.709235;-0.704972;,
  0.498491;0.709234;-0.498491;,
  0.704974;0.709234;-0.000001;,
  0.498492;0.709234;0.498491;,
  0.000001;0.709232;0.704975;,
  -0.498489;0.709236;0.498492;,
  -0.704970;0.709237;-0.000001;,
  -0.498488;0.709236;-0.498492;,
  0.000002;0.384549;-0.923105;,
  0.652733;0.384548;-0.652735;,
  0.923103;0.384553;-0.000002;,
  0.652729;0.384550;0.652737;,
  0.000002;0.384546;0.923106;,
  -0.652729;0.384552;0.652736;,
  -0.923103;0.384552;-0.000002;,
  -0.652733;0.384550;-0.652733;,
  0.000002;0.000002;-1.000000;,
  0.707105;0.000002;-0.707109;,
  1.000000;0.000002;-0.000002;,
  0.707100;0.000002;0.707114;,
  0.000002;0.000002;1.000000;,
  -0.707102;0.000002;0.707111;,
  -1.000000;0.000002;-0.000002;,
  -0.707107;0.000002;-0.707107;,
  0.000002;-0.384547;-0.923106;,
  0.652733;-0.384546;-0.652735;,
  0.923104;-0.384551;-0.000002;,
  0.652730;-0.384548;0.652738;,
  0.000002;-0.384544;0.923107;,
  -0.652730;-0.384550;0.652737;,
  -0.923104;-0.384550;-0.000002;,
  -0.652733;-0.384549;-0.652734;,
  0.000001;-0.709234;-0.704973;,
  0.498492;-0.709233;-0.498492;,
  0.704975;-0.709232;-0.000001;,
  0.498493;-0.709233;0.498492;,
  0.000001;-0.709231;0.704976;,
  -0.498489;-0.709235;0.498492;,
  -0.704971;-0.709236;-0.000001;,
  -0.498489;-0.709235;-0.498492;,
  0.000000;-0.924736;-0.380609;,
  0.269130;-0.924737;-0.269130;,
  0.380608;-0.924736;-0.000000;,
  0.269130;-0.924737;0.269128;,
  0.000000;-0.924738;0.380605;,
  -0.269128;-0.924738;0.269128;,
  -0.380605;-0.924738;0.000000;,
  -0.269128;-0.924737;-0.269130;,
  0.000000;-1.000000;-0.000000;,
  0.000000;1.000000;0.000000;,
  -0.000000;0.924732;-0.380619;,
  0.269135;0.924733;-0.269138;,
  0.380615;0.924733;0.000000;,
  0.269136;0.924733;0.269138;,
  -0.000000;0.924732;0.380619;,
  -0.269138;0.924732;0.269138;,
  -0.380619;0.924732;0.000000;,
  -0.269137;0.924732;-0.269138;,
  -0.000001;0.709234;-0.704973;,
  0.498485;0.709239;-0.498491;,
  0.704966;0.709241;0.000000;,
  0.498485;0.709238;0.498491;,
  -0.000001;0.709234;0.704973;,
  -0.498491;0.709235;0.498491;,
  -0.704973;0.709234;0.000000;,
  -0.498490;0.709235;-0.498491;,
  -0.000002;0.384551;-0.923104;,
  0.652729;0.384555;-0.652735;,
  0.923102;0.384556;0.000000;,
  0.652729;0.384555;0.652735;,
  -0.000002;0.384551;0.923104;,
  -0.652731;0.384554;0.652733;,
  -0.923101;0.384557;0.000000;,
  -0.652731;0.384554;-0.652733;,
  -0.000002;0.000000;-1.000000;,
  0.707105;0.000000;-0.707108;,
  1.000000;-0.000000;0.000000;,
  0.707105;-0.000000;0.707109;,
  -0.000002;0.000000;1.000000;,
  -0.707104;0.000000;0.707109;,
  -1.000000;-0.000000;0.000000;,
  -0.707105;0.000000;-0.707109;,
  -0.000002;-0.384553;-0.923103;,
  0.652729;-0.384556;-0.652734;,
  0.923101;-0.384557;0.000000;,
  0.652729;-0.384555;0.652734;,
  -0.000002;-0.384552;0.923103;,
  -0.652730;-0.384555;0.652733;,
  -0.923101;-0.384558;-0.000000;,
  -0.652731;-0.384555;-0.652733;,
  -0.000001;-0.709234;-0.704974;,
  0.498485;-0.709238;-0.498491;,
  0.704967;-0.709240;0.000000;,
  0.498486;-0.709238;0.498492;,
  -0.000001;-0.709234;0.704974;,
  -0.498490;-0.709235;0.498491;,
  -0.704974;-0.709233;-0.000000;,
  -0.498491;-0.709234;-0.498491;,
  0.000000;-0.924731;-0.380621;,
  0.269137;-0.924732;-0.269139;,
  0.380617;-0.924733;0.000000;,
  0.269137;-0.924732;0.269139;,
  0.000000;-0.924731;0.380621;,
  -0.269138;-0.924732;0.269139;,
  -0.380620;-0.924731;-0.000000;,
  -0.269139;-0.924732;-0.269139;,
  0.000000;-1.000000;0.000000;,
  0.000002;1.000000;0.000000;,
  0.000002;0.924731;-0.380620;,
  0.269139;0.924731;-0.269139;,
  0.380621;0.924731;0.000000;,
  0.269139;0.924731;0.269139;,
  0.000002;0.924731;0.380620;,
  -0.269136;0.924732;0.269140;,
  -0.380619;0.924732;0.000000;,
  -0.269136;0.924732;-0.269140;,
  0.000003;0.709234;-0.704973;,
  0.498489;0.709235;-0.498491;,
  0.704971;0.709236;0.000000;,
  0.498489;0.709235;0.498491;,
  0.000003;0.709234;0.704973;,
  -0.498487;0.709236;0.498493;,
  -0.704971;0.709236;0.000000;,
  -0.498487;0.709236;-0.498493;,
  0.000003;0.384553;-0.923103;,
  0.652731;0.384554;-0.652733;,
  0.923102;0.384556;0.000000;,
  0.652731;0.384555;0.652733;,
  0.000003;0.384553;0.923103;,
  -0.652729;0.384555;0.652735;,
  -0.923102;0.384556;0.000000;,
  -0.652729;0.384555;-0.652734;,
  0.000003;0.000000;-1.000000;,
  0.707107;0.000000;-0.707107;,
  1.000000;0.000000;0.000000;,
  0.707107;0.000000;0.707107;,
  0.000003;-0.000000;1.000000;,
  -0.707105;-0.000000;0.707109;,
  -1.000000;0.000000;0.000000;,
  -0.707105;0.000000;-0.707108;,
  0.000003;-0.384553;-0.923103;,
  0.652731;-0.384555;-0.652733;,
  0.923101;-0.384557;0.000000;,
  0.652731;-0.384555;0.652733;,
  0.000003;-0.384553;0.923103;,
  -0.652729;-0.384556;0.652734;,
  -0.923101;-0.384557;0.000000;,
  -0.652729;-0.384556;-0.652734;,
  0.000003;-0.709233;-0.704974;,
  0.498490;-0.709235;-0.498492;,
  0.704972;-0.709235;-0.000000;,
  0.498490;-0.709235;0.498492;,
  0.000003;-0.709234;0.704974;,
  -0.498487;-0.709235;0.498493;,
  -0.704972;-0.709235;-0.000000;,
  -0.498488;-0.709235;-0.498493;,
  0.000002;-0.924731;-0.380622;,
  0.269140;-0.924731;-0.269140;,
  0.380623;-0.924730;-0.000000;,
  0.269140;-0.924731;0.269140;,
  0.000002;-0.924731;0.380622;,
  -0.269137;-0.924732;0.269141;,
  -0.380621;-0.924731;-0.000000;,
  -0.269137;-0.924732;-0.269141;,
  0.000002;-1.000000;0.000000;;
  352;
  3;0,2,1;,
  3;0,3,2;,
  3;0,4,3;,
  3;0,5,4;,
  3;0,6,5;,
  3;0,7,6;,
  3;0,8,7;,
  3;0,1,8;,
  4;1,2,10,9;,
  4;2,3,11,10;,
  4;3,4,12,11;,
  4;4,5,13,12;,
  4;5,6,14,13;,
  4;6,7,15,14;,
  4;7,8,16,15;,
  4;8,1,9,16;,
  4;9,10,18,17;,
  4;10,11,19,18;,
  4;11,12,20,19;,
  4;12,13,21,20;,
  4;13,14,22,21;,
  4;14,15,23,22;,
  4;15,16,24,23;,
  4;16,9,17,24;,
  4;17,18,26,25;,
  4;18,19,27,26;,
  4;19,20,28,27;,
  4;20,21,29,28;,
  4;21,22,30,29;,
  4;22,23,31,30;,
  4;23,24,32,31;,
  4;24,17,25,32;,
  4;25,26,34,33;,
  4;26,27,35,34;,
  4;27,28,36,35;,
  4;28,29,37,36;,
  4;29,30,38,37;,
  4;30,31,39,38;,
  4;31,32,40,39;,
  4;32,25,33,40;,
  4;33,34,42,41;,
  4;34,35,43,42;,
  4;35,36,44,43;,
  4;36,37,45,44;,
  4;37,38,46,45;,
  4;38,39,47,46;,
  4;39,40,48,47;,
  4;40,33,41,48;,
  4;41,42,50,49;,
  4;42,43,51,50;,
  4;43,44,52,51;,
  4;44,45,53,52;,
  4;45,46,54,53;,
  4;46,47,55,54;,
  4;47,48,56,55;,
  4;48,41,49,56;,
  3;49,50,57;,
  3;50,51,57;,
  3;51,52,57;,
  3;52,53,57;,
  3;53,54,57;,
  3;54,55,57;,
  3;55,56,57;,
  3;56,49,57;,
  3;58,59,59;,
  3;59,59,60;,
  3;60,61,61;,
  3;61,61,62;,
  3;62,63,63;,
  3;63,63,64;,
  3;64,65,65;,
  3;65,65,58;,
  3;66,67,68;,
  3;66,68,69;,
  3;66,69,70;,
  3;66,70,67;,
  3;66,67,71;,
  3;66,71,72;,
  3;66,72,73;,
  3;66,73,67;,
  3;74,75,75;,
  3;75,75,76;,
  3;76,83,77;,
  3;77,83,78;,
  3;78,83,79;,
  3;79,80,80;,
  3;80,80,81;,
  3;81,84,74;,
  3;82,85,86;,
  3;82,86,87;,
  3;82,87,88;,
  3;82,88,89;,
  3;82,89,90;,
  3;82,90,91;,
  3;82,91,92;,
  3;82,92,85;,
  3;93,95,94;,
  3;93,96,95;,
  3;93,97,96;,
  3;93,98,97;,
  3;93,99,98;,
  3;93,100,99;,
  3;93,101,100;,
  3;93,94,101;,
  4;94,95,103,102;,
  4;95,96,104,103;,
  4;96,97,105,104;,
  4;97,98,106,105;,
  4;98,99,107,106;,
  4;99,100,108,107;,
  4;100,101,109,108;,
  4;101,94,102,109;,
  4;102,103,111,110;,
  4;103,104,112,111;,
  4;104,105,113,112;,
  4;105,106,114,113;,
  4;106,107,115,114;,
  4;107,108,116,115;,
  4;108,109,117,116;,
  4;109,102,110,117;,
  4;110,111,119,118;,
  4;111,112,120,119;,
  4;112,113,121,120;,
  4;113,114,122,121;,
  4;114,115,123,122;,
  4;115,116,124,123;,
  4;116,117,125,124;,
  4;117,110,118,125;,
  4;118,119,127,126;,
  4;119,120,128,127;,
  4;120,121,129,128;,
  4;121,122,130,129;,
  4;122,123,131,130;,
  4;123,124,132,131;,
  4;124,125,133,132;,
  4;125,118,126,133;,
  4;126,127,135,134;,
  4;127,128,136,135;,
  4;128,129,137,136;,
  4;129,130,138,137;,
  4;130,131,139,138;,
  4;131,132,140,139;,
  4;132,133,141,140;,
  4;133,126,134,141;,
  4;134,135,143,142;,
  4;135,136,144,143;,
  4;136,137,145,144;,
  4;137,138,146,145;,
  4;138,139,147,146;,
  4;139,140,148,147;,
  4;140,141,149,148;,
  4;141,134,142,149;,
  3;142,143,150;,
  3;143,144,150;,
  3;144,145,150;,
  3;145,146,150;,
  3;146,147,150;,
  3;147,148,150;,
  3;148,149,150;,
  3;149,142,150;,
  3;151,153,152;,
  3;151,154,153;,
  3;151,155,154;,
  3;151,156,155;,
  3;151,157,156;,
  3;151,158,157;,
  3;151,159,158;,
  3;151,152,159;,
  4;152,153,161,160;,
  4;153,154,162,161;,
  4;154,155,163,162;,
  4;155,156,164,163;,
  4;156,157,165,164;,
  4;157,158,166,165;,
  4;158,159,167,166;,
  4;159,152,160,167;,
  4;160,161,169,168;,
  4;161,162,170,169;,
  4;162,163,171,170;,
  4;163,164,172,171;,
  4;164,165,173,172;,
  4;165,166,174,173;,
  4;166,167,175,174;,
  4;167,160,168,175;,
  4;168,169,177,176;,
  4;169,170,178,177;,
  4;170,171,179,178;,
  4;171,172,180,179;,
  4;172,173,181,180;,
  4;173,174,182,181;,
  4;174,175,183,182;,
  4;175,168,176,183;,
  4;176,177,185,184;,
  4;177,178,186,185;,
  4;178,179,187,186;,
  4;179,180,188,187;,
  4;180,181,189,188;,
  4;181,182,190,189;,
  4;182,183,191,190;,
  4;183,176,184,191;,
  4;184,185,193,192;,
  4;185,186,194,193;,
  4;186,187,195,194;,
  4;187,188,196,195;,
  4;188,189,197,196;,
  4;189,190,198,197;,
  4;190,191,199,198;,
  4;191,184,192,199;,
  4;192,193,201,200;,
  4;193,194,202,201;,
  4;194,195,203,202;,
  4;195,196,204,203;,
  4;196,197,205,204;,
  4;197,198,206,205;,
  4;198,199,207,206;,
  4;199,192,200,207;,
  3;200,201,208;,
  3;201,202,208;,
  3;202,203,208;,
  3;203,204,208;,
  3;204,205,208;,
  3;205,206,208;,
  3;206,207,208;,
  3;207,200,208;,
  3;209,211,210;,
  3;209,212,211;,
  3;209,213,212;,
  3;209,214,213;,
  3;209,215,214;,
  3;209,216,215;,
  3;209,217,216;,
  3;209,210,217;,
  4;210,211,219,218;,
  4;211,212,220,219;,
  4;212,213,221,220;,
  4;213,214,222,221;,
  4;214,215,223,222;,
  4;215,216,224,223;,
  4;216,217,225,224;,
  4;217,210,218,225;,
  4;218,219,227,226;,
  4;219,220,228,227;,
  4;220,221,229,228;,
  4;221,222,230,229;,
  4;222,223,231,230;,
  4;223,224,232,231;,
  4;224,225,233,232;,
  4;225,218,226,233;,
  4;226,227,235,234;,
  4;227,228,236,235;,
  4;228,229,237,236;,
  4;229,230,238,237;,
  4;230,231,239,238;,
  4;231,232,240,239;,
  4;232,233,241,240;,
  4;233,226,234,241;,
  4;234,235,243,242;,
  4;235,236,244,243;,
  4;236,237,245,244;,
  4;237,238,246,245;,
  4;238,239,247,246;,
  4;239,240,248,247;,
  4;240,241,249,248;,
  4;241,234,242,249;,
  4;242,243,251,250;,
  4;243,244,252,251;,
  4;244,245,253,252;,
  4;245,246,254,253;,
  4;246,247,255,254;,
  4;247,248,256,255;,
  4;248,249,257,256;,
  4;249,242,250,257;,
  4;250,251,259,258;,
  4;251,252,260,259;,
  4;252,253,261,260;,
  4;253,254,262,261;,
  4;254,255,263,262;,
  4;255,256,264,263;,
  4;256,257,265,264;,
  4;257,250,258,265;,
  3;258,259,266;,
  3;259,260,266;,
  3;260,261,266;,
  3;261,262,266;,
  3;262,263,266;,
  3;263,264,266;,
  3;264,265,266;,
  3;265,258,266;,
  3;267,269,268;,
  3;267,270,269;,
  3;267,271,270;,
  3;267,272,271;,
  3;267,273,272;,
  3;267,274,273;,
  3;267,275,274;,
  3;267,268,275;,
  4;268,269,277,276;,
  4;269,270,278,277;,
  4;270,271,279,278;,
  4;271,272,280,279;,
  4;272,273,281,280;,
  4;273,274,282,281;,
  4;274,275,283,282;,
  4;275,268,276,283;,
  4;276,277,285,284;,
  4;277,278,286,285;,
  4;278,279,287,286;,
  4;279,280,288,287;,
  4;280,281,289,288;,
  4;281,282,290,289;,
  4;282,283,291,290;,
  4;283,276,284,291;,
  4;284,285,293,292;,
  4;285,286,294,293;,
  4;286,287,295,294;,
  4;287,288,296,295;,
  4;288,289,297,296;,
  4;289,290,298,297;,
  4;290,291,299,298;,
  4;291,284,292,299;,
  4;292,293,301,300;,
  4;293,294,302,301;,
  4;294,295,303,302;,
  4;295,296,304,303;,
  4;296,297,305,304;,
  4;297,298,306,305;,
  4;298,299,307,306;,
  4;299,292,300,307;,
  4;300,301,309,308;,
  4;301,302,310,309;,
  4;302,303,311,310;,
  4;303,304,312,311;,
  4;304,305,313,312;,
  4;305,306,314,313;,
  4;306,307,315,314;,
  4;307,300,308,315;,
  4;308,309,317,316;,
  4;309,310,318,317;,
  4;310,311,319,318;,
  4;311,312,320,319;,
  4;312,313,321,320;,
  4;313,314,322,321;,
  4;314,315,323,322;,
  4;315,308,316,323;,
  3;316,317,324;,
  3;317,318,324;,
  3;318,319,324;,
  3;319,320,324;,
  3;320,321,324;,
  3;321,322,324;,
  3;322,323,324;,
  3;323,316,324;;
 }
 MeshTextureCoords {
  447;
  0.062500;0.000000;,
  0.125000;0.125000;,
  0.000000;0.125000;,
  0.187500;0.000000;,
  0.250000;0.125000;,
  0.312500;0.000000;,
  0.375000;0.125000;,
  0.437500;0.000000;,
  0.500000;0.125000;,
  0.562500;0.000000;,
  0.625000;0.125000;,
  0.687500;0.000000;,
  0.750000;0.125000;,
  0.812500;0.000000;,
  0.875000;0.125000;,
  0.937500;0.000000;,
  1.000000;0.125000;,
  0.125000;0.250000;,
  0.000000;0.250000;,
  0.250000;0.250000;,
  0.375000;0.250000;,
  0.500000;0.250000;,
  0.625000;0.250000;,
  0.750000;0.250000;,
  0.875000;0.250000;,
  1.000000;0.250000;,
  0.125000;0.375000;,
  0.000000;0.375000;,
  0.250000;0.375000;,
  0.375000;0.375000;,
  0.500000;0.375000;,
  0.625000;0.375000;,
  0.750000;0.375000;,
  0.875000;0.375000;,
  1.000000;0.375000;,
  0.125000;0.500000;,
  0.000000;0.500000;,
  0.250000;0.500000;,
  0.375000;0.500000;,
  0.500000;0.500000;,
  0.625000;0.500000;,
  0.750000;0.500000;,
  0.875000;0.500000;,
  1.000000;0.500000;,
  0.125000;0.625000;,
  0.000000;0.625000;,
  0.250000;0.625000;,
  0.375000;0.625000;,
  0.500000;0.625000;,
  0.625000;0.625000;,
  0.750000;0.625000;,
  0.875000;0.625000;,
  1.000000;0.625000;,
  0.125000;0.750000;,
  0.000000;0.750000;,
  0.250000;0.750000;,
  0.375000;0.750000;,
  0.500000;0.750000;,
  0.625000;0.750000;,
  0.750000;0.750000;,
  0.875000;0.750000;,
  1.000000;0.750000;,
  0.125000;0.875000;,
  0.000000;0.875000;,
  0.250000;0.875000;,
  0.375000;0.875000;,
  0.500000;0.875000;,
  0.625000;0.875000;,
  0.750000;0.875000;,
  0.875000;0.875000;,
  1.000000;0.875000;,
  0.062500;1.000000;,
  0.187500;1.000000;,
  0.312500;1.000000;,
  0.437500;1.000000;,
  0.562500;1.000000;,
  0.687500;1.000000;,
  0.812500;1.000000;,
  0.937500;1.000000;,
  0.000000;1.000000;,
  0.062500;0.000000;,
  0.125000;1.000000;,
  0.125000;0.000000;,
  0.250000;1.000000;,
  0.187500;0.000000;,
  0.375000;1.000000;,
  0.250000;0.000000;,
  0.500000;1.000000;,
  0.312500;0.000000;,
  0.625000;1.000000;,
  0.375000;0.000000;,
  0.750000;1.000000;,
  0.437500;0.000000;,
  0.875000;1.000000;,
  0.500000;0.000000;,
  1.000000;1.000000;,
  0.000000;0.000000;,
  0.000000;0.000000;,
  0.000000;0.000000;,
  0.000000;0.000000;,
  0.000000;0.000000;,
  0.000000;0.000000;,
  0.000000;0.000000;,
  0.000000;0.000000;,
  0.000000;0.000000;,
  0.000000;1.000000;,
  0.062500;0.000000;,
  0.125000;1.000000;,
  0.125000;0.000000;,
  0.250000;1.000000;,
  0.187500;0.000000;,
  0.375000;1.000000;,
  0.250000;0.000000;,
  0.500000;1.000000;,
  0.312500;0.000000;,
  0.625000;1.000000;,
  0.375000;0.000000;,
  0.750000;1.000000;,
  0.437500;0.000000;,
  0.875000;1.000000;,
  0.500000;0.000000;,
  1.000000;1.000000;,
  0.000000;0.000000;,
  0.000000;0.000000;,
  0.000000;0.000000;,
  0.000000;0.000000;,
  0.000000;0.000000;,
  0.000000;0.000000;,
  0.000000;0.000000;,
  0.000000;0.000000;,
  0.000000;0.000000;,
  0.062500;0.000000;,
  0.125000;0.125000;,
  0.000000;0.125000;,
  0.187500;0.000000;,
  0.250000;0.125000;,
  0.312500;0.000000;,
  0.375000;0.125000;,
  0.437500;0.000000;,
  0.500000;0.125000;,
  0.562500;0.000000;,
  0.625000;0.125000;,
  0.687500;0.000000;,
  0.750000;0.125000;,
  0.812500;0.000000;,
  0.875000;0.125000;,
  0.937500;0.000000;,
  1.000000;0.125000;,
  0.125000;0.250000;,
  0.000000;0.250000;,
  0.250000;0.250000;,
  0.375000;0.250000;,
  0.500000;0.250000;,
  0.625000;0.250000;,
  0.750000;0.250000;,
  0.875000;0.250000;,
  1.000000;0.250000;,
  0.125000;0.375000;,
  0.000000;0.375000;,
  0.250000;0.375000;,
  0.375000;0.375000;,
  0.500000;0.375000;,
  0.625000;0.375000;,
  0.750000;0.375000;,
  0.875000;0.375000;,
  1.000000;0.375000;,
  0.125000;0.500000;,
  0.000000;0.500000;,
  0.250000;0.500000;,
  0.375000;0.500000;,
  0.500000;0.500000;,
  0.625000;0.500000;,
  0.750000;0.500000;,
  0.875000;0.500000;,
  1.000000;0.500000;,
  0.125000;0.625000;,
  0.000000;0.625000;,
  0.250000;0.625000;,
  0.375000;0.625000;,
  0.500000;0.625000;,
  0.625000;0.625000;,
  0.750000;0.625000;,
  0.875000;0.625000;,
  1.000000;0.625000;,
  0.125000;0.750000;,
  0.000000;0.750000;,
  0.250000;0.750000;,
  0.375000;0.750000;,
  0.500000;0.750000;,
  0.625000;0.750000;,
  0.750000;0.750000;,
  0.875000;0.750000;,
  1.000000;0.750000;,
  0.125000;0.875000;,
  0.000000;0.875000;,
  0.250000;0.875000;,
  0.375000;0.875000;,
  0.500000;0.875000;,
  0.625000;0.875000;,
  0.750000;0.875000;,
  0.875000;0.875000;,
  1.000000;0.875000;,
  0.062500;1.000000;,
  0.187500;1.000000;,
  0.312500;1.000000;,
  0.437500;1.000000;,
  0.562500;1.000000;,
  0.687500;1.000000;,
  0.812500;1.000000;,
  0.937500;1.000000;,
  0.062500;0.000000;,
  0.125000;0.125000;,
  0.000000;0.125000;,
  0.187500;0.000000;,
  0.250000;0.125000;,
  0.312500;0.000000;,
  0.375000;0.125000;,
  0.437500;0.000000;,
  0.500000;0.125000;,
  0.562500;0.000000;,
  0.625000;0.125000;,
  0.687500;0.000000;,
  0.750000;0.125000;,
  0.812500;0.000000;,
  0.875000;0.125000;,
  0.937500;0.000000;,
  1.000000;0.125000;,
  0.125000;0.250000;,
  0.000000;0.250000;,
  0.250000;0.250000;,
  0.375000;0.250000;,
  0.500000;0.250000;,
  0.625000;0.250000;,
  0.750000;0.250000;,
  0.875000;0.250000;,
  1.000000;0.250000;,
  0.125000;0.375000;,
  0.000000;0.375000;,
  0.250000;0.375000;,
  0.375000;0.375000;,
  0.500000;0.375000;,
  0.625000;0.375000;,
  0.750000;0.375000;,
  0.875000;0.375000;,
  1.000000;0.375000;,
  0.125000;0.500000;,
  0.000000;0.500000;,
  0.250000;0.500000;,
  0.375000;0.500000;,
  0.500000;0.500000;,
  0.625000;0.500000;,
  0.750000;0.500000;,
  0.875000;0.500000;,
  1.000000;0.500000;,
  0.125000;0.625000;,
  0.000000;0.625000;,
  0.250000;0.625000;,
  0.375000;0.625000;,
  0.500000;0.625000;,
  0.625000;0.625000;,
  0.750000;0.625000;,
  0.875000;0.625000;,
  1.000000;0.625000;,
  0.125000;0.750000;,
  0.000000;0.750000;,
  0.250000;0.750000;,
  0.375000;0.750000;,
  0.500000;0.750000;,
  0.625000;0.750000;,
  0.750000;0.750000;,
  0.875000;0.750000;,
  1.000000;0.750000;,
  0.125000;0.875000;,
  0.000000;0.875000;,
  0.250000;0.875000;,
  0.375000;0.875000;,
  0.500000;0.875000;,
  0.625000;0.875000;,
  0.750000;0.875000;,
  0.875000;0.875000;,
  1.000000;0.875000;,
  0.062500;1.000000;,
  0.187500;1.000000;,
  0.312500;1.000000;,
  0.437500;1.000000;,
  0.562500;1.000000;,
  0.687500;1.000000;,
  0.812500;1.000000;,
  0.937500;1.000000;,
  0.062500;0.000000;,
  0.125000;0.125000;,
  0.000000;0.125000;,
  0.187500;0.000000;,
  0.250000;0.125000;,
  0.312500;0.000000;,
  0.375000;0.125000;,
  0.437500;0.000000;,
  0.500000;0.125000;,
  0.562500;0.000000;,
  0.625000;0.125000;,
  0.687500;0.000000;,
  0.750000;0.125000;,
  0.812500;0.000000;,
  0.875000;0.125000;,
  0.937500;0.000000;,
  1.000000;0.125000;,
  0.125000;0.250000;,
  0.000000;0.250000;,
  0.250000;0.250000;,
  0.375000;0.250000;,
  0.500000;0.250000;,
  0.625000;0.250000;,
  0.750000;0.250000;,
  0.875000;0.250000;,
  1.000000;0.250000;,
  0.125000;0.375000;,
  0.000000;0.375000;,
  0.250000;0.375000;,
  0.375000;0.375000;,
  0.500000;0.375000;,
  0.625000;0.375000;,
  0.750000;0.375000;,
  0.875000;0.375000;,
  1.000000;0.375000;,
  0.125000;0.500000;,
  0.000000;0.500000;,
  0.250000;0.500000;,
  0.375000;0.500000;,
  0.500000;0.500000;,
  0.625000;0.500000;,
  0.750000;0.500000;,
  0.875000;0.500000;,
  1.000000;0.500000;,
  0.125000;0.625000;,
  0.000000;0.625000;,
  0.250000;0.625000;,
  0.375000;0.625000;,
  0.500000;0.625000;,
  0.625000;0.625000;,
  0.750000;0.625000;,
  0.875000;0.625000;,
  1.000000;0.625000;,
  0.125000;0.750000;,
  0.000000;0.750000;,
  0.250000;0.750000;,
  0.375000;0.750000;,
  0.500000;0.750000;,
  0.625000;0.750000;,
  0.750000;0.750000;,
  0.875000;0.750000;,
  1.000000;0.750000;,
  0.125000;0.875000;,
  0.000000;0.875000;,
  0.250000;0.875000;,
  0.375000;0.875000;,
  0.500000;0.875000;,
  0.625000;0.875000;,
  0.750000;0.875000;,
  0.875000;0.875000;,
  1.000000;0.875000;,
  0.062500;1.000000;,
  0.187500;1.000000;,
  0.312500;1.000000;,
  0.437500;1.000000;,
  0.562500;1.000000;,
  0.687500;1.000000;,
  0.812500;1.000000;,
  0.937500;1.000000;,
  0.062500;0.000000;,
  0.125000;0.125000;,
  0.000000;0.125000;,
  0.187500;0.000000;,
  0.250000;0.125000;,
  0.312500;0.000000;,
  0.375000;0.125000;,
  0.437500;0.000000;,
  0.500000;0.125000;,
  0.562500;0.000000;,
  0.625000;0.125000;,
  0.687500;0.000000;,
  0.750000;0.125000;,
  0.812500;0.000000;,
  0.875000;0.125000;,
  0.937500;0.000000;,
  1.000000;0.125000;,
  0.125000;0.250000;,
  0.000000;0.250000;,
  0.250000;0.250000;,
  0.375000;0.250000;,
  0.500000;0.250000;,
  0.625000;0.250000;,
  0.750000;0.250000;,
  0.875000;0.250000;,
  1.000000;0.250000;,
  0.125000;0.375000;,
  0.000000;0.375000;,
  0.250000;0.375000;,
  0.375000;0.375000;,
  0.500000;0.375000;,
  0.625000;0.375000;,
  0.750000;0.375000;,
  0.875000;0.375000;,
  1.000000;0.375000;,
  0.125000;0.500000;,
  0.000000;0.500000;,
  0.250000;0.500000;,
  0.375000;0.500000;,
  0.500000;0.500000;,
  0.625000;0.500000;,
  0.750000;0.500000;,
  0.875000;0.500000;,
  1.000000;0.500000;,
  0.125000;0.625000;,
  0.000000;0.625000;,
  0.250000;0.625000;,
  0.375000;0.625000;,
  0.500000;0.625000;,
  0.625000;0.625000;,
  0.750000;0.625000;,
  0.875000;0.625000;,
  1.000000;0.625000;,
  0.125000;0.750000;,
  0.000000;0.750000;,
  0.250000;0.750000;,
  0.375000;0.750000;,
  0.500000;0.750000;,
  0.625000;0.750000;,
  0.750000;0.750000;,
  0.875000;0.750000;,
  1.000000;0.750000;,
  0.125000;0.875000;,
  0.000000;0.875000;,
  0.250000;0.875000;,
  0.375000;0.875000;,
  0.500000;0.875000;,
  0.625000;0.875000;,
  0.750000;0.875000;,
  0.875000;0.875000;,
  1.000000;0.875000;,
  0.062500;1.000000;,
  0.187500;1.000000;,
  0.312500;1.000000;,
  0.437500;1.000000;,
  0.562500;1.000000;,
  0.687500;1.000000;,
  0.812500;1.000000;,
  0.937500;1.000000;;
 }
}
