xof 0302txt 0064
template Header {
 <3D82AB43-62DA-11cf-AB39-0020AF71E433>
 WORD major;
 WORD minor;
 DWORD flags;
}

template Vector {
 <3D82AB5E-62DA-11cf-AB39-0020AF71E433>
 FLOAT x;
 FLOAT y;
 FLOAT z;
}

template Coords2d {
 <F6F23F44-7686-11cf-8F52-0040333594A3>
 FLOAT u;
 FLOAT v;
}

template Matrix4x4 {
 <F6F23F45-7686-11cf-8F52-0040333594A3>
 array FLOAT matrix[16];
}

template ColorRGBA {
 <35FF44E0-6C7C-11cf-8F52-0040333594A3>
 FLOAT red;
 FLOAT green;
 FLOAT blue;
 FLOAT alpha;
}

template ColorRGB {
 <D3E16E81-7835-11cf-8F52-0040333594A3>
 FLOAT red;
 FLOAT green;
 FLOAT blue;
}

template IndexedColor {
 <1630B820-7842-11cf-8F52-0040333594A3>
 DWORD index;
 ColorRGBA indexColor;
}

template Boolean {
 <4885AE61-78E8-11cf-8F52-0040333594A3>
 WORD truefalse;
}

template Boolean2d {
 <4885AE63-78E8-11cf-8F52-0040333594A3>
 Boolean u;
 Boolean v;
}

template MaterialWrap {
 <4885AE60-78E8-11cf-8F52-0040333594A3>
 Boolean u;
 Boolean v;
}

template TextureFilename {
 <A42790E1-7810-11cf-8F52-0040333594A3>
 STRING filename;
}

template Material {
 <3D82AB4D-62DA-11cf-AB39-0020AF71E433>
 ColorRGBA faceColor;
 FLOAT power;
 ColorRGB specularColor;
 ColorRGB emissiveColor;
 [...]
}

template MeshFace {
 <3D82AB5F-62DA-11cf-AB39-0020AF71E433>
 DWORD nFaceVertexIndices;
 array DWORD faceVertexIndices[nFaceVertexIndices];
}

template MeshFaceWraps {
 <4885AE62-78E8-11cf-8F52-0040333594A3>
 DWORD nFaceWrapValues;
 Boolean2d faceWrapValues;
}

template MeshTextureCoords {
 <F6F23F40-7686-11cf-8F52-0040333594A3>
 DWORD nTextureCoords;
 array Coords2d textureCoords[nTextureCoords];
}

template MeshMaterialList {
 <F6F23F42-7686-11cf-8F52-0040333594A3>
 DWORD nMaterials;
 DWORD nFaceIndexes;
 array DWORD faceIndexes[nFaceIndexes];
 [Material]
}

template MeshNormals {
 <F6F23F43-7686-11cf-8F52-0040333594A3>
 DWORD nNormals;
 array Vector normals[nNormals];
 DWORD nFaceNormals;
 array MeshFace faceNormals[nFaceNormals];
}

template MeshVertexColors {
 <1630B821-7842-11cf-8F52-0040333594A3>
 DWORD nVertexColors;
 array IndexedColor vertexColors[nVertexColors];
}

template Mesh {
 <3D82AB44-62DA-11cf-AB39-0020AF71E433>
 DWORD nVertices;
 array Vector vertices[nVertices];
 DWORD nFaces;
 array MeshFace faces[nFaces];
 [...]
}

Header{
1;
0;
1;
}

Mesh {
 344;
 -0.41635;276.24102;-38.81791;,
 23.46199;276.24102;-28.92718;,
 30.99870;0.59615;-36.46386;,
 -0.41635;0.59615;-49.47642;,
 33.35271;276.24102;-5.04883;,
 44.01123;0.59615;-5.04883;,
 23.46199;276.24102;18.82950;,
 30.99870;0.59615;26.36620;,
 -0.41635;276.24102;28.72023;,
 -0.41635;0.59615;39.37875;,
 -24.29469;276.24102;18.82950;,
 -31.83139;0.59615;26.36620;,
 -34.18540;276.24102;-5.04883;,
 -44.84394;0.59615;-5.04883;,
 -24.29469;276.24102;-28.92718;,
 -31.83139;0.59615;-36.46386;,
 -0.41635;276.24102;-5.04883;,
 -0.41635;0.59615;-5.04883;,
 83.44154;244.12361;-18.75865;,
 89.75239;235.17996;-15.75831;,
 31.72492;194.95435;-13.61867;,
 25.41426;203.89807;-16.61900;,
 93.19796;230.73357;-5.90051;,
 35.17056;190.50811;-3.76086;,
 91.76033;233.38936;5.04011;,
 33.73294;193.16392;7.17976;,
 86.28148;241.59161;10.65477;,
 28.25408;201.36612;12.79442;,
 79.97084;250.53540;7.65444;,
 21.94338;210.30989;9.79409;,
 76.52504;254.98167;-2.20336;,
 18.49771;214.75613;-0.06371;,
 77.96273;252.32593;-13.14399;,
 19.93534;212.10047;-11.00433;,
 84.86152;242.85769;-4.05191;,
 26.83418;202.63218;-1.91232;,
 -82.23780;183.26477;11.06725;,
 -87.98646;175.04824;8.21004;,
 -34.65008;138.09268;7.17507;,
 -28.90148;146.30933;10.03222;,
 -90.99349;170.96338;-0.90019;,
 -37.65718;134.00783;-1.93523;,
 -89.49747;173.40313;-10.92688;,
 -36.16116;136.44771;-11.96192;,
 -84.37471;180.93863;-15.99644;,
 -31.03845;143.98307;-17.03147;,
 -78.62612;189.15537;-13.13929;,
 -25.28971;152.19987;-14.17427;,
 -75.61906;193.24024;-4.02900;,
 -22.28267;156.28465;-5.06403;,
 -77.11514;190.80025;5.99769;,
 -23.77870;153.84475;4.96266;,
 -83.30626;182.10171;-2.46462;,
 -29.96992;145.14622;-3.49960;,
 0.98261;478.03731;-2.98211;,
 34.40367;469.69649;-36.40318;,
 0.98261;469.69649;-50.24663;,
 48.24712;469.69649;-2.98211;,
 34.40367;469.69649;30.43895;,
 0.98261;469.69649;44.28241;,
 -32.43846;469.69649;30.43895;,
 -46.28190;469.69649;-2.98211;,
 -32.43846;469.69649;-36.40318;,
 62.73668;445.94366;-64.73617;,
 0.98261;445.94366;-90.31544;,
 88.31596;445.94366;-2.98211;,
 62.73668;445.94366;58.77197;,
 0.98261;445.94366;84.35120;,
 -60.77146;445.94366;58.77197;,
 -86.35075;445.94366;-2.98211;,
 -60.77146;445.94366;-64.73617;,
 81.66819;410.39493;-83.66766;,
 0.98261;410.39493;-117.08872;,
 115.08922;410.39493;-2.98211;,
 81.66819;410.39493;77.70346;,
 0.98261;410.39493;111.12448;,
 -79.70294;410.39493;77.70344;,
 -113.12396;410.39493;-2.98211;,
 -79.70294;410.39493;-83.66766;,
 88.31596;368.46258;-90.31544;,
 0.98261;368.46258;-126.49027;,
 124.49070;368.46258;-2.98211;,
 88.31596;368.46258;84.35120;,
 0.98261;368.46258;120.52601;,
 -86.35083;368.46258;84.35120;,
 -122.52556;368.46258;-2.98211;,
 -86.35083;368.46258;-90.31544;,
 81.66819;326.52986;-83.66766;,
 0.98261;326.52986;-117.08872;,
 115.08922;326.52986;-2.98211;,
 81.66819;326.52986;77.70346;,
 0.98261;326.52986;111.12448;,
 -79.70294;326.52986;77.70344;,
 -113.12396;326.52986;-2.98211;,
 -79.70294;326.52986;-83.66766;,
 62.73668;290.98164;-64.73617;,
 0.98261;290.98164;-90.31544;,
 88.31596;290.98164;-2.98211;,
 62.73668;290.98164;58.77197;,
 0.98261;290.98164;84.35120;,
 -60.77146;290.98164;58.77197;,
 -86.35075;290.98164;-2.98211;,
 -60.77146;290.98164;-64.73617;,
 34.40367;267.22879;-36.40318;,
 0.98261;267.22879;-50.24663;,
 48.24712;267.22879;-2.98211;,
 34.40367;267.22879;30.43895;,
 0.98261;267.22879;44.28241;,
 -32.43846;267.22879;30.43895;,
 -46.28190;267.22879;-2.98211;,
 -32.43846;267.22879;-36.40318;,
 0.98261;258.88807;-2.98211;,
 112.90296;384.30052;-2.98211;,
 139.34000;377.70218;-29.41929;,
 112.90296;377.70218;-40.36991;,
 150.29071;377.70218;-2.98211;,
 139.34000;377.70218;23.45506;,
 112.90296;377.70218;34.40570;,
 86.46569;377.70218;23.45506;,
 75.51505;377.70218;-2.98211;,
 86.46569;377.70218;-29.41929;,
 161.75242;358.91351;-51.83165;,
 112.90296;358.91351;-72.06577;,
 181.98659;358.91351;-2.98211;,
 161.75242;358.91351;45.86742;,
 112.90296;358.91351;66.10152;,
 64.05339;358.91351;45.86742;,
 43.81920;358.91351;-2.98211;,
 64.05339;358.91351;-51.83165;,
 176.72791;330.79290;-66.80715;,
 112.90296;330.79290;-93.24436;,
 203.16510;330.79290;-2.98211;,
 176.72791;330.79290;60.84291;,
 112.90296;330.79290;87.28011;,
 49.07787;330.79290;60.84287;,
 22.64072;330.79290;-2.98211;,
 49.07787;330.79290;-66.80715;,
 181.98659;297.62317;-72.06577;,
 112.90296;297.62317;-100.68123;,
 210.60193;297.62317;-2.98211;,
 181.98659;297.62317;66.10152;,
 112.90296;297.62317;94.71702;,
 43.81920;297.62317;66.10152;,
 15.20376;297.62317;-2.98211;,
 43.81920;297.62317;-72.06577;,
 176.72791;264.45310;-66.80715;,
 112.90296;264.45310;-93.24436;,
 203.16510;264.45310;-2.98211;,
 176.72791;264.45310;60.84291;,
 112.90296;264.45310;87.28011;,
 49.07787;264.45310;60.84287;,
 22.64072;264.45310;-2.98211;,
 49.07787;264.45310;-66.80715;,
 161.75242;236.33308;-51.83165;,
 112.90296;236.33308;-72.06577;,
 181.98659;236.33308;-2.98211;,
 161.75242;236.33308;45.86742;,
 112.90296;236.33308;66.10152;,
 64.05339;236.33308;45.86742;,
 43.81920;236.33308;-2.98211;,
 64.05339;236.33308;-51.83165;,
 139.34000;217.54388;-29.41929;,
 112.90296;217.54388;-40.36991;,
 150.29071;217.54388;-2.98211;,
 139.34000;217.54388;23.45506;,
 112.90296;217.54388;34.40570;,
 86.46569;217.54388;23.45506;,
 75.51505;217.54388;-2.98211;,
 86.46569;217.54388;-29.41929;,
 112.90296;210.94597;-2.98211;,
 -113.33126;337.14925;-2.98211;,
 -86.89405;330.55149;-29.41929;,
 -113.33126;330.55149;-40.36991;,
 -75.94342;330.55149;-2.98211;,
 -86.89405;330.55149;23.45506;,
 -113.33126;330.55149;34.40570;,
 -139.76831;330.55149;23.45506;,
 -150.71906;330.55149;-2.98211;,
 -139.76831;330.55149;-29.41929;,
 -64.48170;311.76248;-51.83165;,
 -113.33126;311.76248;-72.06577;,
 -44.24748;311.76248;-2.98211;,
 -64.48170;311.76248;45.86742;,
 -113.33126;311.76248;66.10152;,
 -162.18075;311.76248;45.86742;,
 -182.41483;311.76248;-2.98211;,
 -162.18075;311.76248;-51.83165;,
 -49.50628;283.64207;-66.80715;,
 -113.33126;283.64207;-93.24436;,
 -23.06904;283.64207;-2.98211;,
 -49.50628;283.64207;60.84291;,
 -113.33126;283.64207;87.28011;,
 -177.15631;283.64207;60.84287;,
 -203.59340;283.64207;-2.98211;,
 -177.15631;283.64207;-66.80715;,
 -44.24748;250.47207;-72.06577;,
 -113.33126;250.47207;-100.68123;,
 -15.63213;250.47207;-2.98211;,
 -44.24748;250.47207;66.10152;,
 -113.33126;250.47207;94.71702;,
 -182.41483;250.47207;66.10152;,
 -211.03025;250.47207;-2.98211;,
 -182.41483;250.47207;-72.06577;,
 -49.50628;217.30215;-66.80715;,
 -113.33126;217.30215;-93.24436;,
 -23.06904;217.30215;-2.98211;,
 -49.50628;217.30215;60.84291;,
 -113.33126;217.30215;87.28011;,
 -177.15631;217.30215;60.84287;,
 -203.59340;217.30215;-2.98211;,
 -177.15631;217.30215;-66.80715;,
 -64.48170;189.18212;-51.83165;,
 -113.33126;189.18212;-72.06577;,
 -44.24748;189.18212;-2.98211;,
 -64.48170;189.18212;45.86742;,
 -113.33126;189.18212;66.10152;,
 -162.18075;189.18212;45.86742;,
 -182.41483;189.18212;-2.98211;,
 -162.18075;189.18212;-51.83165;,
 -86.89405;170.39282;-29.41929;,
 -113.33126;170.39282;-40.36991;,
 -75.94342;170.39282;-2.98211;,
 -86.89405;170.39282;23.45506;,
 -113.33126;170.39282;34.40570;,
 -139.76831;170.39282;23.45506;,
 -150.71906;170.39282;-2.98211;,
 -139.76831;170.39282;-29.41929;,
 -113.33126;163.79491;-2.98211;,
 -8.71800;380.35428;-83.51604;,
 17.71923;373.75652;-109.95316;,
 -8.71800;373.75652;-120.90387;,
 28.66987;373.75652;-83.51604;,
 17.71919;373.75652;-57.07883;,
 -8.71800;373.75652;-46.12819;,
 -35.15516;373.75652;-57.07883;,
 -46.10578;373.75652;-83.51604;,
 -35.15516;373.75652;-109.95316;,
 40.13164;354.96736;-132.36554;,
 -8.71800;354.96736;-152.59970;,
 60.36578;354.96736;-83.51604;,
 40.13164;354.96736;-34.66644;,
 -8.71800;354.96736;-14.43235;,
 -57.56754;354.96736;-34.66650;,
 -77.80166;354.96736;-83.51604;,
 -57.56754;354.96736;-132.36554;,
 55.10701;326.84715;-147.34098;,
 -8.71800;326.84715;-173.77832;,
 81.54425;326.84715;-83.51604;,
 55.10701;326.84715;-19.69103;,
 -8.71800;326.84715;6.74615;,
 -72.54296;326.84715;-19.69103;,
 -98.98027;326.84715;-83.51604;,
 -72.54296;326.84715;-147.34098;,
 60.36578;293.67713;-152.59970;,
 -8.71800;293.67713;-181.21538;,
 88.98122;293.67713;-83.51604;,
 60.36578;293.67713;-14.43235;,
 -8.71800;293.67713;14.18309;,
 -77.80166;293.67713;-14.43241;,
 -106.41708;293.67713;-83.51604;,
 -77.80166;293.67713;-152.59966;,
 55.10701;260.50735;-147.34098;,
 -8.71800;260.50735;-173.77832;,
 81.54425;260.50735;-83.51604;,
 55.10701;260.50735;-19.69103;,
 -8.71800;260.50735;6.74615;,
 -72.54296;260.50735;-19.69103;,
 -98.98027;260.50735;-83.51604;,
 -72.54296;260.50735;-147.34098;,
 40.13164;232.38723;-132.36554;,
 -8.71800;232.38723;-152.59970;,
 60.36578;232.38723;-83.51604;,
 40.13164;232.38723;-34.66644;,
 -8.71800;232.38723;-14.43235;,
 -57.56754;232.38723;-34.66650;,
 -77.80166;232.38723;-83.51604;,
 -57.56754;232.38723;-132.36554;,
 17.71923;213.59785;-109.95316;,
 -8.71800;213.59785;-120.90387;,
 28.66987;213.59785;-83.51604;,
 17.71923;213.59785;-57.07883;,
 -8.71800;213.59785;-46.12819;,
 -35.15516;213.59785;-57.07883;,
 -46.10578;213.59785;-83.51604;,
 -35.15516;213.59785;-109.95316;,
 -8.71800;206.99998;-83.51604;,
 -8.71800;392.56888;91.40505;,
 17.71923;385.97093;66.75096;,
 -8.71800;385.97093;56.53880;,
 28.66987;385.97093;91.40505;,
 17.71919;385.97093;116.05927;,
 -8.71800;385.97093;126.27132;,
 -35.15516;385.97093;116.05927;,
 -46.10578;385.97093;91.40505;,
 -35.15516;385.97093;66.75096;,
 40.13164;367.18182;45.85007;,
 -8.71800;367.18182;26.98066;,
 60.36578;367.18182;91.40505;,
 40.13164;367.18182;136.96000;,
 -8.71800;367.18182;155.82948;,
 -57.56754;367.18182;136.95999;,
 -77.80166;367.18182;91.40505;,
 -57.56754;367.18182;45.85007;,
 55.10701;339.06170;31.88465;,
 -8.71800;339.06170;7.23045;,
 81.54425;339.06170;91.40505;,
 55.10701;339.06170;150.92556;,
 -8.71800;339.06170;175.57968;,
 -72.54296;339.06170;150.92539;,
 -98.98027;339.06170;91.40505;,
 -72.54296;339.06170;31.88465;,
 60.36578;305.89168;26.98066;,
 -8.71800;305.89168;0.29512;,
 88.98122;305.89168;91.40505;,
 60.36578;305.89168;155.82948;,
 -8.71800;305.89168;182.51521;,
 -77.80166;305.89168;155.82948;,
 -106.41708;305.89168;91.40505;,
 -77.80166;305.89168;26.98066;,
 55.10701;272.72163;31.88465;,
 -8.71800;272.72163;7.23045;,
 81.54425;272.72163;91.40505;,
 55.10701;272.72163;150.92556;,
 -8.71800;272.72163;175.57968;,
 -72.54296;272.72163;150.92539;,
 -98.98027;272.72163;91.40505;,
 -72.54296;272.72163;31.88465;,
 40.13164;244.60181;45.85007;,
 -8.71800;244.60181;26.98066;,
 60.36578;244.60181;91.40505;,
 40.13164;244.60181;136.96000;,
 -8.71800;244.60181;155.82948;,
 -57.56754;244.60181;136.95999;,
 -77.80166;244.60181;91.40505;,
 -57.56754;244.60181;45.85007;,
 17.71923;225.81241;66.75096;,
 -8.71800;225.81241;56.53880;,
 28.66987;225.81241;91.40505;,
 17.71923;225.81241;116.05927;,
 -8.71800;225.81241;126.27132;,
 -35.15516;225.81241;116.05927;,
 -46.10578;225.81241;91.40505;,
 -35.15516;225.81241;66.75096;,
 -8.71800;219.21453;91.40505;;
 
 392;
 4;0,1,2,3;,
 4;1,4,5,2;,
 4;4,6,7,5;,
 4;6,8,9,7;,
 4;8,10,11,9;,
 4;10,12,13,11;,
 4;12,14,15,13;,
 4;14,0,3,15;,
 3;16,1,0;,
 3;16,4,1;,
 3;16,6,4;,
 3;16,8,6;,
 3;16,10,8;,
 3;16,12,10;,
 3;16,14,12;,
 3;16,0,14;,
 3;17,3,2;,
 3;17,2,5;,
 3;17,5,7;,
 3;17,7,9;,
 3;17,9,11;,
 3;17,11,13;,
 3;17,13,15;,
 3;17,15,3;,
 4;18,19,20,21;,
 4;19,22,23,20;,
 4;22,24,25,23;,
 4;24,26,27,25;,
 4;26,28,29,27;,
 4;28,30,31,29;,
 4;30,32,33,31;,
 4;32,18,21,33;,
 3;34,19,18;,
 3;34,22,19;,
 3;34,24,22;,
 3;34,26,24;,
 3;34,28,26;,
 3;34,30,28;,
 3;34,32,30;,
 3;34,18,32;,
 3;35,21,20;,
 3;35,20,23;,
 3;35,23,25;,
 3;35,25,27;,
 3;35,27,29;,
 3;35,29,31;,
 3;35,31,33;,
 3;35,33,21;,
 4;36,37,38,39;,
 4;37,40,41,38;,
 4;40,42,43,41;,
 4;42,44,45,43;,
 4;44,46,47,45;,
 4;46,48,49,47;,
 4;48,50,51,49;,
 4;50,36,39,51;,
 3;52,37,36;,
 3;52,40,37;,
 3;52,42,40;,
 3;52,44,42;,
 3;52,46,44;,
 3;52,48,46;,
 3;52,50,48;,
 3;52,36,50;,
 3;53,39,38;,
 3;53,38,41;,
 3;53,41,43;,
 3;53,43,45;,
 3;53,45,47;,
 3;53,47,49;,
 3;53,49,51;,
 3;53,51,39;,
 3;54,55,56;,
 3;54,57,55;,
 3;54,58,57;,
 3;54,59,58;,
 3;54,60,59;,
 3;54,61,60;,
 3;54,62,61;,
 3;54,56,62;,
 4;56,55,63,64;,
 4;55,57,65,63;,
 4;57,58,66,65;,
 4;58,59,67,66;,
 4;59,60,68,67;,
 4;60,61,69,68;,
 4;61,62,70,69;,
 4;62,56,64,70;,
 4;64,63,71,72;,
 4;63,65,73,71;,
 4;65,66,74,73;,
 4;66,67,75,74;,
 4;67,68,76,75;,
 4;68,69,77,76;,
 4;69,70,78,77;,
 4;70,64,72,78;,
 4;72,71,79,80;,
 4;71,73,81,79;,
 4;73,74,82,81;,
 4;74,75,83,82;,
 4;75,76,84,83;,
 4;76,77,85,84;,
 4;77,78,86,85;,
 4;78,72,80,86;,
 4;80,79,87,88;,
 4;79,81,89,87;,
 4;81,82,90,89;,
 4;82,83,91,90;,
 4;83,84,92,91;,
 4;84,85,93,92;,
 4;85,86,94,93;,
 4;86,80,88,94;,
 4;88,87,95,96;,
 4;87,89,97,95;,
 4;89,90,98,97;,
 4;90,91,99,98;,
 4;91,92,100,99;,
 4;92,93,101,100;,
 4;93,94,102,101;,
 4;94,88,96,102;,
 4;96,95,103,104;,
 4;95,97,105,103;,
 4;97,98,106,105;,
 4;98,99,107,106;,
 4;99,100,108,107;,
 4;100,101,109,108;,
 4;101,102,110,109;,
 4;102,96,104,110;,
 3;104,103,111;,
 3;103,105,111;,
 3;105,106,111;,
 3;106,107,111;,
 3;107,108,111;,
 3;108,109,111;,
 3;109,110,111;,
 3;110,104,111;,
 3;112,113,114;,
 3;112,115,113;,
 3;112,116,115;,
 3;112,117,116;,
 3;112,118,117;,
 3;112,119,118;,
 3;112,120,119;,
 3;112,114,120;,
 4;114,113,121,122;,
 4;113,115,123,121;,
 4;115,116,124,123;,
 4;116,117,125,124;,
 4;117,118,126,125;,
 4;118,119,127,126;,
 4;119,120,128,127;,
 4;120,114,122,128;,
 4;122,121,129,130;,
 4;121,123,131,129;,
 4;123,124,132,131;,
 4;124,125,133,132;,
 4;125,126,134,133;,
 4;126,127,135,134;,
 4;127,128,136,135;,
 4;128,122,130,136;,
 4;130,129,137,138;,
 4;129,131,139,137;,
 4;131,132,140,139;,
 4;132,133,141,140;,
 4;133,134,142,141;,
 4;134,135,143,142;,
 4;135,136,144,143;,
 4;136,130,138,144;,
 4;138,137,145,146;,
 4;137,139,147,145;,
 4;139,140,148,147;,
 4;140,141,149,148;,
 4;141,142,150,149;,
 4;142,143,151,150;,
 4;143,144,152,151;,
 4;144,138,146,152;,
 4;146,145,153,154;,
 4;145,147,155,153;,
 4;147,148,156,155;,
 4;148,149,157,156;,
 4;149,150,158,157;,
 4;150,151,159,158;,
 4;151,152,160,159;,
 4;152,146,154,160;,
 4;154,153,161,162;,
 4;153,155,163,161;,
 4;155,156,164,163;,
 4;156,157,165,164;,
 4;157,158,166,165;,
 4;158,159,167,166;,
 4;159,160,168,167;,
 4;160,154,162,168;,
 3;162,161,169;,
 3;161,163,169;,
 3;163,164,169;,
 3;164,165,169;,
 3;165,166,169;,
 3;166,167,169;,
 3;167,168,169;,
 3;168,162,169;,
 3;170,171,172;,
 3;170,173,171;,
 3;170,174,173;,
 3;170,175,174;,
 3;170,176,175;,
 3;170,177,176;,
 3;170,178,177;,
 3;170,172,178;,
 4;172,171,179,180;,
 4;171,173,181,179;,
 4;173,174,182,181;,
 4;174,175,183,182;,
 4;175,176,184,183;,
 4;176,177,185,184;,
 4;177,178,186,185;,
 4;178,172,180,186;,
 4;180,179,187,188;,
 4;179,181,189,187;,
 4;181,182,190,189;,
 4;182,183,191,190;,
 4;183,184,192,191;,
 4;184,185,193,192;,
 4;185,186,194,193;,
 4;186,180,188,194;,
 4;188,187,195,196;,
 4;187,189,197,195;,
 4;189,190,198,197;,
 4;190,191,199,198;,
 4;191,192,200,199;,
 4;192,193,201,200;,
 4;193,194,202,201;,
 4;194,188,196,202;,
 4;196,195,203,204;,
 4;195,197,205,203;,
 4;197,198,206,205;,
 4;198,199,207,206;,
 4;199,200,208,207;,
 4;200,201,209,208;,
 4;201,202,210,209;,
 4;202,196,204,210;,
 4;204,203,211,212;,
 4;203,205,213,211;,
 4;205,206,214,213;,
 4;206,207,215,214;,
 4;207,208,216,215;,
 4;208,209,217,216;,
 4;209,210,218,217;,
 4;210,204,212,218;,
 4;212,211,219,220;,
 4;211,213,221,219;,
 4;213,214,222,221;,
 4;214,215,223,222;,
 4;215,216,224,223;,
 4;216,217,225,224;,
 4;217,218,226,225;,
 4;218,212,220,226;,
 3;220,219,227;,
 3;219,221,227;,
 3;221,222,227;,
 3;222,223,227;,
 3;223,224,227;,
 3;224,225,227;,
 3;225,226,227;,
 3;226,220,227;,
 3;228,229,230;,
 3;228,231,229;,
 3;228,232,231;,
 3;228,233,232;,
 3;228,234,233;,
 3;228,235,234;,
 3;228,236,235;,
 3;228,230,236;,
 4;230,229,237,238;,
 4;229,231,239,237;,
 4;231,232,240,239;,
 4;232,233,241,240;,
 4;233,234,242,241;,
 4;234,235,243,242;,
 4;235,236,244,243;,
 4;236,230,238,244;,
 4;238,237,245,246;,
 4;237,239,247,245;,
 4;239,240,248,247;,
 4;240,241,249,248;,
 4;241,242,250,249;,
 4;242,243,251,250;,
 4;243,244,252,251;,
 4;244,238,246,252;,
 4;246,245,253,254;,
 4;245,247,255,253;,
 4;247,248,256,255;,
 4;248,249,257,256;,
 4;249,250,258,257;,
 4;250,251,259,258;,
 4;251,252,260,259;,
 4;252,246,254,260;,
 4;254,253,261,262;,
 4;253,255,263,261;,
 4;255,256,264,263;,
 4;256,257,265,264;,
 4;257,258,266,265;,
 4;258,259,267,266;,
 4;259,260,268,267;,
 4;260,254,262,268;,
 4;262,261,269,270;,
 4;261,263,271,269;,
 4;263,264,272,271;,
 4;264,265,273,272;,
 4;265,266,274,273;,
 4;266,267,275,274;,
 4;267,268,276,275;,
 4;268,262,270,276;,
 4;270,269,277,278;,
 4;269,271,279,277;,
 4;271,272,280,279;,
 4;272,273,281,280;,
 4;273,274,282,281;,
 4;274,275,283,282;,
 4;275,276,284,283;,
 4;276,270,278,284;,
 3;278,277,285;,
 3;277,279,285;,
 3;279,280,285;,
 3;280,281,285;,
 3;281,282,285;,
 3;282,283,285;,
 3;283,284,285;,
 3;284,278,285;,
 3;286,287,288;,
 3;286,289,287;,
 3;286,290,289;,
 3;286,291,290;,
 3;286,292,291;,
 3;286,293,292;,
 3;286,294,293;,
 3;286,288,294;,
 4;288,287,295,296;,
 4;287,289,297,295;,
 4;289,290,298,297;,
 4;290,291,299,298;,
 4;291,292,300,299;,
 4;292,293,301,300;,
 4;293,294,302,301;,
 4;294,288,296,302;,
 4;296,295,303,304;,
 4;295,297,305,303;,
 4;297,298,306,305;,
 4;298,299,307,306;,
 4;299,300,308,307;,
 4;300,301,309,308;,
 4;301,302,310,309;,
 4;302,296,304,310;,
 4;304,303,311,312;,
 4;303,305,313,311;,
 4;305,306,314,313;,
 4;306,307,315,314;,
 4;307,308,316,315;,
 4;308,309,317,316;,
 4;309,310,318,317;,
 4;310,304,312,318;,
 4;312,311,319,320;,
 4;311,313,321,319;,
 4;313,314,322,321;,
 4;314,315,323,322;,
 4;315,316,324,323;,
 4;316,317,325,324;,
 4;317,318,326,325;,
 4;318,312,320,326;,
 4;320,319,327,328;,
 4;319,321,329,327;,
 4;321,322,330,329;,
 4;322,323,331,330;,
 4;323,324,332,331;,
 4;324,325,333,332;,
 4;325,326,334,333;,
 4;326,320,328,334;,
 4;328,327,335,336;,
 4;327,329,337,335;,
 4;329,330,338,337;,
 4;330,331,339,338;,
 4;331,332,340,339;,
 4;332,333,341,340;,
 4;333,334,342,341;,
 4;334,328,336,342;,
 3;336,335,343;,
 3;335,337,343;,
 3;337,338,343;,
 3;338,339,343;,
 3;339,340,343;,
 3;340,341,343;,
 3;341,342,343;,
 3;342,336,343;;
 
 MeshMaterialList {
  2;
  392;
  0,
  0,
  0,
  0,
  0,
  0,
  0,
  0,
  0,
  0,
  0,
  0,
  0,
  0,
  0,
  0,
  0,
  0,
  0,
  0,
  0,
  0,
  0,
  0,
  0,
  0,
  0,
  0,
  0,
  0,
  0,
  0,
  0,
  0,
  0,
  0,
  0,
  0,
  0,
  0,
  0,
  0,
  0,
  0,
  0,
  0,
  0,
  0,
  0,
  0,
  0,
  0,
  0,
  0,
  0,
  0,
  0,
  0,
  0,
  0,
  0,
  0,
  0,
  0,
  0,
  0,
  0,
  0,
  0,
  0,
  0,
  0,
  1,
  1,
  1,
  1,
  1,
  1,
  1,
  1,
  1,
  1,
  1,
  1,
  1,
  1,
  1,
  1,
  1,
  1,
  1,
  1,
  1,
  1,
  1,
  1,
  1,
  1,
  1,
  1,
  1,
  1,
  1,
  1,
  1,
  1,
  1,
  1,
  1,
  1,
  1,
  1,
  1,
  1,
  1,
  1,
  1,
  1,
  1,
  1,
  1,
  1,
  1,
  1,
  1,
  1,
  1,
  1,
  1,
  1,
  1,
  1,
  1,
  1,
  1,
  1,
  1,
  1,
  1,
  1,
  1,
  1,
  1,
  1,
  1,
  1,
  1,
  1,
  1,
  1,
  1,
  1,
  1,
  1,
  1,
  1,
  1,
  1,
  1,
  1,
  1,
  1,
  1,
  1,
  1,
  1,
  1,
  1,
  1,
  1,
  1,
  1,
  1,
  1,
  1,
  1,
  1,
  1,
  1,
  1,
  1,
  1,
  1,
  1,
  1,
  1,
  1,
  1,
  1,
  1,
  1,
  1,
  1,
  1,
  1,
  1,
  1,
  1,
  1,
  1,
  1,
  1,
  1,
  1,
  1,
  1,
  1,
  1,
  1,
  1,
  1,
  1,
  1,
  1,
  1,
  1,
  1,
  1,
  1,
  1,
  1,
  1,
  1,
  1,
  1,
  1,
  1,
  1,
  1,
  1,
  1,
  1,
  1,
  1,
  1,
  1,
  1,
  1,
  1,
  1,
  1,
  1,
  1,
  1,
  1,
  1,
  1,
  1,
  1,
  1,
  1,
  1,
  1,
  1,
  1,
  1,
  1,
  1,
  1,
  1,
  1,
  1,
  1,
  1,
  1,
  1,
  1,
  1,
  1,
  1,
  1,
  1,
  1,
  1,
  1,
  1,
  1,
  1,
  1,
  1,
  1,
  1,
  1,
  1,
  1,
  1,
  1,
  1,
  1,
  1,
  1,
  1,
  1,
  1,
  1,
  1,
  1,
  1,
  1,
  1,
  1,
  1,
  1,
  1,
  1,
  1,
  1,
  1,
  1,
  1,
  1,
  1,
  1,
  1,
  1,
  1,
  1,
  1,
  1,
  1,
  1,
  1,
  1,
  1,
  1,
  1,
  1,
  1,
  1,
  1,
  1,
  1,
  1,
  1,
  1,
  1,
  1,
  1,
  1,
  1,
  1,
  1,
  1,
  1,
  1,
  1,
  1,
  1,
  1,
  1,
  1,
  1,
  1,
  1,
  1,
  1,
  1,
  1,
  1,
  1,
  1,
  1,
  1,
  1,
  1,
  1,
  1,
  1,
  1,
  1,
  1,
  1,
  1,
  1,
  1,
  1,
  1,
  1,
  1,
  1,
  1,
  1,
  1,
  1,
  1,
  1,
  1,
  1,
  1,
  1,
  1,
  1;;
  Material {
   0.800000;0.357600;0.000000;1.000000;;
   5.000000;
   0.000000;0.000000;0.000000;;
   0.000000;0.000000;0.000000;;
  }
  Material {
   0.000000;0.800000;0.140800;1.000000;;
   5.000000;
   0.000000;0.000000;0.000000;;
   0.000000;0.000000;0.000000;;
  }
 }
 MeshNormals {
  352;
  0.000000;1.000000;0.000000;,
  -0.000000;0.038639;-0.999253;,
  0.706579;0.038639;-0.706578;,
  0.999253;0.038639;0.000000;,
  0.706579;0.038639;0.706579;,
  0.000000;0.038639;0.999253;,
  -0.706579;0.038639;0.706579;,
  -0.999253;0.038639;0.000000;,
  -0.706579;0.038639;-0.706579;,
  0.000000;-1.000000;-0.000000;,
  0.821464;0.569455;-0.030289;,
  -0.095750;0.085373;-0.991738;,
  0.329803;-0.517748;-0.789410;,
  0.562162;-0.817579;-0.124657;,
  0.465215;-0.638485;0.613116;,
  0.095752;-0.085375;0.991737;,
  -0.329802;0.517747;0.789410;,
  -0.562162;0.817578;0.124661;,
  -0.465216;0.638485;-0.613116;,
  -0.821465;-0.569455;0.030289;,
  0.821460;0.569461;-0.030284;,
  0.821460;0.569460;-0.030297;,
  0.821468;0.569451;-0.030281;,
  0.821467;0.569451;-0.030289;,
  0.821466;0.569452;-0.030290;,
  0.821463;0.569456;-0.030292;,
  0.821462;0.569458;-0.030289;,
  0.821466;0.569453;-0.030291;,
  -0.821465;-0.569454;0.030296;,
  -0.821465;-0.569454;0.030291;,
  -0.821468;-0.569450;0.030289;,
  -0.821467;-0.569451;0.030289;,
  -0.821464;-0.569456;0.030287;,
  -0.821462;-0.569459;0.030286;,
  -0.821462;-0.569458;0.030284;,
  -0.821465;-0.569454;0.030290;,
  -0.821869;0.569454;0.015946;,
  0.078427;0.085373;0.993258;,
  -0.343530;-0.517746;0.783535;,
  -0.564252;-0.817577;0.114833;,
  -0.454445;-0.638485;-0.621141;,
  -0.078429;-0.085375;-0.993257;,
  0.343529;0.517745;-0.783535;,
  0.564253;0.817578;-0.114826;,
  0.454443;0.638482;0.621146;,
  0.821867;-0.569456;-0.015947;,
  -0.000000;1.000000;-0.000000;,
  -0.000000;0.938292;-0.345844;,
  0.244548;0.938292;-0.244549;,
  0.345844;0.938292;-0.000000;,
  0.244548;0.938292;0.244548;,
  0.000000;0.938292;0.345844;,
  -0.244548;0.938292;0.244548;,
  -0.345844;0.938292;0.000000;,
  -0.244548;0.938292;-0.244549;,
  -0.000000;0.747024;-0.664798;,
  0.470083;0.747024;-0.470083;,
  0.664797;0.747024;-0.000000;,
  0.470082;0.747024;0.470083;,
  -0.000000;0.747024;0.664797;,
  -0.470083;0.747024;0.470083;,
  -0.664798;0.747023;0.000000;,
  -0.470083;0.747024;-0.470083;,
  0.000000;0.421947;-0.906621;,
  0.641078;0.421946;-0.641078;,
  0.906621;0.421946;-0.000000;,
  0.641078;0.421946;0.641078;,
  -0.000000;0.421946;0.906621;,
  -0.641078;0.421947;0.641078;,
  -0.906621;0.421947;0.000000;,
  -0.641078;0.421947;-0.641077;,
  0.000000;0.000001;-1.000000;,
  0.707107;0.000001;-0.707107;,
  1.000000;0.000001;0.000000;,
  0.707107;0.000001;0.707107;,
  0.000000;0.000001;1.000000;,
  -0.707107;0.000001;0.707107;,
  -1.000000;0.000001;0.000000;,
  -0.707107;0.000001;-0.707107;,
  0.000000;-0.421949;-0.906620;,
  0.641077;-0.421949;-0.641077;,
  0.906620;-0.421948;-0.000000;,
  0.641077;-0.421948;0.641077;,
  -0.000000;-0.421949;0.906620;,
  -0.641077;-0.421949;0.641077;,
  -0.906620;-0.421949;-0.000000;,
  -0.641077;-0.421949;-0.641077;,
  -0.000000;-0.747026;-0.664795;,
  0.470081;-0.747026;-0.470081;,
  0.664795;-0.747026;-0.000000;,
  0.470081;-0.747026;0.470081;,
  -0.000000;-0.747026;0.664795;,
  -0.470081;-0.747026;0.470081;,
  -0.664795;-0.747025;-0.000000;,
  -0.470081;-0.747026;-0.470081;,
  0.000000;-0.938292;-0.345843;,
  0.244548;-0.938292;-0.244548;,
  0.345843;-0.938292;0.000000;,
  0.244548;-0.938292;0.244548;,
  0.000000;-0.938292;0.345843;,
  -0.244548;-0.938292;0.244548;,
  -0.345843;-0.938292;0.000000;,
  -0.244548;-0.938292;-0.244548;,
  -0.000000;-1.000000;-0.000000;,
  -0.821863;0.569462;0.015944;,
  -0.821867;0.569456;0.015949;,
  -0.821866;0.569458;0.015939;,
  -0.821868;0.569455;0.015943;,
  -0.821871;0.569451;0.015948;,
  -0.821871;0.569450;0.015948;,
  -0.821871;0.569450;0.015946;,
  -0.821873;0.569448;0.015947;,
  0.821867;-0.569456;-0.015946;,
  0.821866;-0.569457;-0.015946;,
  0.821866;-0.569458;-0.015946;,
  0.821867;-0.569456;-0.015948;,
  0.821867;-0.569457;-0.015950;,
  0.821866;-0.569457;-0.015948;,
  0.821867;-0.569456;-0.015946;,
  0.821868;-0.569455;-0.015945;,
  0.000000;1.000000;-0.000000;,
  0.000000;0.938292;-0.345843;,
  0.244548;0.938292;-0.244548;,
  0.345843;0.938292;0.000000;,
  0.244548;0.938292;0.244548;,
  0.000000;0.938292;0.345843;,
  -0.244548;0.938292;0.244548;,
  -0.345843;0.938292;0.000000;,
  -0.244548;0.938292;-0.244548;,
  0.000000;0.747027;-0.664794;,
  0.470080;0.747027;-0.470080;,
  0.664794;0.747027;0.000000;,
  0.470080;0.747027;0.470080;,
  0.000000;0.747027;0.664794;,
  -0.470080;0.747027;0.470081;,
  -0.664794;0.747027;0.000000;,
  -0.470080;0.747027;-0.470080;,
  0.000000;0.421944;-0.906622;,
  0.641079;0.421944;-0.641078;,
  0.906622;0.421944;0.000000;,
  0.641079;0.421944;0.641078;,
  0.000000;0.421944;0.906622;,
  -0.641078;0.421944;0.641078;,
  -0.906622;0.421944;0.000000;,
  -0.641078;0.421944;-0.641078;,
  0.000000;0.000001;-1.000000;,
  0.707107;0.000001;-0.707106;,
  1.000000;0.000001;0.000000;,
  0.707107;0.000001;0.707106;,
  0.000000;0.000001;1.000000;,
  -0.707107;0.000001;0.707107;,
  -1.000000;0.000001;0.000000;,
  -0.707107;0.000001;-0.707107;,
  0.000000;-0.421948;-0.906620;,
  0.641078;-0.421948;-0.641077;,
  0.906620;-0.421947;0.000000;,
  0.641078;-0.421948;0.641077;,
  0.000000;-0.421948;0.906620;,
  -0.641077;-0.421948;0.641077;,
  -0.906620;-0.421948;0.000000;,
  -0.641077;-0.421948;-0.641077;,
  0.000000;-0.747026;-0.664795;,
  0.470081;-0.747026;-0.470081;,
  0.664795;-0.747026;0.000000;,
  0.470081;-0.747026;0.470081;,
  0.000000;-0.747026;0.664795;,
  -0.470081;-0.747026;0.470081;,
  -0.664795;-0.747026;0.000000;,
  -0.470081;-0.747026;-0.470081;,
  0.000000;-0.938292;-0.345843;,
  0.244548;-0.938292;-0.244548;,
  0.345843;-0.938292;0.000000;,
  0.244548;-0.938292;0.244548;,
  0.000000;-0.938292;0.345843;,
  -0.244548;-0.938292;0.244548;,
  -0.345843;-0.938292;0.000000;,
  -0.244548;-0.938292;-0.244548;,
  0.000000;-1.000000;-0.000000;,
  -0.000000;1.000000;0.000000;,
  -0.000000;0.938294;-0.345839;,
  0.244545;0.938294;-0.244545;,
  0.345839;0.938294;0.000000;,
  0.244545;0.938294;0.244545;,
  -0.000000;0.938294;0.345839;,
  -0.244545;0.938294;0.244546;,
  -0.345839;0.938294;0.000000;,
  -0.244545;0.938294;-0.244546;,
  -0.000000;0.747026;-0.664795;,
  0.470081;0.747025;-0.470082;,
  0.664796;0.747025;0.000000;,
  0.470081;0.747025;0.470082;,
  -0.000000;0.747025;0.664795;,
  -0.470081;0.747026;0.470081;,
  -0.664795;0.747026;0.000000;,
  -0.470081;0.747026;-0.470081;,
  -0.000000;0.421945;-0.906621;,
  0.641078;0.421945;-0.641078;,
  0.906621;0.421945;0.000000;,
  0.641078;0.421945;0.641078;,
  -0.000000;0.421945;0.906621;,
  -0.641079;0.421944;0.641078;,
  -0.906622;0.421944;0.000000;,
  -0.641079;0.421945;-0.641078;,
  -0.000000;-0.000000;-1.000000;,
  0.707107;-0.000000;-0.707107;,
  1.000000;-0.000000;0.000000;,
  0.707107;-0.000000;0.707107;,
  -0.000000;-0.000000;1.000000;,
  -0.707107;-0.000000;0.707106;,
  -1.000000;-0.000000;0.000000;,
  -0.707107;-0.000000;-0.707106;,
  -0.000000;-0.421948;-0.906620;,
  0.641077;-0.421948;-0.641077;,
  0.906620;-0.421948;0.000000;,
  0.641077;-0.421948;0.641077;,
  -0.000000;-0.421948;0.906620;,
  -0.641078;-0.421948;0.641077;,
  -0.906620;-0.421947;0.000000;,
  -0.641078;-0.421948;-0.641077;,
  -0.000000;-0.747025;-0.664795;,
  0.470082;-0.747025;-0.470082;,
  0.664796;-0.747025;0.000000;,
  0.470082;-0.747025;0.470082;,
  -0.000000;-0.747025;0.664796;,
  -0.470081;-0.747025;0.470081;,
  -0.664795;-0.747026;0.000000;,
  -0.470081;-0.747026;-0.470081;,
  -0.000000;-0.938292;-0.345844;,
  0.244549;-0.938292;-0.244549;,
  0.345844;-0.938292;0.000000;,
  0.244549;-0.938292;0.244549;,
  -0.000000;-0.938292;0.345844;,
  -0.244549;-0.938292;0.244549;,
  -0.345844;-0.938292;0.000000;,
  -0.244549;-0.938292;-0.244549;,
  -0.000000;-1.000000;-0.000000;,
  -0.000000;1.000000;-0.000000;,
  -0.000000;0.938293;-0.345841;,
  0.244546;0.938293;-0.244546;,
  0.345840;0.938293;-0.000000;,
  0.244546;0.938293;0.244546;,
  -0.000000;0.938293;0.345841;,
  -0.244547;0.938293;0.244546;,
  -0.345841;0.938293;-0.000000;,
  -0.244547;0.938293;-0.244546;,
  -0.000000;0.747025;-0.664796;,
  0.470082;0.747025;-0.470082;,
  0.664796;0.747025;-0.000000;,
  0.470082;0.747025;0.470082;,
  -0.000000;0.747025;0.664796;,
  -0.470082;0.747025;0.470082;,
  -0.664796;0.747025;-0.000000;,
  -0.470082;0.747025;-0.470082;,
  -0.000000;0.421948;-0.906620;,
  0.641078;0.421947;-0.641077;,
  0.906621;0.421947;-0.000000;,
  0.641077;0.421946;0.641078;,
  -0.000000;0.421946;0.906621;,
  -0.641078;0.421946;0.641078;,
  -0.906621;0.421946;-0.000000;,
  -0.641078;0.421947;-0.641077;,
  -0.000000;-0.000001;-1.000000;,
  0.707107;-0.000001;-0.707106;,
  1.000000;-0.000001;-0.000000;,
  0.707106;-0.000001;0.707107;,
  -0.000000;-0.000001;1.000000;,
  -0.707107;-0.000001;0.707107;,
  -1.000000;-0.000001;-0.000000;,
  -0.707108;-0.000001;-0.707106;,
  -0.000000;-0.421950;-0.906619;,
  0.641077;-0.421949;-0.641077;,
  0.906620;-0.421948;-0.000000;,
  0.641077;-0.421948;0.641077;,
  -0.000000;-0.421948;0.906620;,
  -0.641077;-0.421948;0.641077;,
  -0.906620;-0.421948;-0.000000;,
  -0.641078;-0.421948;-0.641077;,
  -0.000000;-0.747024;-0.664797;,
  0.470083;-0.747024;-0.470083;,
  0.664798;-0.747023;-0.000000;,
  0.470083;-0.747024;0.470083;,
  -0.000000;-0.747023;0.664798;,
  -0.470083;-0.747024;0.470083;,
  -0.664797;-0.747024;-0.000000;,
  -0.470083;-0.747024;-0.470082;,
  -0.000000;-0.938292;-0.345845;,
  0.244549;-0.938292;-0.244549;,
  0.345844;-0.938292;-0.000000;,
  0.244549;-0.938292;0.244549;,
  -0.000000;-0.938292;0.345845;,
  -0.244549;-0.938292;0.244549;,
  -0.345845;-0.938292;-0.000000;,
  -0.244549;-0.938292;-0.244549;,
  -0.000000;-1.000000;-0.000000;,
  -0.000000;1.000000;-0.000000;,
  -0.000000;0.930560;-0.366140;,
  0.243490;0.934449;-0.259840;,
  0.345603;0.938381;0.000000;,
  0.243490;0.934449;0.259840;,
  -0.000000;0.930559;0.366141;,
  -0.243491;0.934449;0.259840;,
  -0.345603;0.938381;-0.000000;,
  -0.243491;0.934449;-0.259840;,
  -0.000000;0.725028;-0.688720;,
  0.464423;0.735983;-0.492585;,
  0.664489;0.747298;-0.000000;,
  0.464422;0.735984;0.492585;,
  -0.000001;0.725028;0.688720;,
  -0.464423;0.735983;0.492585;,
  -0.664488;0.747299;-0.000000;,
  -0.464423;0.735984;-0.492585;,
  -0.000000;0.399695;-0.916648;,
  0.627525;0.410642;-0.661503;,
  0.906480;0.422248;-0.000000;,
  0.627525;0.410643;0.661502;,
  -0.000001;0.399697;0.916647;,
  -0.627525;0.410643;0.661502;,
  -0.906481;0.422248;0.000000;,
  -0.627525;0.410642;-0.661503;,
  -0.000000;0.000000;-1.000000;,
  0.689152;0.000000;-0.724616;,
  1.000000;0.000000;-0.000000;,
  0.689153;0.000000;0.724616;,
  -0.000001;0.000000;1.000000;,
  -0.689153;0.000000;0.724616;,
  -1.000000;0.000000;0.000000;,
  -0.689152;0.000000;-0.724616;,
  -0.000000;-0.399697;-0.916647;,
  0.627524;-0.410644;-0.661502;,
  0.906479;-0.422250;-0.000000;,
  0.627524;-0.410645;0.661501;,
  -0.000001;-0.399699;0.916646;,
  -0.627524;-0.410645;0.661501;,
  -0.906479;-0.422250;0.000000;,
  -0.627524;-0.410644;-0.661502;,
  -0.000000;-0.725027;-0.688720;,
  0.464423;-0.735983;-0.492586;,
  0.664490;-0.747297;-0.000000;,
  0.464423;-0.735983;0.492585;,
  -0.000001;-0.725027;0.688721;,
  -0.464423;-0.735983;0.492585;,
  -0.664489;-0.747298;0.000000;,
  -0.464423;-0.735983;-0.492585;,
  -0.000000;-0.930559;-0.366142;,
  0.243492;-0.934448;-0.259842;,
  0.345605;-0.938380;-0.000000;,
  0.243492;-0.934448;0.259842;,
  -0.000000;-0.930559;0.366143;,
  -0.243492;-0.934448;0.259842;,
  -0.345605;-0.938380;-0.000000;,
  -0.243492;-0.934448;-0.259842;,
  -0.000000;-1.000000;-0.000000;;
  392;
  4;1,2,2,1;,
  4;2,3,3,2;,
  4;3,4,4,3;,
  4;4,5,5,4;,
  4;5,6,6,5;,
  4;6,7,7,6;,
  4;7,8,8,7;,
  4;8,1,1,8;,
  3;0,0,0;,
  3;0,0,0;,
  3;0,0,0;,
  3;0,0,0;,
  3;0,0,0;,
  3;0,0,0;,
  3;0,0,0;,
  3;0,0,0;,
  3;9,9,9;,
  3;9,9,9;,
  3;9,9,9;,
  3;9,9,9;,
  3;9,9,9;,
  3;9,9,9;,
  3;9,9,9;,
  3;9,9,9;,
  4;11,12,12,11;,
  4;12,13,13,12;,
  4;13,14,14,13;,
  4;14,15,15,14;,
  4;15,16,16,15;,
  4;16,17,17,16;,
  4;17,18,18,17;,
  4;18,11,11,18;,
  3;10,20,21;,
  3;10,22,20;,
  3;10,23,22;,
  3;10,24,23;,
  3;10,25,24;,
  3;10,26,25;,
  3;10,27,26;,
  3;10,21,27;,
  3;19,28,29;,
  3;19,29,30;,
  3;19,30,31;,
  3;19,31,32;,
  3;19,32,33;,
  3;19,33,34;,
  3;19,34,35;,
  3;19,35,28;,
  4;37,38,38,37;,
  4;38,39,39,38;,
  4;39,40,40,39;,
  4;40,41,41,40;,
  4;41,42,42,41;,
  4;42,43,43,42;,
  4;43,44,44,43;,
  4;44,37,37,44;,
  3;36,104,105;,
  3;36,106,104;,
  3;36,107,106;,
  3;36,108,107;,
  3;36,109,108;,
  3;36,110,109;,
  3;36,111,110;,
  3;36,105,111;,
  3;45,112,113;,
  3;45,113,114;,
  3;45,114,115;,
  3;45,115,116;,
  3;45,116,117;,
  3;45,117,118;,
  3;45,118,119;,
  3;45,119,112;,
  3;46,48,47;,
  3;46,49,48;,
  3;46,50,49;,
  3;46,51,50;,
  3;46,52,51;,
  3;46,53,52;,
  3;46,54,53;,
  3;46,47,54;,
  4;47,48,56,55;,
  4;48,49,57,56;,
  4;49,50,58,57;,
  4;50,51,59,58;,
  4;51,52,60,59;,
  4;52,53,61,60;,
  4;53,54,62,61;,
  4;54,47,55,62;,
  4;55,56,64,63;,
  4;56,57,65,64;,
  4;57,58,66,65;,
  4;58,59,67,66;,
  4;59,60,68,67;,
  4;60,61,69,68;,
  4;61,62,70,69;,
  4;62,55,63,70;,
  4;63,64,72,71;,
  4;64,65,73,72;,
  4;65,66,74,73;,
  4;66,67,75,74;,
  4;67,68,76,75;,
  4;68,69,77,76;,
  4;69,70,78,77;,
  4;70,63,71,78;,
  4;71,72,80,79;,
  4;72,73,81,80;,
  4;73,74,82,81;,
  4;74,75,83,82;,
  4;75,76,84,83;,
  4;76,77,85,84;,
  4;77,78,86,85;,
  4;78,71,79,86;,
  4;79,80,88,87;,
  4;80,81,89,88;,
  4;81,82,90,89;,
  4;82,83,91,90;,
  4;83,84,92,91;,
  4;84,85,93,92;,
  4;85,86,94,93;,
  4;86,79,87,94;,
  4;87,88,96,95;,
  4;88,89,97,96;,
  4;89,90,98,97;,
  4;90,91,99,98;,
  4;91,92,100,99;,
  4;92,93,101,100;,
  4;93,94,102,101;,
  4;94,87,95,102;,
  3;95,96,103;,
  3;96,97,103;,
  3;97,98,103;,
  3;98,99,103;,
  3;99,100,103;,
  3;100,101,103;,
  3;101,102,103;,
  3;102,95,103;,
  3;120,122,121;,
  3;120,123,122;,
  3;120,124,123;,
  3;120,125,124;,
  3;120,126,125;,
  3;120,127,126;,
  3;120,128,127;,
  3;120,121,128;,
  4;121,122,130,129;,
  4;122,123,131,130;,
  4;123,124,132,131;,
  4;124,125,133,132;,
  4;125,126,134,133;,
  4;126,127,135,134;,
  4;127,128,136,135;,
  4;128,121,129,136;,
  4;129,130,138,137;,
  4;130,131,139,138;,
  4;131,132,140,139;,
  4;132,133,141,140;,
  4;133,134,142,141;,
  4;134,135,143,142;,
  4;135,136,144,143;,
  4;136,129,137,144;,
  4;137,138,146,145;,
  4;138,139,147,146;,
  4;139,140,148,147;,
  4;140,141,149,148;,
  4;141,142,150,149;,
  4;142,143,151,150;,
  4;143,144,152,151;,
  4;144,137,145,152;,
  4;145,146,154,153;,
  4;146,147,155,154;,
  4;147,148,156,155;,
  4;148,149,157,156;,
  4;149,150,158,157;,
  4;150,151,159,158;,
  4;151,152,160,159;,
  4;152,145,153,160;,
  4;153,154,162,161;,
  4;154,155,163,162;,
  4;155,156,164,163;,
  4;156,157,165,164;,
  4;157,158,166,165;,
  4;158,159,167,166;,
  4;159,160,168,167;,
  4;160,153,161,168;,
  4;161,162,170,169;,
  4;162,163,171,170;,
  4;163,164,172,171;,
  4;164,165,173,172;,
  4;165,166,174,173;,
  4;166,167,175,174;,
  4;167,168,176,175;,
  4;168,161,169,176;,
  3;169,170,177;,
  3;170,171,177;,
  3;171,172,177;,
  3;172,173,177;,
  3;173,174,177;,
  3;174,175,177;,
  3;175,176,177;,
  3;176,169,177;,
  3;178,180,179;,
  3;178,181,180;,
  3;178,182,181;,
  3;178,183,182;,
  3;178,184,183;,
  3;178,185,184;,
  3;178,186,185;,
  3;178,179,186;,
  4;179,180,188,187;,
  4;180,181,189,188;,
  4;181,182,190,189;,
  4;182,183,191,190;,
  4;183,184,192,191;,
  4;184,185,193,192;,
  4;185,186,194,193;,
  4;186,179,187,194;,
  4;187,188,196,195;,
  4;188,189,197,196;,
  4;189,190,198,197;,
  4;190,191,199,198;,
  4;191,192,200,199;,
  4;192,193,201,200;,
  4;193,194,202,201;,
  4;194,187,195,202;,
  4;195,196,204,203;,
  4;196,197,205,204;,
  4;197,198,206,205;,
  4;198,199,207,206;,
  4;199,200,208,207;,
  4;200,201,209,208;,
  4;201,202,210,209;,
  4;202,195,203,210;,
  4;203,204,212,211;,
  4;204,205,213,212;,
  4;205,206,214,213;,
  4;206,207,215,214;,
  4;207,208,216,215;,
  4;208,209,217,216;,
  4;209,210,218,217;,
  4;210,203,211,218;,
  4;211,212,220,219;,
  4;212,213,221,220;,
  4;213,214,222,221;,
  4;214,215,223,222;,
  4;215,216,224,223;,
  4;216,217,225,224;,
  4;217,218,226,225;,
  4;218,211,219,226;,
  4;219,220,228,227;,
  4;220,221,229,228;,
  4;221,222,230,229;,
  4;222,223,231,230;,
  4;223,224,232,231;,
  4;224,225,233,232;,
  4;225,226,234,233;,
  4;226,219,227,234;,
  3;227,228,235;,
  3;228,229,235;,
  3;229,230,235;,
  3;230,231,235;,
  3;231,232,235;,
  3;232,233,235;,
  3;233,234,235;,
  3;234,227,235;,
  3;236,238,237;,
  3;236,239,238;,
  3;236,240,239;,
  3;236,241,240;,
  3;236,242,241;,
  3;236,243,242;,
  3;236,244,243;,
  3;236,237,244;,
  4;237,238,246,245;,
  4;238,239,247,246;,
  4;239,240,248,247;,
  4;240,241,249,248;,
  4;241,242,250,249;,
  4;242,243,251,250;,
  4;243,244,252,251;,
  4;244,237,245,252;,
  4;245,246,254,253;,
  4;246,247,255,254;,
  4;247,248,256,255;,
  4;248,249,257,256;,
  4;249,250,258,257;,
  4;250,251,259,258;,
  4;251,252,260,259;,
  4;252,245,253,260;,
  4;253,254,262,261;,
  4;254,255,263,262;,
  4;255,256,264,263;,
  4;256,257,265,264;,
  4;257,258,266,265;,
  4;258,259,267,266;,
  4;259,260,268,267;,
  4;260,253,261,268;,
  4;261,262,270,269;,
  4;262,263,271,270;,
  4;263,264,272,271;,
  4;264,265,273,272;,
  4;265,266,274,273;,
  4;266,267,275,274;,
  4;267,268,276,275;,
  4;268,261,269,276;,
  4;269,270,278,277;,
  4;270,271,279,278;,
  4;271,272,280,279;,
  4;272,273,281,280;,
  4;273,274,282,281;,
  4;274,275,283,282;,
  4;275,276,284,283;,
  4;276,269,277,284;,
  4;277,278,286,285;,
  4;278,279,287,286;,
  4;279,280,288,287;,
  4;280,281,289,288;,
  4;281,282,290,289;,
  4;282,283,291,290;,
  4;283,284,292,291;,
  4;284,277,285,292;,
  3;285,286,293;,
  3;286,287,293;,
  3;287,288,293;,
  3;288,289,293;,
  3;289,290,293;,
  3;290,291,293;,
  3;291,292,293;,
  3;292,285,293;,
  3;294,296,295;,
  3;294,297,296;,
  3;294,298,297;,
  3;294,299,298;,
  3;294,300,299;,
  3;294,301,300;,
  3;294,302,301;,
  3;294,295,302;,
  4;295,296,304,303;,
  4;296,297,305,304;,
  4;297,298,306,305;,
  4;298,299,307,306;,
  4;299,300,308,307;,
  4;300,301,309,308;,
  4;301,302,310,309;,
  4;302,295,303,310;,
  4;303,304,312,311;,
  4;304,305,313,312;,
  4;305,306,314,313;,
  4;306,307,315,314;,
  4;307,308,316,315;,
  4;308,309,317,316;,
  4;309,310,318,317;,
  4;310,303,311,318;,
  4;311,312,320,319;,
  4;312,313,321,320;,
  4;313,314,322,321;,
  4;314,315,323,322;,
  4;315,316,324,323;,
  4;316,317,325,324;,
  4;317,318,326,325;,
  4;318,311,319,326;,
  4;319,320,328,327;,
  4;320,321,329,328;,
  4;321,322,330,329;,
  4;322,323,331,330;,
  4;323,324,332,331;,
  4;324,325,333,332;,
  4;325,326,334,333;,
  4;326,319,327,334;,
  4;327,328,336,335;,
  4;328,329,337,336;,
  4;329,330,338,337;,
  4;330,331,339,338;,
  4;331,332,340,339;,
  4;332,333,341,340;,
  4;333,334,342,341;,
  4;334,327,335,342;,
  4;335,336,344,343;,
  4;336,337,345,344;,
  4;337,338,346,345;,
  4;338,339,347,346;,
  4;339,340,348,347;,
  4;340,341,349,348;,
  4;341,342,350,349;,
  4;342,335,343,350;,
  3;343,344,351;,
  3;344,345,351;,
  3;345,346,351;,
  3;346,347,351;,
  3;347,348,351;,
  3;348,349,351;,
  3;349,350,351;,
  3;350,343,351;;
 }
}
